4,0.79140832595217,0.8835599505562423,0.79140832595217,0.8535196687370601
5,0.23102310231023102,0.0,0.768976897689769,0.8535196687370601
6,0.21423728813559323,0.0,0.7857627118644068,0.8535196687370601
7,0.18864908073541167,0.0,0.8113509192645884,0.8535196687370601
8,0.2009009009009009,0.0,0.7990990990990992,0.8535196687370601
9,0.2337917485265226,0.0,0.7662082514734774,0.8535196687370601
10,0.2163677130044843,0.0,0.7836322869955157,0.8535196687370601
11,0.5066828675577156,0.6302367941712205,0.7704196974672132,0.8535196687370601
12,0.22479564032697547,0.0,0.7752043596730245,0.8535196687370601
13,0.6967654986522911,0.8212867355043686,0.6967654986522911,0.8535196687370601
14,0.23728813559322035,0.0,0.7627118644067796,0.8535196687370601
15,0.2742200328407225,0.0,0.7257799671592775,0.8535196687370601
16,0.2517482517482518,0.0,0.7482517482517482,0.8535196687370601
17,0.18072289156626506,0.0,0.8192771084337349,0.8535196687370601
18,0.15217391304347827,0.0,0.8478260869565217,0.8535196687370601
19,0.26262626262626265,0.0,0.7373737373737373,0.8535196687370601
20,0.20634920634920634,0.0,0.7936507936507936,0.8535196687370601
21,0.7851851851851852,0.8796680497925311,0.7851851851851852,0.8535196687370601
22,0.2506265664160401,0.0,0.7493734335839599,0.8535196687370601
23,0.21875,0.0,0.78125,0.8535196687370601
24,0.21448467966573817,0.0,0.7855153203342619,0.8535196687370601
25,0.1891891891891892,0.0,0.8108108108108109,0.8535196687370601
26,0.22424242424242424,0.0,0.7757575757575758,0.8535196687370601
27,0.18211920529801323,0.0,0.8178807947019867,0.8535196687370601
28,0.1413427561837456,0.0,0.8586572438162544,0.8535196687370601
29,0.16412213740458015,0.0,0.8358778625954199,0.8535196687370601
30,0.16731517509727625,0.0,0.8326848249027238,0.8535196687370601
31,0.1752988047808765,0.0,0.8247011952191236,0.8535196687370601
32,0.17670682730923695,0.0,0.8232931726907631,0.8535196687370601
33,0.15384615384615385,0.0,0.8461538461538461,0.8535196687370601
34,0.13596491228070176,0.0,0.8640350877192983,0.8535196687370601
35,0.18141592920353983,0.0,0.8185840707964602,0.8535196687370601
36,0.19248826291079812,0.0,0.8075117370892019,0.8535196687370601
37,0.18627450980392157,0.0,0.8137254901960784,0.8535196687370601
38,0.1890547263681592,0.0,0.8109452736318408,0.8535196687370601
39,0.22549019607843138,0.0,0.7745098039215687,0.8535196687370601
40,0.27014218009478674,0.0,0.7298578199052133,0.8535196687370601
41,0.15104166666666666,0.0,0.8489583333333334,0.8535196687370601
42,0.15263157894736842,0.0,0.8473684210526315,0.8535196687370601
43,0.16759776536312848,0.0,0.8324022346368715,0.8535196687370601
44,0.1864406779661017,0.0,0.8135593220338984,0.8535196687370601
45,0.18181818181818182,0.0,0.8181818181818182,0.8535196687370601
46,0.21142857142857144,0.0,0.7885714285714286,0.8535196687370601
47,0.2023121387283237,0.0,0.7976878612716763,0.8535196687370601
