4,0.20947741364038971,0.0022358859698155395,0.7912236112186061,0.8535196687370601
5,0.7684268426842684,0.8690513219284604,0.7691421502665288,0.8535196687370601
6,0.7857627118644068,0.880030372057707,0.7857627118644068,0.8535196687370601
7,0.18944844124700239,0.0019685039370078736,0.8112001486889306,0.8535196687370601
8,0.2036036036036036,0.0067415730337078645,0.7985564936344489,0.8535196687370601
9,0.7662082514734774,0.8676307007786429,0.7662082514734774,0.8535196687370601
10,0.21748878923766815,0.002857142857142857,0.7833897974623247,0.8535196687370601
11,0.2600243013365735,0.03179650238473768,0.749126745640421,0.8535196687370601
12,0.23024523160762944,0.013961605584642234,0.7739812618394328,0.8535196687370601
13,0.683288409703504,0.8118494795836669,0.7026307694713957,0.8535196687370601
14,0.2588597842835131,0.0838095238095238,0.7640724210423835,0.8535196687370601
15,0.27586206896551724,0.004514672686230249,0.7253299677751877,0.8535196687370601
16,0.2534965034965035,0.004662004662004662,0.7478118882606828,0.8535196687370601
17,0.6305220883534136,0.7572559366754616,0.8187701122454842,0.8535196687370601
18,0.1565217391304348,0.010204081632653062,0.8471649798211408,0.8535196687370601
19,0.26666666666666666,0.010899182561307902,0.7363141543529996,0.8535196687370601
20,0.7709750566893424,0.87001287001287,0.795827664399093,0.8535196687370601
21,0.782716049382716,0.8781163434903047,0.7858607034707664,0.8535196687370601
22,0.2907268170426065,0.11285266457680251,0.7419033150423114,0.8535196687370601
23,0.21875,0.0,0.78125,0.8535196687370601
24,0.21727019498607242,0.007067137809187279,0.7849183256535487,0.8535196687370601
25,0.19519519519519518,0.014705882352941178,0.8096761413981958,0.8535196687370601
26,0.7757575757575758,0.8737201365187712,0.7757575757575758,0.8535196687370601
27,0.18543046357615894,0.00806451612903226,0.8172781970920857,0.8535196687370601
28,0.8127208480565371,0.8966861598440545,0.8662187904433684,0.8535196687370601
29,0.8320610687022901,0.9083333333333334,0.8366272787479523,0.8535196687370601
30,0.8326848249027238,0.9087048832271762,0.8326848249027238,0.8535196687370601
31,0.18725099601593626,0.02857142857142857,0.8226113777708242,0.8535196687370601
32,0.8152610441767069,0.8982300884955751,0.8250171417376825,0.8535196687370601
33,0.15384615384615385,0.0,0.8461538461538461,0.8535196687370601
34,0.14473684210526316,0.02010050251256281,0.862844073933092,0.8535196687370601
35,0.7787610619469026,0.875,0.8234763323258899,0.8535196687370601
36,0.7183098591549296,0.8360655737704917,0.8287749754339994,0.8535196687370601
37,0.19117647058823528,0.011976047904191616,0.8128134095349815,0.8535196687370601
38,0.19402985074626866,0.012195121951219513,0.8100057992247353,0.8535196687370601
39,0.7696078431372549,0.8698060941828255,0.7759369570613056,0.8535196687370601
40,0.7203791469194313,0.837465564738292,0.7333661599064443,0.8535196687370601
41,0.15104166666666666,0.0,0.8489583333333334,0.8535196687370601
42,0.15263157894736842,0.0,0.8473684210526315,0.8535196687370601
43,0.7653631284916201,0.864516129032258,0.8324959694049717,0.8535196687370601
44,0.7909604519774012,0.8832807570977919,0.818738229755179,0.8535196687370601
45,0.8125,0.8965517241379312,0.8194444444444445,0.8535196687370601
46,0.7371428571428571,0.8486842105263158,0.802360248447205,0.8535196687370601
47,0.20809248554913296,0.014388489208633093,0.7965201513371557,0.8535196687370601
