53.297,17.299,89.575,31.162,58.413,0.088414,1.7867,-0.022624,0.3539,1.7888,53.297,3137.1,56.01,29.795,31.311,0.86924,2.4767,5.8155e+06,127.16,101.73,110.56,2
13.383,9.5941,40.799,2.983,37.816,-0.26665,1.0645,0.029756,0.18156,1.3873,13.383,270.33,16.442,9.6467,11.851,0.83945,2.6483,3.9222e+05,82.737,4.7655,4.8109,2
17.24,8.7284,34.103,5.3187,28.784,-0.034049,0.86643,-0.0024186,0.1739,1.2661,17.24,372.72,19.306,13.617,15.248,0.70212,2.2567,1.3952e+05,1.0326,1.3858,1.15,2
16.512,10.65,39.779,1.0246,38.755,0.048295,1.2828,-0.019523,0.23495,1.5035,16.512,385.03,19.622,10.982,13.051,0.76445,2.6665,5.1929e+05,17.381,10.503,12.358,2
19.414,13.119,41.28,2.2737e-13,41.28,0.087632,1.4091,-0.036495,0.5289,1.5866,19.414,547.45,23.398,12.236,14.747,0.15351,1.7234,2.1873e+05,22.766,7.875,8.7504,2
11.992,6.7199,23.307,-0.00081591,23.308,-0.021164,0.81415,0.011033,0.30655,1.2478,11.992,188.55,13.731,9.6102,11.004,-0.11412,1.656,-6193.8,1.8906,2.8561,3.1074,2
91.273,47.156,164.24,2.3198,161.92,-0.0019937,3.8628,0.026553,1.0431,3.36,91.273,10534,102.64,27.165,30.547,-0.082184,1.8729,-1.6023e+08,138.88,142.71,164.04,2
57.015,9.3752,83.658,34.216,49.442,0.25513,1.9249,0.0064025,0.51984,1.8065,57.015,3337.8,57.773,31.56,31.98,0.012058,3.4651,23017,684.33,308.68,281.52,2
38.112,16.711,54.005,0.45918,53.546,0.32883,1.2397,0.0072263,0.2704,1.4885,38.112,1729.3,41.584,25.604,27.937,-1.1726,2.9491,-7.0111e+06,434.88,121.62,128.65,2
18.102,15.641,48.701,1.7533,46.948,-0.42077,0.58155,-0.0057578,0.23391,1.1961,18.102,570.13,23.877,15.134,19.962,0.65255,1.9074,2.2312e+06,290.43,2.3895,3.2831,2
31.762,19.571,53.442,1.3425,52.099,0.3044,1.0602,0.0086419,0.32797,1.4057,31.762,1388.4,37.262,22.596,26.508,-0.44791,1.4836,-3.4863e+06,320.38,59.373,59.78,2
52.388,32.954,95.352,4.968,90.384,0.30869,1.7684,-0.013879,0.26343,1.7717,52.388,3820.8,61.812,29.57,34.89,-0.0077146,1.3239,-2.8111e+06,597.56,258.24,263.48,2
11.268,7.9163,22.183,1.467,20.716,7.098e-05,0.54732,-0.011021,0.11501,1.1174,11.268,189.08,13.75,10.085,12.306,0.11345,1.3915,9903,19.583,21.144,22.633,2
20.521,10.518,35.135,-0.076502,35.212,-0.18338,0.51094,-0.0032238,0.11173,1.118,20.523,530.77,23.038,18.357,20.607,-0.31999,1.947,-1.8217e+05,56.499,0.12005,0.18465,2
27.081,6.9946,39.879,14.239,25.64,-0.025997,0.72654,-0.019845,0.12197,1.2031,27.081,781.84,27.961,22.509,23.241,0.37685,2.1892,23607,7.888,11.744,12.745,2
4.799,4.8041,14.239,-0.024421,14.264,-0.084766,0.29029,0.011621,0.073937,1.033,4.7997,45.903,6.7751,4.6465,6.559,0.84608,2.1135,7693.9,6.6595,0.60473,0.3443,2
69.086,28.717,117.69,9.0949e-13,117.69,0.73227,4.1121,-0.033146,0.88571,3.7231,69.086,5590,74.767,18.556,20.082,-0.44459,2.6274,-5.2899e+07,1697.3,333.82,348.03,2
54.553,33.538,107.4,0.00094792,107.4,0.24724,3.3627,0.064086,0.61386,2.9513,54.553,4090.7,63.959,18.484,21.671,-0.20842,1.892,-2.8273e+07,959.65,468.25,404.75,2
43.274,33.594,116.19,0.60669,115.59,-0.81266,2.3239,0.0063556,0.60817,2.3356,43.274,2991,54.69,18.528,23.416,0.84838,2.7768,1.815e+08,832.2,6.1162,2.5912,2
40.806,26.66,101.1,7.1246,93.971,0.046337,3.085,-0.049891,0.62328,2.6491,40.806,2369.5,48.677,15.404,18.375,0.96143,2.8643,6.3273e+07,43.562,30.212,23.189,2
1.219,0.5024,1.9515,0.16053,1.791,-0.011861,0.056582,0.0012889,0.024905,0.99254,1.219,1.736,1.3176,1.2281,1.3275,-0.052658,1.7326,-0.031642,0.12991,0.0021447,0.00028079,2
0.69894,0.25132,1.3527,0.062121,1.2906,0.0042262,0.05867,-0.0010176,0.025971,0.99268,0.69894,0.55111,0.74237,0.70409,0.74784,0.09125,3.5042,0.00091688,0.114,0.0415,0.041066,2
0.88286,0.34053,1.4841,0.1529,1.3312,-0.0019239,0.075555,7.868e-05,0.031694,0.99378,0.88286,0.89436,0.94571,0.88839,0.95163,-0.48465,2.2529,-0.010125,0.017013,0.024016,0.024948,2
0.91718,0.25676,1.3677,0.28155,1.0862,-0.0031751,0.043561,-0.00020662,0.020771,0.99193,0.91718,0.90654,0.95213,0.92464,0.95988,-0.72301,3.1945,-0.0050239,0.012642,0.0090089,0.010856,2
12.167,6.1874,20.869,0.0010128,20.868,0.046227,0.62207,0.00064428,0.25581,1.1475,12.167,185.98,13.637,10.603,11.884,-0.55519,2.0676,-20420,7.3623,1.6121,1.4718,2
6.1,3.0467,10.692,0.3701,10.322,0.036321,0.47994,0.0048683,0.19867,1.0917,6.1,46.409,6.8124,5.5876,6.2402,0.10871,1.7794,-0.098978,10.032,3.3532,3.5202,2
10.621,2.8611,14.6,4.1827,10.417,-0.00055738,0.40009,-0.0091211,0.13644,1.0622,10.621,120.92,10.997,9.9989,10.352,-0.39854,2.1001,-402.27,4.3134,5.4154,6.305,2
22.946,14.81,42.205,0.783,41.422,0.086652,0.9701,-0.0034414,0.21433,1.3117,22.946,743.91,27.275,17.493,20.793,-0.21995,1.4358,-4.4726e+05,44.578,20.062,21.388,2
1.7908,1.3706,4.436,0.011496,4.4245,0.035279,0.14225,0.0030701,0.025252,1.0013,1.7908,5.0685,2.2513,1.7885,2.2484,0.58996,2.0582,11.618,4.6905,0.61463,0.53708,2
4.5326,1.3169,6.8452,2.536,4.3092,-0.0073073,0.12842,-0.002963,0.046982,0.99903,4.5326,22.264,4.7184,4.5371,4.723,-0.19241,1.6607,-1.1536,0.46361,0.65467,0.63778,2
1.3095,0.92771,3.5289,0.0029857,3.5259,-0.025355,0.10024,0.0003529,0.041671,0.9962,1.3095,2.5676,1.6024,1.3145,1.6085,0.92261,3.1781,3.9222,0.85698,0.028082,0.021649,2
2.3388,1.1776,4.7394,0.60772,4.1317,0.00024589,0.12185,-0.0014145,0.040481,0.99821,2.3388,6.8444,2.6162,2.343,2.6209,0.34003,2.0777,3.5233,0.043913,0.064684,0.067384,2
17.609,4.0672,26.366,10.446,15.92,-0.026773,0.63555,0.0090173,0.19957,1.1602,17.609,326.46,18.068,15.177,15.573,0.53711,2.442,2780.3,6.9632,10.22,11.143,2
11.604,7.6128,25.166,0.52448,24.642,-0.0058811,1.0955,-0.012534,0.3659,1.3413,11.604,192.08,13.859,8.6514,10.333,0.08538,1.7137,12593,8.5051,13.062,16.763,2
6.9343,3.0656,13.425,1.9756,11.449,-0.032245,0.48487,0.011165,0.17363,1.0938,6.9343,57.398,7.5761,6.3395,6.9263,0.18383,1.7388,209.14,3.2908,4.6089,3.9104,2
15.471,8.8711,33.829,4.6365,29.193,0.19134,0.81467,-0.0087577,0.23974,1.2252,15.471,317.35,17.814,12.628,14.54,0.46004,1.9251,1.238e+05,159.81,52.099,55.967,2
32.441,15.973,58.107,0,58.107,0.0798,2.5454,-0.013477,0.87833,2.1074,32.441,1305.2,36.128,15.394,17.143,-0.44562,1.9568,-1.8034e+06,22.106,3.0142,1.819,2
20.154,10.528,33.07,0.091757,32.979,-0.024589,1.8645,0.00085702,0.71288,1.7087,20.154,516.04,22.717,11.795,13.294,-0.42413,1.7631,-2.0256e+05,1.3524,2.161,2.8527,2
21.837,9.1378,35.647,5.9129,29.734,0.069733,0.75302,-0.00075246,0.21354,1.1993,21.837,559.62,23.656,18.208,19.724,-0.086169,1.8617,-32224,26.692,9.8279,9.2348,2
26.089,11.614,43.216,11.644,31.572,-0.012382,0.78877,0.00033909,0.15155,1.228,26.089,814.28,28.536,21.244,23.237,0.077456,1.4601,62867,6.0984,7.9927,8.5843,2
79.763,36.172,153.51,25.836,127.67,0.048454,5.8533,-0.091987,2.5294,4.9028,79.763,7658.6,87.513,16.269,17.85,0.29179,1.8948,8.0936e+07,79.915,91.171,108.93,2
17.869,9.5804,36.894,1.6544,35.239,-0.16785,3.2702,-0.0023984,1.6478,2.9404,17.869,410.26,20.255,6.077,6.8884,0.33567,1.8687,98013,50.9,32.633,53.506,2
34.967,12.632,62.304,7.2555,55.048,0.039957,3.2937,0.021042,1.5676,2.7577,34.967,1380.8,37.16,12.68,13.475,0.11769,2.288,1.1056e+05,27.383,14.587,25.175,2
107.15,45.466,191.75,20.228,171.52,0.76776,5.0656,-0.017486,1.6963,4.1791,107.15,13529,116.31,25.639,27.832,-0.11433,2.5877,-9.1636e+07,2291.3,503.06,518.31,2
91.842,57.13,158.01,0.8323,157.18,1.0784,2.7854,-0.042619,0.61783,2.6018,91.842,11669,108.02,35.3,41.519,-0.33554,1.4479,-5.7204e+08,3997.8,815.96,831.06,2
60.081,36.948,129.38,-0.29432,129.68,-1.1789,0.90455,0.014086,0.32791,1.6706,60.091,4962.6,70.445,35.97,42.168,0.11089,1.7438,2.757e+07,2225,0.25092,0.30669,2
21.794,14.047,39.47,0.062778,39.407,0.20949,0.55146,-0.00079449,0.081771,1.1405,21.794,670.47,25.893,19.109,22.703,-0.28042,1.5004,-4.4608e+05,160.34,39.018,41.071,2
15.088,6.7972,27.637,3.4212,24.216,-0.22014,0.14054,0.0027196,0.048535,1.0235,15.088,273.42,16.536,14.741,16.156,-0.12472,1.7822,-5557.8,72.421,1.0378,1.0227,2
2.7448,1.271,4.5934,0.75651,3.8369,0.0049775,0.10988,0.0021612,0.040787,0.99687,2.7448,9.1348,3.0224,2.7534,3.0319,-0.05575,1.5291,-0.98512,1.0087,0.82899,0.8225,2
1.75,1.0222,3.9687,0.026762,3.942,-0.023988,0.094393,-4.9e-05,0.030404,0.99562,1.75,4.0981,2.0244,1.7577,2.0333,0.078877,2.2727,0.99704,0.76524,0.13044,0.15898,2
2.2239,1.9934,6.2235,-0.075871,6.2994,0.030731,0.21735,0.00090205,0.069767,1.0122,2.226,8.8838,2.9806,2.1991,2.9446,1.0062,2.2968,112.34,4.0198,1.003,1.0892,2
5.6254,1.3721,7.8193,2.7537,5.0655,0.023936,0.14649,-0.00099801,0.035751,1.0016,5.6254,33.511,5.7888,5.6164,5.7796,-0.19788,2.177,-6.2196,5.2809,2.6662,2.7208,2
3.2982,2.1733,7.3435,0.27442,7.0691,-0.063812,0.063853,0.00079136,0.026108,0.99499,3.2982,15.559,3.9444,3.3147,3.9643,0.39119,1.8802,73.425,6.2184,0.0059436,0.0045832,2
2.352,1.6108,4.9598,-0.0016557,4.9614,0.042142,0.077749,0.00041646,0.028637,0.99482,2.352,8.1031,2.8466,2.3642,2.8614,-0.12133,1.6895,-0.82072,6.2408,1.0331,0.97715,2
2.9625,1.5021,5.2417,0.010822,5.2309,-0.014139,0.13457,-0.0019068,0.052667,0.99987,2.9625,11.012,3.3184,2.9628,3.3189,-0.31196,1.9622,-10.349,0.46229,0.71133,0.83752,2
13.157,7.6716,24.46,1.7628,22.697,0.035134,0.50384,-0.0017091,0.089082,1.0967,13.157,231.42,15.213,11.997,13.871,-0.081065,1.5438,-6898,6.82,3.0312,3.2837,2
5.068,3.314,11.48,0.55798,10.923,0.0087435,0.29005,-0.00073523,0.060731,1.0291,5.068,36.568,6.0471,4.9245,5.876,0.49866,2.115,833.19,4.1256,3.9064,4.1944,2
4.2341,1.7607,8.2296,1.2873,6.9424,-0.062845,0.13288,0.0032071,0.044044,1.0015,4.2341,21,4.5826,4.2278,4.5757,-0.085165,2.144,2.418,5.533,0.092677,0.088346,2
1.6677,0.89573,3.5108,0.45042,3.0603,0.0056431,0.10166,-0.00078089,0.043374,0.99604,1.6677,3.5765,1.8912,1.6744,1.8987,0.4762,1.798,1.1175,0.33278,0.20778,0.23273,2
9.5734,4.245,13.641,0.0092178,13.632,0.06937,0.30388,0.0011411,0.057435,1.0359,9.5734,109.5,10.464,9.2419,10.102,-1.2187,3.0795,-7957.4,17.411,3.5925,3.7831,2
4.9793,1.6633,8.9102,1.9201,6.9901,-0.063388,0.18336,-0.0012035,0.054165,1.0089,4.9793,27.535,5.2474,4.9353,5.201,0.19914,2.5484,26.042,5.5941,0.25786,0.29468,2
28.143,18.012,55.682,1.1369e-13,55.682,-0.0028899,1.6794,0.059682,0.3042,1.5899,28.143,1113.5,33.37,17.701,20.988,-0.026289,1.6298,-2.2803e+05,129.94,82.528,61.534,2
38.688,28.922,95.489,3.1058,92.384,0.36269,2.2358,-0.064866,0.36243,2.2056,38.688,2325.7,48.225,17.541,21.865,0.39951,1.7529,3.4604e+07,938.43,454.39,460.22,2
43.093,23.812,91.26,0.00039132,91.26,-0.20603,1.8551,0.019114,0.41306,1.9354,43.093,2418.9,49.182,22.266,25.412,-0.12179,2.238,-2.0677e+06,163.56,245.75,243.52,2
29.185,20.679,68.596,-0.0024339,68.599,-0.080991,1.8113,0.0044193,0.41901,1.6775,29.185,1275.6,35.715,17.398,21.291,0.33168,1.9102,5.2362e+06,139.62,178.34,170.59,2
40.363,18.763,75.715,1.1369e-13,75.715,0.62123,1.1183,-0.040848,0.29908,1.5346,40.363,1978,44.475,26.302,28.982,0.17632,2.5652,1.106e+06,1230.4,226.85,236.54,2
24.675,17.125,67.714,0.20136,67.513,-0.55681,1.491,0.0062808,0.25757,1.7467,24.675,899.5,29.992,14.127,17.17,0.6759,2.6445,5.8928e+06,470.39,3.7841,3.7268,2
9.1309,3.2259,14.936,2.3639,12.572,-0.099763,0.29172,-0.00064389,0.0572,1.0355,9.1309,93.685,9.6791,8.8177,9.3471,-0.029681,2.1626,-77.856,14.602,0.56021,0.62863,2
5.3199,2.1575,7.6454,1.0832,6.5622,0.030395,0.14385,0.0016595,0.040848,1.0014,5.3199,32.915,5.7371,5.3123,5.7289,-0.96208,2.4484,-175.96,4.6878,1.7458,1.8202,2
5.2086,2.1958,9.8849,1.7292,8.1557,-0.014462,0.22846,0.00058931,0.043168,1.0155,5.2086,31.908,5.6487,5.1294,5.5627,0.5314,2.5654,138.93,0.6155,0.93358,0.98269,2
3.6643,1.6428,6.9326,1.3137,5.6189,-0.019592,0.17482,-0.00069442,0.040771,1.0057,3.6643,16.102,4.0127,3.6434,3.9898,0.70292,2.3842,36.71,0.53142,0.28686,0.30601,2
48.508,23.725,92.988,6.546,86.442,0.25654,2.2431,0.0027295,0.48547,2.1711,48.508,2910.8,53.952,22.343,24.85,0.19048,2.3375,6.3109e+06,765.96,416.59,400.99,2
51.242,27.534,92.988,10.566,82.422,-0.71042,1.0168,-0.0054812,0.3782,1.5186,51.242,3377.1,58.113,33.742,38.266,-0.011608,1.5019,1.924e+05,738.35,18.607,18.417,2
16.787,19.309,52.947,0.94101,52.006,0.30878,1.143,-0.0052492,0.1625,1.3552,16.787,651.25,25.52,12.387,18.831,0.99011,2.1768,8.9931e+06,372.82,98.911,103.99,2
18.819,15.708,44.182,0.0012292,44.181,-0.40097,0.30807,0.0082249,0.055124,1.1051,18.819,598.66,24.468,17.029,22.14,0.25096,1.5227,7.4018e+05,255.92,0.044279,0.021214,2
12.143,18.93,56.125,0.074518,56.05,0.4499,1.3108,-0.013686,0.22409,1.3918,12.143,502.55,22.418,8.7246,16.107,1.5741,3.6896,1.8736e+07,650.31,127.74,136.53,2
17.231,13.885,49.564,0.18213,49.382,-0.20307,0.85682,0.017896,0.11799,1.2645,17.231,487.97,22.09,13.627,17.47,0.51472,2.2238,1.4098e+06,42.658,33.709,32.208,2
20.545,12.43,43.327,1.7814,41.545,0.15743,1.0151,0.021984,0.394,1.3498,20.545,575.2,23.983,15.221,17.768,0.078081,1.7534,90510,198.47,84.324,83.567,2
26.069,16.453,54.987,2.4683,52.519,-0.36731,0.84576,-0.0019824,0.30026,1.3059,26.069,947.84,30.787,19.963,23.576,0.15962,1.592,7.9757e+05,201.14,0.38642,0.33685,2
4.3156,2.4699,9.8442,0.77777,9.0664,0.049637,0.19268,-0.001922,0.0552,1.0098,4.3156,24.669,4.9668,4.2737,4.9186,0.5749,2.8549,353.26,13.417,4.6136,4.6225,2
8.8409,2.7688,12.116,1.8879,10.228,-0.072262,0.15278,-0.0023875,0.048202,1.0048,8.8409,85.759,9.2606,8.7984,9.216,-0.98652,2.8249,-813.67,7.7586,0.3521,0.37823,2
1.4325,0.92778,3.2741,0.0029394,3.2712,0.0064846,0.14065,0.00096319,0.059998,1.0005,1.4325,2.905,1.7044,1.4317,1.7035,0.47018,2.0014,1.2494,0.19472,0.027726,0.041518,2
6.3775,5.0865,17.652,0.096118,17.556,0.15124,0.33464,-0.00063438,0.082009,1.0524,6.3775,66.312,8.1432,6.06,7.7378,0.75528,2.447,11580,79.382,14,13.747,2
8.0592,3.709,14.834,0.86424,13.97,0.074137,0.37547,-0.0043168,0.061776,1.0562,8.0592,78.583,8.8647,7.6302,8.3928,0.15305,2.1632,339.33,18.559,4.4401,4.7272,2
5.2786,1.5444,8.9451,1.6593,7.2858,-0.045398,0.22795,0.0029083,0.05348,1.0161,5.2786,30.228,5.498,5.1948,5.4106,-0.232,3.0916,-15.337,2.2849,0.80758,0.87574,2
2.3123,1.98,8.5314,-0.15918,8.6906,0.041636,0.20453,0.0014929,0.035195,1.0111,2.3277,9.2316,3.0384,2.3021,3.0049,1.1247,4.2425,307.03,10.126,3.1917,2.9695,2
6.2402,2.2316,9.2886,2.2143,7.0742,-0.031692,0.12703,-0.0026405,0.032848,0.99932,6.2402,43.874,6.6238,6.2444,6.6283,-0.32673,1.8009,-75.961,1.4382,1.4726,1.4201,2
31.928,15.276,57.935,5.5396,52.395,0.054461,1.4546,-0.000811,0.23084,1.5879,31.928,1250.6,35.364,20.106,22.27,-0.050303,2.1991,-2.5011e+05,65.801,45.665,45.16,2
10.291,8.0342,30.143,0.16889,29.974,-0.17317,0.5401,0.002148,0.14842,1.1255,10.291,169.88,13.034,9.1436,11.58,0.8656,2.953,1.7061e+05,34.743,6.3262,6.5183,2
10.309,6.9785,24.274,1.6683,22.605,-0.06792,0.6926,4.6849e-05,0.133,1.1658,10.309,154.54,12.431,8.8429,10.663,0.69608,2.2509,47385,5.5909,0.68868,0.63947,2
10.257,4.6922,18.786,2.2844,16.502,0.0030256,0.40668,-0.0011383,0.095396,1.0658,10.257,127.03,11.271,9.6244,10.575,0.027577,2.1243,763.77,0.87419,0.9013,1.0354,2
24.591,21.533,63.307,0.38164,62.925,0.029754,1.4611,-0.0057376,0.19745,1.6002,24.591,1064.2,32.622,15.368,20.386,0.55067,1.8101,8.9731e+06,11.775,9.2459,10.274,2
35.469,22.252,78.291,8.4447,69.846,-0.00613,1.6559,0.0058276,0.25041,1.7146,35.469,1748.8,41.819,20.686,24.389,0.67203,2.1295,1.4584e+07,5.6351,6.6895,7.2295,2
9.6702,5.251,17.523,3.4106e-13,17.523,0.1144,0.35105,-0.012695,0.080999,1.0514,9.6702,120.84,10.993,9.1971,10.455,0.17841,1.454,1332.7,41.412,8.2746,8.8483,2
4.6777,3.4527,12.469,0.74938,11.72,-0.10654,0.15479,0.0022206,0.06574,1.0081,4.6777,33.695,5.8047,4.6403,5.7583,0.99845,2.6934,2277.7,17.526,0.059907,0.043627,2
2.3774,1.5451,6.6333,0.062456,6.5708,0.05349,0.17205,0.0028883,0.059774,1.0066,2.3774,8.0177,2.8316,2.3619,2.8131,0.11404,2.6768,22.835,10.663,1.8106,1.5514,2
6.0624,1.3005,7.9521,3.2386,4.7135,-0.030861,0.16502,-0.0043688,0.058736,1.0044,6.0624,38.429,6.1991,6.0358,6.1719,-0.27579,1.8187,-4.4892,1.3492,0.8127,1.092,2
21.46,4.9366,24.385,0.0035421,24.381,0.012266,1.3235,-0.00015913,0.53889,1.347,21.46,484.69,22.016,15.931,16.344,-3.2141,12.483,-1.4032e+05,29.537,26.017,25.862,2
9.578,8.1296,23.366,0.095091,23.271,-0.20063,0.17229,-0.00024496,0.047858,1.0244,9.578,157.23,12.539,9.35,12.241,0.31211,1.5532,37694,61.808,0.14571,0.11202,2
3.2172,2.3473,9.9459,0.89483,9.0511,0.079,0.11478,0.0025673,0.030588,1.0004,3.2172,15.811,3.9763,3.2158,3.9746,1.3314,3.6809,579.49,23.264,4.0303,3.8697,2
9.7617,8.1438,25.557,0.18758,25.369,-0.067874,0.88623,-0.0032403,0.27162,1.1846,9.7617,161.01,12.689,8.2404,10.712,0.51201,1.6905,67086,6.0437,0.37248,0.35654,2
45.633,27.983,93.173,0.20244,92.971,0.19007,1.9106,-0.00066005,0.32182,1.8993,45.633,2858.4,53.464,24.027,28.15,0.05305,2.0467,3.4031e+06,156.75,45.181,46.702,2
12.527,8.7227,30.3,0.32477,29.975,-0.2725,0.13671,0.0028776,0.050172,1.0354,12.527,232.32,15.242,12.098,14.721,0.35701,2.0042,83235,118.04,0.053516,0.038584,2
2.9301,2.1101,6.2802,-0.28153,6.5617,0.0021924,0.17277,-0.0035728,0.053048,1.0054,2.9485,12.998,3.6053,2.9326,3.5859,0.098983,1.522,11.384,0.046401,0.10929,0.18932,2
17.814,8.0172,31.093,0.24075,30.852,0.079182,0.73962,0.00075775,0.11531,1.1764,17.814,381.05,19.52,15.144,16.594,-0.17983,2.4091,-53150,21.373,4.4508,4.4838,2
26.379,12.332,42.877,8.8263e-05,42.877,0.1099,1.0414,-0.0047432,0.14518,1.3462,26.379,846.55,29.096,19.596,21.613,-0.51841,2.5116,-8.7841e+05,37.745,8.4319,9.4942,2
4.5793,4.8433,19.615,0.34033,19.274,0.067595,0.41918,0.010229,0.061331,1.0696,4.5793,44.216,6.6495,4.2815,6.217,1.5716,4.4095,29349,40.261,16.667,15.25,2
12.552,6.3734,20.69,1.9406,18.749,-0.16067,0.18867,-0.0039806,0.055387,1.0203,12.552,197.82,14.065,12.302,13.784,-0.32193,1.5735,-10644,38.688,0.30528,0.31402,2
1.9665,0.62887,3.2294,0.99262,2.2367,-0.0048556,0.11455,1.6546e-05,0.045171,0.99738,1.9665,4.2591,2.0638,1.9717,2.0692,0.25751,1.8782,0.11376,0.072521,0.12112,0.14885,2
13.431,6.8867,20.701,-0.015511,20.716,-0.17228,0.27461,0.010869,0.075723,1.0401,13.431,227.39,15.079,12.913,14.497,-0.76529,2.0795,-44694,41.871,0.075297,0.017312,2
1.7576,1.0127,3.6968,0.3359,3.3609,-0.0059741,0.12969,-0.0022049,0.054523,0.99918,1.7576,4.1053,2.0262,1.759,2.0278,0.45084,1.7972,1.7101,0.023311,0.022301,0.01254,2
10.541,6.0137,17.672,0.32205,17.35,0.11134,0.39083,0.0028768,0.1131,1.0634,10.541,146.94,12.122,9.9118,11.399,-0.4381,1.5372,-9964.3,51.07,12.34,12.719,2
26.511,32.503,106.15,1.3351,104.81,0.80086,1.8498,-0.010278,0.26688,1.7586,26.511,1749.8,41.83,15.075,23.786,1.5435,3.7779,2.9443e+08,2377.8,538.38,548.1,2
38.619,33.283,104.64,0.68715,103.95,-0.88462,0.72915,0.023697,0.1262,1.4592,38.619,2589.2,50.884,26.466,34.871,0.59231,2.0596,1.0042e+08,1151.3,2.0124,1.1044,2
64.424,24.012,93.425,7.3295,86.096,0.41188,2.0202,-0.038159,0.41555,2.024,64.424,4721.9,68.716,31.831,33.951,-0.96997,2.7329,-3.6618e+07,597.31,155.41,175.97,2
15.593,10.476,32.416,0.0055806,32.41,0.041524,0.84832,0.0032039,0.24993,1.241,15.593,351.9,18.759,12.565,15.116,-0.014654,1.5598,8269,6.6621,0.87151,0.72412,2
19.134,10.18,37.154,5.1834,31.97,0.20993,0.81758,0.0077149,0.25822,1.2253,19.134,468.81,21.652,15.615,17.67,0.11983,1.7134,69592,178.13,31.42,23.985,2
20.968,9.4034,37.711,1.3783,36.332,-0.10866,1.4383,-0.0054976,0.5083,1.5589,20.968,527.29,22.963,13.451,14.73,-0.27095,2.1778,-1.0647e+05,16.048,15.716,17.445,2
24.315,10.432,47.196,6.3947,40.802,0.037305,1.4779,0.012827,0.57968,1.6393,24.315,699.03,26.439,14.832,16.129,0.39676,2.2181,2.2485e+05,31.943,15.429,11.501,2
2.9666,0.89012,4.0195,0,4.0195,0.029009,0.079223,-0.002513,0.022296,0.99437,2.9666,9.5858,3.0961,2.9834,3.1136,-0.95099,3.7643,-4.7637,2.7663,0.41286,0.43309,2
1.301,0.81368,3.4275,0.24234,3.1852,-0.026542,0.079393,-0.0017359,0.035304,0.99442,1.301,2.3488,1.5326,1.3083,1.5412,1.0682,3.2824,2.3414,1.1326,0.013972,0.022036,2
7.0766,5.1541,14.215,-0.06224,14.278,-0.12619,0.27927,0.0049806,0.082486,1.0343,7.0785,76.401,8.7408,6.8436,8.4506,-0.084508,1.2444,-652.38,23.363,0.0016637,0.00054862,2
19.85,11.349,36.648,0.46104,36.186,0.044843,0.81441,-0.0047519,0.10269,1.2332,19.85,521.69,22.841,16.096,18.521,0.11507,1.6398,53490,7.0405,1.4682,1.5997,2
11.614,8.149,35.095,0.32249,34.773,0.22539,0.71219,0.02251,0.20769,1.2057,11.614,200.68,14.166,9.6326,11.75,1.0204,3.0988,2.1746e+05,225.79,51.41,45.276,2
17.738,10.632,35.758,4.0388,31.719,-0.27934,0.39916,-0.0033217,0.16815,1.0945,17.738,426.68,20.656,16.207,18.873,0.54166,1.7296,2.3056e+05,111.51,0.92809,0.77539,2
14.568,6.521,21.405,1.7053e-13,21.405,0.071284,0.42412,-0.0050976,0.063687,1.0714,14.568,254.38,15.949,13.598,14.887,-0.90431,2.6527,-53165,15.659,3.5297,4.0505,2
2.2894,1.7948,7.77,0.25629,7.5137,-0.048638,0.12592,0.0040837,0.032234,0.99982,2.2894,8.4335,2.9041,2.2898,2.9046,1.4752,4.4994,199.39,2.7568,0.25774,0.22865,2
13.376,8.9716,27.6,0.53116,27.068,0.17344,0.45801,0.0019309,0.084045,1.0912,13.376,258.69,16.084,12.259,14.74,-0.020687,1.5733,9737.4,129.77,36.063,36.614,2
13.681,7.3035,27.333,2.1838,25.15,-0.22723,0.20681,0.002396,0.05963,1.0357,13.681,240.03,15.493,13.21,14.96,0.056855,2.0465,8899.4,76.882,0.35041,0.28236,2
28.76,14.024,46.058,0,46.058,0.11311,1.2311,-0.018109,0.17753,1.4115,28.76,1022,31.969,20.376,22.649,-0.19097,1.4745,-4.274e+05,44.643,5.2049,4.5952,2
22.892,12.754,36.844,0.38232,36.462,0.17179,0.88556,-0.010418,0.16056,1.2611,22.892,685.23,26.177,18.152,20.757,-0.47412,1.603,-5.2881e+05,146.48,47.948,50.412,2
9.6983,9.5337,31.226,0.30333,30.923,-0.2502,0.31497,-0.00015656,0.07739,1.0645,9.6983,184.13,13.569,9.1106,12.747,0.94669,2.5075,3.3694e+05,93.239,1.179,1.097,2
3.7612,0.47836,4.8212,2.9202,1.901,0.0030408,0.14003,0.0033034,0.062203,1.0005,3.7612,14.373,3.7912,3.7592,3.7892,0.25701,2.3338,0.03918,0.912,0.66855,0.64183,2
28.04,12.737,46.833,2.2737e-13,46.833,0.077948,0.93163,-0.01928,0.11317,1.3095,28.04,946.97,30.773,21.412,23.499,-0.18367,1.9283,-3.3417e+05,19.132,4.1355,4.6694,2
2.3796,2.0897,8.4963,0.067288,8.4291,-0.057049,0.15304,0.0019242,0.043951,1.0039,2.3796,9.99,3.1607,2.3703,3.1484,1.2999,3.8944,347.3,4.3436,0.31227,0.33697,2
5.9617,7.9602,31.587,0.9576,30.63,0.26697,0.52763,0.0060155,0.087434,1.1153,5.9617,98.335,9.9164,5.3453,8.8911,2.0782,6.1183,5.4132e+05,250.82,43.172,41.949,2
24.597,13.411,43.868,3.3845,40.483,0.051102,0.93158,-0.011917,0.12032,1.2822,24.597,783.26,27.987,19.183,21.827,-0.03044,1.6232,-66962,89.987,73.148,76.327,2
15.698,4.276,23.944,2.9358,21.008,0.045386,0.66411,-0.019704,0.14104,1.1645,15.698,264.53,16.264,13.48,13.967,-0.31726,3.1492,-4343.4,9.5561,4.0463,4.3826,2
4.7881,2.6211,9.2994,0.81705,8.4823,-0.037179,0.28608,0.0034153,0.071211,1.0288,4.7881,29.734,5.4529,4.6541,5.3003,0.17236,1.7496,92.928,1.608,0.79519,0.88085,2
4.9303,1.8047,8.7416,2.0699,6.6717,0.0069455,0.21632,0.0011548,0.059829,1.013,4.9303,27.536,5.2474,4.8671,5.1801,0.36033,2.3,36.371,1.3916,0.96717,0.97824,2
3.2167,1.4648,5.0413,0.080365,4.9609,-0.0039035,0.19517,-2.2658e-05,0.075265,1.0091,3.2167,12.474,3.5318,3.1878,3.5,-0.7825,2.3458,-23.13,0.67337,0.77972,0.79121,2
9.8882,4.3134,15.868,0.0036013,15.864,0.042738,0.34617,-0.00060896,0.077085,1.0464,9.8882,116.21,10.78,9.4497,10.302,-0.87587,2.9681,-7211.9,6.5612,2.2499,2.6954,2
3.5494,1.067,5.949,1.2443,4.7047,-0.04277,0.16119,0.0036029,0.058062,1.0044,3.5494,13.726,3.7049,3.534,3.6888,-0.33097,2.1904,-1.7567,2.4816,0.080771,0.1334,2
17.506,11.385,45.592,2.2737e-13,45.592,0.27359,0.93711,0.0057698,0.16106,1.3311,17.506,434.89,20.854,13.151,15.667,0.85331,3.3875,1.0639e+06,342.5,97.075,97.896,2
20.966,10.598,45.678,8.4371,37.241,-0.33777,0.5086,-0.0015824,0.11208,1.1523,20.966,550.89,23.471,18.196,20.369,1.1186,3.0845,7.5889e+05,158.06,4.3556,4.3356,2
17.284,18.388,48.332,0.70086,47.631,0.33161,0.8585,-0.0055924,0.11654,1.248,17.284,633.83,25.176,13.85,20.174,0.80811,1.8522,5.171e+06,417.8,100.28,103.37,2
14.339,12.578,44.915,0.99927,43.915,-0.3989,0.34048,0.0070066,0.092156,1.1076,14.339,362.39,19.036,12.945,17.187,0.93315,2.677,1.4562e+06,250.04,0.16424,0.14325,2
15.568,8.219,43.503,1.386,42.117,0.29529,1.2941,0.012992,0.2991,1.4942,15.568,309.3,17.587,10.419,11.77,0.39738,3.5213,2.2345e+05,392.2,54.026,47.521,2
37.577,26.934,82.666,2.0684,80.598,-0.26511,2.0843,-0.030812,0.55115,1.99,37.577,2131,46.162,18.883,23.197,0.30792,1.5066,1.2971e+07,67.813,5.2273,4.3817,2
27.505,14.457,52.174,4.5475e-13,52.174,0.12675,1.7629,-0.046085,0.48332,1.7894,27.505,963.68,31.043,15.371,17.348,0.011927,2.0032,-42838,95.826,56.997,64.204,2
37.786,18.123,60.847,2.8381,58.009,0.19587,1.6337,0.010302,0.39093,1.6795,37.786,1753.3,41.872,22.498,24.931,-0.72277,2.0684,-5.152e+06,272.08,137.41,143.65,2
12.549,6.7718,28.017,5.6843e-14,28.017,0.25704,0.64168,-0.00061081,0.098502,1.188,12.549,202.91,14.245,10.563,11.99,0.19942,2.2385,19854,216.84,34.289,33.408,2
21.437,7.6124,30.427,7.3871,23.04,-0.16527,0.70597,-0.0094765,0.092429,1.2057,21.437,516.96,22.737,17.78,18.858,-0.41779,1.7446,-40771,34.802,6.3235,6.7991,2
5.2105,2.6059,9.5247,1.1369e-13,9.5247,0.027947,0.33583,-0.0063379,0.073779,1.0431,5.2105,33.879,5.8205,4.9952,5.58,0.057987,1.82,17.53,2.5285,0.39185,0.50586,2
4.189,2.2022,7.9979,0.77128,7.2266,0.024329,0.22843,-0.0035226,0.087511,1.0161,4.189,22.354,4.728,4.1228,4.6532,0.035737,1.7121,18.54,3.8777,1.9857,2.0153,2
6.7176,3.9317,15.943,0,15.943,0.017354,0.4679,-0.012305,0.18046,1.0819,6.7176,60.443,7.7745,6.2088,7.1857,0.20736,2.2844,1716,0.92857,0.34631,0.3526,2
2.19,1.3114,5.8934,0.13204,5.7614,-0.0033664,0.2821,0.0048562,0.12536,1.028,2.19,6.5006,2.5496,2.1304,2.4802,0.67079,3.0876,20.559,0.069237,0.065389,0.036496,2
8.498,2.8296,13.292,1.2935,11.998,0.084031,0.45772,0.0037332,0.20785,1.0846,8.498,80.15,8.9527,7.8351,8.2543,-0.97816,3.7574,-1259.9,26.818,4.2171,4.69,2
5.4561,2.6778,13.23,0.52978,12.7,-0.032158,0.46931,-0.0040788,0.25327,1.0857,5.4561,36.875,6.0725,5.0254,5.5932,0.95931,3.8593,1002.6,1.4839,2.0611,1.9538,2
14.142,5.4879,19.905,0,19.905,0.15735,0.38286,-0.0069069,0.14824,1.0669,14.142,229.84,15.16,13.255,14.209,-1.2257,3.4497,-34273,80.545,13.214,13.402,2
9.6613,5.7618,21.713,0.54186,21.171,0.033158,0.51856,-0.0010111,0.1248,1.1068,9.6613,126.24,11.236,8.7294,10.152,0.39182,2.4566,13192,29.203,20.616,21.737,2
10.754,6.3507,21.481,2.3207,19.16,-0.026562,0.52734,-0.0048424,0.16552,1.1077,10.754,155.61,12.475,9.7083,11.262,0.16942,1.5102,6726.2,12.563,17.45,17.992,2
8.7315,4.9334,17.876,0.47067,17.406,-0.13745,0.45793,-0.0019222,0.15646,1.0887,8.7315,100.36,10.018,8.0198,9.2013,0.11332,2.1777,1715.6,28.949,0.89651,1.1816,2
4.7175,3.1426,9.3293,0.2243,9.105,0.061015,0.16593,0.00062156,0.072121,1.006,4.7175,32.041,5.6604,4.6895,5.6269,0.24864,1.4322,204.41,14.995,3.8021,3.922,2
4.266,2.8161,8.9067,0.38799,8.5187,-0.07669,0.16496,0.0011531,0.088962,1.0069,4.266,26.058,5.1047,4.2368,5.0698,0.32436,1.6564,191.8,8.8482,0.0090605,0.023793,2
15.351,7.0236,28.348,0.5383,27.81,0.10362,2.5472,0.040874,1.3997,2.505,15.351,284.54,16.868,6.1282,6.7339,-0.20206,2.2006,-15673,69.974,24.763,17.019,2
11.502,5.8597,23.342,-0.37275,23.715,-0.15706,2.1135,0.027811,1.1573,2.1834,11.509,166.33,12.897,5.271,5.9067,-0.069964,2.368,-1648.4,24.156,0.4688,0.31125,2
21.586,8.0736,29.333,0.10871,29.225,0.11339,0.74765,0.024894,0.28,1.1768,21.586,530.57,23.034,18.344,19.574,-1.4703,3.7198,-2.7274e+05,62.813,24.963,27.131,2
12.226,3.9277,21.05,5.6645,15.385,-0.045551,0.36022,0.0077749,0.13042,1.0509,12.226,164.77,12.836,11.634,12.215,0.16008,1.8013,912.13,8.2423,12.155,12.079,2
81.196,34.851,139.83,0.32032,139.51,0.1154,5.7181,0.045681,2.4704,4.9955,81.196,7796.4,88.297,16.254,17.675,-0.62715,2.6097,-1.6619e+08,198.91,223.13,255.19,2
52.72,16.442,88.306,13.556,74.75,0.050005,6.9996,0.18182,3.6467,6.1977,52.72,3047.2,55.202,8.5064,8.9069,-0.027791,2.6815,-1.1467e+05,218.26,34.931,6.6921,2
21.867,8.8009,34.709,1.7053e-13,34.709,0.058192,0.82018,-0.034736,0.18592,1.2276,21.867,554.9,23.556,17.813,19.19,-0.28165,2.0576,-88075,10.529,2.6346,3.0957,2
3.2094,1.4136,6.3429,0.24152,6.1014,-0.023341,0.3354,0.003484,0.15038,1.0427,3.2094,12.281,3.5044,3.0781,3.361,0.02791,2.4834,1.8368,0.67327,0.69523,0.71554,2
2.2816,1.353,4.6787,0.0072223,4.6714,0.0054983,0.30742,0.0046106,0.13078,1.0345,2.2816,7.02,2.6495,2.2055,2.5611,0.22262,1.9074,3.8977,1.3234,0.53211,0.37718,2
5.4742,2.8415,13.233,2.0127,11.22,0.0057333,0.4216,0.0025841,0.16521,1.0666,5.4742,37.968,6.1618,5.1323,5.777,1.0056,3.2091,1168.9,1.68,0.52892,0.40672,2
13.813,6.4166,23.93,0.21593,23.714,0.14001,1.4566,-0.046017,0.58072,1.5624,13.813,231.6,15.218,8.8412,9.7406,-0.39612,2.3127,-23387,71.997,10.655,10.091,2
24.93,8.998,46.51,11.467,35.044,-0.045981,1.6339,-0.0050625,0.6524,1.698,24.93,701.76,26.491,14.682,15.601,0.44927,2.4636,1.659e+05,4.3813,6.349,6.1783,2
15.814,8.0616,32.889,0,32.889,0.094942,2.7851,-0.11456,1.2736,2.344,15.814,314.49,17.734,6.7467,7.5656,0.29918,2.4704,46273,33.04,3.7633,1.7511,2
12.57,6.9064,28.764,0.30908,28.455,-0.031388,2.1374,0.012116,1.0761,1.9242,12.57,205.28,14.328,6.5327,7.446,0.39233,2.3868,35501,0.89113,0.9021,0.23655,2
14.604,5.7166,27.576,5.0483,22.528,0.157,1.3462,-0.023249,0.66308,1.5332,14.604,245.65,15.673,9.525,10.223,0.76123,2.7845,22516,101.48,41.376,43.932,2
12.298,7.7491,27.282,1.4414,25.84,-0.12617,2.0191,0.020925,0.9896,1.9432,12.298,210.75,14.517,6.3289,7.471,0.50391,2.0268,54295,14.879,4.4351,5.1838,2
9.2479,5.5945,16.123,0,16.123,0.10453,0.67528,-0.0092524,0.20481,1.1638,9.2479,116.54,10.795,7.946,9.2755,-0.22535,1.4443,-3893.7,38.853,4.6371,2.5381,2
2.9858,2.0364,11.394,0.054392,11.34,-0.089458,0.54451,0.00108,0.26061,1.1129,2.9858,13.025,3.609,2.6829,3.2429,1.9967,8.2776,1032.1,11.287,0.077128,0.19843,2
2.0488,1.1978,5.6504,0.2604,5.39,0.015078,0.37524,0.0005794,0.1913,1.0532,2.0488,5.6193,2.3705,1.9452,2.2507,1.0897,4.0308,20.76,1.5475,0.23944,0.12346,2
4.1624,1.3019,7.936,2.2607,5.6752,-0.0044592,0.43581,-0.0058906,0.22401,1.0719,4.1624,19.005,4.3595,3.8834,4.0673,1.1363,4.1276,32.243,0.52003,0.78047,0.74601,2
16.085,6.7809,23.258,0.00012566,23.258,0.048528,0.52581,0.0012928,0.10502,1.1055,16.085,304.31,17.444,14.551,15.78,-0.82663,2.5461,-61748,7.8222,1.6179,1.8146,2
3.6737,1.6356,6.0172,0.5403,5.4769,0.0015861,0.15816,7.4169e-05,0.060606,1.003,3.6737,16.147,4.0183,3.6627,4.0063,-0.47973,2.0091,-22.072,1.8885,1.8724,1.6997,2
2.4889,1.5102,5.8621,0.2679,5.5942,-0.050856,0.15588,0.0016498,0.077986,1.004,2.4889,8.4548,2.9077,2.479,2.8961,0.31945,1.7892,10.524,4.1427,0.018067,0.022955,2
2.9557,1.2922,4.6368,0.17855,4.4582,0.014989,0.15731,-0.00049531,0.061859,1.0031,2.9557,10.391,3.2235,2.9467,3.2137,-0.92088,2.7632,-16.829,0.78588,0.22946,0.25366,2
23.644,19.399,53.511,0.62883,52.882,0.38597,0.94234,-0.045125,0.27307,1.3405,23.644,931.93,30.528,17.638,22.773,0.30189,1.5505,2.6221e+06,506.66,118.48,122.29,2
15.971,9.5152,46.703,3.1593,43.544,-0.36255,0.97409,0.012768,0.31504,1.3681,15.971,344.78,18.568,11.673,13.572,1.2866,4.3545,8.1087e+05,193.39,3.6428,3.3262,2
20.666,4.1371,26.173,9.9786,16.194,-0.14798,0.50291,0.0039666,0.22161,1.1062,20.666,444.03,21.072,18.682,19.05,-0.81337,2.7336,-5389.6,27.505,6.7671,7.1287,2
11.598,6.1947,22.125,2.5833,19.542,0.069016,0.64445,0.0014265,0.25091,1.1542,11.598,172.55,13.136,10.048,11.38,0.02246,1.4479,511.11,34.008,16.246,17.344,2
8.2505,4.2662,17.57,1.1544,16.416,-0.14924,0.45719,-0.0047106,0.20565,1.0902,8.2505,86.107,9.2794,7.5677,8.5114,0.71886,2.6034,5100.7,37.357,0.58919,1.2535,2
7.9634,4.8817,16.657,-0.072023,16.729,0.1306,0.55246,0.0041687,0.21389,1.1269,7.9651,87.032,9.3291,7.0684,8.2788,-0.23536,1.9337,-1451.7,59.815,11.306,11.124,2
6.374,3.7171,14.184,1.3758,12.808,-0.021999,0.71959,-0.032026,0.34563,1.1896,6.374,54.319,7.3702,5.3581,6.1955,0.69921,2.1138,1964.9,1.5994,1.0496,1.535,2
3.8389,1.9179,7.7057,0.37884,7.3268,0.0025897,0.95765,0.0040995,0.58695,1.3388,3.8389,18.383,4.2875,2.8674,3.2025,0.10456,2.0615,13.496,0.11394,0.50049,1.6735,2
0.5464,0.29681,1.3565,-2.8422e-14,1.3565,0.012445,0.087281,-0.0027877,0.033149,0.99464,0.5464,0.38585,0.62117,0.54935,0.62452,0.91776,3.4333,0.013197,0.56391,0.0488,0.03396,2
2.9559,1.0871,4.3295,0.93035,3.3991,-0.0027841,0.090602,-0.00077678,0.030003,0.995,2.9559,9.9085,3.1478,2.9708,3.1636,-0.58631,1.8805,-3.2615,0.031546,0.041647,0.039594,2
15.635,9.4905,30.205,0,30.205,0.045597,0.86638,-0.0080776,0.27997,1.2482,15.635,333.7,18.268,12.526,14.635,-0.13945,1.6899,-36709,10.435,2.6946,2.5868,2
13.855,8.4171,29.381,2.5607,26.82,-0.029001,0.68542,0.00066269,0.16536,1.1872,13.855,262.18,16.192,11.67,13.639,0.38342,1.6714,54787,0.70361,0.85463,0.9994,2
59.228,28.613,114.46,0.90632,113.55,0.47609,8.5149,0.050226,4.3149,7.5628,59.228,4319.3,65.721,7.8315,8.69,-0.0033142,2.1029,1.5033e+05,1236.7,169.34,108.22,2
58.419,22.496,97.404,17.22,80.184,-0.10897,9.1626,-0.093675,4.3125,8.1167,58.419,3914.2,62.564,7.1973,7.708,-0.033972,1.9559,-9.2336e+05,273,359.84,288.19,2
15.784,7.2033,30.927,1.3631,29.564,0.16582,1.8124,-0.094903,0.87159,1.7433,15.784,300.57,17.337,9.0546,9.9451,-0.021669,2.649,4457.8,125.1,49.788,53.035,2
24.628,9.8955,40.872,3.9791,36.893,-0.18799,1.2103,0.019582,0.60036,1.4446,24.628,703.59,26.525,17.049,18.362,-0.75082,2.4299,-2.8229e+05,40.297,1.6044,0.83807,2
18.602,11.751,38.85,0.71129,38.139,0.031063,1.6928,0.012306,0.94752,1.7267,18.602,482.87,21.974,10.773,12.726,0.1371,1.472,1.0917e+05,11.241,2.1882,9.9337,2
24.472,9.069,51.09,10.784,40.305,0.022192,3.4483,-0.051685,1.9461,3.1038,24.472,680.4,26.085,7.8846,8.404,0.69544,3.1273,3.5681e+05,11.881,12.082,16.605,2
24.551,9.3895,41.275,0.67011,40.605,0.060207,2.415,-0.013229,1.3195,2.2333,24.551,690.12,26.27,10.993,11.763,-0.6784,2.9174,-2.8591e+05,33.961,30.054,28.21,2
14.052,4.7208,24.479,2.008,22.471,-0.0063817,2.2894,0.060979,1.3267,2.2195,14.052,219.53,14.817,6.3311,6.6758,-0.15739,2.7714,-3415.2,13.442,3.1327,1.4195,2
38.511,17.306,60.708,0.97665,59.731,0.4789,2.3881,-0.05814,0.6375,2.2493,38.511,1779.9,42.189,17.121,18.756,-0.61176,2.173,-4.2981e+06,843.59,138.53,122.45,2
29.764,21.03,75.454,1.0543,74.4,-0.28291,1.8266,-0.030053,0.65899,1.8856,29.764,1324.1,36.389,15.784,19.298,0.53042,2.3419,1.0787e+07,100.7,47.777,44.96,2
14.874,7.637,26.757,5.6843e-14,26.757,0.050389,0.67429,-0.028931,0.19109,1.1506,14.874,279.02,16.704,12.927,14.518,0.042316,1.6622,2760.1,8.5445,1.3873,1.2494,2
3.19,1.795,9.3058,0.015603,9.2902,0.034667,0.35117,0.0092386,0.092509,1.0468,3.19,13.369,3.6564,3.0475,3.493,0.43613,3.4909,109.17,10.324,2.5254,2.04,2
9.4109,3.9123,17.081,5.4086,11.672,-0.035429,0.37393,-0.012475,0.094315,1.0511,9.4109,103.73,10.185,8.9531,9.6895,0.81603,2.025,2614.5,1.8893,1.8518,1.8407,2
3.4909,1.4416,6.1986,0.43424,5.7643,-0.0051198,0.30016,0.0033812,0.12338,1.032,3.4909,14.246,3.7743,3.3825,3.6572,-0.19592,2.3398,-4.0186,0.94949,1.1562,1.1388,2
3.7716,1.1766,6.0993,1.1015,4.9978,0.004023,0.18459,-0.0048157,0.063005,1.0071,3.7716,15.597,3.9493,3.7451,3.9215,-0.28155,2.6503,-3.4722,0.21288,0.075106,0.090339,2
1.7568,0.95041,3.3585,-0.012661,3.3712,0.00069654,0.12199,-0.0026264,0.047072,0.9982,1.7572,3.9814,1.9953,1.7604,1.9989,-0.34868,2.082,-0.97993,0.13641,0.14687,0.16597,2
2.766,1.0161,5.0704,0,5.0704,0.029452,0.45514,-0.013567,0.26266,1.0789,2.766,8.674,2.9452,2.5637,2.7298,0.038232,2.5982,-0.72836,3.223,0.22969,0.11234,2
1.7614,1.007,4.9612,0.0057048,4.9555,-0.0048565,0.36286,-0.0029216,0.22492,1.0511,1.7614,4.1076,2.0267,1.6758,1.9282,0.76238,3.8796,8.0078,0.36931,0.45269,0.28868,2
12.417,9.4046,27.875,0.00049411,27.874,0.057896,1.2841,-0.0066961,0.51891,1.5107,12.417,241.82,15.551,8.2195,10.294,0.028464,1.4506,15955,11.074,2.7602,2.228,2
12.799,8.2229,33.004,1.6157,31.388,-0.024107,1.5234,0.014306,0.70834,1.6736,12.799,230.82,15.193,7.6476,9.0779,0.6974,2.5138,1.3899e+05,0.0070939,0.020293,0.27738,2
11.817,5.7995,20.409,0.19676,20.212,0.11084,1.456,0.013197,0.68061,1.5874,11.817,172.98,13.152,7.4442,8.2851,-0.20865,1.8068,-5568.1,57.986,3.6814,0.82121,2
22.927,7.6408,33.581,5.806,27.775,0.074932,1.5736,-0.028166,0.91202,1.7038,22.927,583.49,24.156,13.456,14.177,-0.75978,2.4112,-88129,51.253,37.139,40.194,2
18.177,5.3703,26.03,1.1369e-13,26.03,0.078555,1.4248,-0.085495,0.41619,1.3941,18.177,358.96,18.946,13.038,13.59,-0.39493,2.6908,-20063,19.457,5.8766,5.8251,2
19.254,12.436,43.675,0.015968,43.659,-0.035092,1.1716,0.013758,0.26994,1.4515,19.254,523.99,22.891,13.265,15.77,0.42509,2.2971,5.772e+05,0.93868,0.73532,0.85973,2
6.7202,3.464,11.666,5.6843e-14,11.666,0.10446,0.33017,-0.004623,0.083952,1.0454,6.7202,57.051,7.5532,6.4284,7.2253,-0.42076,1.9068,-845.13,34.828,6.7021,6.6059,2
4.7341,3.3048,11.386,-0.00010067,11.386,-0.0010462,0.30451,0.0068928,0.089748,1.0332,4.7341,33.235,5.765,4.5821,5.5799,0.32161,2.002,577.78,6.2351,5.4528,4.6621,2
11.349,5.511,20.029,2.2858,17.743,-0.081685,0.28259,-0.0028778,0.075779,1.0319,11.349,158.9,12.606,10.998,12.216,-0.05863,1.7999,-693,8.9886,0.29071,0.3197,2
3.0736,1.8946,9.0779,0.28663,8.7913,0.061747,0.20263,0.004571,0.074049,1.0124,3.0736,13.004,3.6062,3.0358,3.5618,0.90088,3.7858,187.89,16.546,2.939,2.5581,2
18.296,8.9987,30.633,2.2737e-13,30.633,0.073759,1.0664,-0.0045716,0.17945,1.3993,18.296,414.98,20.371,13.076,14.559,-0.44457,2.0807,-1.21e+05,76.97,45.831,45.101,2
24.203,5.934,32.266,13.169,19.097,-0.15847,0.35245,-0.00048134,0.10979,1.059,24.203,620.67,24.913,22.855,23.526,-0.43528,1.8478,-11470,28.542,9.444,9.6955,2
12.178,9.8615,31.167,-0.014153,31.181,0.075029,0.84302,-0.0041435,0.20226,1.1983,12.178,244.68,15.642,10.163,13.054,0.71729,2.0088,2.336e+05,46.249,24.484,26.076,2
18.422,6.0559,29.495,4.3171,25.178,-0.1555,0.67733,-0.0045126,0.11815,1.1883,18.422,375.71,19.383,15.503,16.312,-0.040273,2.5241,-4323.4,38.111,2.4695,3.2852,2
6.7902,4.2906,13.478,0.40058,13.078,0.076182,0.2028,0.0036873,0.039576,1.013,6.7902,64.349,8.0218,6.7033,7.919,0.020912,1.6001,278.16,28.061,8.555,8.6318,2
6.8684,3.7004,13.478,0.7013,12.777,-0.11412,0.098543,0.00035474,0.039985,1.0021,6.8684,60.745,7.7939,6.8543,7.7779,0.084717,2.0173,248.12,19.681,0.063536,0.035286,2
2.7529,1.5674,5.013,-0.061845,5.0749,0.016343,0.12387,0.00095495,0.038156,0.99857,2.7553,10.013,3.1643,2.7592,3.1688,-0.40517,1.9908,-14.271,1.2671,0.31903,0.29702,2
2.751,1.2623,4.6873,0.76248,3.9248,-0.009346,0.10913,0.00086594,0.041611,0.99684,2.751,9.1472,3.0244,2.7597,3.034,-0.004532,1.4733,-0.055683,0.076235,0.088677,0.067809,2
14.414,10.369,29.63,5.6843e-14,29.63,0.21238,0.5643,-0.0068188,0.092137,1.135,14.414,314.32,17.729,12.7,15.621,0.21294,1.4821,55583,142.86,27.676,28.979,2
6.9768,5.903,23.15,1.188,21.962,-0.18422,0.24509,0.0049105,0.059579,1.0348,6.9768,83.208,9.1218,6.7424,8.8153,1.2277,3.4769,52477,49.536,0.5553,0.55499,2
24.666,17.895,49.044,0.024539,49.019,0.098569,1.0452,-0.009257,0.10032,1.3597,24.666,925.72,30.426,18.141,22.376,-0.12154,1.5323,-5.9621e+05,32.68,9.8371,11.637,2
16.885,11.653,32.751,1.6395,31.111,0.066057,0.66539,0.0016037,0.10084,1.1688,16.885,419.67,20.486,14.447,17.528,0.017699,1.3736,22287,38.138,21.63,22.707,2
5.9812,4.766,19.747,1.8283,17.919,-0.15752,0.23871,0.0042979,0.080832,1.0285,5.9812,58.285,7.6344,5.8156,7.4231,1.272,3.4907,18595,37.618,0.60813,0.5007,2
8.3916,5.7994,16.041,0.089995,15.951,0.046665,0.35218,0.00076702,0.071998,1.0477,8.3916,103.75,10.186,8.0093,9.7218,-0.24625,1.5287,-3890.8,9.3773,3.201,3.4935,2
8.9154,3.4223,14.786,0,14.786,0.10907,1.3955,-0.04468,0.71448,1.5117,8.9154,91.09,9.5441,5.8977,6.3136,-0.5273,2.7644,-1698.5,45.444,2.6911,1.1326,2
8.3042,2.7598,14.281,0.014825,14.266,-0.032309,1.1687,-0.015548,0.6621,1.4323,8.3042,76.508,8.7469,5.7976,6.1067,-0.72624,4.0215,-991.92,3.8319,4.9075,3.723,2
33.66,11.828,58.571,1.4637,57.108,0.070236,5.5167,-0.16912,2.9612,4.5456,33.66,1271.6,35.66,7.405,7.8449,-0.34346,2.8051,-5.5289e+05,50.459,108.04,176.91,2
47.342,18.413,103.45,14.127,89.325,0.18975,7.6394,0.14603,4.1414,6.2674,47.342,2577.2,50.766,7.5536,8.1,0.73231,3.7713,1.4503e+07,301.95,6.4603,2.4411,2
44.636,16.391,81.15,9.1874,71.963,0.029303,8.7681,-0.11572,5.0881,7.4653,44.636,2258.6,47.525,5.9791,6.3661,0.031455,2.3887,4.5018e+05,126.46,123.13,113.45,2
39.953,18.533,74.249,2.3467,71.902,0.12705,9.3036,0.031576,5.4806,7.9874,39.953,1936.6,44.007,5.002,5.5095,-0.17465,2.0039,-1.1697e+06,320.98,154.78,69.602,2
13.905,4.4324,25.764,1.5655,24.198,-0.17201,1.8216,0.080917,0.91469,1.7428,13.905,212.83,14.589,7.9789,8.3709,0.034214,3.9927,687.74,39.132,1.6163,3.3124,2
12.356,5.1962,24.437,2.2464,22.19,0.04318,1.6803,-0.027494,0.98757,1.8335,12.356,179.42,13.395,6.7386,7.3054,0.14816,2.3618,3634.6,11.465,12.335,16.927,2
13.196,4.2808,21.906,5.3319,16.575,-0.012883,1.8678,0.0010577,1.1195,1.9716,13.196,192.29,13.867,6.693,7.0334,0.15777,2.1082,977.97,4.8525,6.5648,5.0851,2
6.1146,2.8527,15.066,0.92253,14.144,-0.034373,1.4856,0.0032125,0.89144,1.6839,6.1146,45.453,6.7419,3.6312,4.0038,0.60865,3.4407,1139.6,3.5898,3.231,2.5019,2
22.755,16.49,45.821,0.72367,45.097,0.19639,2.1108,-0.029388,1.0244,1.9788,22.755,787.22,28.057,11.499,14.179,-0.10268,1.2652,-2.7793e+05,155.9,86.572,101.18,2
15.175,7.3363,31.306,1.1685,30.138,-0.22241,1.9765,-0.0013256,1.1123,2.0278,15.175,283.62,16.841,7.4835,8.3051,0.26146,2.1122,24199,97.445,15.587,16.809,2
11.571,4.7762,20.184,-0.2846,20.469,0.064299,1.9366,0.026601,1.0804,1.9947,11.576,156.5,12.51,5.8036,6.2717,-0.28457,2.4037,-4872.8,25.339,12.633,10.102,2
11.057,4.9146,22.97,2.9495,20.021,-0.048441,2.3163,0.036878,1.291,2.2476,11.057,146.2,12.091,4.9196,5.3797,0.50158,2.4198,7993,0.14265,0.21025,0.57958,2
4.612,3.3321,9.1244,0.13843,8.986,0.062327,0.17121,0.00048887,0.038884,1.0065,4.612,32.272,5.6809,4.5823,5.6442,0.12382,1.2888,96.321,15.607,3.6378,3.6342,2
8.9494,0.34224,10.17,8.3612,1.8093,0.01099,0.10545,0.0040763,0.051455,0.99641,8.9494,80.208,8.9559,8.9817,8.9882,0.54911,3.7785,0.032405,6.3406,3.9081,3.6732,2
36.211,24.884,79.431,0.36878,79.063,0.24879,1.8042,-0.032057,0.34837,1.8467,36.211,1924.8,43.873,19.609,23.758,0.12029,1.711,6.06e+06,234.18,62.006,66.991,2
21.795,8.3241,38.954,8.2791,30.675,-0.23801,1.0588,0.0032565,0.20233,1.3859,21.795,543.69,23.317,15.727,16.825,0.47973,2.3067,85296,78.261,4.9228,4.8841,2
39.629,21.934,84.536,6.6214,77.914,-0.48858,1.9422,-0.051199,0.46601,2.01,39.629,2047.2,45.246,19.717,22.511,0.28268,2.2139,8.8849e+06,361.72,7.3229,7.4833,2
12.718,7.8105,31.268,2.8114,28.457,0.033003,0.95472,0.014602,0.25333,1.2625,12.718,222.19,14.906,10.073,11.807,0.59198,2.7012,1.1115e+05,10.959,5.4086,5.7116,2
8.3755,6.3239,18.409,-2.8422e-13,18.409,0.037985,0.45189,0.011977,0.081011,1.0824,8.3755,109.78,10.477,7.7381,9.6801,0.27281,1.563,8872.6,6.5464,0.40182,0.23254,2
8.6346,2.8808,13.869,4.5146,9.3541,-0.004895,0.37572,-0.011505,0.070353,1.0525,8.6346,82.781,9.0984,8.2041,8.6447,0.35881,2.0719,306.92,0.89903,1.2158,1.2762,2
4.2467,2.155,7.7314,0.22206,7.5093,-0.011021,0.18396,0.0025952,0.040984,1.0073,4.2467,22.637,4.7578,4.216,4.7233,-0.12619,1.8274,-27.059,0.33076,0.49888,0.50538,2
1.781,1.0259,3.9515,0.2782,3.6733,-0.026529,0.11303,-9.9469e-05,0.054287,0.99756,1.781,4.215,2.053,1.7854,2.0581,0.43637,2.0356,2.3289,0.96935,0.002725,0.003041,2
16.896,10.212,29.495,0.20311,29.291,0.091912,0.60041,0.0025172,0.083131,1.1356,16.896,388.82,19.718,14.878,17.364,-0.36904,1.6191,-1.2667e+05,39.256,11.46,11.535,2
14.476,3.2669,19.479,6.4978,12.981,-0.082561,0.24416,-0.00055263,0.058765,1.0227,14.476,220.12,14.836,14.155,14.507,-0.76996,2.9661,-1670,7.6895,2.2321,2.2565,2
4.6468,1.6829,8.0514,0,8.0514,0.018728,0.2532,-0.01071,0.0466,1.0194,4.6468,24.399,4.9396,4.5583,4.8455,0.13116,2.7939,0.54212,1.1199,0.22383,0.28754,2
4.5756,2.3243,7.4695,0.88613,6.5834,-0.0024184,0.14667,0.00061472,0.028472,1.0014,4.5756,26.29,5.1274,4.5691,5.1201,-0.26267,1.5512,-56.253,0.11349,0.12015,0.10499,2
72.333,31.27,116.48,0,116.48,0.33669,2.5104,-0.046815,0.29743,2.3687,72.333,6201,78.746,30.538,33.245,-0.41877,1.9691,-5.4292e+07,367.04,67.071,68.514,2
26.317,13.093,53.316,3.4563,49.86,-0.19136,1.5195,-0.0059959,0.27285,1.6765,26.317,862.46,29.368,15.697,17.517,0.19895,2.3755,5.2111e+05,47.266,16.612,18.363,2
17.979,8.6227,31.934,4.0204,27.914,-0.090416,0.62043,0.00086969,0.093918,1.1576,17.979,396.93,19.923,15.531,17.21,0.15879,1.8585,20177,8.1132,0.94432,0.78661,2
5.0157,2.638,10.039,0.3508,9.6878,-0.0078954,0.32576,-0.0074858,0.05751,1.0404,5.0157,32.054,5.6616,4.8211,5.4419,0.13038,2.1536,86.411,0.76353,1.164,1.3195,2
14.735,9.3587,28.922,1.3058,27.616,0.043325,0.63003,-0.0073244,0.10067,1.1501,14.735,303.92,17.433,12.812,15.158,-0.063094,1.5037,-8528.2,10.266,6.2073,7.3991,2
7.2729,3.9168,13.844,0.011896,13.832,0.041741,0.49343,0.013879,0.080961,1.0959,7.2729,68.098,8.2522,6.6364,7.5299,0.085204,2.1136,60.908,18.588,7.7241,6.6972,2
14.172,8.9589,22.981,0.16038,22.821,0.090744,0.47519,-0.0012488,0.064265,1.0859,14.172,280.38,16.745,13.051,15.42,-0.4835,1.4757,-76078,36.018,11.367,11.911,2
7.512,3.5595,14.77,2.6223,12.148,-0.11044,0.32469,0.0032579,0.053336,1.0458,7.512,68.986,8.3058,7.1829,7.9419,0.29516,1.7763,693.63,17.179,0.444,0.39404,2
5.7594,4.155,11.8,0.011846,11.788,0.03824,0.23687,-0.0055255,0.035127,1.0184,5.7594,50.278,7.0907,5.6551,6.9623,0.051355,1.5184,323.24,4.7051,1.155,1.3073,2
2.9845,1.7474,6.2998,0.19668,6.1031,-0.012328,0.16674,0.0025775,0.053597,1.0045,2.9845,11.933,3.4545,2.9711,3.439,0.029298,1.8875,6.0579,0.32337,0.44762,0.40127,2
31.329,19.36,62.391,1.1369e-13,62.391,0.22764,1.1638,0.0018844,0.14061,1.4647,31.329,1352.9,36.782,21.39,25.113,0.07562,1.9818,3.0069e+05,170.18,26.146,26.402,2
14.394,6.5733,28,4.3014,23.698,-0.18647,0.49138,-0.0088121,0.095393,1.1136,14.394,250.02,15.812,12.927,14.2,0.54003,2.2212,31395,50.098,1.4377,1.6604,2
12.469,8.7164,24.316,0.46909,23.847,0.14526,0.47087,-0.0037632,0.073295,1.0914,12.469,230.77,15.191,11.425,13.919,0.020185,1.2859,984.41,87.911,25.344,26.475,2
15.979,4.997,25.738,8.9559,16.782,-0.11843,0.50108,0.0042034,0.089551,1.1009,15.979,280.08,16.736,14.515,15.202,0.41581,1.964,5602.4,15.606,4.3549,4.0053,2
5.6506,3.1066,12.012,0.47546,11.537,0.058044,0.24015,-0.0012215,0.083287,1.0198,5.6506,41.493,6.4415,5.5409,6.3164,0.24568,2.3506,436.7,17.802,6.0778,6.4244,2
10.579,1.8204,13.49,7.436,6.0543,-0.01962,0.14917,-8.4078e-05,0.036827,1.002,10.579,115.2,10.733,10.558,10.712,-0.075551,1.9145,-7.0428,2.8696,4.0662,4.0433,2
4.9265,1.9717,9.1581,1.7912,7.3669,-0.052234,0.1981,0.00054813,0.086275,1.011,4.9265,28.123,5.3031,4.8727,5.2452,0.69967,2.4221,91.971,3.0119,0.52679,0.49321,2
3.6,1.3206,4.9765,0.10314,4.8733,-0.029538,0.12806,-0.00042522,0.051322,0.99939,3.6,14.689,3.8326,3.6022,3.8349,-1.0548,3.0177,-24.155,1.3128,0.00035035,0.0026075,2
30.231,18.806,52.865,0.82935,52.036,0.13759,1.0989,0.00034431,0.1788,1.3674,30.231,1264.4,35.558,22.108,26.003,-0.41648,1.5578,-2.7354e+06,100.4,38.843,42.084,2
16.078,5.4365,27.329,7.6584,19.671,-0.17883,0.23409,0.0031837,0.054169,1.0313,16.078,287.8,16.965,15.59,16.449,0.088644,1.6836,3433.1,41.397,3.475,3.5441,2
7.2215,4.3171,19.119,0.16483,18.954,0.11934,0.44001,-0.00054232,0.10847,1.0838,7.2215,70.618,8.4035,6.6628,7.7534,0.61306,3.3737,7538.5,64.343,15.441,14.761,2
13.047,7.0128,21.68,1.5097,20.17,-0.16008,0.20864,-0.0058756,0.059242,1.0235,13.047,218.96,14.797,12.747,14.457,-0.26943,1.6013,-16809,39.385,0.26717,0.30651,2
17.462,11.413,39.293,0.0062332,39.287,0.064971,0.87237,0.0015125,0.14204,1.2752,17.462,434.01,20.833,13.694,16.337,0.41964,2.2063,3.3051e+05,16.467,4.5893,5.1492,2
5.3787,1.525,9.4205,3.3296,6.0909,-0.050516,0.19797,0.0026377,0.055144,1.0109,5.3787,31.235,5.5888,5.3207,5.5285,0.86524,2.8621,41.344,2.7058,0.67507,0.58133,2
3.8142,3.6363,13.871,0.20003,13.671,0.090975,0.25515,0.0007812,0.057606,1.0244,3.8142,27.652,5.2585,3.7233,5.1332,1.4068,4.1674,6053.1,35.515,8.7923,8.593,2
6.3211,4.4623,15.235,0.020018,15.215,-0.08958,0.26431,0.007599,0.053767,1.027,6.3211,59.689,7.7259,6.1549,7.5227,0.78941,2.4428,5523.6,7.8183,0.28353,0.1131,2
34.88,20.17,68.227,4.2842,63.943,-0.31709,1.7632,-0.026724,0.33201,1.8317,34.88,1619.8,40.247,19.043,21.972,0.0027808,1.6595,7.3797e+05,145.95,1.51,1.8263,2
7.9282,6.1023,21.926,0.35787,21.568,-0.021395,0.73124,-0.0064728,0.16144,1.1832,7.9282,99.76,9.988,6.7004,8.4412,0.91098,2.9027,41066,0.95399,0.54034,0.50787,2
15.116,8.4685,26.986,0.59861,26.388,0.027387,0.61084,0.0084782,0.15698,1.1472,15.116,299.55,17.308,13.176,15.087,-0.25788,1.6087,-35537,13.388,10.107,12.116,2
23.08,6.834,30.1,9.8957,20.205,0.038717,0.49632,-0.0050277,0.12813,1.0968,23.08,578.95,24.061,21.044,21.939,-0.72856,2.0306,-40672,25.039,18.402,19.482,2
8.7369,5.1954,24.529,0.39498,24.134,0.15311,0.4498,0.012615,0.099008,1.0871,8.7369,103.08,10.153,8.037,9.3395,1.1651,4.5397,37082,104.67,27.095,25.985,2
14.339,8.5407,28.189,0.45435,27.735,-0.066669,0.53037,0.006447,0.13437,1.1164,14.339,277.89,16.67,12.843,14.931,0.12793,1.6878,12803,8.315,11.526,9.7491,2
13.083,6.5109,21.103,-0.15958,21.263,-0.012144,0.59839,-0.0088979,0.16223,1.1426,13.086,213.16,14.6,11.453,12.778,-0.5536,2.0023,-26203,10.596,12.791,13.328,2
14.787,4.9619,21.458,1.5871,19.871,-0.12975,0.35109,-0.0023779,0.098265,1.0548,14.787,243.06,15.59,14.019,14.78,-1.0526,3.7034,-21360,25.641,0.25928,0.28704,2
17.257,4.5368,26.849,9.9794,16.87,-0.035848,0.48263,0.0023875,0.096577,1.0958,17.257,318.2,17.838,15.748,16.279,0.5463,2.4485,4867.5,7.681,11.326,11.701,2
4.6442,4.3244,15.185,-0.071456,15.257,-0.13831,0.19332,-9.4563e-06,0.062904,1.0178,4.6473,40.1,6.3324,4.566,6.2216,1.2553,3.3457,10174,30.619,0.0032204,0.001715,2
5.9266,3.4264,12.083,-0.062136,12.145,0.064234,0.19801,-0.0040959,0.042646,1.0117,5.928,46.759,6.838,5.8592,6.7587,0.34239,2.0672,561.52,12.838,2.9307,3.329,2
10.697,7.4169,27.894,0.92397,26.97,0.1892,0.46993,0.0021567,0.098289,1.1009,10.697,168.94,12.998,9.7165,11.806,0.79423,2.8833,1.036e+05,147.21,37.122,37.417,2
1.2271,1.1697,3.1258,5.6843e-14,3.1258,0.026307,0.086629,-0.00073739,0.033832,0.9949,1.2271,2.8615,1.6916,1.2334,1.7003,0.53557,1.5457,3.2464,2.4003,0.3973,0.4044,2
2.0828,0.62476,3.3334,0.81648,2.5169,-0.018586,0.11916,-0.0011697,0.060101,0.99807,2.0828,4.725,2.1737,2.0869,2.1779,-0.059286,2.4276,-0.039956,0.46061,0.080242,0.066986,2
0.54178,0.20305,1.0434,0.066688,0.97668,-0.0059375,0.051985,0.00036458,0.022417,0.99233,0.54178,0.33438,0.57826,0.54596,0.58273,-0.085089,2.5375,-0.00019623,0.056172,0.016373,0.012785,2
1.285,0.54567,2.1194,0.022857,2.0965,0.0085208,0.090225,0.0011544,0.043764,0.995,1.285,1.9462,1.3951,1.2914,1.4021,-0.37978,2.5443,-0.117,0.32699,0.075613,0.058607,2
10.196,7.1263,19.996,0.00018062,19.996,0.08645,0.39045,-0.001468,0.06152,1.0619,10.196,154.28,12.421,9.6013,11.697,-0.020937,1.3234,-791,24.113,5.1355,5.6564,2
6.9903,2.709,12.323,2.3339,9.9887,-0.068309,0.26306,0.0019401,0.047094,1.0258,6.9903,56.137,7.4925,6.8144,7.3039,0.34427,2.0931,231.53,6.2736,0.33063,0.38291,2
2.6603,1.795,5.2962,0.0016576,5.2946,0.026744,0.12144,-0.0013876,0.030449,0.99837,2.6603,10.27,3.2047,2.6646,3.2099,-0.19194,1.5801,-6.6595,2.3165,0.55968,0.58667,2
1.7616,0.65677,3.0893,0.6134,2.4759,-0.020415,0.10586,0.0016528,0.043559,0.99666,1.7616,3.5307,1.879,1.7675,1.8853,-0.07937,1.9344,-0.0096275,0.52348,0.036624,0.033287,2
36.424,21.987,60.149,0.16636,59.983,0.34876,0.98082,0.009959,0.23621,1.3805,36.424,1805.8,42.494,26.385,30.782,-0.54906,1.6533,-8.5122e+06,465.68,100.5,104.57,2
24.852,17.918,55.215,3.2523,51.963,-0.16566,1.0133,-0.0075612,0.18228,1.358,24.852,935.79,30.591,18.3,22.526,0.39809,1.6977,2.5514e+06,37.921,43.656,43.234,2
12.176,9.1823,26.038,0.41794,25.62,0.037482,0.61437,-0.0006028,0.082297,1.1334,12.176,231.81,15.225,10.743,13.433,0.15677,1.4866,35665,10.051,5.0636,5.7552,2
8.0867,1.4203,10.101,4.3706,5.7301,-0.048893,0.15602,-0.00045879,0.055277,1.0039,8.0867,67.394,8.2094,8.0554,8.1776,-0.53975,2.7777,-23.076,2.924,1.1787,1.2127,2
3.9079,3.1879,9.9293,-0.1198,10.049,0.027471,0.25088,-0.00018904,0.042593,1.0208,3.9151,25.343,5.0342,3.8353,4.9315,0.68224,2.0109,775.98,5.7527,3.0454,3.2264,2
7.4576,3.7751,13.653,1.0551,12.598,-0.025148,0.29088,0.00012143,0.048933,1.0313,7.4576,69.739,8.351,7.2312,8.0975,-0.0089906,1.9446,-79.225,1.053,1.2842,1.4652,2
3.4014,1.0456,5.255,1.167,4.088,-0.036966,0.061787,-0.0012719,0.024801,0.99345,3.4014,12.653,3.5571,3.4239,3.5806,-0.23282,2.1755,-0.99261,1.9211,0.11716,0.13048,2
0.54931,0.28965,1.167,0.031207,1.1358,-0.001601,0.062355,0.001854,0.026213,0.9929,0.54931,0.38488,0.62039,0.55324,0.62483,0.061838,1.8499,0.00052544,0.030748,0.027053,0.022566,2
1.1941,0.26611,1.7066,0.66921,1.0374,-0.0017171,0.086267,5.6308e-06,0.035221,0.99464,1.1941,1.4961,1.2232,1.2006,1.2297,0.044298,2.0791,0.00010008,0.014874,0.015582,0.015589,2
1.2975,0.75066,2.7119,0.14822,2.5637,0.003465,0.079992,-0.0011323,0.027596,0.99412,1.2975,2.2418,1.4973,1.3051,1.5061,0.1556,1.6905,0.1586,0.12938,0.070594,0.068133,2
12.463,8.1112,24.392,0.10148,24.29,0.074212,0.55367,-0.0047434,0.10244,1.1252,12.463,220.52,14.85,11.077,13.198,0.062875,1.5667,4329.4,23.444,4.5203,4.0666,2
14.506,6.0481,22.22,3.7038,18.516,-0.064911,0.34898,-0.0093148,0.089418,1.0489,14.506,246.67,15.706,13.829,14.973,-0.34515,1.73,-10028,6.1982,1.326,1.3507,2
24.779,11.75,46.457,0.014171,46.442,0.071019,2.0346,-0.036357,0.81934,2.0132,24.779,750.83,27.401,12.309,13.611,0.21193,2.3647,77490,26.201,16.665,23.099,2
17.062,10.523,42.733,0.065915,42.667,0.019196,1.8893,0.0051189,0.774,1.8384,17.062,400.84,20.021,9.2809,10.891,1.0048,3.2917,7.3182e+05,18.499,14.125,12.452,2
15.168,7.621,32.125,1.2268,30.898,0.079377,1.6515,-0.017218,0.51554,1.7331,15.168,287.62,16.959,8.7518,9.7855,-0.13994,2.7127,2833.8,59.399,44.791,51.067,2
27.939,8.4068,39.172,7.0674,32.105,-0.16625,1.1259,0.019041,0.41885,1.4305,27.939,850.64,29.166,19.531,20.389,-0.55874,2.7875,-1.6926e+05,33.756,2.2955,2.5392,2
30.816,9.781,53.527,14.969,38.558,-0.30769,2.2241,0.10407,0.86227,1.8864,30.816,1044.5,32.318,16.336,17.132,-0.065325,1.6961,5019.2,117.56,25.202,25.14,2
17.795,6.9655,28.166,6.2467,21.92,0.0037341,0.60646,-0.0015302,0.17453,1.1409,17.795,364.74,19.098,15.597,16.74,-0.1787,1.4441,-8167.6,22.685,26.923,27.735,2
18.449,10.258,34.393,3.656,30.737,-0.13138,0.81825,0.017923,0.17191,1.241,18.449,444.67,21.087,14.867,16.993,0.2498,1.51,77182,20.407,1.5313,1.0811,2
15.339,6.0024,22.338,4.0371,18.301,0.029526,0.62347,-0.0065518,0.20019,1.1273,15.339,270.99,16.462,13.607,14.603,-0.66943,1.8316,-16717,8.0701,5.0507,5.1427,2
5.8033,2.6871,11.198,1.2283,9.97,-0.029753,0.29187,-0.0020089,0.1035,1.0311,5.8033,40.833,6.3901,5.6285,6.1976,0.28206,2.2205,186.16,0.82549,0.41849,0.51723,2
2.7142,1.554,6.9969,0.21447,6.7824,-0.015758,0.35593,-0.0059087,0.17647,1.0481,2.7142,9.7598,3.1241,2.5897,2.9808,0.86872,3.4273,54.141,0.64937,0.37853,0.36036,2
8.3811,5.0181,19.349,0.26215,19.087,0.10914,1.8855,-0.021485,0.94546,1.9945,8.3811,95.195,9.7568,4.202,4.8918,0.26092,2.1608,4662.2,42.463,20.833,22.887,2
8.6321,4.2181,17.569,-0.1433,17.712,-0.069861,1.3561,0.014968,0.67854,1.6121,8.6347,92.145,9.5992,5.3563,5.9546,-0.0071803,2.4243,17.976,7.7185,4.3997,2.9529,2
36.272,23.757,73.795,1.4097,72.385,0.18459,1.5873,-0.0017078,0.23437,1.6424,36.272,1874.9,43.3,22.084,26.363,-0.023033,1.6628,9.0996e+05,186.81,57.988,58.11,2
23.702,13.889,39.957,0.24029,39.717,-0.32851,0.42667,-0.0056039,0.14928,1.1171,23.702,752.96,27.44,21.217,24.563,-0.40174,1.5714,-6.9794e+05,170.36,0.041979,0.038481,2
4.125,2.6246,7.22,-0.77562,7.9956,0.04573,0.1806,-0.0028027,0.078933,1.0076,4.1998,23.843,4.8829,4.168,4.846,-0.45676,1.6729,-199.11,7.0741,1.5165,1.5005,2
2.072,1.4291,5.4837,0.1568,5.3269,-0.038073,0.15797,0.00063274,0.074709,1.0037,2.072,6.317,2.5134,2.0643,2.504,1.0142,2.8515,30.036,2.1293,0.14084,0.12309,2
12.939,8.132,24.574,-5.6843e-14,24.574,0.030987,0.79202,0.025001,0.31036,1.2156,12.939,232.94,15.263,10.644,12.556,-0.10838,1.6173,-14560,8.6635,3.957,3.477,2
6.7445,2.8429,10.799,1.1957,9.6037,-0.062251,0.35564,-0.0072244,0.19978,1.0509,6.7445,53.498,7.3142,6.4176,6.9597,-0.44613,1.7405,-287.31,6.7597,1.0814,0.99401,2
40.462,11.975,52.908,14.291,38.617,-0.33514,0.34416,-0.010614,0.092831,1.0918,40.462,1779.2,42.181,37.058,38.633,-0.55433,1.9725,-5.989e+05,142.88,12.64,14.665,2
9.5468,3.2393,15.456,3.2233,12.233,-0.073884,0.81068,0.00092002,0.3481,1.2459,9.5468,101.54,10.077,7.6625,8.0878,-0.048757,2.2291,-81.388,5.9209,1.8744,1.9039,2
20.945,10.932,39.44,1.4211e-13,39.44,0.35243,0.33965,-0.0091044,0.11961,1.0983,20.945,557.12,23.603,19.07,21.491,-0.025492,2.2243,-27373,397.89,71.674,73.964,2
27.42,8.9484,40.739,13.581,27.157,-0.22172,0.25233,0.005745,0.077252,1.0442,27.42,831.2,28.831,26.259,27.61,-0.060997,1.5266,-11191,55.067,9.3056,8.9267,2
5.7423,4.4948,14.373,0.054017,14.319,0.023473,0.42064,-0.0074872,0.13285,1.0693,5.7423,52.994,7.2797,5.3702,6.808,0.3975,1.8638,3131.8,2.1554,0.98744,1.2592,2
3.0373,1.6541,6.8518,0.86512,5.9867,-0.016986,0.21458,0.0039297,0.077925,1.0131,3.0373,11.936,3.4549,2.998,3.4102,0.51957,2.2345,35.299,0.26629,0.1296,0.094464,2
1.6772,0.70494,2.985,0.04336,2.9416,0.0067918,0.18307,-0.0016043,0.071861,1.0071,1.6772,3.3055,1.8181,1.6654,1.8053,-0.11758,2.4863,-0.17166,0.57378,0.36267,0.32914,2
4.114,1.575,7.3539,1.0761,6.2778,0.0051924,0.26184,0.0019355,0.086127,1.0233,4.114,19.383,4.4026,4.0205,4.3026,0.56179,2.6115,21.438,0.69945,0.4649,0.41065,2
19.175,13.611,42.11,1.8878e-06,42.11,0.029276,1.023,-0.0036328,0.17208,1.3097,19.175,551.23,23.478,14.641,17.927,0.19858,1.7543,3.5657e+05,6.9462,4.0916,4.4875,2
8.0843,2.603,11.836,3.4648,8.3708,-0.027053,0.23934,0.0018973,0.04681,1.0181,8.0843,72.07,8.4894,7.9407,8.3386,-0.20897,1.68,-102.35,1.3592,1.7331,1.7982,2
10.437,14.492,72.428,0.10184,72.326,0.60914,1.4058,0.044429,0.1298,1.4647,10.437,317.05,17.806,7.1256,12.157,2.6503,9.7748,2.249e+07,1368.3,183.7,159.84,2
46.752,36.809,105.26,2.255,103.01,-0.63793,1.3636,-0.04096,0.14154,1.6609,46.752,3528.4,59.4,28.149,35.765,0.27134,1.5157,5.9111e+07,634.23,0.88869,0.57282,2
6.5924,3.7408,12.759,3.4106e-13,12.759,0.08289,0.21403,-0.0012856,0.05448,1.0161,6.5924,57.326,7.5714,6.4881,7.4516,0.25058,1.8788,376.33,22.113,3.714,4.0247,2
10.005,3.8066,15.814,2.6314,13.182,-0.058214,0.2153,-0.0028564,0.05124,1.0147,10.005,114.46,10.699,9.8597,10.543,-0.30591,1.9904,-967.54,4.5516,0.50826,0.59184,2
4.2538,2.291,8.3706,1.0007,7.3699,0.04521,0.14592,0.0018166,0.058996,1.0022,4.2538,23.296,4.8266,4.2444,4.8159,0.42349,1.7482,93.843,9.5762,2.6365,2.6201,2
3.8402,2.3546,7.6991,0.029376,7.6697,-0.068865,0.096383,-0.0016612,0.036737,0.99784,3.8402,20.241,4.499,3.8485,4.5088,0.20809,1.7943,53.752,7.8323,0.015173,0.020186,2
31.825,17.729,64.269,0,64.269,0.17355,2.4492,-0.084893,0.86437,2.2402,31.825,1324.3,36.391,14.207,16.245,0.29929,1.8965,1.9554e+06,95.126,21.931,21.978,2
17.418,4.6396,26.019,8.1425,17.876,0.010648,0.89594,-0.0046538,0.41985,1.27,17.418,324.72,18.02,13.715,14.189,-0.49051,2.1054,-3412.8,27.298,31.815,27.588,2
24.981,9.5213,41.461,1.7341,39.727,0.070459,2.4684,0.011933,1.0616,2.2133,24.981,713.88,26.718,11.287,12.072,-0.52848,2.5855,-2.343e+05,63.504,50.741,55.882,2
18.791,9.5344,35.663,5.3902,30.273,-0.19145,1.3868,0.020242,0.52131,1.5561,18.791,443.19,21.052,12.076,13.529,0.17001,1.713,62152,45.676,1.8808,1.6358,2
17.511,7.2699,30.72,1.1369e-13,30.72,-0.098982,2.1837,0.10939,1.0602,1.8731,17.511,359.02,18.948,9.349,10.116,-0.24793,2.2658,-28806,14.493,19.554,22.639,2
13.48,5.7726,24.139,-0.06803,24.207,-0.096267,1.7882,-0.024753,1.0611,1.7966,13.482,214.74,14.654,7.5041,8.1568,-0.31953,2.4573,-12336,21.45,12.557,9.9209,2
4.9522,1.1431,6.7372,2.4448,4.2924,-0.024261,0.14031,-0.00051417,0.044259,1.0007,4.9522,25.819,5.0813,4.9485,5.0775,-0.75751,2.7291,-7.1036,0.68256,0.34651,0.34701,2
11.056,7.6854,23.784,0.052666,23.731,0.046434,0.58492,-0.00093265,0.095036,1.1181,11.056,180.76,13.445,9.8878,12.024,0.023942,1.7818,7596.1,9.5039,3.0109,3.1457,2
22.479,9.4805,33.455,4.1423,29.312,-0.18016,0.36909,-0.011612,0.052692,1.0683,22.479,594.37,24.38,21.043,22.822,-0.50269,1.7862,-1.404e+05,45.429,1.2865,1.4365,2
3.9972,2.5371,8.0176,0.71555,7.3021,0.022488,0.1364,0.00096253,0.034154,1.0003,3.9972,22.357,4.7283,3.9961,4.7269,0.29199,1.6373,96.628,4.3458,2.134,2.2493,2
4.6097,1.2398,6.6161,2.3887,4.2273,-0.015321,0.12493,-0.0012437,0.042368,0.99869,4.6097,22.773,4.7721,4.6157,4.7783,-0.40494,2.0293,-3.6308,0.89383,1.3878,1.4666,2
3.1559,1.335,4.9308,0.12854,4.8022,-0.043657,0.074728,0.00030012,0.033158,0.99466,3.1559,11.726,3.4243,3.1729,3.4427,-0.6316,2.2232,-12.855,3.1082,0.010033,0.010854,2
6.3329,3.9014,15.849,0.028067,15.821,-0.014757,0.96867,0.055356,0.33623,1.2266,6.3329,55.189,7.4289,5.1629,6.0564,0.37134,2.2078,1742.2,8.3702,9.2298,7.6347,2
14.6,2.9115,20.281,7.5701,12.711,-0.013886,0.46117,-0.0048943,0.13144,1.0829,14.6,221.55,14.885,13.481,13.745,-0.44492,3.0604,-617.38,6.8686,9.3206,9.7264,2
8.8048,7.5704,25.294,0.055279,25.239,0.060142,0.60027,0.0015047,0.14563,1.1408,8.8048,134.32,11.59,7.7182,10.159,0.9326,2.5695,1.024e+05,34.438,18.878,20.771,2
13.082,5.6184,22.007,0.99087,21.016,-0.023999,1.0274,-0.0031483,0.35653,1.3347,13.082,202.41,14.227,9.8015,10.66,-0.38586,2.1222,-9537.1,11.464,15.971,16.19,2
48.683,50.426,163.26,0.79541,162.46,1.4375,2.1983,-0.0030452,0.48374,2.3847,48.683,4889.7,69.926,20.415,29.323,1.0502,2.5711,1.4509e+09,6912.7,1218.8,1193.5,2
49.599,48.902,163.34,3.7067,159.64,-0.982,2.3035,0.032342,0.36356,2.3792,49.599,4829.9,69.498,20.847,29.211,1.1259,2.9183,1.5363e+09,1054.4,126.35,97.151,2
30.721,20.077,60.881,0.099594,60.782,0.051282,1.5788,-0.0091711,0.37961,1.6623,30.721,1343.3,36.65,18.481,22.048,-0.063971,1.4249,-3.8502e+05,216.17,156.75,149.58,2
17.199,18.02,64.487,2.9036,61.584,-0.5093,0.96729,-0.013218,0.26132,1.3818,17.199,617.59,24.851,12.447,17.985,1.5261,3.9389,1.6858e+07,387.11,1.4705,1.2028,2
12.758,4.9001,20.071,3.3949,16.676,-0.053218,0.56771,-0.0082927,0.21795,1.1243,12.758,186.57,13.659,11.348,12.149,-0.22288,1.8939,-3033.1,3.7849,0.95906,1.0884,2
7.6125,4.7233,15.264,0.81372,14.45,0.089168,0.50656,-0.0040347,0.20276,1.1017,7.6125,80.058,8.9475,6.9096,8.1214,-0.26575,1.5218,-1458,32.395,10.867,10.156,2
7.3442,2.9987,13.203,1.2453,11.958,-0.060056,0.53893,0.01065,0.20962,1.1146,7.3442,62.849,7.9277,6.5889,7.1123,-0.52685,2.3705,-548.34,3.7054,1.9468,1.6596,2
7.4646,2.1179,12.407,3.9774,8.43,-0.023816,0.39483,-0.0018742,0.16886,1.0579,7.4646,60.165,7.7566,7.0559,7.332,0.21493,2.1507,62.862,0.92239,0.97011,0.89841,2
18.077,11.288,35.557,0.0014617,35.555,0.094356,0.86865,-0.013631,0.24255,1.2767,18.077,453.02,21.284,14.159,16.671,-0.10585,1.7265,-35866,41.568,12.147,12.195,2
7.1152,4.4053,16.018,0.21692,15.801,-0.14364,0.51826,0.00038852,0.26388,1.1127,7.1152,69.858,8.3581,6.3943,7.5112,0.1466,2.0704,1311.3,32.666,0.015445,0.014399,2
30.33,19.784,68.866,1.2177,67.648,-0.36755,1.2096,-0.038402,0.14775,1.4932,30.33,1307.8,36.163,20.313,24.219,0.65624,2.1852,7.7072e+06,212.2,0.60383,0.76378,2
23.464,9.6184,38.226,0.38198,37.844,0.11531,1.2252,-0.0012619,0.23233,1.4407,23.464,642.23,25.342,16.286,17.59,-0.59777,3.1441,-3.7449e+05,45.028,10.751,11.92,2
6.899,5.702,16.359,0.0066562,16.352,0.0057754,0.43995,-0.0028043,0.097957,1.076,6.899,79.814,8.9339,6.4116,8.3027,0.31728,1.656,6787.5,0.12132,0.019805,0.020286,2
4.4259,2.2615,8.5141,0.14024,8.3738,0.03054,0.31249,-0.00075024,0.093478,1.0372,4.4259,24.657,4.9656,4.2671,4.7874,-0.31116,2.2638,-70.341,3.4359,0.8203,1.0366,2
4.4208,2.0577,7.1617,0.019448,7.1423,0.031295,0.2059,0.00054486,0.049983,1.0116,4.4208,23.739,4.8722,4.3699,4.8162,-0.64088,2.2888,-108.16,4.6118,1.3216,1.3594,2
5.2074,1.062,7.4745,3.2682,4.2063,-0.019152,0.14127,-0.0012308,0.046386,1.0008,5.2074,28.235,5.3136,5.2032,5.3093,0.17314,2.3871,1.5235,0.57032,0.62864,0.63024,2
11.201,5.001,17.143,1.1369e-13,17.143,0.011547,0.5579,0.0029787,0.10017,1.1187,11.201,150.25,12.258,10.013,10.957,-0.84336,2.5884,-12582,1.1581,0.67901,0.75336,2
5.193,2.1113,9.2326,2.7129,6.5198,-0.0059904,0.20822,0.0012382,0.051319,1.0117,5.193,31.384,5.6022,5.1327,5.5371,0.65497,2.0458,106,0.25107,0.38127,0.44962,2
39.308,15.386,63.624,0,63.624,0.16727,1.2006,-0.026969,0.15449,1.482,39.308,1779.7,42.186,26.524,28.466,-0.36922,2.5343,-2.1354e+06,89.66,17.072,17.858,2
31.975,19.936,62.906,1.5816,61.325,0.12244,1.3922,-0.0062066,0.18675,1.5641,31.975,1416.3,37.634,20.443,24.061,-0.040789,1.7345,-8693.6,108.67,55.437,58.938,2
17.631,6.1511,31.7,8.1714,23.529,-0.2139,0.44681,0.0079463,0.088347,1.0985,17.631,348.35,18.664,16.05,16.991,0.30642,1.8096,12086,60.782,4.185,4.0581,2
14.067,13.796,45.13,-0.068973,45.199,0.33599,0.90003,0.003443,0.15283,1.274,14.069,386.49,19.659,11.043,15.431,1.3484,3.309,3.2046e+06,431.49,94.773,94.223,2
17.992,8.4364,31.227,3.0408,28.187,0.065883,0.87579,-0.009902,0.21597,1.2566,17.992,394.24,19.855,14.317,15.8,-0.14613,1.7601,-27378,17.626,6.5607,7.6189,2
7.5098,3.9253,14.621,1.5235,13.098,0.0038772,0.40332,0.0028727,0.163,1.0638,7.5098,71.666,8.4656,7.0594,7.9578,0.2265,1.8647,856.12,6.0106,6.0601,6.3156,2
20.385,11.294,40.418,1.7053e-13,40.418,0.12761,1.279,-0.017662,0.35659,1.4992,20.385,541.95,23.28,13.598,15.528,-0.054731,2.0432,-52785,52.079,10.16,10.104,2
19.212,10.063,37.949,3.3541,34.595,-0.093392,0.79465,0.0048435,0.31288,1.2413,19.212,469.46,21.667,15.478,17.455,0.30014,2.0095,1.2478e+05,10.672,0.50961,0.42363,2
2.9372,1.1682,5.5067,0.075871,5.4308,-0.016948,0.46766,0.0012153,0.26104,1.0874,2.9372,9.9796,3.1591,2.7011,2.9052,-0.24529,3.1382,-3.3475,0.17753,0.080589,0.1941,2
3.3489,1.2572,5.8905,0.58441,5.3061,0.025465,0.54951,-0.0087604,0.32369,1.1209,3.3489,12.781,3.5751,2.9875,3.1894,-0.2672,2.647,-4.1122,3.2028,1.7092,1.5537,2
8.2824,5.1721,18.542,-0.0042559,18.546,0.030285,0.8303,-0.0022691,0.28435,1.2511,8.2825,95.106,9.7522,6.6203,7.7951,0.038123,1.9314,1914.5,3.7036,0.18172,0.061386,2
7.7048,4.5498,17.224,0.89692,16.327,-0.017563,0.61096,-0.0057909,0.25685,1.1431,7.7048,79.878,8.9375,6.7402,7.8186,0.38193,2.1998,3732.5,0.32721,0.16981,0.42344,2
10.482,4.2653,17.319,1.3691,15.95,0.10394,0.64345,-0.012762,0.38014,1.165,10.482,127.91,11.31,8.9976,9.7078,-0.61995,2.1765,-3182.8,37.337,11.378,10.537,2
8.0097,2.7698,13.811,1.3864,12.425,-0.076742,0.79792,0.0093155,0.41477,1.2363,8.0097,71.758,8.471,6.4787,6.8519,-0.048334,2.4605,-89.413,7.7231,1.3558,1.3597,2
21.153,10.543,37.698,0,37.698,0.045045,0.91525,-0.019082,0.17164,1.2943,21.153,557.57,23.613,16.343,18.244,0.22157,1.9599,38344,6.0727,1.9207,2.0588,2
12.931,6.4363,23.106,0.025269,23.081,0.090111,0.65963,0.00434,0.17528,1.17,12.931,208.27,14.432,11.053,12.335,-0.20816,1.9664,-11624,36.165,11.824,12.327,2
19.933,10.934,38.142,4.0861,34.056,0.0096553,0.86074,-0.0017258,0.14741,1.2436,19.933,515.81,22.711,16.029,18.263,0.33995,1.7602,1.7324e+05,14.335,14.344,14.738,2
12.526,10.234,38.55,-0.022889,38.573,0.20301,0.92096,0.0034098,0.17136,1.2473,12.526,260.7,16.146,10.043,12.945,1.5407,4.3905,1.0894e+06,213.25,71.09,71.52,2
11.809,10.862,32.33,5.6843e-14,32.33,0.082954,0.87865,-0.0009196,0.15065,1.2179,11.809,256.37,16.011,9.6961,13.146,0.66646,1.8632,3.5808e+05,37.86,14.731,15.601,2
12.23,5.3801,20.634,1.5244,19.11,-0.13989,0.32183,0.00090509,0.067752,1.0469,12.23,178.27,13.352,11.683,12.754,-0.32705,2.1902,-6675.8,30.184,0.27021,0.27147,2
1.5443,1.4453,4.3384,-0.98575,5.3242,0.0080144,0.14095,9.8628e-05,0.035769,1.0007,1.7985,4.4549,2.1107,1.7973,2.1093,-0.077092,2.3245,0.79744,0.54888,0.40331,0.45821,2
4.2577,3.6832,15.549,0.065289,15.484,0.11948,0.39677,0.0055671,0.078486,1.0632,4.2577,31.572,5.6189,4.0045,5.2847,0.99865,3.7712,5787.8,54.476,10.446,9.6941,2
56.128,39.395,121.4,0.062835,121.34,0.60836,2.4865,0.0016015,0.49343,2.3484,56.128,4688.2,68.47,23.901,29.156,-0.058905,1.7905,1.5355e+07,1243.2,240.01,255.85,2
34.398,22.334,77.922,4.3857,73.536,-0.60543,1.2516,-0.0033469,0.23676,1.5833,34.398,1677.5,40.958,21.726,25.869,0.59659,2.2557,1.4432e+07,562.96,1.9129,1.7052,2
48.053,20.307,91.704,9.5065,82.197,0.68397,2.4918,0.035883,0.95581,2.3929,48.053,2717.7,52.132,20.082,21.786,0.17875,2.5281,2.6241e+06,1779.5,392.09,372.88,2
33.987,23.037,91.704,7.259,84.445,-0.60006,1.5698,0.012872,0.48009,1.7271,33.987,1681.1,41.001,19.679,23.739,1.2186,3.4046,4.3213e+07,441.71,31.316,25.942,2
27.182,10.364,50.666,15.016,35.65,-0.037908,1.3087,-0.0093762,0.35095,1.4776,27.182,845.31,29.074,18.396,19.676,0.93075,2.6507,5.2489e+05,16.941,25.408,28.738,2
26.627,12.093,44.531,8.6542,35.876,-0.10494,1.3209,0.0013899,0.45887,1.5175,26.627,853.92,29.222,17.546,19.256,0.14515,1.5626,97213,13.683,6.2342,6.9402,2
28.623,10.112,50.746,9.986,40.76,0.086599,1.1024,-0.024076,0.17716,1.3818,28.623,920.57,30.341,20.715,21.958,0.79796,2.6202,3.8242e+05,46.516,20.056,20.77,2
24.504,12.236,46.049,8.0055,38.044,0.024581,1.074,0.0015041,0.19353,1.3078,24.504,748.83,27.365,18.737,20.924,0.43372,1.8629,4.5723e+05,30.048,25.362,26.343,2
20.412,10.864,35.887,-2.2737e-13,35.887,0.11871,1.0442,-0.004225,0.28063,1.3722,20.412,533.61,23.1,14.875,16.834,-0.63688,2.222,-3.8344e+05,56.726,19.702,22.763,2
5.4001,3.4554,18.388,0.29648,18.091,-0.15125,0.38611,0.015819,0.10391,1.0672,5.4001,40.993,6.4026,5.0601,5.9995,1.6981,6.5385,9471.6,30.797,0.006804,0.00069347,2
43.375,25.794,90.405,-1.1369e-13,90.405,0.10957,2.1584,-0.054221,0.33432,2.0027,43.375,2540.7,50.406,21.658,25.168,0.48838,2.0198,2.0878e+07,39.58,7.5349,7.2552,2
37.432,29.405,81.377,1.0084,80.368,0.28275,1.8849,-0.006649,0.26127,1.7104,37.432,2258,47.519,21.885,27.782,0.018562,1.3695,5.5825e+06,330.98,97.042,104.69,2
18.812,12.035,43.046,1.2723,41.774,-0.37976,0.19774,0.0048641,0.082812,1.0749,18.812,497.45,22.304,17.501,20.749,0.33211,1.9314,3.7955e+05,229.75,0.44345,0.43022,2
33.566,19.651,62.942,-0.0010945,62.944,0.085415,1.6046,-0.0021502,0.24298,1.5733,33.566,1509.3,38.85,21.335,24.694,0.027051,1.8425,-5.1311e+05,25.168,6.7615,7.7098,2
16.529,6.5846,30.765,0.25236,30.513,-0.036847,3.3115,0.023349,2.0363,3.1403,16.529,316.17,17.781,5.2636,5.6623,-0.14806,2.5345,-14252,1.8819,0.73439,3.6119,2
15.243,5.8208,26.399,5.0338,21.365,-0.047518,3.4041,-0.020491,2.0953,3.2345,15.243,265.92,16.307,4.7126,5.0416,-0.035456,1.7846,-779.98,0.24449,0.86806,5.3274,2
0.75781,0.20483,1.2662,5.6843e-14,1.2662,0.006111,0.086457,-0.0048369,0.038581,0.9945,0.75781,0.61584,0.78476,0.762,0.7891,-0.22803,3.651,-0.0017703,0.12342,0.026059,0.022229,2
0.56349,0.2147,1.0807,0.19617,0.88454,-0.00078722,0.067039,0.00094014,0.029707,0.99319,0.56349,0.36319,0.60266,0.56735,0.60679,0.53035,2.7348,0.0013856,0.011512,0.009242,0.0064261,2
0.49023,0.23291,1.2257,0.045689,1.18,0.00029862,0.097384,-1.247e-05,0.051711,0.99561,0.49023,0.29408,0.5423,0.49239,0.54469,0.44361,3.5771,0.0038352,0.024092,0.016984,0.011801,2
0.55382,0.15559,0.81787,0.00060525,0.81726,-0.0001227,0.055043,1.9471e-05,0.028153,0.99247,0.55382,0.3307,0.57507,0.55802,0.57943,-1.3344,5.659,-0.0013531,0.015433,0.016958,0.022855,2
43.128,17.897,57.872,0.27407,57.598,0.29706,1.5954,0.064267,0.59862,1.5933,43.128,2177.4,46.663,27.069,29.287,-1.1739,2.7577,-9.3302e+06,413.82,143.39,153.45,2
38.144,12.638,57.576,11.981,45.595,0.024115,1.1773,0.0060987,0.4575,1.4437,38.144,1613.3,40.165,26.421,27.821,-0.26328,1.9819,-4.6295e+05,163.52,149.52,144.03,2
18.665,6.379,30.045,0.93787,29.107,0.055091,1.2812,0.03816,0.68592,1.5265,18.665,388.7,19.715,12.227,12.915,-0.66016,3.4293,-56759,22.817,7.0331,8.8877,2
12.098,6.9358,25.029,1.8499,23.179,-0.025043,1.1974,-0.027199,0.63542,1.4672,12.098,194.03,13.929,8.2456,9.4941,0.40763,1.897,25121,8.2489,14.423,17.36,2
10.801,4.5625,22.792,2.6481,20.144,-0.0074602,1.2121,0.014889,0.6392,1.4725,10.801,137.29,11.717,7.3354,7.9576,0.48171,2.868,6846,5.7225,5.3906,3.6841,2
8.7005,2.7007,12.62,1.7139,10.906,-0.085063,0.87318,-0.0022459,0.50049,1.2944,8.7005,82.927,9.1064,6.7215,7.0351,-0.76208,2.9017,-683.35,11.695,0.62027,1.3608,2
16.766,8.7384,30.5,5.6843e-14,30.5,0.062694,1.2235,-0.048938,0.29746,1.4303,16.766,356.78,18.889,11.722,13.206,-0.34842,1.9772,-71111,12.602,2.0387,3.3093,2
10.984,5.8791,19.791,0.94345,18.848,-0.053026,0.40018,-0.003347,0.14483,1.0652,10.984,154.89,12.446,10.311,11.683,-0.15293,1.6531,-4621.9,3.8905,0.049042,0.044279,2
10.045,5.4532,16.41,-0.00062602,16.411,0.097572,0.60574,0.00061607,0.31463,1.1461,10.045,130.37,11.418,8.7649,9.963,-0.95724,2.2306,-15757,33.569,5.9124,5.5837,2
19.331,19.45,56.509,0.70807,55.801,0.40218,0.99899,-0.00046087,0.21763,1.3373,19.331,748.56,27.36,14.455,20.459,1.0687,2.4272,1.101e+07,635.16,148.77,148.56,2
