36.332,25.817,89.575,2.983,86.592,-0.13048,1.5209,0.0053169,0.28854,1.6134,36.332,1982.8,44.529,22.519,27.6,0.33211,2.196,2.3562e+07,51.931,1.724,1.3359,2
16.21,8.4988,34.103,1.0246,33.078,-0.037674,0.94293,-0.0088693,0.19063,1.3115,16.21,334.61,18.292,12.36,13.947,0.61276,2.432,1.1851e+05,5.5609,0.50144,1.1744,2
16.607,11.803,41.28,-0.00081591,41.281,0.1129,1.2212,-0.014279,0.46464,1.4703,16.607,414.32,20.355,11.295,13.844,0.45353,2.2487,5.2991e+05,118.5,24.394,22.258,2
79.111,40.025,164.24,2.3198,161.92,-0.035597,3.1153,0.011786,0.8571,2.6494,79.111,7851.7,88.61,29.86,33.445,0.65286,2.5989,2.5465e+08,138.71,175.08,185.07,2
33.34,16.782,54.005,0.45918,53.546,-0.052444,1.1159,0.0034481,0.24492,1.3971,33.34,1391.6,37.305,23.864,26.702,-0.54778,1.8507,-2.6361e+06,13.35,4.836,6.4451,2
24.368,19.242,53.442,1.3425,52.099,0.057506,0.95534,0.0010559,0.29427,1.321,24.368,962.01,31.016,18.446,23.479,0.20451,1.4019,1.7175e+06,39.156,15.011,16.5,2
17.51,10.584,35.135,1.467,33.668,-0.016258,0.56126,-0.008827,0.12111,1.1282,17.51,417.99,20.445,15.52,18.122,-0.091272,1.8637,-10754,17.85,25.774,29.048,2
19.221,11.655,39.879,1.1646,38.714,-0.088873,0.58873,-0.010366,0.10545,1.14,19.221,504.54,22.462,16.86,19.703,0.026398,1.9342,81578,32.87,0.3725,0.51129,2
69.34,26.31,117.69,9.0949e-13,117.69,0.1254,3.6877,-0.033915,0.77446,3.2992,69.34,5496.5,74.138,21.017,22.471,-0.35065,2.6781,-3.3872e+07,141.42,91.43,109.71,2
44.756,35.065,116.19,0.00094792,116.19,0.21068,3.3729,-0.00068831,0.64936,2.94,44.756,3225.9,56.797,15.223,19.318,0.50955,2.0705,1.1706e+08,629.6,361.8,412.38,2
1.0094,0.50595,1.9515,0.062121,1.8894,-0.00769,0.063144,-0.00045389,0.027111,0.99644,1.0094,1.2735,1.1285,1.013,1.1325,0.42167,2.0825,0.040012,0.24543,0.056377,0.10952,2
0.84261,0.28488,1.4841,0.1529,1.3312,0.0030672,0.059825,0.0002124,0.025557,0.99624,0.84261,0.7907,0.88921,0.84579,0.89257,-0.25559,2.7894,-0.0031248,0.14794,0.055596,0.054133,2
9.0718,6.3147,20.869,0.0010128,20.868,0.053195,0.57615,0.0042754,0.23359,1.1333,9.0718,121.95,11.043,8.0045,9.744,0.35963,1.6803,12279,28.194,3.1953,1.6163,2
9.5042,3.2508,14.6,1.1626,13.437,-0.048977,0.40284,-0.0033538,0.14791,1.0681,9.5042,100.84,10.042,8.898,9.4013,-0.60326,3.06,-1598.2,10.146,0.23212,0.15346,2
3.2095,2.1172,6.8452,0.011496,6.8337,0.020166,0.13887,-0.00056976,0.034878,1.0041,3.2095,14.758,3.8416,3.1965,3.8261,-0.031333,1.5092,0.29095,4.1106,1.2044,1.2772,2
1.8093,1.1437,4.7379,0.0029857,4.7349,0.003571,0.12115,0.0015174,0.041958,1.0017,1.8093,4.5745,2.1388,1.8063,2.1353,0.36695,2.1137,4.1975,1.7774,1.0886,0.75143,2
15.078,5.8722,26.366,0.52448,25.842,-0.069691,0.66285,0.010177,0.21887,1.178,15.078,261.64,16.175,12.8,13.732,-0.45686,2.9816,-19441,14.61,0.21125,0.034204,2
8.1056,5.6699,25.166,0.7357,24.431,0.0087088,0.83066,0.0030507,0.27872,1.1989,8.1056,97.67,9.8828,6.7606,8.243,1.4688,4.8128,68963,3.4409,1.3516,1.9014,2
27.897,15.589,58.107,0,58.107,0.14505,2.4348,-0.0075773,0.87962,2.0698,27.897,1019.9,31.936,13.478,15.429,-0.15592,1.9832,-4.1865e+05,195.67,44.071,57.167,2
19.844,8.6047,35.647,5.9129,29.734,-0.053775,0.7018,0.003456,0.19191,1.1848,19.844,467.41,21.62,16.749,18.248,0.27459,1.9025,50777,9.1747,9.1297,8.4316,2
56.331,41.255,153.51,1.6544,151.85,-0.10121,5.0671,-0.036626,2.2547,4.2369,56.331,4865.7,69.754,13.295,16.464,0.69439,2.2843,3.8354e+08,34.791,13.835,11.865,2
33.48,19.483,108.74,3.3073,105.43,0.54355,3.4802,0.0098221,1.6145,2.9696,33.48,1498.4,38.709,11.274,13.035,1.149,5.0253,4.0163e+07,3054.5,522.26,291.51,2
87.703,47.768,158.01,0.8323,157.18,0.12871,2.5308,-0.026808,0.51879,2.2848,87.703,9961,99.805,38.386,43.682,-0.1869,1.8058,-1.7949e+08,222.19,101.09,107.56,2
20.817,11.298,39.47,0.062778,39.407,0.040286,0.49013,0.0014366,0.072692,1.1003,20.817,560.29,23.67,18.92,21.513,-0.10552,2.1226,-1.0676e+05,24.002,10.225,10.997,2
3.8323,2.6023,12.014,0.75651,11.258,-0.057364,0.1341,0.0001972,0.038907,1.0049,3.8323,21.421,4.6283,3.8138,4.6059,1.4819,4.7919,1413.8,13.272,0.34146,0.30415,2
1.6805,1.523,6.2235,-0.075871,6.2994,0.019814,0.17864,0.0011875,0.055979,1.009,1.6818,5.1311,2.2652,1.6669,2.2451,1.8279,5.6491,121.29,5.1415,1.7883,2.1352,2
5.3495,1.4206,7.8193,2.6907,5.1286,-0.014246,0.1281,-0.00074684,0.03212,1.0026,5.3495,30.624,5.5339,5.3359,5.5198,-0.10849,2.0569,-3.1335,0.80678,0.58247,0.59712,2
2.3562,1.641,5.2417,-0.0016557,5.2434,0.010328,0.089456,0.00046776,0.032821,0.99847,2.3562,8.2297,2.8687,2.3598,2.8732,0.18785,1.7498,9.3524,2.5432,1.4556,1.7246,2
9.4376,7.685,24.46,0.55798,23.902,-0.014596,0.40509,0.001051,0.078196,1.0637,9.4376,147.8,12.157,8.8721,11.429,0.67857,1.9425,65493,0.69876,0.017084,0.017885,2
4.3944,3.0333,11.48,0.78789,10.693,-0.00020937,0.23518,-0.00056225,0.047133,1.0198,4.3944,28.461,5.3349,4.3089,5.2311,0.71258,2.6558,1044.2,0.042925,0.046983,0.057047,2
7.9897,3.9934,13.641,0.0092178,13.632,0.025305,0.2793,0.00039431,0.059814,1.0313,7.9897,79.694,8.9271,7.7472,8.6561,-0.24847,1.8833,-1372,7.3545,2.2015,2.1083,2
30.533,20.946,71.138,1.1369e-13,71.138,-0.23854,1.7186,-0.0013017,0.31016,1.7044,30.533,1368.5,36.994,17.914,21.704,0.35795,1.8839,6.3947e+06,232.02,13.391,14.151,2
44.5,25.099,95.489,0.00039132,95.489,0.14435,2.0631,0.0023179,0.41927,2.0751,44.5,2606.7,51.056,21.445,24.604,-0.039771,2.2596,1.6035e+06,249.82,88.447,87.768,2
35.533,19.729,75.715,1.1369e-13,75.715,0.22208,1.4884,-0.026027,0.29088,1.6931,35.533,1649.7,40.616,20.988,23.99,0.14682,2.4288,2.8772e+06,451.37,118.64,113.32,2
7.312,3.6665,14.936,1.0832,13.853,-0.033268,0.26145,0.0022812,0.052575,1.0274,7.312,66.833,8.1752,7.1169,7.9571,0.21501,2.3549,712.7,3.8405,3.0952,3.1694,2
5.1766,2.1963,9.8849,1.5847,8.3002,-0.031658,0.18511,-0.0013626,0.038909,1.0111,5.1766,31.594,5.6209,5.1196,5.559,0.20218,2.1252,70.694,3.8854,0.26773,0.27199,2
56.228,23.529,92.988,6.546,86.442,-0.1707,1.9288,-0.00079598,0.44531,1.9391,56.228,3712.2,60.928,28.998,31.421,-0.20652,2.1765,-1.0078e+07,108.14,82.45,88.851,2
21.152,17.563,52.947,0.94101,52.006,-0.011737,0.99489,-0.0015586,0.13281,1.2787,21.152,754.16,27.462,16.542,21.476,0.43773,1.6468,2.5707e+06,4.4141,7.0504,8.7966,2
13.71,18.239,56.125,0.0012292,56.124,0.086175,1.145,-0.00056493,0.17637,1.3026,13.71,518.79,22.777,10.525,17.485,1.1863,2.8241,1.0951e+07,101.92,43.781,48.974,2
26.491,14.34,54.987,1.7814,53.206,-0.075196,1.0334,0.012108,0.36481,1.3706,26.491,906.28,30.104,19.328,21.965,-0.021916,2.0169,65618,16.671,10.109,14.531,2
6.7677,3.6734,12.116,0.77777,11.338,0.025247,0.17982,-0.0014639,0.054155,1.0104,6.7677,59.221,7.6955,6.6983,7.6166,-0.11238,1.5471,-355.07,11.551,5.3733,5.643,2
2.2531,1.9302,7.2586,0.0029394,7.2556,0.0062619,0.21045,0.0027686,0.067062,1.0154,2.2531,8.7816,2.9634,2.219,2.9185,1.0361,3.0988,160,0.59559,0.0010456,0.00024291,2
7.0272,3.3747,14.834,0.86424,13.97,0.024867,0.3448,-0.0008485,0.060487,1.0486,7.0272,60.706,7.7914,6.7011,7.43,0.57297,2.8125,1422.7,6.6344,1.8194,1.8689,2
3.9678,2.8513,9.2886,-0.15918,9.4477,0.01755,0.17323,0.00032071,0.037112,1.0087,3.9773,23.829,4.8815,3.9431,4.8394,0.39223,2.0716,313.96,8.3855,4.5989,4.7339,2
24.241,16.203,57.935,2.2732,55.661,-0.11647,1.1751,0.0014318,0.19868,1.4069,24.241,848.69,29.132,17.229,20.706,0.45493,2.1933,2.6445e+06,50.856,0.38157,0.30352,2
8.7706,6.4349,24.274,0.16889,24.105,0.042895,0.64277,-0.0012351,0.13387,1.1515,8.7706,118.1,10.868,7.6167,9.4377,0.85795,2.9288,55214,23.571,8.8543,8.2688,2
31.854,24.289,78.291,0.38164,77.909,0.17467,1.6751,-0.0039871,0.24616,1.7558,31.854,1601.4,40.017,18.142,22.791,0.37744,1.8096,1.3284e+07,344,122.88,145.08,2
8.3115,4.8944,17.523,3.4106e-13,17.523,0.012119,0.31431,-0.0065253,0.072742,1.0393,8.3115,92.903,9.6386,7.9975,9.2745,0.53422,1.9023,5353.7,1.3478,0.61266,0.78829,2
3.1062,2.3064,7.9521,0.062456,7.8896,0.030679,0.16369,-0.00038145,0.064447,1.0079,3.1062,14.938,3.865,3.0818,3.8347,0.80656,2.6816,243.55,11.704,4.0052,4.1281,2
18.644,6.5051,24.385,0.0035421,24.381,-0.1015,1.044,-0.0014629,0.42034,1.2299,18.644,389.69,19.741,15.159,16.05,-1.2638,3.2494,-79225,39.197,1.2689,1.4548,2
4.7045,5.1471,19.669,0.095091,19.574,0.088057,0.16676,0.0026775,0.030545,1.0117,4.7045,48.479,6.9627,4.6501,6.8821,1.4896,4.0493,34431,87.243,22.676,21.07,2
34.676,26.124,93.173,0.20244,92.971,-0.010466,1.5115,0.00011341,0.25237,1.5723,34.676,1881.1,43.371,22.054,27.585,0.81008,2.5959,4.9108e+07,3.2731,5.151,6.3364,2
5.7007,7.7843,31.093,-0.28153,31.375,0.12286,0.55798,-0.0012012,0.094593,1.1034,5.7119,92.758,9.6311,5.1768,8.7287,2.3358,7.4253,6.3538e+05,181.53,61.944,63.246,2
17.195,15.117,42.877,8.8263e-05,42.877,0.0091732,0.83754,0.0009176,0.11703,1.228,17.195,522.94,22.868,14.002,18.622,0.33703,1.6224,1.0202e+06,0.88648,0.1725,0.13162,2
9.4902,7.1026,20.69,0.99262,19.697,-0.0016934,0.3345,0.00016919,0.058784,1.0445,9.4902,140.23,11.842,9.0856,11.337,0.21945,1.4274,12802,0.10206,0.097666,0.083714,2
9.0924,7.6778,20.701,-0.015511,20.716,-0.10624,0.24583,0.0050505,0.069434,1.0284,9.0926,141.29,11.887,8.8417,11.559,0.31906,1.3338,22823,44.834,0.053748,0.035019,2
10.506,5.2918,17.672,0.32205,17.35,-0.011038,0.40991,-0.0013054,0.13215,1.0684,10.506,138.22,11.757,9.8333,11.004,-0.45042,1.8336,-6625.9,0.94188,0.80212,0.57011,2
40.796,33.717,106.15,0.68715,105.46,0.40842,2.0556,0.025723,0.2485,1.9814,40.796,2794.9,52.866,20.589,26.681,0.54583,1.993,9.6387e+07,1651.7,227.87,159.15,2
14.742,9.3215,32.416,0.0055806,32.41,0.13808,0.69451,0.0030705,0.20507,1.1767,14.742,303.73,17.428,12.528,14.81,0.16874,1.7337,52995,181.59,36.834,39.463,2
24.597,9.922,47.196,1.3783,45.818,0.092755,1.4999,-0.013209,0.54697,1.6223,24.597,702.94,26.513,15.162,16.343,-0.26456,2.6914,-1.2296e+05,220.53,154.32,147.96,2
2.462,1.052,4.0195,0,4.0195,0.0049808,0.087872,-0.0018576,0.030085,0.99824,2.462,7.1621,2.6762,2.4664,2.6809,-0.15644,1.8742,-1.0101,0.23521,0.042226,0.0288,2
14.322,11.774,36.648,-0.06224,36.71,0.020215,0.65631,-0.0023354,0.092676,1.155,14.324,342.99,18.52,12.401,16.035,0.61008,2.138,5.6527e+05,29.133,25.789,28.093,2
16.039,10.328,35.758,0.32249,35.435,-0.0039824,0.675,0.0091053,0.19889,1.1763,16.039,363.33,19.061,13.635,16.204,0.54355,2.002,2.5039e+05,5.1462,5.2781,6.197,2
9.8058,7.9693,21.405,1.7053e-13,21.405,0.00495,0.34959,-0.00041262,0.055223,1.0485,9.8058,159.31,12.622,9.3524,12.038,0.16801,1.3861,16123,0.23708,0.05464,0.086205,2
15.127,7.9273,27.6,0.53116,27.068,0.025509,0.42422,0.00089526,0.075974,1.0724,15.127,291.31,17.068,14.106,15.916,-0.34685,2.0677,-40250,19.276,11.221,10.403,2
24.452,14.733,46.058,0,46.058,0.20344,1.1519,-0.016297,0.17408,1.3921,24.452,813.77,28.527,17.566,20.493,0.026326,1.5405,-41823,383.08,85.208,86.201,2
13.714,12.694,36.415,0.30333,36.112,-0.18316,0.35316,0.00063206,0.092015,1.0666,13.714,348.34,18.664,12.858,17.499,0.55619,1.5982,5.5961e+05,135.41,1.0747,1.1793,2
18.135,16.002,46.833,2.2737e-13,46.833,0.0061903,0.73738,-0.0094347,0.093696,1.1957,18.135,583.54,24.156,15.167,20.203,0.42259,1.7106,1.6612e+06,0.39011,0.071926,0.0645,2
8.4316,10.516,33.137,0.62105,32.516,0.089644,0.52166,-0.0021348,0.078457,1.1007,8.4316,181.06,13.456,7.6603,12.225,1.2872,3.0376,7.6822e+05,78.157,22.505,25.813,2
10.888,7.0029,23.944,0.81705,23.127,0.010475,0.54281,-0.0041989,0.11837,1.1124,10.888,167.31,12.935,9.7881,11.628,0.046537,1.6415,8048.6,3.073,0.24107,0.050139,2
5.1407,2.127,9.2994,1.4788,7.8206,-0.018511,0.23858,-0.0050691,0.062185,1.0212,5.1407,30.926,5.5611,5.0338,5.4455,0.30269,2.0926,56.278,1.1849,0.15657,0.19736,2
7.4917,4.57,15.868,0.0036013,15.864,0.0084625,0.29072,0.0025332,0.068912,1.0336,7.4917,76.895,8.769,7.2484,8.4842,0.21717,1.7238,1527.7,1.214,0.42772,0.31496,2
20.032,11.811,45.678,2.2737e-13,45.678,0.010062,0.87308,0.0037786,0.13904,1.2811,20.032,540.01,23.238,15.637,18.139,0.70386,2.766,7.8842e+05,22.833,20.341,21.52,2
19.205,15.819,48.332,0.70086,47.631,0.015323,0.82845,-0.005843,0.12134,1.224,19.205,617.69,24.853,15.691,20.306,0.62197,1.9754,2.3126e+06,33.947,33.205,37.237,2
29.346,24.17,82.666,1.386,81.28,-0.031248,1.7909,-0.0052493,0.41569,1.752,29.346,1442.2,37.976,16.75,21.676,0.92383,2.4608,3.1605e+07,0.3401,0.078817,2.4671,2
21.749,13.996,52.174,4.5475e-13,52.174,0.049325,1.6824,0.0039888,0.48331,1.7615,21.749,667.81,25.842,12.347,14.671,0.5967,2.3851,1.5549e+06,41.422,2.0338,0.70058,2
15.644,8.1941,30.427,5.6843e-14,30.427,0.16618,0.70798,-0.0013046,0.099321,1.2111,15.644,311.5,17.649,12.917,14.573,0.18141,2.0029,24440,257.18,51,44.922,2
4.3625,2.5473,9.5247,1.1369e-13,9.5247,0.030141,0.2919,-0.0058378,0.075165,1.0346,4.3625,25.484,5.0481,4.2165,4.8792,0.42766,2.052,212.56,8.2937,3.0461,3.0408,2
5.066,3.8234,15.943,0,15.943,0.0048764,0.41584,-0.0045852,0.16725,1.0686,5.066,40.201,6.3405,4.7407,5.9333,0.78123,2.7945,4155.1,0.27884,0.014865,0.013276,2
6.9956,3.7481,13.292,0.68801,12.604,0.017908,0.47061,-0.0033714,0.22576,1.0901,6.9956,62.909,7.9315,6.4175,7.276,-0.3366,1.8303,-679.18,3.5991,2.8175,4.2605,2
12.205,5.4717,19.905,0,19.905,0.011473,0.40121,-0.0052928,0.13856,1.0668,12.205,178.75,13.37,11.442,12.533,-0.42874,2.121,-10535,1.2073,0.3169,0.44352,2
11.174,6.49,21.713,0.54186,21.171,0.040358,0.54962,0.0017846,0.15113,1.1231,11.174,166.74,12.913,9.9494,11.498,-0.054225,1.6128,-880.5,18.722,5.5167,8.0927,2
5.1374,2.8754,9.3293,0.2243,9.105,-0.00018026,0.16877,0.0014293,0.068566,1.0083,5.1374,34.615,5.8834,5.0953,5.8352,0.011823,1.5152,-6.2177,0.26169,0.21984,0.34796,2
14.847,6.2228,28.348,0.5383,27.81,-0.024071,2.4028,0.012322,1.323,2.4026,14.847,258.93,16.091,6.1794,6.6974,-0.073699,2.4456,-3471.9,9.727,21.158,21.909,2
17.506,8.5238,29.333,0.10871,29.225,0.0014857,0.63526,0.021618,0.23121,1.1338,17.506,378.7,19.46,15.44,17.163,-0.24697,1.5338,-43172,4.9825,4.1092,4.405,2
70.535,31.611,139.83,0.32032,139.51,0.0095154,5.946,0.0048172,2.808,5.2693,70.535,5968.9,77.259,13.386,14.662,0.085895,2.3556,5.8715e+06,231.2,370.36,263.15,2
14.436,11.625,34.709,1.7053e-13,34.709,0.020487,0.66865,-0.01874,0.16975,1.1567,14.436,342.78,18.514,12.48,16.006,0.34439,1.6156,2.681e+05,4.0277,0.55184,0.19662,2
3.7634,2.8981,13.233,0.0072223,13.225,0.024054,0.39031,0.00021346,0.15676,1.0614,3.7634,22.516,4.7451,3.5457,4.4705,1.3956,4.6733,2377.4,9.7525,5.6823,6.2604,2
18.969,9.6531,46.51,0.21593,46.295,0.16067,1.4352,-0.037909,0.54411,1.5851,18.969,452.48,21.271,11.967,13.419,0.47503,3.3233,3.4591e+05,249.13,63.295,49.998,2
14.726,7.882,32.889,0,32.889,0.14779,2.6414,-0.086846,1.2492,2.2453,14.726,278.64,16.692,6.5586,7.4344,0.36766,2.4784,59708,207.65,49.23,11.524,2
15.034,6.3503,27.576,2.0215,25.555,-0.083116,1.3813,0.014671,0.68581,1.5673,15.034,266.11,16.313,9.5923,10.409,0.31194,2.2572,10349,29.687,15.957,12.344,2
6.8127,5.4799,16.123,0,16.123,0.013359,0.64938,-0.0072522,0.24836,1.1542,6.8127,76.275,8.7336,5.9027,7.567,0.54956,1.6773,8382.4,2.0225,0.012433,0.073452,2
2.5409,1.4639,7.4171,0.2604,7.1567,0.027922,0.39458,0.0014671,0.19408,1.0641,2.5409,8.5872,2.9304,2.3878,2.7538,0.95076,3.5313,48.363,10.774,1.3714,0.78634,2
10.921,8.422,23.258,0.00012566,23.258,0.023807,0.4254,0.0014651,0.08962,1.0704,10.921,189.81,13.777,10.203,12.871,0.22504,1.3888,26841,5.6937,1.2769,0.90019,2
2.9635,1.7912,6.0172,0.17855,5.8386,-0.0048657,0.15862,0.00096622,0.070794,1.0067,2.9635,11.973,3.4602,2.9437,3.4371,-0.04066,1.6251,-0.44649,0.64099,0.90561,1.0069,2
21.597,16.578,53.511,0.62883,52.882,0.087353,1.0721,-0.01436,0.29405,1.3881,21.597,739.73,27.198,15.559,19.594,0.58358,2.1294,3.0364e+06,89.556,18.378,17.184,2
15.77,7.6316,26.173,2.5833,23.589,-0.028903,0.60959,0.0008086,0.24184,1.1436,15.77,306.62,17.511,13.79,15.311,-0.33519,1.6396,-29829,27.591,32.448,22.165,2
9.2307,6.2659,20.935,-0.072023,21.007,-0.090586,0.45524,0.0099768,0.20157,1.0879,9.2317,124.25,11.147,8.4854,10.246,0.25555,1.6597,6963.3,27.378,0.60307,0.21693,2
5.2115,3.4227,14.184,0.37884,13.805,0.0058313,0.77478,-0.016398,0.42052,1.2293,5.2115,38.81,6.2298,4.2396,5.0679,1.086,3.2856,2894.7,2.8648,4.4532,3.3705,2
1.7172,1.5524,4.3295,-2.8422e-14,4.3295,0.019039,0.08869,-0.0031977,0.032557,0.99845,1.7172,5.3454,2.312,1.7199,2.3156,0.56588,1.5143,13.899,3.3128,0.98196,1.0895,2
15.32,9.3298,30.205,0,30.205,0.12561,0.79996,-0.011354,0.24557,1.2339,15.32,321.27,17.924,12.416,14.527,0.0026254,1.5846,-3181.7,160.1,55.669,58.486,2
59.023,26.267,114.46,0.90632,113.55,0.26628,8.5165,-0.082751,4.2428,7.5938,59.023,4169.8,64.574,7.7725,8.5035,0.0039947,2.1984,5.7702e+05,1130.6,701.13,439.45,2
21.504,9.4942,40.872,1.3631,39.509,0.11344,1.6534,-0.049448,0.81678,1.6634,21.504,552.05,23.496,12.928,14.125,-0.2095,2.2305,-82443,169.41,58.591,74.14,2
18.697,10.727,38.85,0.71129,38.139,-0.008605,1.9082,0.0072345,1.0628,1.8421,18.697,464,21.541,10.15,11.694,0.070776,1.5894,50584,44.649,65.633,78.885,2
20.772,9.184,41.275,0.67011,40.605,-0.020409,2.3675,-0.0094818,1.3387,2.2379,20.772,515.33,22.701,9.2819,10.144,0.096465,2.2475,30718,12.322,16.822,19.794,2
37.593,19.247,75.454,0.97665,74.478,-0.0072211,2.2798,-0.041669,0.68562,2.1775,37.593,1781.6,42.209,17.265,19.385,-0.19441,2.0027,-1.6537e+06,0.82718,0.1231,2.3516,2
10.433,8.2047,26.757,5.6843e-14,26.757,0.019097,0.55116,-0.019384,0.16013,1.1047,10.433,175.8,13.259,9.4442,12.002,0.71159,2.0356,1.0253e+05,3.4167,1.3173,1.1533,2
6.9287,4.5096,17.081,0.015603,17.065,-0.0094582,0.3786,-0.00028619,0.090852,1.0569,6.9287,68.231,8.2602,6.5557,7.8156,0.78566,2.8147,7246.8,0.45137,0.59799,0.94358,2
2.9183,1.5796,6.0993,-0.012661,6.1119,0.0084299,0.17085,-0.0040149,0.061141,1.0085,2.9186,10.998,3.3163,2.8939,3.2883,-0.16223,2.17,-4.4199,1.1099,0.5827,0.64377,2
2.4132,1.1485,5.0704,0,5.0704,0.0020385,0.43117,-0.010651,0.25622,1.0755,2.4132,7.1354,2.6712,2.2439,2.4838,0.15604,2.4695,1.644,0.051125,0.093634,0.12366,2
14.069,9.0143,33.004,0.00049411,33.003,0.018087,1.3736,-0.011418,0.52889,1.5692,14.069,278.74,16.695,8.9656,10.639,-0.013135,1.8411,14543,4.1919,8.3009,8.1987,2
15.04,7.8238,33.062,0.19676,32.866,0.16947,1.5553,-0.0020859,0.8384,1.6751,15.04,287.07,16.943,8.9784,10.115,0.25791,2.2658,40553,288.29,50.745,55.866,2
18.169,8.2489,42.795,1.1369e-13,42.795,0.23908,1.2981,-0.043679,0.37199,1.4132,18.169,397.79,19.945,12.857,14.113,0.25268,4.1197,1.4916e+05,534.52,106.62,97.013,2
6.2904,3.2377,11.666,5.6843e-14,11.666,0.007329,0.29835,-0.0028937,0.084697,1.0356,6.2904,49.993,7.0706,6.0742,6.8276,-0.13708,1.8218,-239.78,0.49046,0.2154,0.18542,2
7.7506,6.4636,20.029,-0.00010067,20.029,-0.00067384,0.3093,0.0031029,0.077273,1.0389,7.7506,101.62,10.081,7.4604,9.7032,0.44466,1.8359,20738,0.059911,0.0056878,0.0036499,2
22.122,8.6649,32.266,2.2737e-13,32.266,0.0018839,0.87285,-0.0053139,0.15751,1.275,22.122,564.06,23.75,17.35,18.627,-1.0246,2.9977,-2.7762e+05,36.21,37.902,38.343,2
13.715,8.2765,31.167,-0.014153,31.181,-0.010612,0.78215,0.010332,0.17955,1.192,13.716,256.24,16.007,11.506,13.429,0.31698,2.1625,64934,22.53,17.227,11.175,2
7.655,3.8417,13.478,0.40058,13.078,0.0016634,0.19274,0.0020146,0.03938,1.0121,7.655,73.276,8.5601,7.5632,8.4574,-0.28271,2.0196,-993.62,2.0963,2.0825,2.28,2
3.031,1.5281,5.5314,-0.061845,5.5933,-0.0059829,0.12849,0.00023838,0.038526,1.0026,3.0325,11.509,3.3925,3.0247,3.3838,-0.48678,2.2418,-17.643,0.92946,1.1322,1.1497,2
12.494,9.1441,29.63,5.6843e-14,29.63,0.016359,0.52234,-0.00047203,0.078844,1.1068,12.494,239.26,15.468,11.289,13.975,0.60488,2.0006,1.3815e+05,2.5187,0.40537,0.57507,2
19.355,16.758,49.044,0.024539,49.019,0.17312,0.93171,2.1913e-05,0.10007,1.3101,19.355,653.88,25.571,14.774,19.518,0.4169,1.7232,2.0964e+06,289.42,66.991,63.841,2
9.8877,10.551,32.751,0.089995,32.661,-0.18052,0.26035,0.0006217,0.087167,1.0398,9.8877,208.47,14.438,9.5094,13.886,1.0331,2.5933,5.9426e+05,137.97,0.014028,0.02801,2
8.6232,3.3705,14.786,0,14.786,0.038433,1.3703,-0.031574,0.72944,1.5287,8.6232,85.657,9.2551,5.6411,6.0544,-0.52708,2.8855,-1559.4,15.214,1.0404,3.7812,2
38.887,16.423,103.45,1.4637,101.99,0.13201,6.2292,-0.11358,3.3453,5.0706,38.887,1780.4,42.195,7.6691,8.3215,1.0829,6.0277,1.9784e+07,288.04,606.45,866.31,2
47.202,16.171,81.15,9.1874,71.963,0.0043046,8.3334,-0.066107,4.745,7.0328,47.202,2488.1,49.881,6.7118,7.0927,-0.093689,2.3607,-5.6075e+05,352.17,480.12,249.51,2
12.409,4.7962,25.764,1.5655,24.198,-0.061354,1.7329,0.040142,0.91433,1.7561,12.409,176.86,13.299,7.066,7.5727,0.13156,3.0905,4836.5,24.536,33.271,31.756,2
13.057,4.7872,24.437,3.398,21.039,-0.034218,1.8283,-0.0056919,1.0907,1.9482,13.057,193.27,13.902,6.702,7.136,0.0849,2.2565,1493.8,9.2111,4.7057,0.81746,2
20.912,13.744,45.821,0.72367,45.097,-0.014875,1.9899,0.01273,1.0158,1.9422,20.912,625.16,25.003,10.767,12.874,0.17547,1.7059,3.1537e+05,1.0212,1.5649,2.9832,2
11.61,4.8545,22.97,-0.2846,23.255,0.05277,2.1121,-0.0018746,1.1628,2.1392,11.613,158.22,12.578,5.4284,5.8799,-0.10948,2.4909,-1897.5,45.49,5.4133,10.383,2
6.2876,3.3507,9.3909,0.13843,9.2525,0.035358,0.14495,-0.00051908,0.038178,1.005,6.2876,50.699,7.1203,6.2563,7.0849,-0.71262,1.7231,-932.27,14.836,5.0631,5.2376,2
30.133,21.24,79.431,0.36878,79.063,0.16593,1.5925,-0.0056757,0.30505,1.6911,30.133,1356.6,36.832,17.819,21.78,0.77536,2.5639,1.6744e+07,314.5,59.997,38.532,2
29.041,22.511,84.536,2.8114,81.724,-0.25999,1.7075,-0.022215,0.41245,1.7797,29.041,1347.3,36.706,16.318,20.625,0.74025,2.6392,2.5213e+07,237.24,12.972,16.342,2
8.6375,5.3564,18.409,-2.8422e-13,18.409,0.044196,0.44438,0.0035932,0.079597,1.0825,8.6375,103.14,10.156,7.9789,9.3813,0.19542,1.8975,3697,20.133,3.7021,2.8175,2
4.9045,2.561,10.467,0.22206,10.245,-0.03289,0.18591,-0.00070719,0.049807,1.0117,4.9045,30.577,5.5296,4.8476,5.4655,0.26834,2.1532,151.52,3.3051,0.32348,0.31244,2
16.651,8.0515,29.495,0.20311,29.291,0.061062,0.49421,0.000966,0.075879,1.0944,16.651,341.73,18.486,15.215,16.891,-0.37123,2.4952,-64643,49.655,18.12,19.278,2
5.1729,1.7292,8.0514,0,8.0514,0.030652,0.21224,-0.0074864,0.040516,1.0152,5.1729,29.733,5.4528,5.0954,5.371,-0.28434,2.3283,-34.504,8.5818,2.4717,2.6506,2
52.308,35.628,116.48,0,116.48,0.079731,2.0826,-0.010034,0.29417,1.9914,52.308,3998.4,63.233,26.266,31.752,0.37394,1.6769,7.2041e+07,69.074,1.4689,0.36894,2
13.076,9.2685,31.934,1.7922,30.142,-0.074644,0.52112,-0.0039392,0.080374,1.1145,13.076,256.4,16.013,11.732,14.367,0.70976,2.2553,2.1114e+05,22.806,0.56926,0.74621,2
10.894,8.8888,28.922,0.3508,28.571,0.029054,0.53966,0.0018547,0.091249,1.1148,10.894,197.26,14.045,9.7726,12.599,0.70463,2.0039,1.4476e+05,10.223,2.965,2.5427,2
11.83,7.8979,22.981,0.16038,22.821,0.040556,0.44301,-0.00029985,0.063232,1.0785,11.83,201.99,14.212,10.969,13.178,0.1428,1.5282,11127,24.432,11.209,11.74,2
4.3278,3.8067,11.8,0.011846,11.788,0.025024,0.21156,-0.00088063,0.038903,1.0164,4.3278,33.14,5.7567,4.2581,5.664,0.72875,2.1533,2382.8,6.1815,1.2505,1.2841,2
25.724,17.145,62.391,1.1369e-13,62.391,0.096159,0.99021,-0.0047442,0.12851,1.3441,25.724,954.02,30.887,19.138,22.979,0.71632,2.6734,5.1992e+06,84.456,23.03,23.102,2
14.35,7.8659,25.738,0.46909,25.269,0.079342,0.52771,-0.0025993,0.086168,1.1118,14.35,267.44,16.354,12.907,14.71,-0.30374,1.7113,-33186,80.457,32.281,35.815,2
7.7945,3.8222,13.49,0.47546,13.015,0.013983,0.21291,-0.00093704,0.068187,1.0162,7.7945,75.283,8.6766,7.6699,8.5379,-0.20742,1.9069,-864.77,6.1906,3.7996,3.7602,2
5.8152,2.5618,10.696,1.7912,8.9047,-0.013979,0.18363,0.00015884,0.074865,1.0108,5.8152,40.343,6.3516,5.7529,6.2835,0.52836,1.8721,205.6,1.3386,1.391,1.0666,2
26.031,15.737,52.865,0.82935,52.036,0.0019887,0.88776,0.0028465,0.14412,1.2449,26.031,923.88,30.395,20.911,24.417,0.22599,1.8764,6.2614e+05,11.037,11.62,12.715,2
11.239,6.5345,21.68,0.16483,21.515,0.022368,0.38567,-0.0036816,0.090373,1.0623,11.239,168.77,12.991,10.58,12.229,0.16876,1.8111,4197.2,12.458,7.2087,7.9196,2
12.998,10.568,39.293,0.0062332,39.287,0.011332,0.69833,0.0023092,0.11683,1.1794,12.998,280,16.733,11.02,14.188,1.1405,3.2466,8.401e+05,2.5777,1.3149,1.4297,2
5.3748,4.4438,15.235,0.20003,15.035,0.017975,0.25668,-0.0019351,0.054602,1.0251,5.3748,48.527,6.9661,5.243,6.7952,0.96731,2.7002,7566,7.3656,5.0695,6.3575,2
25.364,20.134,68.227,2.4888,65.738,-0.16537,1.4913,-0.016185,0.28669,1.6153,25.364,1046.5,32.349,15.702,20.027,0.7012,2.0996,9.7375e+06,98.087,6.5697,6.5969,2
17.674,8.7532,30.1,0.59861,29.502,0.10327,0.57988,0.0087619,0.15558,1.1403,17.674,388.55,19.712,15.499,17.286,-0.31268,1.8461,-68412,149.91,54.107,58.271,2
12.32,7.8517,28.189,0.39498,27.794,-0.027416,0.48786,0.0014256,0.11577,1.0986,12.32,213.09,14.598,11.214,13.287,0.60799,2.0913,68153,4.0224,1.6634,1.48,2
12.206,6.1161,21.103,-0.15958,21.263,0.066992,0.54206,0.0046625,0.14713,1.1228,12.209,186.19,13.645,10.874,12.153,-0.45556,2.0669,-16209,50.366,14.728,13.988,2
12.967,7.0161,26.849,1.3998,25.45,-0.087896,0.40711,0.0016768,0.086741,1.0735,12.967,217.11,14.734,12.08,13.726,-0.019552,2.1792,7130.5,28.775,0.65772,0.5282,2
5.6552,3.8126,12.123,-0.071456,12.194,0.032034,0.21961,-0.0011012,0.053397,1.018,5.6573,46.437,6.8145,5.557,6.6937,0.31338,1.7743,847.64,14.375,6.5719,7.507,2
1.6795,1.1144,3.3334,5.6843e-14,3.3334,0.012582,0.1125,-0.00054148,0.051244,1.0007,1.6795,4.0557,2.0139,1.6783,2.0124,-0.2456,1.4808,-1.1062,1.6056,0.24273,0.14577,2
0.78467,0.5163,2.4726,0.022857,2.4497,-0.0081057,0.072369,0.001153,0.034699,0.99709,0.78467,0.8808,0.93851,0.78696,0.94125,1.2104,3.8854,0.31551,0.13843,0.03632,0.098637,2
9.1062,5.9534,19.996,0.00018062,19.996,0.063287,0.35127,-0.00026728,0.058221,1.0521,9.1062,118.17,10.871,8.6549,10.332,0.40071,1.8661,10720,37.791,9.8877,9.8899,2
2.3448,1.5067,5.2962,0.0016576,5.2946,0.014455,0.11675,-0.00047026,0.034915,1.0012,2.3448,7.7555,2.7849,2.342,2.7816,0.26745,2.0753,10.826,2.0143,0.51612,0.45119,2
33.716,21.186,60.149,0.16636,59.983,-0.023549,1.0401,0.0028148,0.22203,1.3802,33.716,1583.2,39.789,24.429,28.829,-0.30249,1.4471,-3.6771e+06,2.4822,2.6652,3.0835,2
10.849,7.3834,26.038,0.41794,25.62,0.010481,0.49149,0.0015953,0.075704,1.0872,10.849,171.9,13.111,9.9782,12.059,0.68134,2.4808,66325,5.412,3.6242,3.5499,2
4.5969,2.9542,9.9293,-0.1198,10.049,-0.035919,0.22366,-0.0010796,0.038664,1.0189,4.6014,29.811,5.4599,4.5161,5.3587,0.15549,1.6817,127.7,5.0908,0.15261,0.23293,2
2.2553,1.6655,5.255,0.031207,5.2238,-0.028181,0.059582,0.0002476,0.024934,0.99659,2.2553,7.8445,2.8008,2.263,2.8104,0.13027,1.548,8.2942,3.2283,0.00080482,0.006155,2
0.98211,0.37526,1.7066,0.14822,1.5584,3.7072e-05,0.081922,-0.0003012,0.033016,0.99778,0.98211,1.1046,1.051,0.98429,1.0533,-0.14481,2.39,-0.0077995,0.00136,0.0027867,0.008982,2
14.813,7.2413,24.392,0.10148,24.29,0.060779,0.49252,-0.0070501,0.10036,1.1026,14.813,271.57,16.479,13.435,14.946,-0.57131,2.0477,-46966,41,13.329,14.255,2
23.504,11.377,46.457,0.014171,46.442,0.047681,2.079,-0.018243,0.84344,2.0192,23.504,681.14,26.099,11.64,12.925,0.40354,2.3074,2.7525e+05,37.27,22.155,24.424,2
15.873,8.5009,32.125,0.065915,32.059,0.052004,1.4931,0.0039399,0.52005,1.6417,15.873,323.83,17.995,9.6689,10.961,0.035284,2.195,6123.8,71.682,46.739,58.04,2
24.348,11.824,53.527,6.2467,47.28,-0.14169,1.7971,0.068028,0.68101,1.6188,24.348,731.86,27.053,15.041,16.711,0.28067,1.8507,2.7343e+05,72.324,48.143,41.746,2
17.882,9.7272,34.393,3.656,30.737,-0.05688,0.787,0.0096897,0.20247,1.2155,17.882,413.86,20.344,14.711,16.737,0.105,1.5814,45036,12.626,8.3816,2.2236,2
4.4653,2.8256,11.198,0.21447,10.984,0.00013531,0.27414,0.00078382,0.10441,1.0299,4.4653,27.879,5.28,4.3357,5.1267,0.66068,2.5659,654.76,2.4018,1.7824,1.539,2
9.2056,4.5795,19.349,0.26215,19.087,0.042092,1.6794,-0.00085799,0.84415,1.8352,9.2056,105.6,10.276,5.0162,5.5995,0.020988,2.2862,531.43,22.656,4.1662,1.1973,2
35.008,19.033,73.795,1.4097,72.385,0.0034997,1.2889,-0.0061943,0.20326,1.4413,35.008,1585.8,39.822,24.289,27.629,0.13022,2.4937,2.5138e+06,19.79,21.875,27.675,2
4.8486,3.5211,16.957,-0.77562,17.733,-0.08174,0.29852,0.0017468,0.10435,1.0378,4.8944,35.838,5.9865,4.716,5.7683,0.96919,4.3775,5487.3,26.247,0.5666,0.79955,2
11.265,6.7326,24.574,-5.6843e-14,24.574,-0.001509,0.64348,0.012602,0.25808,1.1474,11.265,171.98,13.114,9.8181,11.43,0.51617,2.333,27277,2.2124,2.3034,2.1291,2
28.433,17.934,52.908,3.2233,49.685,-0.2245,0.6738,-0.0022591,0.26989,1.1945,28.433,1128.3,33.59,23.804,28.121,0.11835,1.4352,5.9847e+05,178.94,8.4476,13.117,2
25.662,10.933,40.739,1.4211e-13,40.739,0.12333,0.43152,-0.0051979,0.10553,1.0862,25.662,777.4,27.882,23.626,25.67,-0.5559,2.4241,-4.8575e+05,139.7,34.372,37.727,2
5.0378,3.7237,14.373,0.054017,14.319,0.0059495,0.36326,-0.0037912,0.11808,1.054,5.0378,39.169,6.2585,4.7798,5.938,0.87535,2.9675,3641.6,0.69863,0.68223,0.86601,2
1.9833,1.2452,6.4942,0.04336,6.4508,0.0082647,0.21076,-0.00042977,0.072431,1.0159,1.9833,5.4755,2.34,1.9523,2.3035,1.8412,6.6842,60.114,1.6805,1.7495,2.5648,2
14.799,12.11,42.11,1.8878e-06,42.11,0.030529,0.81589,-0.00026868,0.13843,1.2038,14.799,364.86,19.101,12.293,15.867,0.92232,2.6545,1.1415e+06,16.668,7.4783,7.2265,2
24.126,34.071,105.26,0.10184,105.16,0.41117,1.4063,-0.0091862,0.15285,1.4706,24.126,1736.5,41.671,16.405,28.336,1.5268,3.6013,3.4597e+08,1744.2,525.38,565.18,2
8.8631,4.2792,15.814,3.4106e-13,15.814,0.055165,0.22129,-0.00075838,0.051467,1.0194,8.8631,96.765,9.8369,8.6944,9.6497,-0.27606,1.9044,-1678.2,28.113,6.1741,6.4788,2
5.063,2.3285,9.8746,1.0007,8.874,-0.021914,0.15983,0.00047745,0.054646,1.0071,5.063,31.026,5.5701,5.0273,5.5308,0.016733,1.7887,20.471,2.1183,2.1758,2.1998,2
25.503,16.21,64.269,0,64.269,0.11794,1.9655,-0.043711,0.69222,1.8392,25.503,911.69,30.194,13.867,16.417,0.98059,2.834,5.504e+06,130.92,24.904,22.808,2
23.656,8.3943,41.461,1.7341,39.727,-0.013148,2.1799,-0.0086411,0.93994,2.0272,23.656,629.7,25.094,11.67,12.379,-0.17056,2.7153,-68821,25.607,32.282,22.409,2
17.027,6.2964,30.72,1.1369e-13,30.72,-0.10167,1.8343,0.066574,0.91005,1.6997,17.027,329.34,18.148,10.018,10.677,-0.14057,2.6308,-10610,35.588,5.4505,1.6074,2
7.2899,6.6318,23.784,0.052666,23.731,0.060029,0.457,-0.0021169,0.08013,1.0737,7.2899,96.878,9.8427,6.7897,9.1674,1.3892,3.604,94538,46.668,18.918,20.684,2
14.625,12.361,33.455,0.71555,32.739,-0.10652,0.31331,-0.0047524,0.046894,1.0452,14.625,365.84,19.127,13.993,18.3,0.30306,1.4105,2.5473e+05,40.465,1.1564,0.98696,2
5.0989,1.4718,8.0176,2.3887,5.6289,-0.005359,0.12227,-0.0011137,0.03882,1.0018,5.0989,28.153,5.306,5.0897,5.2964,0.15422,2.5071,5.1545,0.76531,1.1371,1.227,2
9.1069,4.9337,18.924,0.028067,18.896,0.017181,0.8066,0.033846,0.2742,1.1734,9.1069,107.14,10.351,7.7611,8.8213,-0.083874,1.8568,-745.96,28.79,20.404,19.689,2
10.81,7.1012,25.294,0.055279,25.239,-0.061369,0.59136,-0.00053368,0.15235,1.1429,10.81,167,12.923,9.4585,11.307,0.2744,1.8355,23119,10.99,2.8511,1.6836,2
55.056,51.843,163.34,0.79541,162.55,-0.0032361,2.6303,-0.00084133,0.41883,2.4674,55.056,5704,75.525,22.313,30.609,0.81677,2.1901,1.2286e+09,1.4473,0.56743,1.4081,2
29.831,19.052,64.487,0.099594,64.388,0.056587,1.7851,-0.013626,0.40285,1.8098,29.831,1250.8,35.367,16.483,19.542,0.20631,1.6058,1.8972e+06,44.879,26.46,39.179,2
9.9294,5.969,20.071,0.81372,19.257,0.011768,0.57736,-0.0023203,0.21543,1.1329,9.9294,134.02,11.577,8.7645,10.219,0.0077746,1.8092,734.01,10.895,6.799,6.8494,2
8.0098,3.0419,14.03,1.2453,12.785,-0.025141,0.45681,-0.00063827,0.18911,1.0838,8.0098,73.359,8.565,7.3905,7.9028,-0.38835,2.3856,-580.05,3.2855,3.4145,2.7504,2
14.724,9.9692,35.557,0.0014617,35.555,-0.01063,0.75323,-0.010198,0.24682,1.214,14.724,315.63,17.766,12.129,14.634,0.59944,2.2398,2.7011e+05,1.2501,2.4991,2.7239,2
27.606,17.108,68.866,0.38198,68.484,-0.027892,1.338,-0.01569,0.2073,1.5339,27.606,1053.2,32.453,17.998,21.157,0.8307,3.1692,7.1377e+06,70.508,67.901,48.752,2
5.9022,4.9252,16.359,0.0066562,16.352,0.011026,0.39965,0.0015433,0.094223,1.0664,5.9022,58.959,7.6785,5.5349,7.2006,0.66462,2.399,9497,1.4626,0.014563,0.010057,2
4.9422,1.8081,7.4745,0.019448,7.4551,0.021738,0.18991,9.1711e-05,0.051145,1.0121,4.9422,27.677,5.2609,4.8832,5.1981,-1.1135,3.5734,-138.99,6.2979,2.1499,2.1269,2
9.1968,4.8409,17.143,1.1369e-13,17.143,0.0083944,0.45671,0.00051533,0.081887,1.082,9.1968,107.88,10.387,8.4998,9.5996,0.024331,1.842,-203.26,1.8051,1.7662,2.135,2
34.832,19.696,63.624,0,63.624,0.32519,1.3082,-0.018706,0.17035,1.5487,34.832,1599.1,39.988,22.491,25.82,-0.18133,1.7649,-1.9737e+06,972.38,233.17,239.2,2
20.362,13.216,58.208,-0.068973,58.277,-0.2915,0.62056,0.011857,0.12102,1.1812,20.363,588.29,24.255,17.239,20.534,0.72334,3.0134,2.0776e+06,323.31,0.32448,0.030423,2
12.927,9.2606,31.227,1.5235,29.704,0.029054,0.72338,0.0011074,0.19394,1.1825,12.927,252.4,15.887,10.933,13.436,0.56031,1.8674,1.411e+05,12.204,2.3198,2.6289,2
22.188,10.287,40.418,1.7053e-13,40.418,0.07642,1.1355,-0.010703,0.3189,1.418,22.188,597.56,24.445,15.647,17.239,-0.21524,2.3214,-1.7007e+05,53.506,20.488,27.156,2
4.5882,3.3415,16.591,0.075871,16.515,-0.056123,0.521,-0.004272,0.29025,1.1139,4.5882,32.155,5.6706,4.1191,5.0908,1.8311,6.0905,7340.7,12.133,1.2299,0.65995,2
9.0375,4.6968,18.542,-0.0042559,18.546,0.049428,0.76664,-0.0035075,0.28463,1.2221,9.0376,103.61,10.179,7.3952,8.3293,-0.075124,2.2437,-723.98,22.977,4.0449,4.6033,2
8.7355,4.5259,17.319,0.89692,16.422,-0.0042219,0.6467,-0.0053296,0.35741,1.1674,8.7355,96.68,9.8326,7.483,8.4228,-0.14076,1.7854,-458.36,5.3446,6.751,4.3886,2
18.618,9.8434,37.698,0,37.698,0.060804,0.82817,-0.0085685,0.16631,1.2544,18.618,442.97,21.047,14.841,16.778,0.34606,2.6264,1.3582e+05,33.988,8.6561,11.039,2
16.405,9.8347,38.142,4.0861,34.056,-0.0037224,0.74666,0.0017294,0.15506,1.1922,16.405,365.33,19.113,13.76,16.032,0.98575,2.7796,4.2686e+05,5.8886,5.4018,5.2905,2
13.275,8.8641,32.33,5.6843e-14,32.33,0.018611,0.72982,0.00027791,0.12689,1.1603,13.275,254.37,15.949,11.441,13.745,0.33265,2.2383,1.1485e+05,13.021,9.0713,10.005,2
2.5117,2.8095,11.201,-0.98575,12.187,-0.059549,0.16034,0.0013686,0.035953,1.0087,2.6676,14.158,3.7627,2.6446,3.7303,1.4093,4.4783,1852.8,14.706,0.014643,0.0099326,2
52.328,33.119,121.4,0.062835,121.34,0.12679,2.2455,-0.0042935,0.42506,2.1456,52.328,3829,61.879,24.388,28.84,0.20756,2.281,5.7969e+07,169.79,65.752,79.781,2
43.556,24.014,91.704,7.259,84.445,0.014278,2.3723,0.026447,0.82869,2.2413,43.556,2470.6,49.705,19.434,22.177,0.28451,2.0495,1.0989e+07,27.992,17.121,23.34,2
25.508,9.6702,50.666,8.6542,42.012,0.048084,1.2017,-0.0039251,0.31945,1.4424,25.508,743.67,27.27,17.685,18.907,0.79595,3.2417,4.3924e+05,85.575,35.33,21.453,2
25.588,12,50.746,8.0055,42.74,0.19995,1.1445,-0.013464,0.1982,1.387,25.588,797.95,28.248,18.448,20.366,0.60153,2.2456,6.3358e+05,454.36,135.15,134.46,2
15.123,10.938,35.887,-2.2737e-13,35.887,-0.0041664,0.86946,0.0024735,0.22725,1.2652,15.123,347.68,18.646,11.954,14.738,0.34096,1.656,1.9992e+05,1.3007,1.6582,1.7459,2
36.644,29.035,90.405,-1.1369e-13,90.405,0.42915,2.1623,-0.038247,0.32757,1.9776,36.644,2181.1,46.703,18.529,23.615,0.48263,1.8565,3.7084e+07,1693.7,416.25,429.72,2
29.546,21.756,76.818,-0.0010945,76.819,-0.077179,1.2777,0.0062659,0.19562,1.3802,29.546,1343.7,36.656,21.407,26.559,0.40936,1.9339,8.785e+06,203.73,253.8,236.73,2
16.336,6.1678,30.765,0.25236,30.513,-0.033534,3.2679,0.017101,2.0123,3.1304,16.336,304.69,17.456,5.2185,5.5762,-0.077686,2.4111,-6404.4,0.42838,8.9963,35.52,2
0.65826,0.23926,1.2662,5.6843e-14,1.2662,0.0030161,0.082666,-0.0029254,0.036966,0.99776,0.65826,0.49024,0.70017,0.65974,0.70174,0.026109,2.4764,-2.4937e-05,0.086271,0.019897,0.0081492,2
0.54117,0.22258,1.2257,0.045689,1.18,0.0008447,0.081312,0.00032825,0.042439,0.99772,0.54117,0.34214,0.58492,0.54241,0.58626,0.24826,3.4728,0.0017815,0.041541,0.022071,0.027383,2
38.982,16.443,57.872,0.27407,57.598,0.076144,1.453,0.043656,0.53208,1.54,38.982,1788.4,42.29,25.313,27.461,-0.59541,2.038,-3.273e+06,141.28,62.812,40.971,2
14.432,7.6693,30.045,0.93787,29.107,0.01402,1.1906,0.018745,0.64357,1.4735,14.432,266.78,16.333,9.7944,11.085,0.09253,1.9358,16833,11.997,12.754,11.527,2
12.497,5.6359,25.029,2.6481,22.38,-0.0034577,1.2294,0.00039284,0.64399,1.493,12.497,187.77,13.703,8.3705,9.178,0.59226,2.4775,15633,5.2625,2.7837,4.6972,2
16,7.2182,30.5,5.6843e-14,30.5,0.047808,0.99777,-0.030707,0.2583,1.3027,16,307.8,17.544,12.282,13.468,-0.15767,2.5472,-18795,21.11,6.4049,8.1519,2
8.8893,4.9652,16.41,-0.00062602,16.411,0.002874,0.4976,0.0008441,0.25125,1.0984,8.8894,103.54,10.175,8.0929,9.2636,-0.5089,1.8534,-5231.2,5.7091,5.9685,6.9871,2
