30.666,22.624,89.575,2.983,86.592,-0.065241,1.4006,9.2763e-05,0.26205,1.5559,30.666,1450.4,38.084,19.709,24.477,0.85515,3.1051,3.4229e+07,12.138,7.1979,4.6028,2
26.067,18.963,54.005,0.45918,53.546,0.11523,1.096,0.0034455,0.28353,1.3968,26.067,1037.8,32.215,18.662,23.063,0.03005,1.3386,3.5694e+05,184.61,188.6,162.12,2
61.643,31.994,117.69,9.0949e-13,117.69,0.14123,3.6102,-0.0031252,0.75326,3.224,61.643,4819.8,69.425,19.12,21.533,-0.17971,2.1511,-3.15e+07,123.26,160.26,166.87,2
0.94061,0.45524,1.9515,0.062121,1.8894,-0.0025243,0.064489,-0.00037194,0.027557,0.99848,0.94061,1.0913,1.0446,0.94204,1.0462,0.52886,2.6869,0.049003,0.15934,0.10017,0.01441,2
9.0206,5.1827,20.869,0.0010128,20.868,0.031588,0.53006,0.0022709,0.21686,1.1156,9.0206,108.14,10.399,8.0859,9.3213,0.43147,2.4047,8293.8,5.0728,4.9519,5.1914,2
2.7907,1.9213,6.8452,0.0029857,6.8422,0.00044405,0.13278,0.00058707,0.040138,1.0051,2.7907,11.466,3.3862,2.7766,3.3691,0.27739,1.8953,33.527,0.0076434,0.023826,0.015188,2
13.083,6.8703,26.366,0.52448,25.842,-0.052485,0.80565,0.0054505,0.26999,1.2129,13.083,218.19,14.771,10.786,12.178,-0.080469,2.0867,-2002.4,0.3837,1.1341,1.3999,2
24.649,14.008,58.107,0,58.107,0.1234,1.9881,-0.0046718,0.70791,1.7556,24.649,803.1,28.339,14.04,16.142,0.26153,2.2749,8.3191e+05,85.728,74.288,60.374,2
45.594,36.887,153.51,1.6544,151.85,0.082373,4.2943,-0.026776,1.9275,3.536,45.594,3434.6,58.606,12.894,16.574,1.2207,3.537,5.1486e+08,223.29,115.59,66.381,2
14.809,12.288,39.47,0.062778,39.407,-0.0087839,0.40639,0.0014759,0.062108,1.0695,14.809,369.77,19.229,13.846,17.979,0.51394,2.0019,6.4674e+05,0.59218,0.6069,0.34558,2
2.4538,1.7062,6.2235,-0.075871,6.2994,0.011832,0.15655,0.0001603,0.050368,1.0077,2.4547,8.9219,2.987,2.4359,2.9641,0.53173,2.0822,34.358,2.3287,2.0844,1.7919,2
3.6776,2.3731,7.8193,-0.0016557,7.8209,-0.0079374,0.11541,-0.00035948,0.030109,1.003,3.6776,19.136,4.3745,3.6666,4.3614,0.081424,1.7605,24.478,0.87863,0.62966,0.55274,2
8.3082,6.5434,24.46,0.55798,23.902,0.006723,0.37164,-0.00028112,0.070842,1.0561,8.3082,111.69,10.568,7.8671,10.007,1.1064,3.0693,68883,2.7327,2.581,2.651,2
37.595,24.638,95.489,1.1369e-13,95.489,-0.10968,1.9046,-0.0018252,0.35317,1.8797,37.595,2018.3,44.925,20.001,23.901,0.33672,2.2087,1.9372e+07,55.506,80.136,121.94,2
6.5352,3.324,14.936,1.0832,13.853,-0.016457,0.24601,0.0026654,0.048635,1.0253,6.5352,53.718,7.3293,6.3742,7.1487,0.54806,2.8984,1474.5,4.1605,2.0714,0.92071,2
14.58,16.651,52.947,0.0012292,52.946,-0.032291,0.80904,0.000645,0.10889,1.1895,14.58,488.83,22.109,12.257,18.587,1.0771,2.6168,6.0432e+06,0.26414,0.25021,0.24009,2
5.7929,3.277,14.834,0.86424,13.97,0.00085638,0.28202,-0.00095861,0.053186,1.0328,5.7929,44.259,6.6527,5.6092,6.4417,0.95898,3.5102,2569.8,0.16445,0.16925,0.19026,2
18.665,15.597,57.935,0.16889,57.766,-0.0064287,1.0516,-0.0009472,0.189,1.3383,18.665,590.8,24.306,13.947,18.163,0.88707,2.8645,4.8506e+06,44.864,48.447,46.591,2
5.9932,5.0612,17.523,3.4106e-13,17.523,0.013457,0.26488,-0.0036962,0.067886,1.0287,5.9932,61.443,7.8385,5.8263,7.6201,0.94425,2.675,14710,1.0588,1.0197,1.0123,2
12.502,9.7719,24.385,0.0035421,24.381,-0.069713,0.83912,-1.6629e-05,0.33641,1.15,12.502,251.44,15.857,10.871,13.788,-0.06778,1.1882,-14095,0.47895,0.39474,0.35179,2
23.169,26.051,93.173,-0.28153,93.455,-0.017088,1.2136,0.00062784,0.20338,1.3729,23.176,1213,34.829,16.881,25.368,1.2497,3.5425,9.3268e+07,2.1241,1.9689,1.4628,2
15.935,12.83,42.877,8.8263e-05,42.877,0.043675,0.71214,-0.00089701,0.10103,1.1731,15.935,417.95,20.444,13.584,17.427,0.52679,2.2899,9.7554e+05,14.828,17.339,19.254,2
27.91,30.599,106.15,0.32205,105.82,0.07892,1.4398,-0.0011806,0.19038,1.4735,27.91,1712,41.376,18.941,28.08,1.3795,3.5418,2.0333e+08,62.581,73.877,91.791,2
17.513,10.396,37.154,0.0055806,37.148,0.11045,1.0099,0.0013667,0.32156,1.3138,17.513,414.38,20.356,13.33,15.494,0.031384,1.7417,28461,76.14,93.178,89.495,2
23.664,13.477,46.058,0,46.058,0.012494,0.9844,-0.009902,0.15413,1.2943,23.664,740.97,27.221,18.284,21.032,0.0037325,1.7246,13861,1.0634,1.5419,2.178,2
12.283,15.043,46.833,2.2737e-13,46.833,0.005602,0.59284,-0.0057526,0.077595,1.1275,12.283,376.36,19.4,10.895,17.207,1.0884,2.6755,3.8169e+06,0.15738,0.30519,0.48704,2
9.081,6.2796,23.944,0.81705,23.127,0.011203,0.46794,-0.0061262,0.10214,1.0863,9.081,121.76,11.034,8.3592,10.157,0.61171,2.2053,28803,3.4178,4.1055,4.5392,2
15.993,11.504,45.678,2.2737e-13,45.678,-0.050603,0.72463,0.0024492,0.12859,1.1991,15.993,387.65,19.689,13.337,16.419,0.97687,3.452,1.3125e+06,0.10474,0.029173,0.18098,2
26.156,20.611,82.666,1.386,81.28,-0.0016231,1.652,-0.013557,0.42831,1.698,26.156,1107.4,33.278,15.404,19.599,1.31,3.7575,2.9635e+07,11.829,15.093,26.698,2
4.9688,3.6087,15.943,0,15.943,0.033217,0.37611,-0.0029056,0.14816,1.0586,4.9688,37.665,6.1372,4.6937,5.7973,0.64537,2.6039,2870.2,6.352,6.3721,4.7937,2
11.838,6.126,21.713,0,21.713,0.011241,0.46043,-0.0030977,0.13401,1.0901,11.838,177.52,13.324,10.859,12.222,-0.23696,1.8599,-8526.5,0.88235,0.95819,0.64705,2
10.419,10.795,34.709,1.7053e-13,34.709,0.0095431,0.56621,-0.012133,0.15618,1.1165,10.419,224.67,14.989,9.3318,13.425,1.0211,2.5239,6.5154e+05,0.89016,1.6383,1.7783,2
13.65,7.031,32.889,0,32.889,0.05397,2.2351,-0.045836,1.0628,1.9674,13.65,235.59,15.349,6.9384,7.8018,0.58394,3.0559,69335,20.311,19.665,7.1739,2
5.1474,4.9966,16.123,0,16.123,0.0042418,0.57807,-0.0056743,0.23334,1.1272,5.1474,51.372,7.1674,4.5664,6.3585,1.145,2.7892,15664,0.017101,0.022428,0.065472,2
8.5263,7.5044,23.258,0.00012566,23.258,0.0056373,0.35208,1.0037e-05,0.085025,1.0491,8.5263,128.81,11.35,8.1275,10.819,0.91755,2.2303,80676,0.51349,0.31574,0.43298,2
15.048,6.7056,26.173,2.5833,23.589,-0.075756,0.55881,0.00064453,0.22513,1.1269,15.048,271.25,16.47,13.353,14.615,-0.17101,1.8456,-9190.7,6.1205,8.6112,4.9206,2
17.989,10.055,40.872,0.71129,40.161,0.049174,1.5103,-0.03345,0.74224,1.5982,17.989,424.34,20.6,11.256,12.889,0.18162,1.9135,1.016e+05,51.607,39.919,27.672,2
9.6318,7.4501,26.757,5.6843e-14,26.757,0.031942,0.52322,-0.011238,0.1418,1.1017,9.6318,148.08,12.169,8.7423,11.045,0.76176,2.4543,87660,5.5863,3.6599,3.1518,2
7.8348,5.3143,20.029,-0.00010067,20.029,0.040643,0.32601,-0.0015844,0.084982,1.0464,7.8348,89.525,9.4617,7.4872,9.042,0.50218,2.5176,12903,11.866,14,12.911,2
18.19,9.3651,32.266,2.2737e-13,32.266,-0.071444,0.71384,-0.0022296,0.1352,1.1897,18.19,418.26,20.451,15.29,17.191,-0.21173,1.7265,-62465,0.75561,0.83928,1.7454,2
5.8378,4.0642,13.478,-0.061845,13.54,-0.00098353,0.17796,0.0014727,0.041075,1.0117,5.8387,50.539,7.109,5.7714,7.0271,0.32924,1.9014,1542.5,1.9294,1.7617,1.3353,2
18.215,14.804,49.044,0.024539,49.019,0.006662,0.79561,-0.0015208,0.098846,1.2253,18.215,550.17,23.456,14.865,19.142,0.54427,2.0867,1.8412e+06,1.7688,1.6284,1.1263,2
42.37,17.442,103.45,1.4637,101.99,0.042143,7.4254,-0.070826,4.0759,6.073,42.37,2098.3,45.808,6.9767,7.5428,0.56126,3.7074,9.9515e+06,356.05,237.49,16.576,2
13.504,4.7384,25.764,1.5655,24.198,-0.036296,1.7847,0.02191,0.99657,1.846,13.504,204.73,14.309,7.3152,7.751,-0.065844,2.9063,-414.74,33.59,17.165,19.818,2
16.976,12.552,45.821,-0.2846,46.106,0.02181,2.0731,-0.00079918,1.088,2.0513,16.978,445.17,21.099,8.2767,10.286,0.7399,2.3693,1.0341e+06,22.921,2.7571,13.59,2
7.3479,4.9718,18.409,-2.8422e-13,18.409,0.021021,0.38115,0.0014323,0.071195,1.0618,7.3479,78.622,8.8669,6.9203,8.3509,0.5365,2.3616,8580.8,3.4837,3.1368,2.4351,2
11.101,9.0895,31.934,0.3508,31.583,0.049349,0.5478,-0.0011464,0.0863,1.123,11.101,205.55,14.337,9.8849,12.767,0.95311,2.6961,2.8716e+05,65.287,56.5,41.581,2
7.6991,3.329,13.49,0.47546,13.015,-0.0032247,0.20821,0.00039242,0.071757,1.0173,7.6991,70.318,8.3856,7.5681,8.243,-0.1773,2.227,-463.91,0.9085,1.0178,1.8936,2
9.319,9.8472,39.293,0.0062332,39.287,-0.0026164,0.56293,0.00088393,0.09654,1.1176,9.319,183.47,13.545,8.3386,12.12,1.6392,4.8431,1.1583e+06,0.34712,0.25344,0.092122,2
12.861,7.2902,28.189,0.39498,27.794,0.016249,0.50831,0.0011191,0.1287,1.1097,12.861,218.36,14.777,11.59,13.317,0.27408,2.0468,25389,15.914,15.949,19.675,2
9.2934,7.5404,26.849,-0.071456,26.921,-0.047396,0.33919,0.0014779,0.07428,1.0503,9.2947,143.02,11.959,8.8498,11.387,0.59469,2.1431,74492,2.3917,1.9145,2.1681,2
1.4084,1.0241,3.3334,5.6843e-14,3.3334,0.0005348,0.097937,-0.00040199,0.044486,1.0011,1.4084,3.0286,1.7403,1.4068,1.7383,0.26154,1.6053,1.0823,0.0078023,0.024179,0.031918,2
8.374,6.9737,26.038,-0.1198,26.157,-0.014281,0.40613,0.00034173,0.064038,1.0612,8.3769,118.58,10.89,7.894,10.262,1.1233,3.48,1.1342e+05,0.33684,0.43121,0.67623,2
1.8022,1.4798,5.255,0.031207,5.2238,-0.014787,0.069231,-0.00015549,0.027224,0.99891,1.8022,5.4299,2.3302,1.8042,2.3328,0.79597,2.268,24.556,0.14752,0.24921,0.23283,2
20,10.773,46.457,0.014171,46.442,-0.010813,1.8405,-0.016252,0.73684,1.8524,20,515.66,22.708,10.797,12.258,0.76996,3.0461,6.1581e+05,13.266,35.502,41.074,2
24.7,10.088,53.527,6.2467,47.28,-0.12309,1.5177,0.039506,0.55686,1.4838,24.7,711.51,26.674,16.647,17.977,0.18993,2.3038,1.3161e+05,42.163,52.973,61.862,2
24.005,21.396,73.795,-0.77562,74.571,-0.033015,1.0565,-0.00166,0.17728,1.3077,24.034,1032.4,32.13,18.379,24.57,0.60953,2.3032,1.5432e+07,2.8849,1.9932,2.073,2
3.7832,3.4409,14.373,0.04336,14.33,0.0046863,0.30708,-0.000433,0.10142,1.0395,3.7832,26.11,5.1098,3.6395,4.9157,1.4466,4.3502,5211.3,0.21187,0.24445,0.37598,2
11.344,10.908,42.11,1.8878e-06,42.11,-0.01551,0.65868,0.0014933,0.11267,1.1346,11.344,247.25,15.724,9.9981,13.859,1.4696,4.1866,1.5124e+06,0.00065255,0.0035899,0.033009,2
7.0408,4.413,15.814,3.4106e-13,15.814,0.015535,0.21498,7.9906e-05,0.058229,1.0188,7.0408,68.977,8.3052,6.9105,8.1516,0.34045,1.7748,2283.1,1.1598,0.85587,0.65347,2
24.095,13.662,64.269,0,64.269,0.096672,1.8199,-0.015141,0.71514,1.7754,24.095,766.56,27.687,13.572,15.595,1.2779,4.1611,4.4362e+06,23.711,62.383,101.19,2
11.472,10.804,33.455,0.71555,32.739,-0.074834,0.26508,-0.003946,0.044279,1.0318,11.472,247.9,15.745,11.117,15.259,0.98161,2.3619,5.5738e+05,0.91782,0.85652,0.8477,2
9.3935,5.3905,20.281,0.028067,20.253,-0.054884,0.68072,0.020965,0.23067,1.1341,9.3935,117.19,10.825,8.2825,9.5451,0.072024,1.831,1852.2,0.047483,0.35535,0.64697,2
45.724,44.626,163.34,0.79541,162.55,-0.017819,2.3477,-0.0092815,0.41192,2.2166,45.724,4075,63.836,20.628,28.799,1.2957,3.5299,1.3283e+09,2.7775,3.99,5.7237,2
9.5915,5.1307,20.071,0.81372,19.257,-0.026124,0.54166,-0.0018765,0.21238,1.1195,9.5915,118.23,10.873,8.5675,9.7124,0.06738,2.3223,2152.6,0.18837,0.6618,4.2023,2
32.736,17.19,63.624,0,63.624,0.044237,1.1874,-0.010679,0.15836,1.4491,32.736,1366.1,36.96,22.591,25.506,0.10047,2.0752,4.805e+05,15.116,16.96,18.85,2
16.198,11.774,40.418,1.7053e-13,40.418,0.0024293,0.96807,-0.0041147,0.32108,1.3149,16.198,400.49,20.012,12.319,15.22,0.36622,1.9082,3.7373e+05,0.071871,0.44523,0.51961,2
7.9925,4.646,18.542,-0.0042559,18.546,0.043908,0.67891,-0.0043381,0.26415,1.1801,7.9926,85.389,9.2406,6.7729,7.8305,0.16489,2.0494,2411.2,12.011,10.996,13.079,2
16.36,9.5736,37.716,0,37.716,0.13518,0.84875,-0.002528,0.17248,1.2636,16.36,358.97,18.947,12.947,14.994,0.73401,2.888,3.2294e+05,98.557,72.197,44.302,2
9.5653,8.9174,32.33,-0.98575,33.316,-0.020524,0.59496,0.001079,0.10354,1.1095,9.6661,170.73,13.066,8.7124,11.777,0.7969,2.6854,2.6828e+05,0.31771,0.30366,0.35498,2
36.61,21.585,91.704,7.259,84.445,-0.0042789,1.9582,0.012124,0.68443,1.8902,36.61,1804.6,42.48,19.368,22.474,0.93984,2.913,2.4289e+07,23.007,38.132,47.103,2
37.767,25.414,90.405,-1.1369e-13,90.405,0.054906,1.8144,-0.020863,0.26988,1.7044,37.767,2069.9,45.496,22.159,26.693,0.42787,2.1127,2.0731e+07,20.308,25.787,31.147,2
0.60952,0.23891,1.2662,5.6843e-14,1.2662,0.0015683,0.073477,-0.0017249,0.033613,0.99907,0.60952,0.42839,0.65451,0.61009,0.65512,0.16731,2.6834,0.00056949,0.019882,0.033047,0.023637,2
14.159,7.2507,30.045,0.93787,29.107,-0.012098,1.2092,0.010459,0.65559,1.4877,14.159,252.87,15.902,9.5177,10.689,0.13773,1.9798,16191,2.6254,0.44599,2.4548,2
12.473,8.036,30.5,-0.00062602,30.501,0.049258,0.85252,-0.018309,0.24226,1.2317,12.473,219.93,14.83,10.127,12.04,0.19929,2.188,46588,12.897,7.8074,10.902,2
