14.079,16.372,69.05,0.0096855,69.04,-0.019551,0.84049,0.00078363,0.17673,1.2224,14.079,465.69,21.58,11.518,17.654,1.65,4.7436,1.5132e+07,1.5278,2.0314,1.7146,1
5.416,6.0657,42.307,0.44825,41.858,0.084848,0.47409,0.0010923,0.087658,1.0734,5.416,66.048,8.127,5.0455,7.571,3.8792,20.984,9.43e+05,160.95,80.179,17.451,1
22.966,15.074,44.475,1.7279e-05,44.475,-0.081473,0.84475,-0.0015698,0.16268,1.2538,22.966,754.21,27.463,18.317,21.903,0.0011001,1.3776,30448,4.1156,3.7589,3.2849,1
29.271,27.194,100.1,-1.1369e-13,100.1,0.082684,1.3001,-0.00026199,0.18038,1.4123,29.271,1594.7,39.934,20.726,28.276,0.83158,2.7897,7.8076e+07,262.26,327.04,309.44,1
57.401,52.39,215.9,-2.2737e-13,215.9,-0.16319,4.6451,0.024347,1.3543,3.5214,57.401,6033.8,77.677,16.3,22.058,1.2844,3.7099,3.31e+09,16.413,18.382,4.2876,1
37.52,47.27,261.11,0.71599,260.39,0.41564,3.3214,-0.013485,1.0583,2.6652,37.52,3637.5,60.312,14.077,22.629,3.1053,12.803,1.2344e+10,6427.2,7603,4401,1
40.498,38.54,201.81,-0.15161,201.97,-0.4275,3.5954,0.0071451,0.90957,2.7697,40.499,3122.3,55.877,14.622,20.175,2.2236,8.1851,2.3902e+09,2.5325,8.8956,19.507,1
71.813,47.674,211.88,-0.65421,212.54,0.0077166,3.579,-0.010192,0.86376,3.1092,71.82,7425,86.169,23.099,27.714,0.86716,3.6243,1.7516e+09,397.85,522.85,644.42,1
105.63,124.15,475.35,0.55227,474.79,0.029791,6.203,0.020533,1.7248,4.6493,105.63,26537,162.9,22.72,35.038,1.8258,5.0062,3.7205e+11,170.37,171.98,151.66,1
37.179,31.776,122.43,0.10253,122.33,-0.096489,2.9861,-0.021429,0.86596,2.4375,37.179,2389.9,48.886,15.253,20.056,1.0867,2.8985,1.7557e+08,29.528,24.297,48.711,1
56.595,63.198,206.09,1.1204,204.97,0.33951,2.3931,0.0013784,0.70359,2.0731,56.595,7188.5,84.785,27.3,40.898,1.1178,2.6573,4.8715e+09,4152.9,4818.5,3892.6,1
36.55,29.67,98.902,-3.7776e-07,98.902,0.044953,1.6517,-0.0014814,0.4135,1.7021,36.55,2214.3,47.056,21.473,27.646,0.66843,2.1407,6.4794e+07,3.9083,0.24209,3.5268,1
38.475,30.863,109.04,-1.4663,110.5,-0.014141,1.3148,-0.010722,0.41232,1.5219,38.513,2430.8,49.303,25.307,32.397,0.7733,2.4468,1.0437e+08,16.602,7.494,22.083,1
14.543,8.1856,33.958,-2.936e-05,33.958,-0.0060919,0.90401,0.0034205,0.37668,1.2945,14.543,278.37,16.685,11.235,12.889,0.64548,2.7227,1.2782e+05,5.3359,8.5827,12.343,1
24.498,18.468,72.068,0.043469,72.025,0.051987,1.2113,0.00028322,0.43557,1.4604,24.498,940.5,30.668,16.775,21,0.77206,2.2779,7.6235e+06,252.31,282.22,248.88,1
22.192,15.514,56.639,0.018938,56.62,-0.072656,1.1896,-0.0017248,0.48584,1.4575,22.192,732.65,27.067,15.226,18.571,0.60683,2.192,2.2934e+06,0.74049,0.24733,0.98906,1
47.492,25.775,115.76,-0.5497,116.31,-0.0077551,1.6023,-0.0050232,0.2436,1.6278,47.497,2918.5,54.023,29.178,33.187,0.6116,3.052,4.9727e+07,436.12,583.4,641.16,1
29.675,39.938,157.54,0.30834,157.23,-0.093763,1.6772,0.0040746,0.24864,1.5643,29.675,2472.3,49.722,18.97,31.785,1.9327,5.5597,1.5404e+09,4.6241,6.2683,4.8002,1
4.5093,2.9171,10.137,0.074711,10.062,0.0061717,0.14213,-0.00049321,0.046181,1.0077,4.5093,28.825,5.3689,4.4746,5.3277,0.13286,1.6531,135.62,8.3055,9.263,8.125,1
2.6669,2.2637,8.455,-0.54065,8.9956,-0.0031253,0.085698,0.00022,0.033946,1.0015,2.7142,12.226,3.4966,2.7101,3.4913,0.56261,2.4341,195.12,4.7223,4.966,4.1395,1
14.63,17.456,68.113,-0.15272,68.266,0.008262,0.66135,-0.00086524,0.11942,1.1552,14.631,518.09,22.762,12.666,19.704,1.9233,5.4773,2.3745e+07,10.049,13.092,14.571,1
15.855,23.152,81.848,0.09155,81.757,-0.0032157,0.83033,0.00038635,0.11468,1.1947,15.855,786.25,28.04,13.271,23.47,1.8245,4.8756,8.1555e+07,5.0481,5.2581,3.8349,1
9.0933,7.4619,25.262,-0.085638,25.348,-0.010257,0.35777,-0.00036572,0.093142,1.0545,9.094,138.25,11.758,8.6237,11.15,0.70778,2.0604,65899,0.53844,0.72347,1.5157,1
4.7798,5.1592,25.887,-0.5693,26.457,0.052001,0.39145,0.0034726,0.079024,1.0605,4.8102,49.407,7.029,4.5357,6.628,1.9733,6.4051,69584,33.51,9.1887,0.67614,1
98.079,71.296,279.49,0.01229,279.48,0.075403,7.2534,0.036646,2.6377,5.6184,98.079,14692,121.21,17.457,21.574,0.71165,2.3021,6.3938e+09,247.49,54.499,35.573,1
90.187,69.99,356.07,0.11945,355.95,-0.066342,6.624,0.0038748,2.07,5.0683,90.187,13022,114.11,17.794,22.515,1.3418,5.2948,2.672e+10,123.36,487.53,624.8,1
38.061,35.166,208.22,0,208.22,0.23052,4.3922,-0.0059907,1.6965,3.6114,38.061,2682.6,51.794,10.539,14.342,2.8109,11.93,2.6428e+09,3318.4,4555,3853.9,1
69.786,56.212,240.92,0.0066138,240.91,-0.18844,6.2085,0.0018221,2.0146,5.0171,69.786,8023,89.571,13.91,17.853,1.068,3.3593,3.9439e+09,505.99,901.94,334.44,1
83.06,91.371,387.63,0,387.63,0.26624,7.2425,0.0054306,2.4655,5.83,83.06,15230,123.41,14.247,21.168,2.0132,6.1495,1.1053e+11,6899.6,11354,13237,1
1.7895,1.4122,5.5636,0.0021734,5.5614,0.0033167,0.082446,9.2525e-05,0.027436,1.0012,1.7895,5.1925,2.2787,1.7873,2.2759,0.95592,3.1304,34.238,0.31897,0.32716,0.2787,1
1.4306,1.5739,6.9957,-0.0015485,6.9973,-0.0032408,0.092502,-3.0101e-05,0.030265,1.0021,1.4306,4.5186,2.1257,1.4276,2.1212,1.8792,5.7368,156.43,0.0061264,0.0039906,0.0094439,1
38.13,30.749,135.31,-2.2737e-13,135.31,-0.019297,2.7124,0.0039569,0.9013,2.412,38.13,2397.4,48.963,15.808,20.299,1.1856,3.945,2.5749e+08,6.5349,60.089,29.934,1
11.918,6.102,31.095,1.1801,29.915,0.01827,1.3589,-0.0037882,0.55798,1.5411,11.918,179.19,13.386,7.7331,8.6859,0.72338,3.4047,50517,8.7301,7.0068,15.3,1
16.277,10.955,49.487,0.13031,49.357,0.05535,1.8358,-0.006202,0.78861,1.795,16.277,384.69,19.613,9.0678,10.927,0.6783,2.8372,7.7501e+05,171.75,38.919,22.618,1
18.646,14.867,71.635,-1.145e-05,71.635,-0.044755,2.3774,0.010796,1.0293,2.1039,18.646,568.22,23.837,8.8627,11.33,1.0608,3.5224,6.0252e+06,12.942,11.825,9.4004,1
0.44125,0.98891,4.5772,-1.9841e-05,4.5772,0.0073238,0.059988,-0.00047474,0.01708,0.99966,0.44125,1.1706,1.0819,0.4414,1.0823,3.2353,12.467,45.354,2.0825,2.0847,1.9221,1
0.67922,0.58899,3.5148,0.045463,3.4694,-0.0070206,0.054947,0.00046776,0.019124,0.99939,0.67922,0.80751,0.89862,0.67963,0.89916,2.1091,8.3324,2.2082,0.006225,0.0066304,0.0060187,1
21.24,14.27,57.145,2.2737e-13,57.145,-0.028188,1.497,0.0042735,0.56112,1.6084,21.24,654.34,25.58,13.206,15.904,0.6387,2.2711,1.8422e+06,15.825,18.622,1.9608,1
7.2752,3.5102,14.856,0.17322,14.683,0.015454,0.87519,-0.0023665,0.39954,1.2861,7.2752,65.224,8.0761,5.6569,6.2796,0.19881,2.1714,457.51,19.796,8.699,10.268,1
7.8537,3.3099,16.122,0.69812,15.424,-0.0030836,0.70469,0.0021113,0.31724,1.1963,7.8537,72.613,8.5213,6.5651,7.1232,0.33092,2.7149,745.14,6.4465,0.92726,3.8866,1
24.652,23.528,87.593,0.37067,87.222,-0.027254,1.1042,0.0019983,0.30917,1.3647,24.652,1160.1,34.06,18.064,24.958,1.0861,3.1376,4.6471e+07,2.0503,4.0563,2.4549,1
13.74,12.068,48.175,0.09898,48.076,-0.0040496,0.73037,0.00023374,0.25524,1.199,13.74,334.1,18.278,11.46,15.245,1.5019,4.2533,2.5712e+06,2.5997,2.3213,3.4237,1
12.33,8.2246,33.482,0.00098899,33.481,0.0037449,0.64704,-0.00062486,0.23649,1.1612,12.33,219.54,14.817,10.618,12.76,0.74167,3.0509,1.8349e+05,4.3088,12.254,10.993,1
15.717,11.984,48.854,-0.011837,48.866,0.017465,0.73209,0.0016542,0.24606,1.192,15.717,390.35,19.757,13.186,16.575,1.0228,3.0296,1.4113e+06,17.218,17.552,21.673,1
61.461,35.447,192.94,-0.6504,193.59,-0.016485,5.3946,-0.014976,1.9792,4.4587,61.465,5031.3,70.932,13.785,15.909,0.944,4.22,5.8349e+08,145.98,522.66,388.16,1
37.539,56.695,262.57,2.0189,260.55,0.2113,2.7161,-0.0079627,0.41468,2.0463,37.539,4616.7,67.946,18.345,33.205,2.7459,9.7431,1.9979e+10,3838.8,5615.7,6006.1,1
55.677,52.376,240.51,0,240.51,-0.29119,3.3918,0.0088967,0.72915,2.6374,55.677,5837.3,76.402,21.11,28.969,1.4691,5.0473,5.7729e+09,18.66,13.412,13.33,1
28.527,38.736,163.06,-2.2737e-13,163.06,0.058315,1.6177,0.0015452,0.24478,1.5386,28.527,2311.1,48.074,18.541,31.246,2.1834,6.875,1.8206e+09,154.09,140.63,104.52,1
57.907,39.542,162.67,-0.35149,163.02,0.0039021,2.6006,0.0023805,0.56426,2.3373,57.909,4913.5,70.096,24.776,29.99,0.75988,2.8951,4.3945e+08,231.34,307.96,196.63,1
9.7184,11.351,39.47,0.026762,39.443,-0.0088983,0.31851,0.00076276,0.052077,1.0431,9.7184,223.01,14.933,9.3168,14.316,1.2525,3.2895,1.3266e+06,0.10445,0.13193,0.1088,1
3.5769,2.1337,7.8193,-0.075871,7.8951,0.0030161,0.14461,6.9789e-05,0.043697,1.0077,3.5774,17.337,4.1638,3.5502,4.1321,0.037605,1.9754,17.769,0.75841,0.94843,0.80916,1
15.375,21.103,85.295,1.5113,83.784,-0.13524,0.63477,-0.0043936,0.14457,1.1478,15.375,680.78,26.092,13.396,22.733,1.9916,5.8291,6.9494e+07,7.7821,8.9334,8.6163,1
12.518,11.51,53.428,0.08212,53.345,0.0014132,0.7068,-0.00021949,0.12683,1.1371,12.518,288.89,16.997,11.008,14.947,1.7195,5.7998,3.4585e+06,7.8108,7.3152,8.411,1
29.352,30.732,100.18,-0.084666,100.26,0.03565,1.7721,0.016611,0.34169,1.6927,29.352,1804,42.473,17.341,25.092,1.0701,2.6958,1.3442e+08,0.33166,0.94417,1.4988,1
22.678,22.84,91.689,-0.66133,92.351,-0.05078,1.4855,-0.018257,0.24764,1.4488,22.697,1034.9,32.169,15.666,22.204,1.4584,4.3645,6.6255e+07,0.15485,0.18534,0.39436,1
60.359,39.184,142.88,-0.058764,142.94,-0.056491,1.7356,-0.00066638,0.28317,1.8103,60.36,5175.4,71.94,33.343,39.74,0.35818,2.0794,1.7255e+08,28.029,48.325,55.476,1
49.726,42.478,193.6,0.37411,193.23,0.39672,3.1387,0.0018406,0.52041,2.6869,49.726,4273.3,65.37,18.507,24.329,1.2736,4.6221,1.7438e+09,4195.6,3678.5,2501,1
53.502,59.473,191.97,0.54145,191.43,-0.40623,2.1636,0.0010214,0.48475,1.7411,53.502,6391.9,79.949,30.729,45.92,1.3226,3.1884,4.5956e+09,0.65332,2.2586,2.4479,1
34.165,38.972,143.02,-0.22587,143.24,-0.024237,1.7021,0.0011246,0.21636,1.7349,34.168,2682.8,51.796,19.695,29.856,1.2444,3.5684,7.2728e+08,3.9764,3.5815,2.2547,1
12.187,19.991,90.812,0.019834,90.792,0.12867,0.95716,0.0014481,0.15097,1.2115,12.187,547.32,23.395,10.059,19.31,2.8531,10.124,1.1336e+08,542.01,718.01,753.52,1
5.2861,3.8801,16.409,0.22531,16.184,-0.0057271,0.20759,-0.0002461,0.039491,1.0169,5.2861,42.966,6.5549,5.1981,6.4457,0.9701,3.2231,5834.4,0.46518,1.2708,1.5856,1
4.9438,8.1737,29.246,0.080216,29.166,-0.0012693,0.32707,0.00041077,0.047613,1.0392,4.9438,91.108,9.5451,4.7572,9.1849,1.978,5.4497,5.2803e+05,0.022157,0.022403,0.038083,1
4.4669,4.8394,18.954,0.087827,18.866,0.026093,0.1778,-0.00058013,0.032141,1.0134,4.4669,43.323,6.582,4.4077,6.4947,1.3719,3.9463,25029,21.58,24.841,25.371,1
10.469,12.796,42.351,0.0030567,42.347,-0.023371,0.46754,0.00060586,0.064295,1.0843,10.469,272.99,16.523,9.6553,15.238,1.3935,3.4665,2.4902e+06,0.52256,0.61186,0.34386,1
12.051,7.4069,30.407,0.0026422,30.404,0.01375,0.78009,-0.0031373,0.32549,1.2268,12.051,199.97,14.141,9.8229,11.527,0.57751,2.6142,71845,12.628,9.5088,8.9903,1
9.7696,7.3849,31.995,0.068099,31.927,0.0042635,0.77399,0.0012883,0.32095,1.2328,9.7696,149.87,12.242,7.9245,9.9299,1.2571,3.9048,1.9993e+05,5.9966,8.2809,10.441,1
15.849,13.942,65.126,0.033966,65.092,0.027337,0.72873,-0.0015105,0.092387,1.1776,15.849,445.16,21.099,13.458,17.916,1.6614,5.9369,9.2211e+06,45.895,63.02,65.456,1
14.782,18.801,79.436,-0.020721,79.457,-0.026811,0.96427,0.0013445,0.12964,1.2744,14.783,571.23,23.9,11.6,18.754,2.005,6.2681,4.3969e+07,1.1335,2.0326,2.8376,1
5.5595,8.968,36.163,-0.0082862,36.171,-0.0025906,0.42938,-9.9122e-05,0.06276,1.0604,5.5595,111.16,10.543,5.243,9.9431,2.1847,6.6745,1.1542e+06,0.28354,0.5777,0.69528,1
4.2571,2.7576,9.549,-0.048079,9.5971,-0.0024263,0.13711,4.9387e-05,0.034426,1.0071,4.2575,25.711,5.0706,4.2277,5.0351,0.32045,1.8862,217.38,0.086081,0.46857,0.86971,1
12.69,9.203,40.851,0.044698,40.806,-0.042296,1.0073,-0.00034185,0.45353,1.3434,12.69,245.54,15.67,9.4462,11.665,1.4645,4.4071,7.1019e+05,7.211,2.639,2.4121,1
20.223,13.259,55.815,0.052932,55.762,0.019865,1.1342,-0.0017979,0.38894,1.4121,20.223,584.38,24.174,14.322,17.12,0.83121,3.1813,2.3787e+06,67.673,65.756,67.293,1
15.031,9.4048,45.195,-0.0025015,45.197,-0.022087,1.038,0.0064496,0.38022,1.3782,15.031,314.2,17.726,10.906,12.862,1.1799,4.3348,7.3615e+05,0.25916,13.273,32.889,1
18.726,10.658,50.716,0.10835,50.608,0.011159,1.0224,-0.003891,0.39188,1.3551,18.726,463.99,21.54,13.819,15.896,0.77364,3.4456,8.512e+05,21.859,17.979,8.7561,1
13.713,7.9505,42.413,0.08824,42.325,-0.0037625,1.1464,0.0014536,0.46941,1.4285,13.713,251.12,15.847,9.5998,11.094,1.0213,4.9325,4.0232e+05,7.6674,0.69,8.3218,1
11.144,14.968,60.464,0.084165,60.38,0.013913,0.60875,0.0023635,0.078321,1.1352,11.144,347.77,18.648,9.8166,16.427,2.1478,6.4731,1.411e+07,7.3673,7.4081,6.347,1
24.51,15.86,58.784,-0.53395,59.318,0.03241,0.89264,-0.0027289,0.12236,1.2632,24.527,851.76,29.185,19.417,23.105,0.19728,2.1516,1.3612e+06,102.15,116.98,113.29,1
19.482,14.505,48.317,0.55808,47.759,-0.034664,0.76092,0.0020127,0.096058,1.2205,19.482,589.5,24.28,15.962,19.893,0.45339,1.8326,1.1255e+06,7.8429,5.7039,3.0622,1
14.072,9.4905,34.877,0.35249,34.525,0.024185,0.46949,-0.00068052,0.076404,1.0902,14.072,287.91,16.968,12.908,15.564,0.50796,2.118,1.8365e+05,55.543,59.45,50.166,1
13.917,10.975,41.916,-1.0422,42.958,0.016709,0.63518,-0.0017294,0.11805,1.1528,13.945,313.87,17.716,12.097,15.369,0.81111,2.7505,7.2314e+05,8.6005,12.156,11.339,1
9.8182,8.5976,37.739,0.16439,37.574,-0.016467,0.39006,0.00060992,0.087243,1.0651,9.8182,170.16,13.045,9.2183,12.247,1.6052,5.1745,6.5426e+05,0.057467,0.053358,0.0035601,1
11.464,12.197,47.881,-0.098785,47.979,0.0038513,0.53138,0.0018226,0.092941,1.111,11.465,279.87,16.729,10.32,15.058,1.3998,4.1215,2.662e+06,0.0013318,0.12243,0.63611,1
16.799,13.777,57.224,0.12801,57.096,0.019475,0.80579,-0.001801,0.13119,1.2162,16.799,471.59,21.716,13.813,17.856,1.2812,3.8498,4.2796e+06,16.384,23.562,25.276,1
6.735,4.7917,18.549,-0.63578,19.185,0.012723,0.37577,0.00079957,0.086696,1.0597,6.7541,68.272,8.2627,6.3738,7.7974,0.60852,2.5393,8294.8,26.884,26.738,22.233,1
9.2477,6.7067,22.298,-0.01417,22.312,0.0078716,0.49477,0.00082387,0.1387,1.1011,9.2477,130.4,11.419,8.399,10.371,0.39914,1.8868,20855,1.1177,0.084106,0.066376,1
10.398,6.547,28.69,0.30766,28.382,0.046083,0.56338,0.0012471,0.14621,1.1205,10.398,150.9,12.284,9.2799,10.963,0.80346,2.8707,52095,67.44,39.932,7.0048,1
14.024,8.8859,31.831,0.042643,31.788,-0.025074,0.61552,-0.0017051,0.15771,1.1455,14.024,275.46,16.597,12.242,14.489,0.21056,1.9491,60114,36.479,36.814,13.211,1
9.1188,6.4066,33.044,0.041781,33.002,0.00045804,0.43012,0.0015408,0.080514,1.0721,9.1188,124.11,11.14,8.5053,10.391,1.4717,5.9765,1.9286e+05,11.273,9.9722,4.7747,1
6.0788,3.7945,13.889,-0.1404,14.029,-0.002329,0.20358,-0.00039549,0.03761,1.0174,6.082,51.319,7.1638,5.978,7.0413,0.27755,1.9771,950.46,8.6058,4.9375,1.506,1
5.4992,2.8972,11.017,-0.2913,11.308,-0.0081891,0.15854,0.00039844,0.035962,1.0099,5.5043,38.617,6.2142,5.4502,6.1532,-0.22049,2.0496,-176.44,2.6239,2.5629,2.6488,1
4.4375,2.3241,9.511,0.033472,9.4775,0.00044821,0.18675,1.2031e-05,0.045422,1.0147,4.4375,25.081,5.0081,4.373,4.9354,0.12379,2.4196,50.891,4.7498,5.299,4.9876,1
5.3802,3.3878,14.12,-0.054559,14.174,1.0841e-05,0.2253,-0.00085222,0.044695,1.0216,5.3809,40.399,6.356,5.2672,6.2218,0.7464,2.9661,2070.2,6.4624,8.6038,7.1952,1
9.618,8.1814,39.168,0.17544,38.992,-0.018919,0.76112,0.00060207,0.27873,1.205,9.618,159.3,12.621,7.9815,10.474,1.7239,5.7777,6.0653e+05,3.34,4.286,4.5334,1
13.703,17.914,74.279,0.18789,74.092,0.027237,1.0049,-0.0014053,0.22488,1.2852,13.703,507.98,22.538,10.662,17.537,2.1655,6.5977,3.5498e+07,22.317,8.0787,3.3699,1
35.182,37.005,136.58,0.072922,136.51,0.033015,1.5385,0.0055246,0.26438,1.5832,35.182,2604.2,51.032,22.221,32.233,1.6604,4.4829,7.4233e+08,101.81,173.93,199.25,1
24.932,21.347,90.623,0.14678,90.477,0.0043963,1.54,-0.0066844,0.35598,1.6293,24.932,1076.3,32.807,15.302,20.136,1.0628,3.5396,3.6657e+07,260.36,336.05,394.67,1
8.6125,8.1753,30.703,0.037046,30.666,0.013134,0.36697,-0.00041049,0.067755,1.0484,8.6125,140.87,11.869,8.2149,11.321,1.2604,3.5777,2.8068e+05,6.819,7.0331,6.3783,1
3.9951,1.4836,7.9793,1.3647,6.6146,-0.011585,0.090107,1.6867e-05,0.035713,1.002,3.9951,18.157,4.2611,3.9873,4.2528,1.0472,3.841,52.498,0.91534,1.1543,0.81918,1
12.551,9.2857,32.35,0.12291,32.227,0.0039925,0.49743,-0.0011866,0.12883,1.1039,12.551,243.56,15.606,11.369,14.138,0.62915,2.1561,1.8633e+05,3.5129,3.0459,3.0474,1
6.1047,5.5382,22.782,-0.00013191,22.782,0.013697,0.35364,0.0011299,0.12747,1.0541,6.1047,67.874,8.2386,5.7916,7.8159,1.5647,4.3719,54966,11.869,6.4456,6.7541,1
12.852,10.531,36.507,-0.042761,36.55,-0.014662,0.45552,-0.0009379,0.11467,1.0891,12.852,275.84,16.608,11.801,15.25,0.72239,2.2864,4.3044e+05,1.9116,3.8837,5.3334,1
1.1431,0.82724,3.6539,0.0059092,3.648,-0.00036751,0.068552,0.00035888,0.025196,1.0002,1.1431,1.9895,1.4105,1.1429,1.4102,0.90476,3.1327,2.3147,0.011319,0.025529,0.030844,1
4.1538,5.2863,20.323,0.0016036,20.321,0.0011321,0.20612,0.00020704,0.03439,1.0175,4.1538,45.139,6.7186,4.0824,6.6032,1.7098,4.8156,51872,0.056764,0.059036,0.076686,1
2.3057,2.6864,11.366,-0.016636,11.382,0.006492,0.15334,-0.00035711,0.030994,1.0089,2.3058,12.517,3.538,2.2855,3.5069,1.9955,6.1893,2541.5,2.8915,3.0985,2.3131,1
2.5878,1.4635,6.201,0.0869,6.1141,0.0033197,0.13498,-0.00013671,0.033526,1.0068,2.5878,8.834,2.9722,2.5702,2.952,0.28341,2.2144,10.981,4.3171,2.9503,1.233,1
25.484,36.216,130.97,-0.14753,131.12,-0.078375,1.3971,0.0027364,0.21136,1.491,25.485,1958.2,44.252,17.093,29.679,1.9076,5.3208,8.6637e+08,0.17414,0.27267,0.066388,1
10.893,10.429,33.536,0.27447,33.262,-0.0019787,0.33292,-0.00070292,0.057737,1.0465,10.893,227.19,15.073,10.409,14.404,1.006,2.618,5.4703e+05,15.589,22.18,26.707,1
16.936,19.916,75.248,0.061909,75.186,-0.0066306,0.82923,0.0012697,0.1391,1.1983,16.936,682.64,26.127,14.134,21.804,1.6034,4.2755,3.2345e+07,2.3928,2.6245,1.7453,1
3.7987,1.85,7.7494,0.10314,7.6463,-0.0031522,0.1461,0.00035529,0.045205,1.0083,3.7987,17.845,4.2243,3.7674,4.1896,-0.024347,2.5834,0.43305,1.3127,1.2647,1.3549,1
13.64,11.011,45.849,-0.03197,45.881,0.045457,0.6259,0.0043117,0.090881,1.1453,13.64,307.03,17.522,11.909,15.299,1.3218,4.4608,1.7658e+06,12.112,1.9488,2.0756,1
4.4338,3.1736,11.577,0.0084642,11.568,0.00026824,0.17733,-0.00022996,0.044076,1.0131,4.4338,29.708,5.4505,4.3765,5.3801,0.49947,2.2275,871.52,0.0052493,0.011856,0.015624,1
26.641,25.392,113.88,0.17386,113.7,-0.098646,1.6745,-0.0028771,0.41685,1.5751,26.641,1353.1,36.785,16.914,23.354,1.5649,5.077,1.4877e+08,1.9757,4.3494,0.74553,1
11.205,12.749,46.721,0.011849,46.709,-0.021326,0.72059,0.0038041,0.25331,1.2001,11.205,287.75,16.963,9.337,14.135,1.4779,4.07,3.26e+06,2.0786,1.7965,1.535,1
15.211,14.578,62.295,0.082222,62.213,0.10571,0.83814,-0.0021326,0.2414,1.2417,15.211,443.44,21.058,12.25,16.959,1.2915,4.2777,7.2335e+06,334.72,369.26,379.03,1
15.208,10.39,53.689,0.0067507,53.683,-0.093618,0.83632,0.0020434,0.29732,1.2578,15.208,339.02,18.413,12.092,14.639,1.2534,4.8249,1.6032e+06,12.039,10.976,8.9239,1
5.0998,3.6277,22.682,0.12571,22.557,0.016488,0.59303,-0.0039353,0.28404,1.1452,5.0998,39.14,6.2562,4.453,5.4628,2.3627,10.22,25626,57.251,35.662,25.836,1
2.8769,2.2947,7.4356,0.067046,7.3686,-0.00039294,0.10225,0.00022978,0.0358,1.003,2.8769,13.531,3.6784,2.8682,3.6673,0.56619,1.8804,130.34,0.69768,0.86114,0.87088,1
2.6703,2.6103,9.5816,0.0070831,9.5745,-0.0047766,0.10782,-4.0365e-05,0.03416,1.0036,2.6703,13.929,3.7322,2.6606,3.7188,1.4439,3.8796,1043.5,0.033856,0.010778,0.042007,1
0.94547,0.51344,2.3326,-0.00040987,2.333,0.0015989,0.065633,-4.2839e-05,0.030575,1,0.94547,1.157,1.0756,0.94545,1.0756,0.44631,2.946,0.11345,0.15101,0.14396,0.12338,1
0.94613,0.5796,2.7163,0.035175,2.6811,-0.00023831,0.057113,0.00014944,0.025468,0.9995,0.94613,1.2304,1.1092,0.9466,1.1098,1.1432,3.7528,0.5234,0.038926,0.023738,0.063377,1
12.827,12.002,50.727,-0.0011471,50.728,-0.016191,0.70921,0.0035696,0.1778,1.1774,12.827,308.28,17.558,10.894,14.912,1.4096,3.9704,2.2728e+06,192.08,152.28,74.012,1
16.28,13.086,47.424,0.50429,46.92,-0.0679,0.7714,7.1633e-05,0.18871,1.202,16.28,435.92,20.879,13.544,17.37,0.83975,2.3854,1.4841e+06,9.2906,23.464,39.76,1
16.623,15.21,57.93,-0.00047451,57.93,-0.016076,1.0157,0.00063232,0.27241,1.2825,16.623,507.17,22.52,12.962,17.56,1.3246,3.5279,6.3205e+06,5.9119,5.1428,1.0159,1
9.4432,6.3814,50.291,1.1958,49.095,0.099204,0.73191,0.0040481,0.20055,1.1811,9.4432,129.81,11.393,7.9953,9.6465,2.3606,13.28,7.5096e+05,126.91,40.992,4.6939,1
17.803,13.81,52.138,0.25735,51.881,-0.0068677,0.71201,-0.0027643,0.15999,1.178,17.803,507.23,22.522,15.112,19.118,1.0096,3.0378,2.8136e+06,11.205,16.399,19.537,1
11.845,14.09,57.429,0.038579,57.39,-0.0047802,0.8278,0.00070877,0.1843,1.2102,11.845,338.41,18.396,9.788,15.201,1.9438,5.7056,8.7025e+06,1.1539,1.9604,1.762,1
10.688,10.924,44.793,0.14614,44.647,0.0032551,0.67441,0.00018951,0.13805,1.1593,10.688,233.33,15.275,9.2195,13.176,1.6159,4.628,1.8495e+06,7.0909,9.6941,6.7781,1
13.338,11.416,49.328,0.015777,49.313,0.03504,0.64533,9.1611e-05,0.15491,1.1569,13.338,307.95,17.548,11.529,15.168,1.2426,4.2973,2.0458e+06,50.326,45.214,39.032,1
15.575,16.448,48.463,1.1369e-13,48.463,0.037013,0.67493,-0.00085499,0.15237,1.1514,15.575,512.52,22.639,13.527,19.662,0.83555,2.0751,3.6437e+06,39.082,54.962,61.6,1
24.241,27.172,97.392,-0.0041901,97.396,-0.029946,1.4456,0.0013252,0.27661,1.4786,24.241,1324.4,36.392,16.395,24.613,1.4687,3.8662,1.2858e+08,2.0206,7.5473,8.089,1
6.5658,5.0866,23.592,0.059047,23.533,-0.0033578,0.39577,-0.0011351,0.12852,1.0634,6.5658,68.928,8.3023,6.1746,7.8077,1.5068,5.0311,47008,1.0918,1.1542,1.0103,1
12.383,10.949,42.84,0.027154,42.813,0.072257,0.73136,0.0048422,0.15645,1.1945,12.383,272.96,16.521,10.367,13.832,1.3324,3.8926,1.3577e+06,93.405,58.359,10.931,1
42.579,29.332,106.98,0.20113,106.78,-0.031977,1.9892,0.004706,0.36014,1.9116,42.579,2671.5,51.687,22.275,27.039,0.44039,1.9903,4.0716e+07,0.72503,7.3753,18.212,1
24.575,16.949,63.721,0.090234,63.631,-0.033593,1.6128,-0.0072874,0.34407,1.6793,24.575,890.6,29.843,14.634,17.771,0.69051,2.423,4.5742e+06,1.1455,3.5997,4.9512,1
27.778,20.02,76.457,0,76.457,0.0090639,1.2658,-0.0047017,0.22201,1.454,27.778,1171.6,34.228,19.105,23.541,0.6503,2.6097,1.2496e+07,7.7196,13.62,19.678,1
26.245,39.312,146.45,0.042902,146.41,-0.0055918,1.4805,0.0035701,0.21104,1.4491,26.245,2230.9,47.233,18.111,32.594,1.9398,5.3833,1.3403e+09,0.025085,0.12528,0.38272,1
16.949,13.469,47.287,0.0069335,47.28,0.0060956,0.82853,-0.0055818,0.12315,1.2376,16.949,468.3,21.64,13.695,17.485,0.61248,2.0954,1.2181e+06,12.546,35.088,57.364,1
27.04,24.002,90.759,0.033663,90.726,0.11916,1.5725,0.00031276,0.28247,1.5215,27.04,1306,36.139,17.772,23.752,1.1586,3.3769,5.6639e+07,485.01,443.55,288.12,1
16.92,11.274,44.573,0.20074,44.372,0.011034,0.78724,-0.0027164,0.13784,1.2078,16.92,413.1,20.325,14.008,16.827,0.65071,2.8278,7.4397e+05,11.861,14.782,17.978,1
14.929,17.349,68.367,0.38001,67.987,0.0068253,0.87887,-0.00057407,0.15184,1.185,14.929,523.23,22.874,12.598,19.303,1.8196,5.4148,2.2671e+07,16.544,19.236,17.005,1
11.831,13.337,54.824,-0.06566,54.89,-0.013101,0.5833,0.00079361,0.10406,1.1197,11.831,317.47,17.818,10.567,15.913,1.7219,5.0636,5.6702e+06,1.9104,3.0945,2.4065,1
13.359,13.121,56.77,0.27129,56.499,0.028797,0.77326,-0.00046791,0.1459,1.203,13.359,350.23,18.715,11.104,15.557,1.7379,5.2602,5.4367e+06,41.055,22.89,4.1017,1
16.92,11.274,44.573,0.20074,44.372,0.011034,0.78724,-0.0027164,0.13784,1.2078,16.92,413.1,20.325,14.008,16.827,0.65071,2.8278,7.4397e+05,11.861,14.782,17.978,1
14.929,17.349,68.367,0.38001,67.987,0.0068253,0.87887,-0.00057407,0.15184,1.185,14.929,523.23,22.874,12.598,19.303,1.8196,5.4148,2.2671e+07,16.544,19.236,17.005,1
11.831,13.337,54.824,-0.06566,54.89,-0.013101,0.5833,0.00079361,0.10406,1.1197,11.831,317.47,17.818,10.567,15.913,1.7219,5.0636,5.6702e+06,1.9104,3.0945,2.4065,1
13.359,13.121,56.77,0.27129,56.499,0.028797,0.77326,-0.00046791,0.1459,1.203,13.359,350.23,18.715,11.104,15.557,1.7379,5.2602,5.4367e+06,41.055,22.89,4.1017,1
12.403,10.48,41.595,0.002462,41.592,-0.04223,0.65482,-0.0030348,0.16453,1.1593,12.403,263.42,16.23,10.698,14,0.75042,2.6725,6.1273e+05,2.1663,2.5192,3.8038,1
18.169,27.268,129.15,0.014498,129.14,0.26911,1.5628,0.0068451,0.18366,1.4801,18.169,1072.1,32.743,12.276,22.123,2.0226,6.0843,2.7532e+08,1264.2,749.33,257.16,1
39.583,35.191,135.01,-0.10529,135.12,-0.27284,1.6728,-0.0054589,0.25426,1.7135,39.583,2802.5,52.939,23.101,30.896,0.80357,2.7164,2.7136e+08,0.07125,0.8663,1.1066,1
43.504,31.439,179.73,5.8037e-06,179.73,0.065352,5.3362,0.01633,2.3071,3.6117,43.504,2878.9,53.656,12.045,14.856,1.5932,5.9099,5.7092e+08,178.56,91.936,176.81,1
16.194,7.7411,30.431,0.74328,29.688,0.040613,0.55728,0.00025605,0.1042,1.1266,16.194,322.05,17.946,14.374,15.929,-0.068765,1.9644,-9009,66.915,52.82,35.424,1
32.783,20.026,77.384,0.41308,76.971,-0.015285,1.1481,0.00061881,0.1942,1.4314,32.783,1474.9,38.405,22.903,26.83,0.27681,2.2885,5.8688e+06,48.656,43.904,25.376,1
26.391,11.682,49.946,0.26835,49.677,0.043207,0.96223,0.00057802,0.22797,1.3133,26.391,832.64,28.856,20.095,21.972,-0.062651,2.5757,-1.6181e+05,97.504,71.244,54.116,1
20.726,13.544,52.426,0.045453,52.38,-0.073505,0.83927,-0.00045559,0.1674,1.2428,20.726,612.62,24.751,16.676,19.915,0.40008,2.2822,1.1873e+06,1.6249,2.8972,1.9468,1
30.289,20.081,73.919,0.50127,73.418,0.023263,1.0393,-0.0023769,0.18101,1.3431,30.289,1319.8,36.33,22.551,27.048,0.33121,2.0535,5.4503e+06,55.189,66.283,96.061,1
6.835,7.2142,25.014,-0.00024123,25.014,0.023813,0.30537,-0.0016402,0.059722,1.0398,6.835,98.65,9.9323,6.5734,9.5522,1.0224,2.7649,1.0465e+05,70.091,68.414,60.816,1
43.46,52.635,177.34,0.0001257,177.34,0.11153,1.8194,-0.00090142,0.1858,1.6154,43.46,4653.3,68.215,26.904,42.229,1.2246,3.2468,2.7676e+09,708.55,710.09,570.01,1
46.023,45.941,169.25,-0.33114,169.58,-0.062841,2.1899,0.0023803,0.26747,1.8506,46.027,4224.2,64.994,24.871,35.121,1.0611,3.0965,1.2966e+09,254.49,240.78,228.02,1
21.082,20.058,75.327,-0.13034,75.457,-0.010298,0.89573,-6.2386e-06,0.18219,1.2537,21.083,845.9,29.084,16.817,23.2,1.1516,3.5677,2.5182e+07,141.23,100.55,70.295,1
13.496,9.3203,42.853,0,42.853,0.030466,1.7459,-0.041003,0.81575,1.5093,13.496,268.83,16.396,8.9421,10.863,0.85098,2.7821,3.486e+05,46.319,63.959,99.259,1
12.888,6.7842,36.335,0.21049,36.125,0.0040234,1.3158,0.0013544,0.66185,1.4396,12.888,212.04,14.561,8.9525,10.115,0.8508,3.8699,1.0231e+05,18.142,25.708,10.902,1
11.614,7.5122,28.549,1.1839,27.365,-0.041702,0.55922,0.0015531,0.2313,1.1285,11.614,191.2,13.827,10.292,12.253,0.49349,1.9612,47002,1.8115,1.9712,1.9084,1
7.6593,8.1924,32.418,-0.14183,32.56,0.0277,0.5968,0.00055234,0.22492,1.1387,7.6603,125.64,11.209,6.727,9.8431,1.6185,4.8389,4.5754e+05,20.345,17.414,12.328,1
10.65,8.968,35.052,0.43751,34.615,-0.031658,0.48355,-0.0023736,0.15205,1.0997,10.65,193.67,13.916,9.6842,12.655,1.1701,3.4531,4.234e+05,0.15867,0.69486,1.8738,1
23.664,12.199,60.513,0.31688,60.196,-0.053985,3.5736,0.017243,1.9636,3.3503,23.664,708.49,26.617,7.0633,7.9448,0.61538,3.33,1.4085e+06,82.799,39.373,44.37,1
13.689,7.4632,31.945,-0.76545,32.71,-0.0046514,3.6614,-0.004654,1.9923,3.4367,13.695,242.97,15.588,3.985,4.5357,0.17624,2.135,25675,28.094,31.514,15.233,1
22.55,12.408,48.539,0.041866,48.497,0.028205,0.78265,0.0075814,0.24756,1.2061,22.55,662.13,25.732,18.696,21.335,0.44285,2.4214,6.2423e+05,79.609,70.755,54.534,1
12.329,6.3197,24.6,-0.25338,24.854,-0.018775,0.69438,-0.00013961,0.26757,1.1882,12.331,191.86,13.851,10.378,11.658,-0.22249,2.0622,-9236.8,36.422,40.156,36.703,1
8.0309,4.7011,21.222,0.14693,21.075,-0.015312,1.195,0.0030061,0.56768,1.502,8.0309,86.55,9.3032,5.347,6.1941,0.76609,3.0514,11623,10.242,3.6577,3.3332,1
9.2628,5.5391,26.311,0.32492,25.986,-0.0012137,1.2267,-0.0051343,0.54807,1.5128,9.2628,116.42,10.79,6.1231,7.1324,0.91722,3.1443,29252,16.12,4.3966,5.5096,1
8.9423,6.0332,28.313,-0.012965,28.326,0.0083297,1.1542,0.0028833,0.52362,1.4562,8.9423,116.29,10.784,6.141,7.4055,1.2141,4.3541,83352,9.0674,6.2143,3.8436,1
14.238,13.511,56.376,0.036107,56.34,0.010684,1.7594,-0.0052475,0.76005,1.8192,14.238,384.87,19.618,7.8265,10.784,1.4353,4.3881,4.9232e+06,61.204,119.13,287.37,1
1.8082,1.2854,6.7648,0.00033921,6.7645,0.00053845,0.26182,-0.0025432,0.11679,1.0299,1.8082,4.9183,2.2177,1.7556,2.1533,1.3195,4.5207,42.637,0.47788,0.10484,0.35215,1
21.669,14.508,55.657,1.1369e-13,55.657,0.015864,1.5751,-0.016694,0.47721,1.6657,21.669,679.59,26.069,13.009,15.651,0.63399,2.4218,2.1353e+06,26.837,28.708,11.053,1
25.337,11.624,64.065,0,64.065,0.067663,3.6326,-0.044349,1.9423,2.9735,25.337,776.81,27.871,8.521,9.3732,1.0602,4.3965,1.9899e+06,38.05,67.794,66.307,1
8.4619,10.135,35.46,-0.43057,35.89,-0.017244,0.44748,0.0033717,0.12414,1.0768,8.4697,174.11,13.195,7.8656,12.254,1.5363,4.0558,1.003e+06,0.23879,0.44922,0.5229,1
2.3685,1.8421,7.4003,-0.16514,7.5655,0.0030385,0.20699,-0.00016889,0.10246,1.0186,2.3696,8.9956,2.9993,2.3262,2.9444,1.2429,3.4133,145.47,1.8085,3.2482,2.93,1
48.799,48.038,200.03,0.38415,199.65,-0.016622,4.0475,-0.040385,1.5308,3.2112,48.799,4684.1,68.441,15.196,21.313,1.4857,4.1805,2.5781e+09,46.102,46.865,92.306,1
24.011,20.313,104.71,-1.1786,105.88,0.033423,2.4401,-0.00068247,1.1259,2.1968,24.027,988.3,31.437,10.937,14.311,2.0631,7.5863,8.6172e+07,97.096,152.47,65.197,1
35.58,28.296,126.32,0.10575,126.22,-0.020028,2.5271,0.01033,1.0286,2.2747,35.58,2064.9,45.442,15.642,19.977,1.2393,3.7606,1.6317e+08,113.74,241.67,337.53,1
15.372,14.181,69.687,0.38261,69.304,-0.029338,1.4599,-0.0044384,0.54904,1.5755,15.372,436.96,20.904,9.757,13.268,1.9087,6.5753,1.1855e+07,2.1572,8.3904,7.6462,1
16.024,10.224,37.469,0.58164,36.888,0.042134,0.79419,-0.00064334,0.30527,1.2335,16.024,361.09,19.002,12.991,15.405,0.22942,1.7669,1.2312e+05,100.06,112.84,93.672,1
7.5642,4.5266,26.553,0.32509,26.228,-0.034198,0.66185,-0.001791,0.29958,1.1738,7.5642,77.664,8.8127,6.4441,7.5077,1.7147,6.8446,42073,12.691,4.7199,5.3518,1
2.4201,1.1716,5.2145,0.0014012,5.2131,0.00062117,0.15593,5.9653e-05,0.085857,1.0098,2.4201,7.2266,2.6882,2.3966,2.6621,0.29825,2.6839,4.0324,0.37678,0.73365,0.33408,1
2.7403,1.1022,5.9878,0.069859,5.9179,0.0047972,0.17569,-0.00012947,0.097844,1.013,2.7403,8.7215,2.9532,2.7053,2.9154,0.87103,4.1438,11.09,2.0269,0.76473,0.99681,1
2.9082,1.0373,5.602,0.162,5.44,0.0014578,0.20695,8.1701e-05,0.12033,1.0188,2.9082,9.5311,3.0873,2.8546,3.0304,-0.45858,3.3867,-3.0499,2.6369,2.558,2.3447,1
3.0094,0.62537,4.879,1.6807,3.1984,-0.0015813,0.19829,-0.00037568,0.11808,1.0171,3.0094,9.4467,3.0735,2.9588,3.0219,0.37085,2.8906,0.28456,1.3494,1.5929,1.4388,1
1.381,0.95758,3.6088,-1.4211e-13,3.6088,0.00073198,0.060742,0.00075711,0.024533,0.9997,1.381,2.8223,1.68,1.3815,1.6805,0.85726,2.5579,3.0905,0.14923,0.14863,0.062777,1
1.5375,0.99447,4.5268,0.01401,4.5128,0.00071953,0.080925,0.00041228,0.034984,1.0011,1.5375,3.3507,1.8305,1.5357,1.8284,1.0996,3.6778,7.2386,0.24514,0.20304,0.21668,1
1.1235,0.36445,2.191,0.44591,1.7451,-0.0022783,0.059652,-0.00015907,0.029396,0.99965,1.1235,1.3949,1.181,1.1239,1.1815,0.30067,2.5439,0.01543,0.03169,0.052719,0.081346,1
1.0113,0.21619,1.5336,0.39789,1.1357,0.0014049,0.052383,-9.1258e-05,0.025583,0.99924,1.0113,1.0693,1.0341,1.012,1.0349,0.029068,2.5491,-0.00018,0.15138,0.20669,0.11631,1
1.425,0.79264,3.5526,0.0047027,3.5479,-0.001267,0.075416,0.00031048,0.035947,1.0007,1.425,2.6575,1.6302,1.424,1.6291,0.91286,3.2669,1.6082,0.25481,0.24373,0.14384,1
29.387,35.193,116.93,0.061033,116.87,-0.04171,1.132,0.0033181,0.26424,1.3805,29.387,2099.5,45.82,21.287,33.191,1.2755,3.1095,3.3812e+08,2.0498,5.9387,5.6908,1
12.81,8.6666,42.523,0.045283,42.477,0.043721,0.76657,-0.0071339,0.27294,1.2224,12.81,239.06,15.461,10.48,12.649,1.0705,3.8875,4.5277e+05,130.44,172.58,177.7,1
62.553,34.505,142.28,0.4492,141.83,-0.062282,15.195,-0.0051053,7.1154,13.624,62.553,5101,71.421,4.5913,5.2422,0.038024,1.8789,1.8994e+07,713.55,169.96,1086.9,1
73.264,36.884,193.88,4.8655,189.01,0.064947,15.788,0.081546,7.6678,14.062,73.264,6725.2,82.007,5.21,5.8318,0.37196,2.7229,2.5363e+08,200.11,1225.1,279.3,1
74.173,33.801,169.58,5.5329,164.05,-0.097014,15.058,0.018165,7.1973,13.448,74.173,6641.7,81.497,5.5155,6.06,0.16173,2.0521,5.7129e+07,279.74,1317.3,470.75,1
81.123,40.719,188.97,3.9397,185.03,-0.095132,15.896,-0.049949,7.5082,14.26,81.123,8235.4,90.749,5.689,6.3641,0.27286,2.5172,2.6405e+08,1320.1,431.53,413.69,1
88.737,41.408,193.46,1.9489,191.51,0.16984,16.892,0.034558,7.8493,15.086,88.737,9585.3,97.904,5.8821,6.4897,0.1694,2.2157,1.4213e+08,959.78,2592.2,427.03,1
22.545,11.97,62.311,0.11597,62.195,0.014615,4.4242,-0.033354,2.5083,3.6499,22.545,651.25,25.52,6.1769,6.9918,0.56796,2.9895,1.1396e+06,201.83,121.72,118.22,1
23.71,12.233,59.16,0.88434,58.276,0.029757,4.6783,-0.014033,2.7928,3.8493,23.71,711.48,26.674,6.1596,6.9295,0.31549,2.2729,5.1753e+05,32.341,20.004,80.879,1
19.229,12.062,53.804,-0.0054891,53.809,0.047736,2.6537,0.0011931,1.5037,2.4241,19.229,514.94,22.692,7.9326,9.3611,0.69129,2.7019,1.0754e+06,115.59,164.65,53.834,1
31.69,13.172,65.014,2.9592,62.055,-0.062414,4.3062,-0.0053339,2.4296,3.4027,31.69,1177.4,34.313,9.3132,10.084,0.29875,2.5659,7.2255e+05,77.629,51.647,138.8,1
14.69,12.079,56.982,1.1369e-13,56.982,0.023971,2.0323,-0.022197,0.87618,1.9123,14.69,361.38,19.01,7.6817,9.9407,1.5717,5.1542,3.6608e+06,2.4887,8.2762,4.8619,1
7.8921,4.2332,22.138,0.020865,22.117,-0.015037,1.1416,0.0034074,0.52917,1.4145,7.8921,80.167,8.9536,5.5796,6.33,0.85506,3.8651,10511,5.2225,4.8042,4.2321,1
11.593,7.4934,42.821,0.33143,42.489,-0.065606,0.85989,0.01958,0.38131,1.2178,11.593,190.42,13.799,9.5195,11.332,0.87419,3.3288,1.6431e+05,8.4196,4.8005,2.3605,1
16.231,19.478,75.246,-0.19485,75.44,-0.0014432,0.79888,-0.0024899,0.23608,1.2232,16.234,642.05,25.339,13.272,20.715,1.6463,4.5402,3.1445e+07,12.194,17.665,11.647,1
2.3603,0.86409,4.6127,5.6843e-14,4.6127,0.0017242,0.27298,-0.0021207,0.16381,1.0332,2.3603,6.3159,2.5131,2.2844,2.4324,-0.10645,2.7945,-0.37928,0.30414,0.078592,0.2238,1
3.8786,3.5387,16.465,0.028648,16.436,0.0055869,0.36997,0.00045693,0.21307,1.0613,3.8786,27.54,5.2479,3.6547,4.9449,1.9861,6.3569,10397,0.59539,0.30327,0.31364,1
2.3514,0.98139,4.8564,0.11093,4.7455,-0.0044177,0.25871,-0.0010362,0.14932,1.0298,2.3514,6.4902,2.5476,2.2834,2.4739,0.045042,2.3563,0.44159,0.23541,0.4652,0.15639,1
13.686,10.284,41.373,-0.59723,41.97,-0.061968,1.7668,0.019634,0.91354,1.7466,13.691,292.84,17.113,7.8387,9.7977,0.83481,2.6251,5.0725e+05,60.652,34.465,58.744,1
12.928,6.9963,40.811,0.032088,40.779,0.0083348,1.6427,0.0038221,0.84591,1.7173,12.928,215.98,14.696,7.5281,8.5577,0.81315,4.4605,1.9002e+05,6.1496,13.33,7.8682,1
18.339,13.168,48.074,-0.23956,48.313,0.024285,2.1382,0.0040234,1.2006,1.9243,18.341,509.33,22.568,9.5313,11.728,0.44619,1.9268,7.5618e+05,12.92,17.342,14.211,1
12.412,7.5572,37.739,-0.0019828,37.741,-0.017764,1.2267,-0.0021535,0.61075,1.4665,12.412,211.06,14.528,8.4639,9.9063,0.86507,3.8412,2.0201e+05,50.627,36.894,108.56,1
23.702,8.5681,45.242,0.3261,44.915,-0.0018109,4.1711,-0.02488,2.4568,3.5185,23.702,635.05,25.2,6.7365,7.1623,-0.40783,2.905,-1.2073e+05,234.28,57.1,168.66,1
28.166,10.418,55.451,1.468,53.983,0.090429,3.72,-0.0072379,2.1383,3.1923,28.166,901.65,30.027,8.8232,9.4062,-0.020533,2.7847,-17582,102.78,155.19,256.53,1
28.125,11.642,61.918,-0.64315,62.561,0.038092,3.9213,-0.0051945,2.4256,3.1313,28.128,926.26,30.434,8.9826,9.7193,-0.32062,2.6347,-3.2483e+05,105.21,159.22,51.683,1
14.176,9.3073,42.694,1.1369e-13,42.694,0.0025035,1.0215,-0.018563,0.37276,1.2876,14.176,287.41,16.953,11.01,13.167,0.96828,3.6141,5.2351e+05,0.10067,0.46507,2.4325,1
16.032,12.838,56.374,0.26657,56.107,0.066866,1.1942,-0.0009162,0.33374,1.4272,16.032,421.5,20.531,11.233,14.385,0.90066,3.1414,2.2101e+06,166.39,215.69,191.11,1
14.138,8.6164,38.935,1.564e-05,38.935,-0.068898,1.0293,0.00062934,0.33438,1.3678,14.138,273.97,16.552,10.337,12.101,0.60884,2.7618,1.9465e+05,0.75648,3.9305,4.7965,1
6.8651,4.5633,18.812,-0.17917,18.992,-0.0096696,0.50296,-0.0017497,0.19785,1.1042,6.8663,67.909,8.2407,6.2185,7.4631,0.647,2.8678,8654.6,0.52355,0.58117,1.4653,1
14.075,10.405,39.436,0.4488,38.987,0.073181,0.77336,-0.0030389,0.20505,1.2211,14.075,306.14,17.497,11.527,14.329,0.62178,2.3695,4.1128e+05,177.33,151.33,65.629,1
14.465,11.95,42.661,0.72504,41.936,-0.069846,0.8793,0.0039166,0.26905,1.2877,14.465,351.73,18.754,11.233,14.564,0.71875,2.2198,7.9397e+05,1.5124,2.5578,1.8451,1
6.505,4.6475,23.219,0.38485,22.834,0.018528,0.60465,0.0011178,0.29295,1.1512,6.505,63.868,7.9918,5.6504,6.9418,1.2807,4.483,25371,5.387,2.8231,0.7244,1
29.24,21.706,101.69,-2.2737e-13,101.69,0.16397,2.4641,-0.0050034,0.56696,2.1631,29.24,1325.1,36.402,13.518,16.829,0.85906,3.2667,3.4113e+07,1038.6,378.09,37.405,1
5.2252,4.0619,14.755,0.029459,14.726,-0.0084079,0.16034,0.00014625,0.042161,1.0105,5.2252,43.767,6.6157,5.1712,6.5472,1.0913,3.0984,6293.7,0.22399,0.2341,0.032502,1
4.3571,3.1149,10.625,-0.0023767,10.627,0.014994,0.13231,-0.00010236,0.040527,1.0066,4.3572,28.666,5.3541,4.3287,5.3192,0.61443,2.1216,742.45,6.5175,6.3619,5.4612,1
4.2433,1.9016,7.9591,-0.020937,7.9801,-0.0076414,0.14542,0.00026688,0.05934,1.0083,4.2434,21.614,4.6491,4.2085,4.6109,-0.26956,2.3014,-37.623,2.4243,2.5194,1.6896,1
2.8887,2.276,9.303,-0.0036247,9.3066,-0.0037713,0.11865,0.00011455,0.04042,1.0048,2.8887,13.514,3.6761,2.8749,3.6586,0.95186,3.3558,422.12,0.45628,0.25132,0.075181,1
3.6016,2.5806,10.554,0.21436,10.34,-0.00099041,0.14042,-0.00049725,0.046968,1.0076,3.6016,19.617,4.4291,3.5746,4.3959,0.91549,2.7054,547.96,0.74319,0.74745,0.69136,1
14.711,11.95,56.351,0.57776,55.774,-0.015056,0.78691,0.0016336,0.15281,1.2038,14.711,358.91,18.945,12.221,15.738,1.5191,5.4505,3.8332e+06,0.83181,0.36487,0.47862,1
8.1201,8.7785,30.505,-1.5063,32.012,-0.0045962,0.31499,-7.031e-05,0.054302,1.039,8.264,142.84,11.951,7.9539,11.503,1.0939,3.0294,3.0463e+05,0.29651,0.19855,0.15575,1
3.9039,2.9183,13.341,0.025938,13.315,0.0093646,0.19449,-0.00016933,0.048791,1.0155,3.9039,23.739,4.8723,3.8445,4.7981,1.0402,3.7349,1828.9,3.6195,2.8686,2.1521,1
3.8741,3.4599,16.939,-0.023759,16.962,-0.0094508,0.21104,0.00028228,0.041671,1.0182,3.8743,26.955,5.1918,3.8048,5.0988,1.7939,6.3771,9843.4,0.19113,0.33618,0.2309,1
1.4582,0.75809,3.4818,0.026162,3.4556,0.0027328,0.082597,-0.00024947,0.032563,1.0013,1.4582,2.6999,1.6431,1.4564,1.6411,0.24509,2.5462,0.43465,0.95807,0.86911,0.62962,1
10.186,11.017,38.529,-0.059063,38.588,0.0019898,0.42319,0.00020313,0.10391,1.0751,10.186,224.86,14.995,9.4743,13.947,1.3422,3.4264,1.1762e+06,17.168,18.306,17.568,1
6.7266,6.783,27.907,-0.063691,27.97,0.033612,0.3274,0.0001113,0.10233,1.0463,6.7273,91.16,9.5478,6.4296,9.1252,1.5519,4.9383,1.9031e+05,76.804,87.645,69.533,1
5.9037,6.4374,26.733,0.089496,26.643,0.042192,0.62547,-0.0050567,0.35149,1.1479,5.9037,76.205,8.7296,5.1433,7.6051,2.0902,6.2464,1.9203e+05,51.72,72.896,59.278,1
11.056,4.391,21.308,0.1032,21.204,-0.020432,1.4534,0.003102,0.8499,1.6137,11.056,141.48,11.894,6.8513,7.3708,-0.022901,2.703,-454.83,26.762,15.003,25.029,1
11.486,6.768,30.592,0.0023443,30.59,7.1048e-05,2.0348,0.00029567,1.1787,1.8649,11.486,177.65,13.328,6.1592,7.1468,0.72895,3.0908,73172,22.282,27.438,9.3964,1
10.176,6.0233,25.992,-0.51062,26.503,0.017846,1.3005,-0.0021607,0.75897,1.5329,10.179,139.76,11.822,6.6401,7.7119,0.63034,2.5308,25366,27.87,47.362,29.516,1
34.004,12.173,68.272,0.18241,68.089,0.0033535,5.6094,0.055168,3.2414,4.6309,34.004,1304.1,36.113,7.3428,7.7982,-0.0692,2.8582,-28215,102.33,182.5,138.24,1
34.647,14.049,74.942,3.2494,71.693,0.046981,6.0527,0.02143,3.5203,4.6661,34.647,1397.4,37.382,7.4254,8.0114,0.4226,3.0082,1.5004e+06,305.56,423.39,143.14,1
12.01,6.0011,30.089,0.67165,29.418,0.039179,2.1606,5.1397e-05,1.1831,2.0933,12.01,180.18,13.423,5.7373,6.4123,0.17523,2.3409,13723,23.024,103.15,17.858,1
11.926,5.673,26.908,0.063334,26.845,-0.020459,2.5264,0.007443,1.4259,2.4887,11.926,174.35,13.204,4.7922,5.3057,0.38679,2.6833,15288,22.394,28.906,14.732,1
4.039,2.7742,11.604,0,11.604,0.0077689,0.19578,-0.0018124,0.061025,1.0162,4.039,23.994,4.8983,3.9747,4.8204,1.1153,3.4041,1106.2,3.6346,4.3044,3.3763,1
37.435,26.163,98.97,1.2264,97.743,-0.0039032,1.5778,-0.0025365,0.25201,1.6657,37.435,2084.4,45.656,22.475,27.41,0.49191,2.163,3.1092e+07,280.68,398.8,436.98,1
33.796,32.549,122.66,-0.028529,122.69,-0.080692,1.9293,0.0021133,0.3438,1.7379,33.796,2199.4,46.898,19.447,26.986,1.1933,3.335,2.6074e+08,5.1624,5.4516,6.017,1
45.075,32.085,142.19,0.055515,142.14,0.11338,2.5768,0.0003231,0.46116,2.1587,45.075,3059,55.308,20.88,25.621,0.74262,3.2241,2.1398e+08,370.61,248.75,53.625,1
24.959,18.998,75.648,0.012029,75.636,0.030279,1.2129,-0.0020028,0.21452,1.4654,24.959,983.15,31.355,17.033,21.398,0.69672,2.5554,1.0223e+07,644.85,557.84,403.41,1
26.344,23.458,84.527,0.19511,84.332,-0.0088982,2.3131,0.011081,0.59445,1.9805,26.344,1243.1,35.258,13.301,17.802,0.9944,2.6797,3.4679e+07,7.0189,3.3286,9.4275,1
16.443,10.199,53.498,0.18184,53.316,0.055414,1.4309,0.004514,0.42543,1.5764,16.443,374.18,19.344,10.431,12.271,0.89536,3.9693,1.0436e+06,27.169,25.455,28.288,1
48.6,32.142,121.54,2.221,119.32,-0.047045,2.5058,-0.012343,0.56028,2.2566,48.6,3392.9,58.249,21.537,25.813,0.48837,2.2802,8.8268e+07,29.815,45.152,64.908,1
26.591,19.795,77.753,0.33662,77.416,0.013101,1.9971,-0.002088,0.55537,1.9626,26.591,1098.1,33.138,13.549,16.885,0.66974,2.3252,1.0574e+07,146.34,243.72,220.6,1
16.05,17.615,53.438,-0.39007,53.828,-0.012414,0.52092,0.00072014,0.084165,1.1111,16.066,567.23,23.817,14.459,21.435,0.99429,2.477,7.1011e+06,0.45596,0.23438,0.089941,1
2.3804,1.0185,4.725,0.011954,4.713,-0.0021712,0.12193,-0.00013659,0.055702,1.0052,2.3804,6.7016,2.5887,2.3681,2.5753,0.064,2.6271,0.048028,0.60063,0.56805,0.73049,1
7.2704,5.3907,18.059,0.37516,17.683,-0.00035209,0.27926,0.0012224,0.052068,1.0332,7.2704,81.857,9.0475,7.0365,8.7564,0.36291,1.7777,7086,2.5367,3.9027,4.2869,1
9.3463,15.775,53.571,0.016353,53.555,-0.0051302,0.54311,0.00050027,0.069783,1.0999,9.3463,335.68,18.322,8.4975,16.658,1.7395,4.4336,1.038e+07,0.05101,0.13906,0.022295,1
5.5824,5.9593,21.565,0.030406,21.535,0.012565,0.233,-0.00027776,0.046296,1.0231,5.5824,66.602,8.161,5.4565,7.9769,1.2847,3.5996,60238,6.2454,8.4253,8.0319,1
3.0226,2.0417,8.8608,-0.0066636,8.8674,-0.0074159,0.12725,-5.4665e-05,0.040927,1.0058,3.0226,13.296,3.6463,3.0051,3.6251,0.95512,3.3625,227.01,1.9603,2.7838,2.9296,1
3.0409,2.1452,8.3093,-0.077059,8.3864,0.0038069,0.1293,-0.00025377,0.048137,1.0061,3.0415,13.839,3.7201,3.023,3.6976,0.62718,2.4642,164.85,0.81184,0.59283,0.33082,1
65.642,46.553,185.46,1.7024,183.75,-0.076195,2.6969,-0.0047667,0.61006,2.524,65.642,6471.4,80.445,26.007,31.873,0.89077,2.9256,1.1374e+09,48.528,149.07,272.81,1
34.05,16.847,70.34,-0.15771,70.498,0.022479,2.2005,0.0092233,0.56824,2.1341,34.05,1442.6,37.981,15.955,17.798,-0.054873,2.1488,-85934,3.8881,5.1106,15.615,1
30.06,27.981,108.24,1.1369e-13,108.24,0.034496,1.888,-0.0033791,0.38875,1.8508,30.06,1684.8,41.047,16.242,22.178,1.2274,3.4045,1.255e+08,16.941,20.085,15.011,1
9.8037,6.2651,26.792,0.42071,26.372,0.00026024,0.49771,-0.002183,0.11351,1.1033,9.8037,135.28,11.631,8.8854,10.542,0.85845,3.185,55142,51.054,66.495,70.485,1
18.093,20.546,78.965,0.0006928,78.965,-0.015933,1.1223,0.00066474,0.17377,1.3339,18.093,748.6,27.36,13.564,20.512,1.8525,5.4026,5.242e+07,16.43,25.197,32.566,1
21.24,19.984,69.417,0.082507,69.334,0.0069753,1.4391,0.00081663,0.30014,1.4864,21.24,849.67,29.149,14.29,19.611,1.064,2.868,1.6903e+07,17.509,17.912,15.351,1
23.988,17.4,75.981,-0.037924,76.019,0.036782,1.6693,-0.0052529,0.37948,1.7007,23.988,877.51,29.623,14.105,17.418,0.92647,3.1972,1.0293e+07,144.31,45.578,2.132,1
8.4183,5.5162,24.174,0.021777,24.152,0.0099554,0.36603,-0.0013159,0.072419,1.0571,8.4183,101.23,10.061,7.9638,9.5181,0.63273,2.8046,23275,38.994,25.755,13.688,1
9.297,5.5768,24.162,0.1913,23.971,-0.020601,0.39038,0.0014264,0.067566,1.063,9.297,117.47,10.838,8.7461,10.196,0.26698,2.5532,13952,7.7449,9.3998,9.0982,1
5.3993,4.9128,19.277,5.6843e-14,19.277,0.010037,0.31636,-0.0014071,0.071745,1.0438,5.3993,53.237,7.2964,5.1727,6.9901,1.3444,3.9793,26313,4.004,3.6138,2.6143,1
4.0818,4.706,21.182,-0.22547,21.408,-0.0081431,0.26447,0.00025643,0.058382,1.0298,4.085,38.761,6.2258,3.9668,6.0457,2.0137,6.5746,46385,0.39046,0.33821,0.51931,1
21.799,17.762,79.496,0.026887,79.469,0.030193,1.4459,-0.0012891,0.28141,1.5212,21.799,790.01,28.107,14.33,18.477,1.1651,4.1673,1.8477e+07,73.417,123.66,146.68,1
8.9471,6.3648,32.699,0.32683,32.372,-0.038094,0.58506,0.001451,0.12136,1.1126,8.9471,120.47,10.976,8.0416,9.8653,1.4833,5.5709,1.692e+05,0.25277,0.10018,0.4756,1
8.6365,9.8627,41.258,-0.0051988,41.263,0.042825,0.52391,-0.00019629,0.10078,1.1025,8.6365,171.65,13.102,7.8339,11.884,1.6118,5.1259,1.3398e+06,40.364,23.839,5.3121,1
18.964,15.769,67.4,0.65376,66.746,-0.033414,0.90807,0.00062921,0.15345,1.2662,18.964,607.77,24.653,14.976,19.469,1.3465,3.9904,9.3019e+06,3.0879,3.1696,3.1004,1
8.4895,6.1265,21.785,0.020618,21.764,0.01424,0.41494,-0.00053497,0.089026,1.0687,8.4895,109.53,10.465,7.9437,9.7927,0.50987,1.7936,16792,20.384,21.585,18.657,1
2.4992,2.8978,18.473,0.060391,18.413,0.034962,0.16622,0.001845,0.034979,1.0113,2.4992,14.626,3.8243,2.4713,3.7817,2.7978,12.484,11609,25.558,14.916,9.1822,1
5.0052,5.3847,20.254,0.32995,19.925,-0.03677,0.13472,-0.00092474,0.044623,1.0074,5.0052,53.986,7.3475,4.9685,7.2936,1.6066,4.4589,48288,0.1026,0.19375,0.11003,1
5.1084,6.1559,21.804,0.024991,21.779,0.0062534,0.20174,-0.0002583,0.043102,1.0162,5.1084,63.911,7.9944,5.0269,7.8668,1.4848,3.9108,79670,3.0556,4.1235,4.8994,1
8.9008,9.5391,33.628,0.032,33.596,-0.001045,0.34806,0.0003239,0.068291,1.047,8.9008,170.03,13.039,8.5011,12.454,1.1335,3.1897,5.3161e+05,1.5863,1.5766,1.0919,1
11.118,6.4493,25.783,0.076271,25.707,0.028438,0.37858,-0.00042496,0.085088,1.0634,11.118,165.12,12.85,10.455,12.084,0.39519,2.5034,25884,28.726,37.07,28.298,1
20.083,14.256,49.583,-0.8305,50.413,-0.019825,0.86385,-0.001735,0.14003,1.2306,20.101,606.13,24.62,16.333,20.005,0.45143,2.18,1.2891e+06,14.388,14.375,12.651,1
22.365,25.454,111.18,-0.13903,111.32,0.00679,1.4338,0.00087205,0.32627,1.5664,22.366,1146.7,33.864,14.279,21.619,2.1241,6.9109,2.2424e+08,3.7538,1.9582,0.85901,1
10.309,7.8494,39.348,-0.89123,40.239,0.020859,0.7879,-0.00063145,0.23553,1.2244,10.32,167.77,12.952,8.4283,10.579,1.3192,4.7641,3.9633e+05,3.9719,1.9505,2.8816,1
14.948,14.038,63.111,0.019824,63.092,-0.0049548,1.0289,-0.0013181,0.21101,1.3234,14.948,420.09,20.496,11.295,15.488,1.7907,5.9498,9.5692e+06,10.302,11.157,4.3348,1
20.52,18.434,77.401,0.12207,77.279,-0.0048746,1.0968,-0.0032067,0.29084,1.3786,20.52,760.18,27.571,14.885,19.999,1.382,4.1029,2.0872e+07,21.406,26.565,23.422,1
18.769,20.954,82.505,0.018855,82.486,0.013021,0.99493,0.0033876,0.14912,1.2889,18.769,790.4,28.114,14.562,21.813,1.4988,4.285,4.2222e+07,48.528,41.8,17.469,1
9.2147,8.1006,30.487,-0.2219,30.708,-0.025805,0.46464,0.00029141,0.084374,1.0827,9.2176,150.39,12.263,8.5138,11.327,0.96699,2.957,1.8931e+05,4.1849,3.1982,4.9928,1
28.647,24.274,97.905,0.049701,97.855,-0.060683,1.2342,-0.016806,0.23677,1.4125,28.647,1408.7,37.532,20.281,26.571,1.0243,3.12,5.3186e+07,80.623,89.805,81.635,1
23.997,19.099,79.247,0.136,79.111,-0.015762,1.1499,0.00099822,0.24422,1.3753,23.997,939.84,30.657,17.449,22.291,0.8889,3.1115,1.6475e+07,25.938,15.164,10.206,1
43.029,32.056,139.1,0.216,138.88,0.066592,1.7,-0.0030784,0.2487,1.6992,43.029,2876.9,53.637,25.323,31.565,1.1374,4.0823,3.1555e+08,338.91,408.49,393.54,1
17.081,13.967,66.703,-0.63263,67.335,-0.10836,1.0235,0.001967,0.19857,1.2659,17.087,486.42,22.055,13.498,17.422,1.6567,5.4314,8.2365e+06,2.3902,4.4347,4.8598,1
16.385,11.456,38.4,-0.00044529,38.4,0.009856,0.7606,-0.011115,0.23469,1.2142,16.385,399.44,19.986,13.495,16.461,0.51238,1.7958,3.6762e+05,8.0447,17.795,36.243,1
34.314,47.191,171.91,1.277,170.63,-0.0041803,1.6472,0.0043052,0.41437,1.6884,34.314,3399.7,58.307,20.324,34.535,1.8106,4.9075,2.9458e+09,2.4823,4.0293,2.3769,1
15.549,14.876,55.316,-2.7594,58.076,0.010651,0.66635,-0.0022479,0.23879,1.1733,15.651,462.6,21.508,13.339,18.331,1.1796,3.5329,5.3365e+06,8.5411,5.1946,2.2215,1
11.871,11.282,38.323,0.38242,37.941,-0.010116,0.43017,0.0025501,0.15153,1.0809,11.871,267.94,16.369,10.983,15.144,1.1536,2.8722,9.7293e+05,0.027353,0.017936,0.51744,1
19.555,10.049,41.973,0.062866,41.91,0.019764,0.61029,-0.0019663,0.12998,1.1529,19.555,483.15,21.981,16.961,19.065,0.079061,2.3482,64583,24.856,26.934,26.364,1
8.0128,5.0312,20.633,0.39287,20.241,-0.019121,0.34592,0.00012971,0.084983,1.0516,8.0128,89.464,9.4585,7.6195,8.9943,0.53389,2.427,10427,0.3979,0.68363,0.57414,1
8.89,8.9494,32.096,0.0029066,32.093,0.004596,0.41143,0.00059073,0.083617,1.0666,8.89,158.95,12.608,8.335,11.821,1.5999,4.3611,5.8114e+05,0.22386,0.049979,0.58268,1
11.985,5.7491,24.748,0.42452,24.323,0.028012,0.34358,-0.0020934,0.096689,1.0508,11.985,176.62,13.29,11.406,12.648,0.069791,2.3481,2804.3,37.096,34.095,28.703,1
12.361,9.9346,36.982,0.0025695,36.98,-0.018152,0.46189,0.0023394,0.11618,1.0884,12.361,251.27,15.851,11.356,14.564,0.80669,2.5118,3.8848e+05,3.5774,3.2962,0.28518,1
7.2747,4.7881,22.447,0.19984,22.247,7.9625e-05,0.39895,-0.0015295,0.093171,1.0693,7.2747,75.798,8.7062,6.8035,8.1423,0.91248,3.6279,19238,11.15,11.678,10.379,1
1.9711,0.96699,4.0123,0.049671,3.9627,0.00070906,0.08604,-0.00018447,0.036378,1.0015,1.9711,4.8184,2.1951,1.9681,2.1917,0.26031,2.1017,0.93352,0.60212,0.56125,0.48896,1
1.5393,0.58519,2.7028,0.28638,2.4164,0.0018238,0.07722,-9.9591e-05,0.033848,1.0008,1.5393,2.7112,1.6466,1.538,1.6452,-0.10173,2.1232,-0.026246,0.61019,0.77315,0.64987,1
1.4072,0.57496,2.5526,-0.019585,2.5722,-0.0036369,0.069882,0.00048153,0.029795,1.0003,1.4073,2.31,1.5199,1.4069,1.5194,-0.5567,2.6243,-0.19057,0.0048185,0.010106,0.017494,1
1.9248,1.107,3.863,5.9093e-05,3.8629,0.0043861,0.08581,-0.00042765,0.035059,1.0015,1.9248,4.9277,2.2198,1.9219,2.2165,-0.12629,1.655,-0.59009,0.93716,1.1537,1.1672,1
2.6361,2.5933,12.915,0.027012,12.888,-0.0055477,0.17301,5.0358e-05,0.043131,1.0123,2.6361,13.66,3.6959,2.6041,3.6511,2.2764,8.3414,3380.5,0.58782,1.0398,0.73545,1
8.3545,10.372,36.947,-0.044337,36.991,0.047231,0.29907,-0.0014576,0.045073,1.04,8.355,177.15,13.31,8.034,12.799,1.6289,4.3724,1.2468e+06,93.131,112.26,112.4,1
1.0683,0.59382,2.9901,0.027581,2.9626,8.3676e-05,0.072348,-0.00054753,0.027652,1.0005,1.0683,1.4931,1.2219,1.0678,1.2214,1.1155,4.3877,0.7643,0.12591,0.065265,0.023352,1
1.8594,1.1593,4.4425,-0.012088,4.4546,0.0014456,0.084067,0.00012553,0.030986,1.0014,1.8595,4.7987,2.1906,1.8569,2.1876,0.44572,2.1618,4.7237,0.34542,0.58704,0.36818,1
14.616,17.876,62.105,0.063696,62.041,0.063156,0.72837,0.0037555,0.099146,1.179,14.616,532.52,23.076,12.397,19.572,1.4352,3.7484,1.5469e+07,118.82,45.729,8.2922,1
20.494,22.832,80.986,-3.7031e-06,80.986,-0.083085,0.85234,-0.0034387,0.1049,1.2256,20.494,940.21,30.663,16.722,25.019,1.1894,3.2231,4.2437e+07,3.311,3.1788,2.2603,1
9.0758,6.2224,24.81,0.29439,24.515,-0.0031631,0.34774,0.00028915,0.094426,1.053,9.0758,121.01,11,8.6191,10.447,0.83313,2.8686,47545,1.5452,1.8313,2.1058,1
3.6647,2.661,10.27,-0.0068033,10.277,-0.0011983,0.25876,-0.00019943,0.11175,1.0294,3.6647,20.496,4.5272,3.5602,4.3981,0.80776,2.6952,592.19,0.77452,0.05523,0.015648,1
7.3556,5.3475,22.119,-0.054008,22.173,0.013292,0.43391,-0.00070524,0.092143,1.0787,7.356,82.639,9.0906,6.8191,8.4271,0.66717,2.744,19211,7.4166,10.01,10.787,1
7.0251,4.6343,21.109,-0.084325,21.194,-0.0037013,0.30028,0.00056049,0.066967,1.0378,7.0258,70.784,8.4133,6.7701,8.1072,1.0761,4.0104,18449,2.2929,2.1492,2.3064,1
14.089,10.296,37.204,-0.13456,37.338,0.0028816,0.60937,-0.00014477,0.097973,1.1407,14.09,304.29,17.444,12.353,15.293,0.446,1.9788,2.3455e+05,5.0928,8.7078,11.25,1
13.773,11.168,44.334,0.21008,44.124,-0.00070496,0.58797,1.9138e-05,0.092608,1.1343,13.773,314.17,17.725,12.143,15.626,0.8898,2.9031,9.3692e+05,3.2508,1.6794,2.0357,1
3.0188,3.6627,12.112,0.044096,12.067,-0.016324,0.12361,0.00018846,0.02132,1.0055,3.0188,22.5,4.7434,3.0024,4.7176,1.3059,3.3111,4569,0.20978,0.32095,0.20653,1
3.704,3.5879,14.979,-0.018459,14.997,-0.00036301,0.21663,-0.0018931,0.070867,1.0198,3.7041,26.566,5.1542,3.6322,5.0541,1.8401,5.4764,8766.6,0.32145,0.36304,0.43814,1
1.4547,0.77622,3.5092,0.0067665,3.5025,-0.001124,0.15821,0.00042681,0.070492,1.0101,1.4547,2.7173,1.6484,1.4401,1.6319,0.39723,2.494,0.66706,0.31798,0.080688,0.12464,1
9.5282,8.0822,36.117,-0.15289,36.27,-0.022098,0.39512,0.0026401,0.083085,1.065,9.5306,155.97,12.489,8.9488,11.726,1.4597,4.8952,4.5609e+05,8.1117,5.9354,5.6147,1
7.6572,4.9007,21.275,-0.14874,21.424,0.00067991,0.30554,-0.0006053,0.058845,1.0393,7.6584,82.598,9.0883,7.3689,8.7449,0.79657,3.3954,17592,12.214,13.022,12.507,1
4.2585,2.5622,9.5862,0.203,9.3832,-0.01543,0.12455,0.00039313,0.037879,1.0055,4.2585,24.685,4.9684,4.235,4.941,0.46852,1.9585,191.78,0.66563,0.78775,0.85714,1
2.3433,1.0397,4.0766,0.13556,3.941,0.0037283,0.089817,0.00011245,0.037944,1.0019,2.3433,6.5699,2.5632,2.3389,2.5584,-0.25643,1.8429,-1.2219,1.6944,1.5592,1.0519,1
3.6795,3.0794,10.504,0.0015832,10.503,-0.0057608,0.10789,-0.00018674,0.029278,1.0036,3.6795,23.001,4.796,3.6663,4.7787,1.0351,2.6018,1219,0.21605,0.21345,0.22704,1
19.662,12.703,48.916,-0.00022852,48.916,-0.0066997,0.94398,0.0040891,0.1747,1.3158,19.662,547.61,23.401,14.944,17.785,0.22593,2.2461,5.3399e+05,11.637,25.29,35.011,1
16.096,9.0195,36.431,-0.49463,36.926,0.019604,0.75684,0.0024651,0.18666,1.2221,16.11,340.25,18.446,13.182,15.093,0.27127,2.5392,96424,11.204,3.3286,8.7709,1
14.427,9.5763,45.955,1.1756,44.779,0.0082457,0.83909,-0.0031614,0.16647,1.2269,14.427,299.65,17.31,11.759,14.11,1.1416,4.5549,9.2923e+05,66.187,86.586,76.881,1
16.119,10.201,49.578,3.4106e-13,49.578,-0.014351,0.7558,-0.00017921,0.14917,1.1769,16.119,363.68,19.07,13.696,16.203,1.3408,4.7712,1.3192e+06,30.072,43.553,49.286,1
8.4654,5.244,21.564,0.090654,21.474,0.009797,0.38702,-0.0044958,0.16813,1.0647,8.4654,99.105,9.9552,7.9513,9.3505,0.8877,3.051,19714,13.466,14.837,11.803,1
8.0224,2.9717,16.717,-2.2737e-13,16.717,-0.0043665,0.80319,0.0010097,0.43325,1.2346,8.0224,73.172,8.5541,6.4981,6.9287,0.39268,3.1195,465.77,4.8097,5.1121,4.881,1
2.4838,1.2626,5.4774,2.8422e-13,5.4774,0.00062309,0.20217,-0.00082625,0.093371,1.0176,2.4838,7.7599,2.7857,2.4408,2.7375,0.053318,2.1475,1.291,0.58828,0.37889,1.2021,1
2.011,1.2011,5.5592,-0.093067,5.6523,-0.0026485,0.15983,-0.00022328,0.070193,1.0103,2.0116,5.4838,2.3418,1.991,2.3178,0.6984,2.61,10.233,0.16701,0.27604,0.22176,1
1.6326,0.67951,3.9219,0.1897,3.7322,0.00029285,0.16695,-0.00061417,0.079135,1.0115,1.6326,3.1261,1.7681,1.6141,1.7481,0.53798,3.0605,0.64431,0.82069,0.22891,0.12815,1
2.4568,1.189,6.3404,0.0016061,6.3388,0.0029055,0.19962,0.00011961,0.092408,1.0171,2.4568,7.4464,2.7288,2.4154,2.6828,0.71085,3.0362,11.999,0.43365,0.73105,0.74893,1
2.1547,0.92101,4.7544,0.013096,4.7413,0.002924,0.19936,0.0013002,0.094216,1.0171,2.1547,5.4892,2.3429,2.1185,2.3036,0.043437,2.7948,0.48087,0.53835,0.90999,0.33343,1
38.814,29.691,123.94,-0.43835,124.38,0.035824,1.7841,0.0015226,0.39315,1.7531,38.817,2386.2,48.849,22.142,27.865,1.0195,3.3404,1.5867e+08,467.45,667.05,751.13,1
63.409,41.184,168.32,0.009981,168.31,0.0068835,4.2493,-0.0045813,1.5543,2.9326,63.409,5713.2,75.586,21.622,25.775,0.63894,2.7454,4.7331e+08,357.39,222.95,140.42,1
28.018,27.096,123.27,0.018082,123.26,0.13658,2.6629,0.0031595,0.93822,2.2177,28.018,1517.6,38.957,12.634,17.566,1.8491,5.6579,2.2904e+08,1346.4,1049.6,454.73,1
49.237,27.417,120.06,0.92274,119.14,-0.026576,3.7533,0.0062149,1.4202,3.1218,49.237,3174.4,56.342,15.772,18.048,0.48487,2.2152,3.8859e+07,1327,785.54,899.53,1
3.8827,2.5114,11.128,0.48193,10.646,-0.019272,0.20858,0.00058383,0.097128,1.0189,3.8827,21.369,4.6227,3.8106,4.5369,0.72979,2.6224,448.31,0.093,0.12353,0.11777,1
5.4807,8.7507,43.233,-0.05122,43.284,0.083886,0.37425,-0.00036977,0.050766,1.0493,5.4812,106.45,10.317,5.2235,9.8325,3.2778,13.09,2.6596e+06,205.93,184.62,147.6,1
6.1392,10.277,42.947,0.052652,42.895,-0.088867,0.18215,0.00023963,0.04188,1.0174,6.1392,143.07,11.961,6.0339,11.756,2.2699,7.0271,2.4715e+06,0.49923,0.34716,0.18912,1
1.6931,0.9477,3.4607,0.015085,3.4456,0.0043455,0.097598,0.00026237,0.042148,1.0026,1.6931,3.7628,1.9398,1.6887,1.9348,0.2439,1.9983,0.64608,0.96678,0.57173,0.48064,1
4.4155,4.0347,15.87,-0.038022,15.908,-0.00011163,0.15827,-0.00060106,0.04253,1.01,4.4157,35.741,5.9784,4.3721,5.9194,1.6503,4.6396,12084,1.6739,1.7415,1.393,1
20.514,12.346,58.267,-0.022493,58.289,0.05096,1.0932,-0.010192,0.36099,1.3399,20.514,572.95,23.936,15.311,17.864,0.77923,3.3591,1.8797e+06,96.882,130.85,134.69,1
10.959,8.8534,35.414,-0.072074,35.486,-0.046292,0.61133,0.0010586,0.29674,1.149,10.96,198.32,14.083,9.5386,12.257,0.84708,2.5828,2.4742e+05,0.48604,1.0991,0.71666,1
12.427,13.159,51.032,-0.75402,51.786,0.071747,1.0996,0.0016979,0.52548,1.3892,12.433,327.23,18.089,8.95,13.022,1.4498,4.1017,3.8241e+06,153.57,169.29,217.54,1
8.7233,8.2935,37.392,-0.26733,37.659,-0.07484,0.40511,-0.0010333,0.19703,1.0732,8.7253,144.73,12.03,8.1304,11.21,1.5737,5.2319,5.6612e+05,0.088289,0.094225,0.12228,1
6.2392,3.3409,16.072,1.1369e-13,16.072,0.01858,0.40156,-0.00041204,0.13631,1.0695,6.2392,50.065,7.0756,5.8337,6.6158,0.69769,3.1744,1954.1,2.1707,1.1958,1.8584,1
3.1991,1.875,11.277,0.10218,11.175,-0.01142,0.24434,-0.0013532,0.11908,1.0264,3.1991,13.742,3.707,3.1168,3.6118,1.9134,8.3636,709.67,1.1527,1.2098,0.40962,1
6.419,5.6709,27.289,-0.0069543,27.296,-0.0006569,0.75116,0.00017972,0.32922,1.1344,6.419,73.294,8.5612,5.6584,7.5467,1.6514,5.1259,81947,1.72,3.2702,1.9889,1
6.5892,4.9213,18.885,0.11527,18.77,0.0087154,0.39442,-0.00065055,0.13215,1.0642,6.5892,67.585,8.221,6.1914,7.7248,0.88906,2.7319,13551,7.394,7.5943,6.2192,1
20.937,20.473,81.021,0.14073,80.88,0.0044618,0.78785,-0.00014532,0.077057,1.1966,20.937,856.65,29.269,17.497,24.46,1.5167,4.3872,3.8235e+07,4.4707,5.2738,5.1011,1
1.9146,1.7216,5.9459,-0.45706,6.403,-0.0069106,0.10105,-0.00012312,0.03085,1.0029,1.9389,6.623,2.5735,1.9332,2.566,0.88298,2.4656,58.719,0.65336,0.95892,1.0409,1
10.769,15.233,60.011,2.1896e-06,60.011,0.0015081,0.68978,0.00012629,0.081886,1.147,10.769,347.53,18.642,9.3885,16.253,2.0046,5.927,1.3689e+07,0.67868,0.4781,0.52278,1
6.3494,10.474,44.457,0.016987,44.44,-0.0014238,0.54268,-0.00038057,0.084853,1.0854,6.3494,149.78,12.238,5.8496,11.275,2.3769,7.6343,3.0563e+06,0.39527,0.26629,0.22706,1
19.226,22.159,80.619,-0.3428,80.961,-0.016819,0.73027,1.4828e-05,0.10284,1.1908,19.231,859.6,29.319,16.15,24.621,1.5746,4.3919,5.6489e+07,0.87074,0.21049,0.018546,1
6.2698,6.8215,34.6,-0.64071,35.241,0.063723,0.31973,-0.00034195,0.081304,1.0441,6.291,85.743,9.2598,6.025,8.8683,2.2005,8.6384,4.6274e+05,124.4,106.55,80.945,1
23.16,17.829,64.955,0.50046,64.455,-0.058866,0.84815,-0.0010713,0.14379,1.2546,23.16,853.61,29.217,18.461,23.288,0.71046,2.2654,5.9068e+06,8.7288,11.818,9.356,1
13.703,14,50.334,1.1913,49.143,-0.011423,0.59682,8.4492e-05,0.1216,1.1344,13.703,383.33,19.579,12.079,17.259,1.2293,3.3566,3.8998e+06,0.38163,1.0841,2.1998,1
58.421,36.777,136.98,1.7079,135.27,0.12761,3.9256,-0.017524,1.5631,2.8648,58.421,4762.6,69.012,20.393,24.09,0.21197,1.801,7.115e+07,1626.1,1269.2,1183,1
66.432,35.18,167.8,5.6987,162.1,0.12386,5.7509,0.03649,2.2848,4.0711,66.432,5648.2,75.154,16.318,18.461,0.93326,3.2307,3.3059e+08,456.66,183.87,259.85,1
38.525,57.391,301.65,-0.010112,301.66,0.15727,5.3756,-0.0050566,1.9589,2.9502,38.525,4770.9,69.071,13.058,23.412,2.9456,11.115,2.6349e+10,851.78,1001.4,1051.8,1
40.472,18.813,99.677,-0.053195,99.73,-0.039528,6.3362,0.020836,3.3938,4.8888,40.472,1991.1,44.622,8.2785,9.1275,0.43855,2.6883,8.1784e+06,213.64,319.49,104.19,1
27.112,10.328,58.171,0.46753,57.703,-0.061889,4.5693,0.0069796,2.6656,4.0364,27.112,841.5,29.009,6.7169,7.1867,0.23399,3.0304,2.1835e+05,122.71,83.261,118.65,1
18.972,9.0253,47.348,0.53989,46.808,-0.035646,2.3647,-0.020923,1.3677,2.2328,18.972,441.23,21.006,8.4973,9.4079,0.12773,2.4615,1.0798e+05,59.907,38.299,66.108,1
7.5018,6.8211,27.559,0.22922,27.33,-0.026152,0.27013,-0.0030199,0.071129,1.0312,7.5018,102.7,10.134,7.2751,9.8282,0.96387,3.0341,95292,13.766,15.131,14.647,1
2.5032,1.7928,10.073,0.00097525,10.073,-0.021101,0.12686,-0.00026384,0.052642,1.006,2.5032,9.473,3.0778,2.4882,3.0594,1.9245,7.5627,468.82,0.062841,0.037957,0.035317,1
2.1549,1.1722,4.9904,0.079234,4.9111,0.0031106,0.10167,0.00023149,0.038268,1.003,2.1549,6.0147,2.4525,2.1485,2.4452,0.64849,2.3589,6.6292,0.30134,0.16827,0.15495,1
1.6765,0.95166,3.6842,-6.6102e-05,3.6843,0.0038258,0.074457,-5.6153e-05,0.028921,1.0006,1.6765,3.7145,1.9273,1.6755,1.9261,0.13152,2.1048,0.64411,1.1946,1.2328,1.1168,1
22.615,20.832,70.063,-0.067106,70.13,0.0033698,0.89699,0.00065035,0.11122,1.2528,22.616,944.49,30.733,18.053,24.532,0.75145,2.1986,1.2691e+07,5.9951,6.2053,5.0057,1
10.872,10.665,59.031,0.00054059,59.031,0.10997,0.6299,-0.00021442,0.11217,1.1131,10.872,231.71,15.222,9.7676,13.675,2.9722,12.988,7.5876e+06,392.08,367.6,229.56,1
28.059,18.907,74.623,0.0063231,74.617,-0.09848,0.95808,-0.0015354,0.15704,1.316,28.059,1144,33.824,21.321,25.702,0.61278,2.5495,8.5587e+06,36.687,52.185,56.928,1
10.105,8.2173,31.62,-0.00063954,31.621,0.016423,0.64401,-0.0074562,0.17043,1.148,10.105,169.49,13.019,8.8026,11.341,1.0077,2.9371,2.0985e+05,13.63,21.718,24.884,1
9.1201,8.1952,33.775,-0.17485,33.95,-0.0083049,0.49443,-0.00060382,0.13603,1.0953,9.1222,150.19,12.255,8.3284,11.189,1.451,4.5404,4.2303e+05,4.4095,1.1095,1.3295,1
8.8254,7.3927,26.094,0.080356,26.013,0.042546,0.47047,0.0008234,0.1159,1.0884,8.8254,132.42,11.508,8.1086,10.573,0.93243,2.708,1.0421e+05,55.41,61.209,55.751,1
7.9649,7.976,31.908,0.091804,31.816,-0.034478,0.4704,0.0016522,0.19553,1.0924,7.9649,126.92,11.266,7.2912,10.313,1.4261,4.0331,3.0542e+05,4.4585,3.7084,1.6303,1
58.515,42.47,184.37,4.5475e-13,184.37,0.084614,3.9677,-0.016448,0.9457,3.2212,58.515,5223.8,72.276,18.165,22.438,0.70393,2.7455,6.6838e+08,60.391,92.966,124.37,1
44.043,39.04,187.59,0.065611,187.52,-0.06853,2.978,-0.0026551,0.60242,2.3735,44.043,3460.7,58.828,18.556,24.785,1.6529,5.545,1.5187e+09,13.289,22.65,38.659,1
9.9079,8.6687,45.037,0.0019261,45.035,0.0016419,0.91264,-0.002983,0.31226,1.2325,9.9079,173.15,13.159,8.039,10.677,2.2337,8.3518,1.4255e+06,6.7913,7.3761,9.0359,1
2.2924,1.5804,10.169,0.040668,10.129,-0.010003,0.37512,-0.0011016,0.17298,1.0598,2.2924,7.7474,2.7834,2.1631,2.6264,1.8391,8.2056,323.95,0.44514,1.4738,2.0941,1
5.49,3.9027,15.208,0.029866,15.178,0.014423,0.29422,-6.0518e-06,0.095228,1.0366,5.49,45.339,6.7334,5.2963,6.4958,1.1504,3.4808,6075.3,11.33,9.0288,3.1157,1
4.1721,2.6785,13.229,0.045318,13.184,-0.015234,0.31627,-0.001272,0.11194,1.0447,4.1721,24.565,4.9563,3.9934,4.7441,0.69542,3.1135,845.51,1.8779,0.12016,0.09993,1
2.2332,1.2724,7.3177,-0.00016172,7.3178,-0.00047158,0.29713,0.0011412,0.13506,1.0383,2.2332,6.6028,2.5696,2.1508,2.4747,0.95372,4.3822,35.803,0.18565,0.3523,0.23596,1
8.9874,7.6963,33.459,0.030688,33.428,-0.010867,0.58567,0.0068041,0.2382,1.1268,8.9874,139.88,11.827,7.9757,10.496,1.1199,3.517,2.1341e+05,7.4328,2.5368,3.0566,1
5.1237,5.3445,20.365,0.0014261,20.364,-0.0071106,0.41426,0.001646,0.18659,1.0731,5.1237,54.755,7.3997,4.7748,6.8958,1.3851,3.977,40714,1.0462,0.98011,0.27176,1
4.1048,3.1059,13.194,0.002,13.192,-0.0035262,0.30663,0.00018659,0.13532,1.0411,4.1048,26.475,5.1454,3.9426,4.9421,1.0064,3.3169,1958.1,0.21517,0.01278,0.042244,1
7.4406,5.1424,23.738,-0.023338,23.761,0.020476,0.44916,-0.00028496,0.16259,1.086,7.4408,81.752,9.0417,6.8517,8.3259,0.8841,3.5705,25722,7.4344,11.152,11.851,1
6.0744,3.1867,14.599,0.062569,14.537,0.0012454,0.49423,0.00050778,0.19747,1.1012,6.0744,47.032,6.858,5.5163,6.2279,0.11755,2.3867,362.17,10.702,4.5676,1.6192,1
16.645,11.408,51.897,1.6907,50.207,-0.057351,0.81673,0.0019355,0.17826,1.2412,16.645,406.91,20.172,13.41,16.252,1.1394,3.8778,1.6867e+06,10.263,8.7601,6.984,1
15.972,14.261,50.396,0.35909,50.037,-0.014751,0.87608,-0.00069254,0.15318,1.2238,15.972,458.04,21.402,13.051,17.488,0.99585,2.584,2.6815e+06,0.60096,1.3485,1.5861,1
16.821,11.997,52.84,0.47162,52.369,0.010002,0.67956,0.00089014,0.12819,1.1675,16.821,426.57,20.654,14.408,17.691,0.999,3.6618,2.0051e+06,5.027,7.7762,9.4649,1
43.494,42.989,149.75,-0.16229,149.91,0.17995,2.0191,-0.0050892,0.33484,1.7659,43.496,3735.8,61.122,24.631,34.613,1.0453,2.8659,7.7314e+08,1301.4,1431.2,1165.3,1
1.9828,2.2727,8.4204,0.013751,8.4066,-0.001824,0.082192,0.0003537,0.024327,1.0012,1.9828,9.0858,3.0143,1.9804,3.0106,1.5938,4.2866,625.19,0.068242,0.051278,0.033137,1
0.85922,0.60038,2.5432,0.0087966,2.5344,-0.00040608,0.052454,-0.00032912,0.020478,0.99924,0.85922,1.0979,1.0478,0.85987,1.0486,0.92807,2.9685,0.41027,0.077308,0.046527,0.033117,1
19.853,28.006,105.67,5.6843e-14,105.67,0.089623,1.3625,-0.0045455,0.24489,1.3793,19.853,1176.8,34.305,14.394,24.871,1.7777,4.9709,2.2608e+08,254.59,242.04,120.88,1
10.026,9.5675,42.033,-0.17618,42.209,-0.075353,0.3015,0.0015548,0.063986,1.0424,10.029,191.86,13.851,9.6206,13.287,1.2716,3.8285,7.2293e+05,8.7287,11.867,14.577,1
10.367,9.0635,33.19,0.27074,32.92,-0.01158,0.43403,4.3897e-05,0.086423,1.0716,10.367,189.45,13.764,9.6741,12.844,0.79659,2.4376,2.5081e+05,0.46502,0.39975,0.25834,1
4.3658,3.4027,15.472,0.20774,15.264,0.0066323,0.19119,-0.00026352,0.039161,1.015,4.3658,30.614,5.533,4.3012,5.4511,1.6766,5.4673,6750,2.3906,2.2648,2.1692,1
1.6204,1.0299,5.2464,0.12623,5.1202,0.0020319,0.078174,0.00060215,0.029023,1.0009,1.6204,3.6841,1.9194,1.6189,1.9177,1.0368,3.6587,9.2838,2.1348,1.2632,0.97953,1
18.652,15.827,63.964,0.39028,63.574,-0.015628,1.0479,0.00052987,0.24076,1.3445,18.652,597.86,24.451,13.872,18.186,1.0546,3.2775,6.6811e+06,1.2015,1.025,0.3891,1
18.978,12.568,52.828,-0.41804,53.246,-0.017817,1.1939,-0.00038985,0.35994,1.4094,18.981,517.78,22.755,13.467,16.145,0.6211,2.7685,1.304e+06,0.39355,2.176,3.7124,1
6.9971,3.7224,18.175,0.2662,17.909,-0.0057452,0.52382,-0.00070316,0.22219,1.1158,6.9971,62.786,7.9238,6.2708,7.1013,0.60053,2.7272,2922.4,0.96926,1.988,1.7372,1
9.8685,7.009,25.544,0.17025,25.374,-0.020741,0.69372,0.0016023,0.35421,1.1898,9.8685,146.41,12.1,8.294,10.169,0.62742,1.977,41444,0.26708,0.53665,2.5962,1
19.343,29.27,97.397,0.18694,97.21,-0.0014132,0.93312,-0.0065929,0.077806,1.2233,19.343,1229.1,35.058,15.812,28.659,1.6551,4.2075,2.117e+08,14.819,13.665,7.7402,1
15.407,14.512,59.239,-5.6843e-14,59.239,-0.0015119,0.7198,0.002398,0.11964,1.1937,15.407,447.54,21.155,12.907,17.722,1.7322,5.1016,8.5111e+06,4.1406,4.7678,5.1614,1
21.238,11.121,55.321,0.90614,54.415,-0.0034496,1.2297,-0.002073,0.51843,1.4726,21.238,574.47,23.968,14.422,16.276,0.95548,4.0342,1.3477e+06,35.381,36.246,22.084,1
13.97,8.3389,40.335,0.17211,40.163,0.016017,1.4153,0.0011478,0.65963,1.5666,13.97,264.55,16.265,8.917,10.382,0.64558,2.9207,1.8651e+05,65.667,75.479,44.738,1
4.763,2.704,15.745,0.077966,15.667,0.015281,0.65124,-0.00053418,0.33202,1.1733,4.763,29.982,5.4756,4.0594,4.6667,0.95359,4.3962,1709.8,18.413,13.336,8.2354,1
20.871,23.181,81.742,-0.016154,81.758,0.10823,1.1679,-0.0058143,0.27581,1.4082,20.871,971.81,31.174,14.821,22.137,1.156,3.1037,4.2896e+07,398.64,482.1,471.44,1
20.23,12.265,57.589,0.075748,57.513,-0.063347,1.8295,0.0035245,0.67001,1.7311,20.23,559.37,23.651,11.686,13.662,0.62067,2.6666,1.0861e+06,76.957,139.94,191.36,1
20.387,12.994,58.157,-0.2626,58.419,-0.052246,1.0899,0.0012107,0.35833,1.3812,20.389,584.13,24.169,14.762,17.498,0.5192,2.532,1.3472e+06,1.2868,0.89893,0.42825,1
7.798,6.2808,31.034,-0.96525,31.999,0.048412,0.74098,-0.003072,0.30749,1.2034,7.8071,100.17,10.009,6.4877,8.3172,1.4745,4.4721,1.1551e+05,97.913,37.532,35.499,1
8.4872,13.364,54.537,0.025995,54.511,-0.0063182,0.67901,-0.00041155,0.11548,1.119,8.4872,250.25,15.819,7.5844,14.137,2.1469,6.5152,8.2683e+06,0.067874,0.055867,0.082791,1
1.8076,0.83158,3.45,0.068727,3.3813,-0.00049138,0.10863,-0.00031794,0.04971,1.0037,1.8076,3.9575,1.9894,1.801,1.982,-0.035138,1.9144,-0.096015,0.0064083,0.023067,0.026485,1
1.2737,0.78136,3.4674,-0.020078,3.4875,0.0056231,0.078044,-0.00014449,0.035949,1.0009,1.2738,2.2314,1.4938,1.2726,1.4924,0.65768,2.9973,1.4424,1.0851,1.3399,1.0188,1
1.9216,1.3885,5.7266,-0.068753,5.7953,-0.0047041,0.088887,0.00028899,0.032271,1.0018,1.9226,5.6162,2.3699,1.9192,2.3657,0.87164,3.2035,31.046,0.085557,0.086634,0.019341,1
7.4982,4.7266,18.645,-0.096543,18.742,-0.021693,0.65874,-0.00031101,0.26745,1.1713,7.4986,78.516,8.8609,6.4021,7.5652,0.43909,2.3464,5777.9,0.23723,0.55184,0.41331,1
13.321,12.329,59.983,0.049871,59.933,0.0079412,1.3871,-0.00081341,0.48098,1.4727,13.321,329.14,18.142,9.0452,12.319,1.5317,4.7292,3.7602e+06,2.3449,2.6479,1.7282,1
14.342,11.627,58.922,0.214,58.708,0.010798,1.295,-0.001234,0.45564,1.4522,14.342,340.59,18.455,9.876,12.709,1.9358,6.6316,4.3372e+06,12.339,27.332,24.636,1
28.187,18.646,81.173,0.11927,81.054,0.025285,2.7178,0.0033658,1.0177,2.2213,28.187,1141.5,33.786,12.689,15.21,0.5911,2.586,8.4275e+06,37.927,55.559,63.502,1
21.224,16.778,57.421,-0.0093319,57.431,0.0042954,1.5747,-0.0035844,0.58529,1.6188,21.224,731.35,27.043,13.11,16.706,0.80863,2.2641,4.4765e+06,26.827,24.736,6.9924,1
8.9854,6.0051,28.42,-0.052972,28.473,0.039224,0.99976,-0.00010163,0.43331,1.333,8.9856,116.72,10.804,6.7409,8.1049,1.1579,4.0671,78580,56.729,89.82,71.034,1
20.732,13.845,53.264,0.093175,53.171,0.068915,1.4996,-0.00096443,0.53858,1.6228,20.732,621.11,24.922,12.776,15.357,0.47401,2.3192,1.3318e+06,260.42,272.17,216.86,1
28.903,25.854,98.674,0.63427,98.04,-0.10365,1.6889,0.0038977,0.59537,1.6673,28.903,1502.4,38.761,17.335,23.247,1.0724,3.0246,6.7245e+07,2.9247,2.6188,2.7117,1
25.564,14.317,57.51,0.0087716,57.501,0.018567,0.97216,-0.00029767,0.16964,1.3,25.564,858.04,29.292,19.665,22.533,0.18543,2.5047,6.9945e+05,19.143,29.663,32.449,1
22.863,26.128,115.07,1.0473e-05,115.07,-0.0055593,1.2701,-0.00011061,0.20295,1.4016,22.863,1203.9,34.698,16.312,24.756,1.9022,5.96,2.1351e+08,9.9703,11.92,11.993,1
25.697,30.082,132.41,0.0010372,132.41,-0.0004236,1.6335,0.0012138,0.26616,1.6507,25.697,1563.3,39.539,15.567,23.953,1.793,5.6475,4.0874e+08,0.16803,0.54323,0.57056,1
13.321,11.646,53.43,-0.018497,53.448,0.0040225,1.1502,0.0032217,0.25193,1.3949,13.321,312.79,17.686,9.5495,12.679,1.2866,4.6932,2.7158e+06,0.21031,1.6774,3.3046,1
13.555,9.7101,41.417,0.29101,41.126,0.04402,0.97332,-0.0056117,0.19791,1.2952,13.555,277.81,16.668,10.465,12.868,1.1295,3.4483,6.0868e+05,112,152.92,141.98,1
15.748,12.511,62.037,0.002437,62.035,-0.042474,1.0271,0.0016117,0.20953,1.334,15.748,404.19,20.105,11.805,15.071,1.477,5.463,4.9781e+06,2.3492,2.6355,0.71499,1
28.621,25.972,122.38,-0.40114,122.78,0.012902,1.5123,0.0054875,0.33795,1.551,28.625,1492.3,38.63,18.456,24.906,1.6796,5.9034,2.0625e+08,45.828,57.124,64.419,1
33.227,17.879,70.727,0,70.727,-0.017371,9.2847,0.0050362,5.2593,8.1391,33.227,1423,37.723,4.0823,4.6347,0.21942,1.9755,1.5921e+06,528.17,96.516,535.74,1
37.233,19.857,73.718,1.1297,72.588,0.061673,10.89,-0.026833,6.1489,9.8546,37.233,1779.7,42.187,3.7782,4.2809,0.0050812,1.6488,1.062e+05,195.95,308.6,294.5,1
36.545,19.922,69.413,2.499,66.914,0.011379,10.889,0.0080745,6.0372,9.8677,36.545,1731.6,41.612,3.7035,4.217,-0.004165,1.5797,-50735,178.4,333.96,316.39,1
34.501,16.669,67.153,3.9754,63.178,0.0099131,9.2014,0.022728,5.1683,8.2662,34.501,1467.6,38.309,4.1737,4.6344,-0.041379,1.7029,-1.4911e+05,77.518,345.66,117.43,1
32.238,15.746,59.934,5.5229,54.411,-0.02037,8.713,0.021254,4.9211,7.9213,32.238,1286.7,35.871,4.0698,4.5284,0.036468,1.644,1.6188e+05,40.903,229.72,42.664,1
4.7423,5.4423,16.98,0.046305,16.933,-0.0080758,0.21145,0.0012467,0.065337,1.0182,4.7423,52.046,7.2143,4.6578,7.0856,1.1542,2.6909,23184,0.049049,0.059528,0.02238,1
0.99895,0.87391,3.8605,0.0032882,3.8572,-0.0010571,0.10617,-0.00032551,0.046395,1.0034,0.99895,1.76,1.3266,0.99558,1.3222,1.7858,5.4208,7.5544,0.010549,0.050719,0.045996,1
0.53273,0.22752,1.2713,0.057683,1.2136,0.0007214,0.081284,0.00033766,0.040928,1.0012,0.53273,0.33546,0.57918,0.53212,0.57852,0.31269,2.642,0.0016885,0.010389,0.011871,0.054468,1
10.401,14.502,46.439,-0.002992,46.442,0.047876,0.39835,0.001652,0.067409,1.0644,10.401,318.06,17.834,9.7722,16.755,1.367,3.4127,4.6294e+06,37.65,31.818,24.718,1
14.026,8.4639,38.068,1.7053e-13,38.068,0.017941,1.2366,-0.020721,0.57414,1.3925,14.026,268.21,16.377,10.072,11.761,0.95655,3.3998,2.8658e+05,3.4846,4.9496,2.6977,1
11.889,7.8629,29.059,0.026455,29.033,-0.0094595,0.64968,-0.00041999,0.24318,1.1568,11.889,203.04,14.249,10.278,12.318,0.5809,2.0976,71421,2.353,4.0473,4.239,1
8.4949,5.5812,26.484,-0.47436,26.958,0.0075194,0.62886,-0.00074413,0.22487,1.158,8.5005,103.25,10.161,7.3405,8.7745,0.93364,3.5302,40284,4.4429,1.2533,1.4354,1
7.1678,4.0298,17.022,0.16157,16.861,-0.0013798,0.6629,0.002206,0.30581,1.17,7.1678,67.582,8.2208,6.1261,7.0261,0.29129,2.5903,2402.1,8.0979,6.3929,1.688,1
15.899,7.5598,36.246,5.6843e-14,36.246,0.03747,1.7513,-0.0069317,0.88159,1.8072,15.899,309.81,17.601,8.7977,9.7397,0.35973,2.827,59641,30.928,17.691,21.113,1
9.729,3.7189,19.735,0.0014629,19.733,-0.020475,1.4646,0.0011556,0.78165,1.6845,9.729,108.45,10.414,5.7756,6.1824,0.1305,2.8205,477.2,26.457,6.5816,29.339,1
11.909,4.503,27.211,2.2999,24.911,0.0087966,1.4999,-0.0017011,0.80391,1.6987,11.909,162.05,12.73,7.0103,7.4938,0.56951,3.3412,9480,5.5626,15.858,10.536,1
10.947,6.504,27.22,-1.1369e-13,27.22,-0.010822,0.80726,0.0047356,0.41166,1.2408,10.947,162.05,12.73,8.8227,10.26,0.29009,2.3722,23299,6.049,9.9791,12.632,1
8.3078,9.4308,45.157,0.0024343,45.154,0.080642,0.62732,0.00048519,0.22333,1.1414,8.3078,157.77,12.561,7.2785,11.004,2.4262,9.0053,2.4074e+06,229.56,222.04,172.99,1
8.9397,7.9165,42.65,-0.27038,42.92,-0.084875,0.60796,0.0040239,0.31333,1.1535,8.9408,142.46,11.936,7.7513,10.347,1.7768,6.1904,6.3456e+05,1.7166,0.75213,1.4458,1
