\relax 
\citation{salazar2018enhanced,RodrigoFrontiers}
\citation{eustres-estres-pereira2009revision,le2003eustress}
\citation{fernandez2016smart,fernandez2015elicitation}
\citation{davis2004biopsychological}
\citation{sokolova2015review,carneiro2012}
\citation{picard2000affective,fernandez2016smart,fernandez2015elicitation}
\citation{picard2000affective}
\citation{martinez2015arousal,MRodrigo2015}
\babel@aux{english}{}
\@writefile{toc}{\contentsline {section}{\numberline {1}Introduction}{1}\protected@file@percent }
\newlabel{sec:intro}{{1}{1}}
\citation{martinez2015arousal,martinez2016monitoring}
\citation{benedek2010continuous,karenbach2005ledalab}
\citation{empatica}
\citation{martinez2016monitoring,martinez2015arousal}
\citation{empatica}
\citation{salazar2018enhanced,Sanchez-Reolid}
\citation{braithwaite2013guide}
\citation{Sanchez-Reolid,fernandez2015elicitation,CaballeroBiomedical,sanchez2019stress}
\@writefile{toc}{\contentsline {section}{\numberline {2}Related Works}{2}\protected@file@percent }
\newlabel{sec:related}{{2}{2}}
\@writefile{toc}{\contentsline {section}{\numberline {3}Material an Methods}{2}\protected@file@percent }
\newlabel{sec:methods}{{3}{2}}
\@writefile{toc}{\contentsline {subsection}{\numberline {3.1}Material}{2}\protected@file@percent }
\@writefile{toc}{\contentsline {subsection}{\numberline {3.2}Dataset}{2}\protected@file@percent }
\@writefile{toc}{\contentsline {subsubsection}{\numberline {3.2.1}Dataset description}{2}\protected@file@percent }
\citation{fernandez2016smart,CaballeroBiomedical,castillo2014framework}
\citation{starliper2019activity,mozos2017stress}
\citation{society2012publication}
\citation{zangroniz2017electrodermal}
\citation{zangroniz2017electrodermal}
\citation{vapnik1995support}
\@writefile{toc}{\contentsline {subsection}{\numberline {3.3}Electrodermal Activity Processing and Feature Extraction}{3}\protected@file@percent }
\newlabel{subsec:eda_measure}{{3.3}{3}}
\@writefile{toc}{\contentsline {section}{\numberline {4}Support Vector Machines and Deep-Support Vector Machines}{3}\protected@file@percent }
\newlabel{Theory}{{4}{3}}
\@writefile{toc}{\contentsline {subsection}{\numberline {4.1}Support Vector Machines}{3}\protected@file@percent }
\newlabel{sec:svm}{{4.1}{3}}
\citation{vapnik1995support}
\citation{tang2013deep}
\citation{qi2016ensemble}
\@writefile{lot}{\contentsline {table}{\numberline {1}{\ignorespaces Features obtained from phasic signals (SCR).}}{4}\protected@file@percent }
\newlabel{table:feature_svm}{{1}{4}}
\newlabel{eq:svm_funcion}{{1}{4}}
\newlabel{equ:minimize}{{2}{4}}
\newlabel{equ:constrain}{{3}{4}}
\@writefile{toc}{\contentsline {subsection}{\numberline {4.2}Deep-Support Vector Machines}{4}\protected@file@percent }
\newlabel{sec:dsvm}{{4.2}{4}}
\newlabel{eq:dsvm_funcion}{{4}{4}}
\@writefile{toc}{\contentsline {subsubsection}{\numberline {4.2.1}Extract Features in diferents layers and train the model.}{4}\protected@file@percent }
\citation{gola2019objective,hernandez2014using}
\citation{joachims1998text}
\@writefile{lof}{\contentsline {figure}{\numberline {1}{\ignorespaces Description of D-SVM.}}{5}\protected@file@percent }
\newlabel{fig:dsvm}{{1}{5}}
\newlabel{eq:dsvm_funcion_margin}{{5}{5}}
\newlabel{eq:dsvm_objetive}{{6}{5}}
\newlabel{equ:objetive_func}{{7}{5}}
\newlabel{equ:dsvm_objetive_funcion}{{8}{5}}
\newlabel{equ:dsvm_optimitazation}{{9}{5}}
\@writefile{toc}{\contentsline {subsection}{\numberline {4.3}Stress Identification by Support Vector Machines}{5}\protected@file@percent }
\@writefile{toc}{\contentsline {subsubsection}{\numberline {4.3.1}The model}{5}\protected@file@percent }
\citation{martinez2016monitoring,salai2016stress,eisenbarth2016multivariate,martinez2015arousal}
\citation{Sanchez-Reolid}
\@writefile{toc}{\contentsline {section}{\numberline {5}Results}{6}\protected@file@percent }
\newlabel{sec:results}{{5}{6}}
\@writefile{toc}{\contentsline {subsection}{\numberline {5.1}Minimal time interval for stress detection}{6}\protected@file@percent }
\@writefile{toc}{\contentsline {subsection}{\numberline {5.2}Effect of the different parameters in the precision of the SVM}{6}\protected@file@percent }
\@writefile{toc}{\contentsline {subsection}{\numberline {5.3}Stress detection without overlapping time}{6}\protected@file@percent }
\@writefile{toc}{\contentsline {subsection}{\numberline {5.4}Stress detection with overlapping time}{6}\protected@file@percent }
\@writefile{toc}{\contentsline {section}{\numberline {6}Conclusions}{6}\protected@file@percent }
\newlabel{sec:conclusions}{{6}{6}}
\@writefile{lot}{\contentsline {table}{\numberline {3}{\ignorespaces Results using segment lengths of 20 seconds.}}{7}\protected@file@percent }
\newlabel{table:results_of_svm_20seg}{{3}{7}}
\@writefile{lot}{\contentsline {table}{\numberline {4}{\ignorespaces Results of interval segments of 3 seconds.}}{7}\protected@file@percent }
\newlabel{table:results_of_svm_split_3second}{{4}{7}}
\@writefile{lot}{\contentsline {table}{\numberline {5}{\ignorespaces Results of interval segments of 4 seconds.}}{7}\protected@file@percent }
\newlabel{table:results_of_svm_split_4second}{{5}{7}}
\@writefile{lot}{\contentsline {table}{\numberline {6}{\ignorespaces Effect of the different parameters in the precision of the SVM.}}{7}\protected@file@percent }
\newlabel{tab:study_parameters}{{6}{7}}
\bibstyle{ws-ijns.bst}
\bibdata{bibliografia.bib}
\bibcite{salazar2018enhanced}{1}
\bibcite{RodrigoFrontiers}{2}
\bibcite{eustres-estres-pereira2009revision}{3}
\bibcite{le2003eustress}{4}
\bibcite{fernandez2016smart}{5}
\bibcite{fernandez2015elicitation}{6}
\bibcite{davis2004biopsychological}{7}
\bibcite{sokolova2015review}{8}
\bibcite{carneiro2012}{9}
\bibcite{picard2000affective}{10}
\bibcite{martinez2015arousal}{11}
\bibcite{MRodrigo2015}{12}
\bibcite{martinez2016monitoring}{13}
\bibcite{benedek2010continuous}{14}
\bibcite{karenbach2005ledalab}{15}
\bibcite{empatica}{16}
\bibcite{Sanchez-Reolid}{17}
\bibcite{braithwaite2013guide}{18}
\bibcite{CaballeroBiomedical}{19}
\bibcite{sanchez2019stress}{20}
\bibcite{castillo2014framework}{21}
\bibcite{starliper2019activity}{22}
\bibcite{mozos2017stress}{23}
\bibcite{society2012publication}{24}
\bibcite{zangroniz2017electrodermal}{25}
\bibcite{vapnik1995support}{26}
\bibcite{tang2013deep}{27}
\bibcite{qi2016ensemble}{28}
\bibcite{gola2019objective}{29}
\bibcite{hernandez2014using}{30}
\bibcite{joachims1998text}{31}
\bibcite{salai2016stress}{32}
\bibcite{eisenbarth2016multivariate}{33}
\newlabel{eof}{{}{9}}
