25.079,20.283,89.575,1.0246,88.55,-0.041292,1.2979,-0.0023015,0.2471,1.4959,25.079,1039.4,32.24,16.765,21.552,1.3076,4.3597,3.8335e+07,34.417,59.91,83.987,2
35.126,25.487,95.352,0.45918,94.893,0.12984,1.2739,0.00025029,0.27543,1.4754,35.126,1881.9,43.381,23.807,29.403,0.55044,2.658,4.0559e+07,528.19,711.25,719.99,2
51.78,32.585,117.69,9.0949e-13,117.69,0.051749,3.3179,-0.0048473,0.69191,2.9328,51.78,3740.6,61.16,17.655,20.854,0.24219,1.9836,3.9755e+07,30.004,92.094,174.71,2
0.93022,0.3982,1.9515,0.062121,1.8894,-0.0031637,0.059764,-3.4733e-05,0.025985,0.9995,0.93022,1.0235,1.0117,0.93068,1.0122,0.51545,3.1745,0.033763,0.018811,0.011085,0.053846,2
12.993,10.359,42.205,0.0010128,42.204,0.042151,0.65402,-0.0012825,0.2046,1.1612,12.993,275.9,16.61,11.19,14.305,1.3568,4.1317,1.1062e+06,49.335,82.781,104.68,2
2.492,1.727,6.8452,0.0029857,6.8422,0.000637,0.12559,-0.0003346,0.039276,1.0055,2.492,9.1858,3.0308,2.4784,3.0143,0.57946,2.3304,46.501,0.10012,0.065458,0.18116,2
12.897,7.5716,33.829,0.52448,33.305,0.031743,0.7941,0.00056091,0.25519,1.2135,12.897,223.53,14.951,10.628,12.321,0.43382,2.4212,75647,111.34,97.526,48.508,2
25.221,12.911,58.107,0,58.107,0.028023,1.6616,-0.004853,0.57721,1.5703,25.221,802.4,28.327,16.061,18.039,0.16233,2.2519,4.132e+05,24.338,51.014,54.487,2
60.14,46.512,191.75,1.6544,190.09,0.17236,4.5079,-0.012955,1.891,3.7175,60.14,5775.3,75.996,16.178,20.443,0.92035,2.8886,1.2325e+09,1017.6,1055.4,1229.9,2
10.309,11.496,39.47,0.026762,39.443,-0.0079107,0.3291,0.00079874,0.05356,1.046,10.309,238.14,15.432,9.8557,14.753,1.1628,3.0629,1.2568e+06,0.38357,0.42154,0.37696,2
3.3697,2.2605,7.8193,-0.075871,7.8951,0.0082493,0.14611,0.00041254,0.043476,1.0077,3.3703,16.454,4.0563,3.3445,4.0252,0.21071,1.7973,59.807,2.0017,2.6679,1.9847,2
6.0184,6.0717,24.46,0.45042,24.01,-0.0034188,0.303,0.00013823,0.061703,1.0377,6.0184,73.002,8.5441,5.7997,8.2336,1.622,4.6988,97481,0.49001,0.52318,0.50298,2
34.549,23.856,95.489,-0.0024339,95.492,0.018241,1.9124,0.0026097,0.37873,1.8653,34.549,1761.5,41.97,18.522,22.5,0.38491,2.2301,1.9235e+07,300.69,231.71,43.656,2
5.8355,3.1112,14.936,1.0832,13.853,-0.025687,0.22119,0.00026231,0.045682,1.0214,5.8355,43.711,6.6114,5.7132,6.4729,0.7638,3.2992,1744.8,0.54167,0.64165,0.95477,2
16.141,17.141,56.125,0.0012292,56.124,0.038044,1.0392,0.0020861,0.15248,1.2877,16.141,553.7,23.531,12.535,18.274,0.92061,2.4287,6.1065e+06,54.024,27.383,2.1794,2
5.4553,3.248,14.834,-0.15918,14.993,0.0095241,0.25417,-0.0006455,0.047345,1.0276,5.4592,40.286,6.3471,5.3127,6.1767,0.57177,3.2426,1827.1,2.5411,2.362,1.0413,2
15.665,13.386,57.935,0.16889,57.766,-0.046129,0.87301,-0.00027284,0.15858,1.2439,15.665,424.17,20.595,12.593,16.557,1.4044,4.4747,4.9056e+06,3.1021,4.7761,5.5146,2
5.6816,4.2108,17.523,3.4106e-13,17.523,0.0073772,0.2398,-0.0031939,0.067026,1.0245,5.6816,49.972,7.0691,5.5458,6.9001,1.209,3.921,11132,3.5536,3.7905,2.0271,2
10.977,9.1474,25.557,0.0035421,25.553,-0.044437,0.80554,-0.00030349,0.30024,1.1464,10.977,203.98,14.282,9.5752,12.458,0.28092,1.3419,48948,0.72542,0.91226,0.81548,2
19.731,21.961,93.173,-0.28153,93.455,-0.00069826,1.038,0.00017268,0.17322,1.2864,19.736,870.52,29.505,15.341,22.935,1.6976,5.4557,7.8756e+07,9.0604,13.252,14.344,2
11.336,12.015,42.877,8.8263e-05,42.877,0.0027472,0.57783,9.441e-05,0.086276,1.1154,11.336,272.55,16.509,10.163,14.801,1.1374,3.2734,1.7532e+06,0.35153,0.22248,0.24589,2
35.026,32.749,106.15,0.32205,105.82,0.10986,1.5583,-0.0049962,0.26099,1.5882,35.026,2296.9,47.926,22.054,30.176,0.72688,1.987,1.0487e+08,459.54,690.54,654.17,2
20.036,10.581,47.196,0.0055806,47.191,0.045033,1.1895,0.0023325,0.42699,1.4262,20.036,513.13,22.652,14.049,15.883,0.056003,2.2504,1.038e+05,24.336,66.072,39.152,2
16.253,14.566,46.058,0,46.058,0.0092009,0.79037,-0.00612,0.12894,1.192,16.253,475.86,21.814,13.636,18.301,0.65439,1.9352,1.6836e+06,1.6049,2.6211,2.1232,2
15.223,15.099,46.833,2.2737e-13,46.833,0.084758,0.72026,-0.0056954,0.095983,1.1855,15.223,459.22,21.429,12.841,18.077,0.72121,2.0485,2.2851e+06,165.74,211.38,186.64,2
7.1507,5.6963,23.944,0.080365,23.864,0.0027154,0.38873,-0.0035662,0.09219,1.0608,7.1507,83.506,9.1382,6.741,8.6146,1.2027,3.4357,43901,1.5936,2.0716,2.1126,2
17.418,13.659,48.332,2.2737e-13,48.332,-0.033565,0.77904,0.0011779,0.1225,1.2177,17.418,489.54,22.126,14.304,18.17,0.85438,2.6789,2.0265e+06,0.44978,0.48622,0.46254,2
29.647,20.389,82.666,4.5475e-13,82.666,0.087728,1.7254,-0.01084,0.44218,1.7507,29.647,1293.7,35.969,16.934,20.545,0.63105,2.4469,1.2641e+07,302.71,334.75,309.34,2
5.7199,3.6482,15.943,0,15.943,0.016463,0.42729,-0.0016511,0.19655,1.0773,5.7199,45.996,6.7821,5.3093,6.2953,0.39857,2.1906,1596.1,4.1726,4.4137,2.512,2
10.762,5.9812,21.713,0,21.713,0.0062794,0.48556,-0.0032329,0.14875,1.1,10.762,151.5,12.309,9.7829,11.189,-0.012361,1.8121,-362.39,3.0494,4.5248,7.7793,2
8.2,9.2716,34.709,1.7053e-13,34.709,0.011414,0.51233,-0.0058919,0.15913,1.1,8.2,153.01,12.37,7.4545,11.245,1.59,4.2682,7.0096e+05,1.1479,1.9838,1.2545,2
13.817,7.2853,32.889,0,32.889,0.023435,2.1277,-0.028522,1.0193,1.9484,13.817,243.87,15.616,7.0915,8.0149,0.4317,2.5206,50181,7.1494,0.99998,1.307,2
4.5954,4.1509,16.123,0,16.123,0.0061995,0.52276,-0.0053344,0.22513,1.1078,4.5954,38.308,6.1894,4.1482,5.587,1.6103,4.5194,13285,0.78513,0.94827,1.3233,2
6.2948,6.7253,23.258,0.00012566,23.258,0.0034592,0.29645,0.00037968,0.078184,1.0357,6.2948,84.752,9.2061,6.0777,8.8886,1.5227,3.8766,1.1663e+05,0.49499,0.51923,0.50391,2
12.117,7.111,26.173,-0.072023,26.245,-0.02412,0.55644,0.0026382,0.22328,1.127,12.118,197.28,14.046,10.752,12.463,0.24296,1.9453,18278,16.207,10.478,13.344,2
20.921,10.319,51.09,0.71129,50.378,0.0074113,2.2052,-0.021894,1.207,2.0188,20.921,543.93,23.322,10.363,11.552,0.044695,2.2392,1.1643e+05,27.915,26.523,39.399,2
7.732,6.5477,26.757,5.6843e-14,26.757,0.011037,0.4485,-0.0072469,0.13159,1.0772,7.732,102.56,10.127,7.1776,9.401,1.351,3.9383,1.0996e+05,1.7263,1.5732,1.4921,2
6.4561,4.8776,20.029,-0.00010067,20.029,0.020679,0.29149,0.00052228,0.081056,1.0377,6.4561,65.419,8.0882,6.2215,7.7942,0.92004,3.2581,17909,4.5225,4.2058,1.8583,2
18.251,8.9637,32.266,-0.014153,32.28,-0.041555,0.7847,-0.0035779,0.15639,1.219,18.251,413.27,20.329,14.972,16.676,-0.30553,1.9621,-81484,10.287,20.066,25.471,2
4.7798,3.605,13.478,-0.061845,13.54,-0.0079271,0.15518,0.0012701,0.039745,1.0094,4.7805,35.814,5.9844,4.7358,5.9286,0.91358,2.8259,2940.5,0.11666,0.22349,0.16257,2
13.973,13.494,49.044,0.024539,49.019,0.013248,0.65934,-0.00087284,0.089289,1.1585,13.973,376.92,19.415,12.061,16.758,1.0471,3.0916,2.7667e+06,8.2152,10.049,9.3595,2
41.451,17.298,103.45,1.4637,101.99,0.10416,7.9186,-0.014428,4.5033,6.6158,41.451,2016.7,44.908,6.2655,6.788,0.32155,3.2744,6.5562e+06,62.084,467.54,105.22,2
11.41,5.2776,25.764,0.92253,24.841,-0.043729,1.7159,0.017861,0.97913,1.8204,11.41,157.98,12.569,6.2678,6.9044,0.19759,2.4173,6658.8,1.4054,7.023,5.3115,2
15.107,10.676,45.821,-0.2846,46.106,-0.0029943,2.0887,0.0080701,1.1251,2.0765,15.108,341.94,18.492,7.276,8.9054,1.162,3.6344,1.037e+06,10.411,9.7527,6.2233,2
5.7635,4.6694,18.409,-2.8422e-13,18.409,-0.001204,0.3125,0.00089724,0.063759,1.0419,5.7635,54.972,7.4143,5.5319,7.1163,0.98238,3.1788,13949,0.044079,0.083256,0.047079,2
11.269,8.6048,31.934,0.011896,31.922,-0.003113,0.53258,0.00044821,0.084931,1.1185,11.269,200.87,14.173,10.076,12.672,0.85583,2.6211,2.0297e+05,7.8941,1.6437,0.017927,2
6.1783,3.4036,13.49,0.10314,13.387,-0.010994,0.18794,-0.00011996,0.067351,1.0149,6.1783,49.73,7.0519,6.0877,6.9484,0.48085,2.211,962.59,0.12996,0.36422,0.27818,2
8.2177,8.3888,39.293,0.0062332,39.287,0.0038233,0.48658,0.0030026,0.085266,1.0913,8.2177,137.74,11.736,7.5299,10.754,1.9974,6.8701,9.0748e+05,0.029985,0.037472,0.15206,2
12.701,6.8655,28.189,-0.15958,28.349,-0.014243,0.50068,0.0018787,0.12608,1.1078,12.702,208.35,14.435,11.467,13.03,0.10721,2.1554,11975,1.0313,4.6486,8.3801,2
9.6294,7.1302,27.894,-0.071456,27.965,0.019945,0.38236,0.00050594,0.078303,1.0637,9.6302,143.45,11.977,9.0536,11.26,0.68938,2.6392,78967,71.358,63.549,34.05,2
1.2828,0.90252,3.3334,5.6843e-14,3.3334,0.0025218,0.091444,-0.00027593,0.042156,1.0019,1.2828,2.4582,1.5679,1.2804,1.5649,0.49435,2.0735,1.3612,0.090209,0.19137,0.26276,2
7.9025,6.0159,26.038,-0.1198,26.157,-0.0023624,0.37032,-2.7198e-05,0.059164,1.0543,7.9043,98.558,9.9276,7.4972,9.4163,1.2504,4.4899,84412,3.9337,6.0358,7.7683,2
1.6108,1.2671,5.255,0.031207,5.2238,-0.0091415,0.074927,-3.9344e-05,0.028669,1.0006,1.6108,4.1965,2.0485,1.6099,2.0474,1.1316,3.3656,22.694,0.13145,0.28229,0.39594,2
21.245,11.06,46.457,0.014171,46.442,0.00067533,1.7068,-0.0052897,0.6517,1.7651,21.245,573.38,23.945,12.036,13.566,0.29366,2.3944,2.3029e+05,13.109,36.824,26.634,2
20.612,10.35,53.527,3.656,49.871,-0.10098,1.2619,0.026454,0.45747,1.3569,20.612,531.73,23.059,15.191,16.995,0.48733,2.588,3.743e+05,13.294,25.222,26.601,2
16.515,19.782,73.795,-0.77562,74.571,-0.034563,0.84625,-0.00207,0.14812,1.1998,16.534,663.2,25.753,13.78,21.463,1.2536,3.4805,2.441e+07,0.092356,0.080573,0.17324,2
3.6445,2.9441,14.373,0.04336,14.33,0.0045748,0.28407,-0.0008996,0.094846,1.0351,3.6445,21.93,4.683,3.5209,4.5242,1.6039,5.5545,3600.5,0.77164,1.5065,1.2029,2
21.064,25.919,105.26,1.8878e-06,105.26,-0.0067247,1.1927,-2.7976e-05,0.13384,1.3727,21.064,1113.9,33.376,15.345,24.313,1.886,5.6859,1.8651e+08,0.62014,1.6807,2.6009,2
6.1702,3.9777,15.814,3.4106e-13,15.814,6.6916e-05,0.1863,-0.00063655,0.051055,1.0146,6.1702,53.857,7.3388,6.0816,7.2334,0.62393,2.4349,3225.3,0.034397,0.042621,0.1006,2
23.241,12.713,64.269,0,64.269,0.015443,1.9213,-0.017679,0.76018,1.8314,23.241,701.4,26.484,12.691,14.461,1.043,4.1666,3.1547e+06,4.116,6.8562,7.4364,2
8.5516,9.4772,33.455,0.12854,33.326,-0.053874,0.2221,-0.0024928,0.041674,1.0223,8.5516,162.74,12.757,8.3652,12.479,1.6366,4.1944,7.3454e+05,0.037512,0.14581,0.17348,2
10.683,6.2395,25.294,0.028067,25.266,0.0019129,0.79862,0.011603,0.26372,1.2043,10.683,152.96,12.368,8.87,10.269,0.13622,2.0438,9934.5,28.043,24.61,22.88,2
36.137,39.462,163.34,0.099594,163.24,-0.0038929,2.0463,-0.0024893,0.38257,1.9643,36.137,2859.6,53.475,18.397,27.224,1.7032,5.1909,1.3425e+09,2.5107,2.7633,1.5349,2
8.7931,4.4807,20.071,0.81372,19.257,-0.011887,0.50795,-0.0016347,0.20022,1.1071,8.7931,97.35,9.8666,7.9426,8.9122,0.38258,2.9194,5134.1,1.6089,2.4533,2.4591,2
25.758,17.935,63.624,-0.068973,63.693,0.1028,1.0626,-0.0056971,0.14952,1.3636,25.758,984.4,31.375,18.89,23.009,0.51858,2.0985,4.5046e+06,187.16,210.76,151.81,2
11.485,11.295,40.418,1.7053e-13,40.418,0.010417,0.83453,-0.0047519,0.31367,1.245,11.485,259.18,16.099,9.2245,12.931,1.0244,2.7297,9.4445e+05,1.7123,1.4826,0.52849,2
8.6396,4.3928,18.542,-0.0042559,18.546,0.0099335,0.72716,-0.0027353,0.33943,1.2069,8.6397,93.896,9.69,7.1584,8.0286,0.0033168,2.1256,393.54,2.0785,3.0638,4.6398,2
16.658,10.462,38.55,-0.022889,38.573,0.087052,0.84594,-0.0037088,0.16618,1.2471,16.658,386.7,19.665,13.357,15.768,0.70168,2.5132,4.0399e+05,141.55,142.68,68.929,2
7.454,7.878,32.33,-0.98575,33.316,0.017493,0.51979,0.001398,0.0924,1.0892,7.5182,117.48,10.839,6.9022,9.9509,1.315,4.0247,3.0308e+05,13.76,5.4827,1.0765,2
33.846,19.125,91.704,7.259,84.445,-0.016326,1.7928,0.0066523,0.60569,1.7895,33.846,1510.5,38.865,18.914,21.718,1.089,3.7649,2.1097e+07,17.725,20.674,46.835,2
33.373,24.375,90.405,-0.0010945,90.406,0.024301,1.6565,-0.014301,0.24747,1.6002,33.373,1706.5,41.31,20.855,25.815,0.55539,2.2905,2.5072e+07,18.975,29.634,36.404,2
0.59077,0.22736,1.2662,5.6843e-14,1.2662,0.0013641,0.077995,-0.0011395,0.038066,1.0007,0.59077,0.40058,0.63291,0.59034,0.63246,0.11618,3.1917,0.00056135,0.043133,0.008203,0.022058,2
12.552,6.567,30.045,0.93787,29.107,-0.01578,1.1486,0.0063908,0.61676,1.4498,12.552,200.59,14.163,8.6582,9.7691,0.56886,2.5118,38077,3.7766,1.0418,5.1106,2
14.329,12.025,56.509,-0.00062602,56.51,0.1275,0.8815,-0.012222,0.25308,1.2528,14.329,349.58,18.697,11.437,14.924,1.8702,7.0002,5.5142e+06,294.76,357.31,299.16,2
