14.779,16.692,69.05,0.0096855,69.04,-0.019376,0.86591,0.0025728,0.18019,1.2352,14.779,496.42,22.281,11.965,18.039,1.5534,4.4089,1.4943e+07,0.27576,0.62812,0.6383,1
4.5222,2.9905,13.666,0.44825,13.217,0.0012462,0.24859,-0.001812,0.070406,1.0269,4.5222,29.373,5.4197,4.4039,5.2779,1.3265,3.8835,2131.8,1.6772,3.0501,3.7319,1
24.594,15.132,44.475,1.7279e-05,44.475,0.020632,0.97415,0.0010523,0.17475,1.3197,24.594,833.31,28.867,18.636,21.874,-0.25502,1.5079,-6.1178e+05,6.5555,2.7413,0.37806,1
26.774,27.697,100.1,1.081,99.02,0.089486,1.0976,-0.0011053,0.15137,1.2906,26.774,1482.2,38.5,20.746,29.831,1.071,3.075,1.0446e+08,307.48,373.54,329.19,1
60.463,52.737,215.9,-2.2737e-13,215.9,-0.16387,4.7549,0.012701,1.3608,3.5894,60.463,6430.6,80.191,16.845,22.341,1.2165,3.5158,3.1196e+09,82.772,84.463,45.239,1
25.414,17.862,74.016,0.71599,73.3,0.033869,2.3998,-0.0010221,0.95421,2.2363,25.414,964.2,31.052,11.364,13.885,0.95846,3.0873,1.0455e+07,137.23,206.12,223.43,1
49.206,55.221,261.11,0.0023585,261.1,0.34275,4.1804,-0.00030666,1.0403,3.1151,49.206,5463.7,73.917,15.796,23.729,2.1532,6.9495,1.1091e+10,2949.6,1963.3,379.67,1
71.616,49.095,211.88,-0.65421,212.54,0.12581,3.6633,-0.0091014,0.88595,3.1818,71.624,7533.7,86.797,22.511,27.279,0.85969,3.4557,1.8905e+09,1140.7,1447.1,1506.8,1
110.79,126.85,475.35,0.55227,474.79,-0.16115,6.3201,0.01351,1.7663,4.7203,110.79,28328,168.31,23.47,35.657,1.7176,4.6112,3.6588e+11,62.915,198.53,147.26,1
43.225,32.256,122.43,0.10253,122.33,0.0033849,3.2669,-0.011457,0.90584,2.6966,43.225,2906.5,53.912,16.029,19.993,0.68073,2.2798,1.0892e+08,46.579,42.916,34.109,1
22.081,19.684,97.647,1.1204,96.527,0.12034,1.8285,-0.0075682,0.59504,1.6738,22.081,874.14,29.566,13.192,17.664,2.3928,8.3286,8.2195e+07,811.98,973.13,937,1
38.421,29.721,98.902,-3.7776e-07,98.902,0.038993,1.6614,-0.012431,0.42079,1.7045,38.421,2357.6,48.555,22.542,28.487,0.58155,2.0389,5.5307e+07,58.709,91.673,69.945,1
39.564,31.685,109.04,-1.4663,110.5,0.034571,1.3568,0.0030984,0.40183,1.5506,39.605,2567,50.665,25.542,32.676,0.65618,2.2726,9.7907e+07,72.757,77.166,58.887,1
14.266,7.8058,33.958,-2.936e-05,33.958,-0.030439,0.90093,0.002078,0.37463,1.2873,14.266,264.3,16.257,11.082,12.629,0.78443,3.2822,1.4511e+05,37.92,50.965,37.04,1
16.564,11.512,57.21,0.043469,57.167,0.086986,1.0167,0.0023089,0.39673,1.3621,16.564,406.61,20.165,12.161,14.804,1.3697,4.4826,2.3226e+06,283.48,238.87,106.99,1
30.57,18.022,72.068,0.018938,72.049,-0.0076741,1.4237,-0.0064965,0.54702,1.6073,30.57,1258.6,35.477,19.02,22.073,0.25457,1.8721,2.1835e+06,250.84,246.45,225.43,1
45.337,24.813,115.76,-0.5497,116.31,0.12633,1.568,-0.0040981,0.25088,1.588,45.341,2669.7,51.669,28.552,32.537,0.72188,3.4606,5.6235e+07,1274.9,1499.5,1162.6,1
35.82,42.586,157.54,0.30834,157.23,-0.2065,1.7972,0.0029822,0.25638,1.6803,35.82,3092.5,55.611,21.318,33.096,1.4423,3.8764,1.2646e+09,33.927,43.672,35.616,1
5.2074,3.6307,17.861,0.074711,17.787,-0.029946,0.1506,-3.4623e-05,0.053291,1.0092,5.2074,40.27,6.3458,5.1599,6.2879,0.72636,3.5732,4945.6,2.8348,4.0485,4.5993,1
2.6535,2.6802,9.2155,-0.54065,9.7562,-0.0025619,0.11972,0.00038389,0.03441,1.0047,2.7039,14.208,3.7694,2.6913,3.7517,1.0147,2.978,757.56,1.0195,1.165,1.1029,1
14.872,18.011,68.113,-0.15272,68.266,0.021146,0.68022,-2.4391e-05,0.1213,1.1637,14.874,544.86,23.342,12.782,20.059,1.831,5.0631,2.4714e+07,14.123,17.427,14.343,1
16.593,23.775,81.848,0.09155,81.757,-0.0071811,0.85615,0.00010005,0.11386,1.2063,16.593,839.28,28.97,13.755,24.016,1.711,4.4639,8.174e+07,7.9845,10.392,7.6116,1
8.8762,7.3182,25.262,-0.085638,25.348,0.025074,0.36,-0.00028042,0.10035,1.055,8.877,132.22,11.499,8.4139,10.899,0.83881,2.3303,74815,46.444,57.448,49.699,1
4.0644,4.1494,21.06,-0.5693,21.629,-0.029979,0.19493,0.0005673,0.0655,1.0165,4.0968,33.698,5.805,4.0301,5.7105,2.0461,7.3379,29832,5.2296,3.5452,1.1761,1
102.3,71.627,279.49,0.01229,279.48,-0.00016753,7.4273,0.050501,2.6999,5.7837,102.3,15584,124.84,17.687,21.584,0.62618,2.1926,5.6745e+09,140.01,1008.9,689.67,1
74.222,51.013,197.58,0.11945,197.46,0.28927,5.6564,-0.0037426,1.9877,4.4173,74.222,8105.3,90.029,16.803,20.381,0.57408,2.3601,1.0785e+09,2034.4,2854.3,3753,1
52.12,66.771,356.07,0,356.07,-0.23883,5.3325,-0.0026609,1.7835,4.117,52.12,7164.8,84.645,12.66,20.56,2.9277,11.536,6.0836e+10,205.56,339.28,486.59,1
60.25,49.694,208.22,0.0066138,208.22,0.27072,5.9879,0.012083,1.9292,4.7439,60.25,6094,78.064,12.701,16.456,1.2433,3.6797,2.4329e+09,1391.5,259.46,401.07,1
70.257,51.655,240.92,1.8006,239.12,-0.32788,6.6807,-0.01631,2.5334,5.5437,70.257,7598.2,87.168,12.673,15.724,1.2065,4.1259,3.6243e+09,588.21,742.5,574.71,1
1.8235,1.4478,5.5636,0.0021734,5.5614,0.0010803,0.082625,0.00014708,0.027369,1.0011,1.8235,5.4165,2.3273,1.8215,2.3248,0.88971,2.9312,34.413,0.030922,0.035581,0.025487,1
1.5316,1.5957,6.9957,-0.0015485,6.9973,0.00015654,0.09593,0.00014034,0.030357,1.0023,1.5316,4.8862,2.2105,1.5281,2.2055,1.7613,5.3123,149.15,0.033861,0.09335,0.021425,1
39.669,31.108,135.31,-2.2737e-13,135.31,0.0039156,2.7149,-0.011139,0.84647,2.3976,39.669,2539.1,50.39,16.545,21.017,1.1129,3.7506,2.4847e+08,334.77,514.95,569.72,1
12.686,6.3817,31.095,0.74369,30.351,-0.027924,1.4791,0.00684,0.63645,1.6054,12.686,201.56,14.197,7.9021,8.8436,0.62884,3.0772,47945,0.95533,8.3023,6.0301,1
15.729,10.631,49.487,0.13031,49.357,0.030415,1.7624,-0.0016088,0.76566,1.7611,15.729,360.18,18.978,8.9313,10.776,0.69215,2.757,6.6973e+05,27.654,143.87,159.27,1
19.459,15.428,71.635,-1.145e-05,71.635,0.027475,2.3389,-0.01269,1.0195,2.0757,19.459,616.15,24.822,9.3749,11.958,0.9082,3.1443,5.8216e+06,110.54,8.7394,9.3777,1
0.19966,0.31344,1.9329,-1.9841e-05,1.9329,0.0042208,0.042464,0.00022654,0.013784,0.99863,0.19966,0.13789,0.37133,0.19993,0.37184,3.145,12.731,0.16598,0.22777,0.051853,0.00040979,1
0.95874,1.0136,4.5772,0.045463,4.5317,-0.0038285,0.073076,-0.00033692,0.022516,1.0004,0.95874,1.9443,1.3944,0.95839,1.3939,2.1799,7.2571,24.361,0.0060008,0.006566,0.0055525,1
22.152,14.279,57.145,2.2737e-13,57.145,-0.017992,1.5165,0.0061751,0.56158,1.6183,22.152,694.13,26.346,13.688,16.28,0.55328,2.187,1.5833e+06,5.665,20.271,9.7287,1
6.835,3.3389,14.856,0.17322,14.683,0.0032715,0.89971,-0.0018594,0.41161,1.2968,6.835,57.84,7.6053,5.2708,5.8648,0.35015,2.4377,770.26,21.587,16.995,7.59,1
8.2148,3.2276,16.122,0.69812,15.424,-0.0092634,0.70402,0.0012371,0.3187,1.196,8.2148,77.876,8.8248,6.8687,7.3787,0.22828,2.7093,412.3,3.6114,7.4179,5.9385,1
25.969,23.751,87.593,0.37067,87.222,-0.031405,1.1382,0.0015022,0.31722,1.3861,25.969,1237.2,35.174,18.735,25.376,0.99821,2.9579,4.341e+07,3.0421,2.0592,0.86847,1
14.249,12.301,48.175,0.09898,48.076,0.0032502,0.74493,-0.00029565,0.25605,1.2058,14.249,354,18.815,11.817,15.604,1.4083,3.9535,2.5122e+06,5.9935,9.4399,11.672,1
9.5968,6.078,31.528,0.00098899,31.527,0.055922,0.57041,-0.0014089,0.20359,1.1288,9.5968,128.96,11.356,8.5015,10.06,0.6837,3.4961,64246,72.877,49.369,25.758,1
13.891,9.5733,38.036,-0.011837,38.048,0.01573,0.74987,0.0030201,0.26516,1.2006,13.891,284.39,16.864,11.569,14.046,0.69867,2.3081,2.4816e+05,124.06,96.966,19.854,1
62.436,36.19,192.94,-0.6504,193.59,-0.065907,5.4295,-0.022724,1.9951,4.4729,62.441,5205.1,72.146,13.96,16.13,0.88913,4.0272,5.9073e+08,40.909,36.876,50.594,1
25.002,29.515,215.74,2.0189,213.72,0.38671,2.3254,0.01961,0.38218,1.8036,25.002,1494.3,38.656,13.863,21.433,3.662,20.262,2.5374e+09,2939.2,1573.3,544.07,1
70.872,67.585,262.57,0,262.57,-0.43033,3.7414,-0.0042802,0.75812,2.9444,70.872,9580.1,97.878,24.07,33.242,1.2378,3.7343,1.1822e+10,18.024,23.832,13.901,1
28.173,40.006,163.06,-2.2737e-13,163.06,0.039894,1.6701,0.0022041,0.25238,1.571,28.173,2390.5,48.893,17.933,31.122,2.144,6.5325,1.9741e+09,72.682,77.678,65.79,1
56.916,41.062,162.67,-0.35149,163.02,-0.028272,2.4865,0.00836,0.50786,2.2096,56.919,4921.7,70.155,25.76,31.751,0.78831,2.7374,5.0687e+08,3.5433,17.771,20.562,1
10.309,11.496,39.47,0.026762,39.443,-0.0079107,0.3291,0.00079874,0.05356,1.046,10.309,238.14,15.432,9.8557,14.753,1.1628,3.0629,1.2568e+06,0.38357,0.42154,0.37696,1
3.3697,2.2605,7.8193,-0.075871,7.8951,0.0082493,0.14611,0.00041254,0.043476,1.0077,3.3703,16.454,4.0563,3.3445,4.0252,0.21071,1.7973,59.807,2.0017,2.6679,1.9847,1
15.81,21.743,85.295,1.5113,83.784,-0.14246,0.65405,-0.0038748,0.14897,1.1568,15.81,721.62,26.863,13.666,23.221,1.8873,5.3729,7.1597e+07,2.7756,0.95315,1.615,1
13.13,11.661,53.428,0.08212,53.345,0.0041075,0.72123,-0.0014607,0.12788,1.1403,13.13,308.05,17.551,11.514,15.392,1.6359,5.5004,3.3774e+06,18.299,23.497,20.35,1
29.126,32.011,100.18,0.3881,99.792,-0.010092,1.6827,0.0040166,0.30513,1.626,29.126,1870.7,43.252,17.913,26.6,1.0185,2.4859,1.4623e+08,0.17773,0.70061,1.5035,1
24.914,22.423,91.689,-0.084666,91.774,0.055645,1.6907,-0.0042187,0.3131,1.5823,24.914,1122.4,33.502,15.746,21.173,1.4452,4.2857,5.8376e+07,97.038,147.78,166.6,1
62.852,39.196,142.88,-0.058764,142.94,0.0015985,1.7639,0.0051388,0.28471,1.8269,62.852,5483.2,74.049,34.403,40.531,0.25865,2.0537,1.3101e+08,50.398,23.25,3.7071,1
43.751,32.61,119.02,1.0686,117.95,0.0057177,2.7534,-0.007975,0.48011,2.4232,43.751,2975.1,54.545,18.055,22.51,0.66855,2.414,1.2097e+08,229.41,499.48,664.39,1
65.504,63.701,193.6,0.37411,193.23,0.0015882,2.8835,0.0048141,0.55582,2.1741,65.504,8339.3,91.32,30.129,42.003,0.96506,2.2933,3.7161e+09,169.92,232.05,185.74,1
36.128,39.523,143.02,-0.22587,143.24,-0.027107,1.7585,0.00072548,0.22145,1.7834,36.131,2863.8,53.514,20.259,30.006,1.1519,3.3412,6.9572e+08,1.2103,0.61969,0.28231,1
6.3916,5.0352,21.71,0.019834,21.69,-0.0095407,0.30933,-0.0009432,0.099646,1.042,6.3916,66.148,8.1332,6.134,7.8054,1.4552,4.5179,36609,0.81523,0.92493,0.6819,1
5.3969,3.9678,16.409,0.22531,16.184,0.004545,0.20971,-0.00026695,0.039744,1.0171,5.3969,44.834,6.6959,5.3064,6.5836,0.90191,3.0296,5823.3,4.4063,5.4297,5.8805,1
5.4307,8.3071,29.246,0.080216,29.166,-0.0104,0.34001,0.00013406,0.048843,1.0426,5.4307,98.344,9.9168,5.2089,9.5119,1.8526,4.9931,5.0391e+05,0.14822,0.12197,0.24689,1
2.6728,2.8447,10.639,0.087827,10.551,0.0038401,0.12349,-8.4943e-05,0.029072,1.0051,2.6728,15.218,3.901,2.6592,3.8811,1.3962,3.8407,1641.8,1.2691,1.8946,1.902,1
11.992,12.775,42.351,0.0030567,42.347,0.039161,0.47783,-0.0019116,0.065318,1.0884,11.992,306.64,17.511,11.018,16.088,1.1948,3.038,1.9931e+06,64.464,100.05,116.76,1
12.169,7.6169,30.407,0.0026422,30.404,0.026308,0.7743,0.0014788,0.31992,1.2228,12.169,205.96,14.351,9.9512,11.736,0.52435,2.4615,71875,19.147,38.523,41.321,1
9.9789,7.5981,31.995,0.068099,31.927,-0.0078985,0.79136,-0.0031306,0.33128,1.2411,9.9789,157.18,12.537,8.0403,10.102,1.1584,3.5885,2.0092e+05,9.2504,7.2848,7.2634,1
15.175,14.066,65.126,0.033966,65.092,0.08268,0.71926,-0.0019656,0.0947,1.1708,15.175,427.67,20.68,12.961,17.663,1.8196,6.3942,1.0621e+07,185.75,291.46,321.45,1
16.01,19.439,79.436,-0.020721,79.457,-0.014553,0.99501,-0.00080336,0.13414,1.2914,16.01,633.31,25.166,12.397,19.487,1.7806,5.4041,4.2122e+07,150.59,232.25,257.33,1
6.9598,9.8812,36.163,-0.0082862,36.171,-0.054863,0.48836,0.0022538,0.064774,1.0834,6.9599,145.86,12.077,6.4242,11.148,1.6295,4.44,1.0402e+06,8.9917,11.749,11.052,1
3.3534,2.116,7.8993,-0.048079,7.9474,-0.0036021,0.13517,0.00079362,0.035628,1.0067,3.3538,15.713,3.9639,3.3317,3.9377,0.53019,2.1294,93.291,3.2197,3.0144,2.2109,1
13.105,9.3611,40.851,0.044698,40.806,-0.045793,1.0325,-0.0020566,0.46512,1.3587,13.105,259.18,16.099,9.6456,11.849,1.3754,4.1259,6.9197e+05,10.585,6.1778,15.865,1
17.946,13.309,55.815,0.052932,55.762,0.076174,1.1239,0.0030949,0.37048,1.4038,17.946,498.81,22.334,12.784,15.91,1.1997,3.9173,3.685e+06,121.61,91.133,13.012,1
17.261,10.814,45.195,-0.0025015,45.197,-0.077129,0.93096,0.0014975,0.37897,1.3167,17.261,414.63,20.362,13.11,15.465,0.80554,2.7959,6.5428e+05,4.618,4.7755,3.692,1
18.226,11.387,50.716,0.10835,50.608,0.026535,1.1406,-0.001431,0.39002,1.4258,18.226,461.57,21.484,12.783,15.068,0.71687,3.0673,1.0015e+06,31.327,33.446,30.75,1
15.007,7.8554,42.413,0.08824,42.325,-0.040686,1.1,0.0039179,0.45604,1.3981,15.007,286.79,16.935,10.734,12.113,0.80714,4.737,3.14e+05,0.70802,1.4162,0.1441,1
11.403,15.431,60.464,0.084165,60.38,0.0020678,0.62523,0.0010908,0.078609,1.142,11.403,367.62,19.173,9.9857,16.79,2.0454,5.9831,1.463e+07,4.259,6.5022,8.7604,1
22.563,16.532,58.784,-0.53395,59.318,0.012812,0.87936,0.0015032,0.12422,1.2501,22.58,781.77,27.96,18.063,22.366,0.43951,2.1358,2.8155e+06,6.9085,3.5413,0.67223,1
19.993,14.4,48.317,0.55808,47.759,0.035852,0.76858,0.0026371,0.094028,1.2239,19.993,606.64,24.63,16.336,20.125,0.35121,1.7972,8.9068e+05,22.495,7.791,2.7912,1
15.325,11.052,41.618,0.35249,41.265,-0.046266,0.49745,-0.004959,0.075797,1.1046,15.325,356.73,18.887,13.874,17.099,0.73268,2.546,6.3331e+05,7.3762,12.324,13.516,1
11.105,8.0942,31.927,0.34275,31.584,0.019854,0.40794,0.0002462,0.078276,1.0666,11.105,188.7,13.737,10.412,12.879,0.80991,2.7084,1.6466e+05,24.925,32.429,30.742,1
14.219,11.278,41.916,-1.0422,42.958,0.015702,0.65307,0.00022406,0.12049,1.1609,14.249,329.07,18.14,12.274,15.625,0.72294,2.5518,7.0959e+05,0.87224,0.13965,0.069981,1
10.904,8.2832,37.739,1.3306,36.408,-0.0098234,0.40428,-0.00033053,0.087986,1.0698,10.904,187.35,13.688,10.192,12.794,1.659,5.2999,5.5779e+05,0.50499,1.0128,0.75036,1
10.336,12.757,47.881,-0.098785,47.979,0.027952,0.53026,-0.0011657,0.092564,1.1093,10.337,269.22,16.408,9.3181,14.791,1.5336,4.2008,3.4222e+06,27.897,45.721,52.098,1
13.667,12.872,57.224,0.069215,57.154,-0.015998,0.64579,-0.00069279,0.10145,1.1509,13.667,352.09,18.764,11.875,16.304,1.8574,6.0261,6.0788e+06,8.2847,8.8094,9.121,1
11.046,10.223,46.745,-0.63578,47.381,-0.010063,0.60814,-0.00033578,0.11887,1.1206,11.066,226.28,15.043,9.8753,13.424,1.6064,5.6106,1.8199e+06,2.4735,2.4578,2.3133,1
9.7564,6.6122,22.298,-0.01417,22.312,-0.0051756,0.50166,8.7272e-05,0.14136,1.1035,9.7564,138.81,11.782,8.8411,10.676,0.32972,1.8492,15389,0.015406,0.19012,0.2071,1
9.4847,6.6409,25.343,0.24244,25.101,0.034993,0.48469,0.00017975,0.1192,1.0933,9.4847,133.96,11.574,8.6756,10.587,0.77299,2.7831,53444,33.949,48.154,44.371,1
14.503,8.8558,31.831,0.20956,31.621,0.0045761,0.6612,-0.00047536,0.17358,1.1625,14.503,288.59,16.988,12.476,14.613,0.23319,1.9105,53875,36.061,36.056,41.173,1
9.3217,6.4914,33.044,0.041781,33.002,-0.022819,0.42794,0.001021,0.081073,1.0707,9.3217,128.94,11.355,8.7058,10.605,1.4649,5.8098,1.9629e+05,0.084043,0.19558,0.3531,1
6.5111,3.6655,13.889,-0.091035,13.98,0.0042332,0.21615,-0.00013662,0.039922,1.0195,6.5119,55.801,7.47,6.3873,7.3271,0.20801,1.9509,556.8,0.78001,1.1382,1.5433,1
5.631,3.0206,11.017,-0.1404,11.157,0.0024108,0.18217,-0.00011595,0.038479,1.0134,5.6336,40.811,6.3883,5.5592,6.304,-0.31376,1.9498,-291.52,1.4362,2.172,2.53,1
3.8767,2.39,9.511,-0.2913,9.8023,0.0018183,0.17261,0.0014183,0.041951,1.0122,3.8821,20.728,4.5528,3.8353,4.4979,0.28291,2.424,155.77,0.21561,0.0036426,0.0044798,1
5.621,3.2694,14.12,-0.005655,14.125,-0.0047844,0.19425,-0.00041626,0.041487,1.0157,5.6211,42.261,6.5008,5.5343,6.4005,0.81664,3.1115,1895.3,0.12715,0.30587,0.66736,1
9.7658,8.4217,39.168,0.17544,38.992,-0.013067,0.78054,-0.00079235,0.2848,1.2145,9.7658,166.13,12.889,8.0412,10.613,1.6396,5.3795,6.278e+05,8.0408,5.5487,2.1094,1
14.09,18.4,74.279,0.18789,74.092,-0.010023,1.0142,0.0018657,0.2201,1.2844,14.09,536.3,23.158,10.97,18.03,2.0764,6.1526,3.6537e+07,2.1555,3.4088,1.4079,1
28.248,34.443,136.58,0.072922,136.51,0.28842,1.1382,0.00031398,0.22673,1.3541,28.248,1981.6,44.515,20.862,32.875,2.1464,6.3895,8.7291e+08,1600.3,2001.5,1788.6,1
27.912,25.499,133.76,0.29925,133.46,-0.25819,1.6542,-0.0026214,0.36806,1.733,27.912,1427.8,37.786,16.106,21.804,1.9935,7.9426,3.0988e+08,30.453,51.264,79.856,1
8.6384,8.4484,30.703,0.037046,30.666,0.018088,0.37859,-0.00062382,0.069912,1.0515,8.6384,145.83,12.076,8.2154,11.485,1.211,3.337,2.9762e+05,10.651,14.175,11.708,1
4.3264,1.8545,9.5244,1.3647,8.1596,-0.011131,0.090848,0.00010967,0.03579,1.0019,4.3264,22.15,4.7063,4.3183,4.6975,0.93231,2.9793,107.6,2.2829,2.6802,1.4797,1
13.023,9.413,32.35,0.12291,32.227,0.0075167,0.51174,-0.00094934,0.1312,1.1098,13.023,257.99,16.062,11.734,14.473,0.5221,2.0412,1.6145e+05,6.1798,6.2326,3.0095,1
5.9826,5.6644,22.782,-0.00013191,22.782,-0.0033413,0.34446,0.0007564,0.12002,1.0507,5.9826,67.805,8.2344,5.6941,7.8372,1.6169,4.3953,61374,2.4771,3.34,1.9075,1
10.024,8.2574,32.682,-0.042761,32.725,0.063985,0.42299,0.00023781,0.11731,1.078,10.024,168.5,12.981,9.2984,12.041,0.9694,2.8794,2.0021e+05,86.53,73.833,46.363,1
1.1819,0.83952,3.6539,0.0059092,3.648,0.00024596,0.069976,0.00051549,0.025539,1.0001,1.1819,2.1002,1.4492,1.1818,1.449,0.81416,2.9682,2.1882,0.040288,0.076125,0.056178,1
4.3029,5.4341,20.323,0.0016036,20.321,0.0021657,0.21199,-0.00020895,0.034865,1.0184,4.3029,47.978,6.9266,4.225,6.8012,1.6018,4.4266,52472,0.32985,0.28386,0.27074,1
1.1835,0.72031,5.2334,-0.016636,5.25,0.0079176,0.11454,0.0018997,0.027628,1.0039,1.1836,1.9183,1.385,1.179,1.3796,1.0665,6.2113,4.3381,0.2502,0.011265,0.00046302,1
3.2483,2.5328,11.366,0.096301,11.27,-0.0028049,0.1519,-0.0020006,0.034458,1.0087,3.2483,16.952,4.1172,3.2201,4.0816,1.5513,5.1876,1447.9,2.2184,3.0708,2.1744,1
3.727,1.6613,6.8122,-0.021867,6.834,-0.003859,0.17799,-0.00034919,0.044325,1.013,3.7271,16.644,4.0797,3.6792,4.0272,-0.3966,2.4769,-26.948,1.0834,1.1952,1.0796,1
27.162,36.837,130.97,0.23501,130.74,-0.085662,1.4432,0.0027268,0.21769,1.5236,27.162,2091.7,45.735,17.828,30.018,1.8202,4.9531,8.4726e+08,0.090082,0.32749,0.1069,1
10.556,10.636,33.536,0.27447,33.262,0.031304,0.31554,0.00022285,0.058096,1.0414,10.556,224.3,14.976,10.137,14.382,1.0864,2.6982,6.3818e+05,52.164,70.045,68.578,1
18.451,20.117,75.248,0.061909,75.186,-0.035353,0.86586,0.00069336,0.14333,1.2192,18.451,744.24,27.281,15.133,22.375,1.4604,3.8985,2.9473e+07,4.3935,4.8679,2.7196,1
4.1447,1.951,7.7494,0.10314,7.6463,-0.0078908,0.14343,-6.1339e-05,0.04433,1.0078,4.1447,20.976,4.58,4.1125,4.5444,-0.33488,2.4321,-48.197,0.95394,1.4287,1.8658,1
12.258,11.623,45.849,-0.03197,45.881,0.0017904,0.50339,0.00040034,0.067952,1.1002,12.258,285.05,16.884,11.142,15.346,1.4541,4.519,2.3928e+06,1.4897,1.1787,0.1586,1
4.7067,3.0965,11.577,0.0084642,11.568,-0.00010303,0.18275,-0.00045423,0.045139,1.0139,4.7067,31.719,5.632,4.6423,5.5549,0.45767,2.2244,712.44,0.12668,0.36586,0.85238,1
28.088,25.606,113.88,0.17386,113.7,-0.10021,1.7218,-0.002161,0.42267,1.601,28.088,1443.1,37.988,17.544,23.728,1.5007,4.853,1.4367e+08,4.0815,7.7223,8.5073,1
11.683,13.039,46.721,0.011849,46.709,-0.021919,0.73856,0.0027133,0.25613,1.2094,11.683,306.13,17.497,9.6608,14.468,1.377,3.7586,3.2177e+06,2.9105,3.6853,2.5898,1
11.699,10.081,32.491,0.082222,32.409,0.022775,0.64527,-0.0044223,0.23172,1.1554,11.699,238.28,15.436,10.126,13.36,0.67557,1.9555,2.6926e+05,54.704,75.219,63.595,1
17.443,14.771,62.295,0.0067507,62.289,-0.018121,0.98248,0.0091689,0.30142,1.3321,17.443,521.93,22.846,13.095,17.151,1.3708,4.1409,6.8293e+06,0.046539,0.072523,1.3671,1
7.3227,6.2336,29.793,0.12571,29.667,-0.0020567,0.64434,-0.0063339,0.28762,1.1607,7.3227,92.392,9.6121,6.3088,8.2811,1.9417,6.3348,1.7859e+05,2.1312,3.7889,3.1629,1
6.1514,5.0314,22.682,-0.16765,22.85,-0.00724,0.45636,0.001637,0.19848,1.0885,6.1528,63.098,7.9434,5.6523,7.2973,1.2253,3.7107,27305,0.62504,1.0202,0.46876,1
2.8779,2.3707,7.4356,0.067046,7.3686,0.00049217,0.10469,0.00020288,0.03626,1.0031,2.8779,13.89,3.7269,2.8689,3.7152,0.54735,1.7629,138.93,1.3622,1.3316,0.71051,1
2.9577,2.5766,9.5816,0.0070831,9.5745,-0.0035303,0.10966,-7.7687e-05,0.034054,1.0037,2.9577,15.372,3.9207,2.947,3.9064,1.3368,3.6367,870.13,0.16722,0.18354,0.28155,1
0.90774,0.52546,2.3326,-0.00040987,2.333,-0.0027669,0.065795,-3.197e-05,0.030014,0.99988,0.90775,1.0995,1.0486,0.90785,1.0487,0.691,2.957,0.16834,0.0062474,0.0014983,0.0043334,1
1.0583,0.56357,2.7163,0.035175,2.6811,0.0003448,0.059821,-0.00022341,0.02712,0.99951,1.0583,1.4368,1.1987,1.0588,1.1993,0.82735,3.5244,0.33995,0.047103,0.055557,0.056698,1
0.63293,0.23654,1.2587,0.054472,1.2043,0.0016357,0.059902,-2.9296e-05,0.029062,0.99952,0.63293,0.45642,0.67559,0.63323,0.67591,0.24066,2.4923,0.000998,0.069617,0.10935,0.16204,1
11.936,11.232,50.727,-0.0011471,50.728,-0.1123,0.58408,0.0045156,0.17693,1.1349,11.936,268.35,16.382,10.517,14.434,1.6014,4.8172,2.2322e+06,0.040422,1.3088,1.4789,1
16.063,13.791,47.424,0.50429,46.92,0.088679,0.85725,-0.0032949,0.18534,1.2382,16.063,447.76,21.16,12.972,17.089,0.88201,2.303,1.8356e+06,191.69,227.95,215.57,1
19.484,15.206,57.93,-0.00047451,57.93,-0.079902,1.0667,0.0020923,0.2823,1.316,19.484,610.35,24.705,14.805,18.773,0.96842,2.8587,4.3489e+06,3.1708,3.7775,2.5911,1
7.5326,3.868,20.165,1.1958,18.969,0.015067,0.50976,0.002404,0.19163,1.1112,7.5326,71.668,8.4657,6.7789,7.6186,1.0379,3.7309,6833.9,6.1231,11.399,7.2637,1
18.092,14.187,52.138,0.25735,51.881,0.023346,0.71885,-0.0033358,0.15724,1.1796,18.092,528.1,22.981,15.337,19.482,0.94133,2.83,2.8403e+06,45.459,65.745,63.801,1
12.816,14.385,57.429,0.038579,57.39,-0.021222,0.86293,0.0010149,0.19328,1.2296,12.816,370.73,19.254,10.423,15.659,1.7637,5.0997,8.1902e+06,12.307,10.38,2.3361,1
8.5104,9.8631,44.793,0.14614,44.647,0.03806,0.65347,0.0048444,0.13197,1.1473,8.5104,169.49,13.019,7.4179,11.347,2.3957,7.9811,2.4264e+06,21.072,5.1331,2.3955,1
14.54,11.974,49.328,0.63229,48.696,-0.015532,0.63721,-0.0048627,0.15161,1.1548,14.54,354.47,18.827,12.591,16.303,1.1159,3.5582,1.8745e+06,67.807,108.98,94.565,1
15.042,16.838,48.463,1.1369e-13,48.463,0.068077,0.68384,-0.0013953,0.15595,1.1545,15.042,509.16,22.565,13.03,19.545,0.91526,2.1206,4.3245e+06,97.266,127.91,119.8,1
25.881,27.621,97.392,-0.0041901,97.396,-0.026042,1.489,0.00033153,0.28142,1.5044,25.881,1431,37.828,17.204,25.146,1.3336,3.5188,1.1995e+08,29.944,44.703,40.294,1
8.22,5.3579,23.592,0.059047,23.533,-0.037147,0.43158,0.0015492,0.13349,1.0762,8.22,96.211,9.8087,7.638,9.1142,1.0548,3.3836,30998,0.55081,0.48335,0.49924,1
8.5211,8.971,42.759,0.027154,42.732,0.092448,0.51084,0.00039809,0.11659,1.1025,8.5211,152.91,12.365,7.7292,11.216,2.1687,8.0378,1.5951e+06,160.7,183.44,160.41,1
44.529,29.238,106.98,0.20113,106.78,-0.0019481,2.0071,-0.0053048,0.35764,1.9154,44.529,2835.7,53.251,23.248,27.801,0.35417,1.9393,3.1754e+07,95.715,97.636,97.132,1
25.741,16.963,63.721,0.090234,63.631,-0.029493,1.7112,0.0054546,0.36531,1.7615,25.741,949.66,30.817,14.613,17.494,0.59268,2.3213,3.8321e+06,17.412,17.114,17.797,1
28.799,20.257,76.457,0,76.457,0.046388,1.2995,-0.0040509,0.22892,1.4752,28.799,1238.8,35.196,19.522,23.859,0.55515,2.4999,1.1266e+07,51.447,69.79,65.591,1
28.064,40.05,146.45,0.4782,145.97,-0.015254,1.5336,0.00015541,0.21697,1.4841,28.064,2387.9,48.866,18.91,32.927,1.8392,4.9827,1.312e+09,23.247,24.269,17.562,1
12.463,10.87,41.672,0.0069335,41.665,0.0068319,0.60026,0.0070618,0.10127,1.1303,12.463,273.22,16.529,11.026,14.623,1.0614,3.1731,9.8278e+05,1.4479,0.0144,0.010294,1
29.775,23.081,90.759,0.033663,90.726,-0.018478,1.5672,-0.0036413,0.28078,1.5539,29.775,1418.1,37.657,19.162,24.234,0.99804,3.3948,4.4707e+07,1.8501,2.9637,2.865,1
17.145,11.573,44.573,0.20074,44.372,0.03656,0.80371,-0.0017686,0.13871,1.2152,17.145,427.59,20.678,14.109,17.017,0.59233,2.6664,7.4135e+05,29.22,40.908,35.929,1
14.815,17.942,68.367,0.38001,67.987,-0.0038399,0.91205,-0.00057898,0.15589,1.2004,14.815,540.69,23.253,12.342,19.371,1.7758,5.1021,2.4511e+07,25.88,29.719,28.422,1
14.153,13.033,54.824,-0.06566,54.89,-0.03504,0.60375,0.00023588,0.10753,1.1288,14.154,369.8,19.23,12.538,17.035,1.5082,4.6116,4.3328e+06,0.0088288,0.050319,0.077449,1
9.1204,10.95,56.77,0.27129,56.499,0.098425,0.70094,-0.0020482,0.13942,1.1613,9.1204,202.81,14.241,7.8538,12.263,2.8389,11.368,6.9617e+06,249.52,356.21,300.38,1
17.145,11.573,44.573,0.20074,44.372,0.03656,0.80371,-0.0017686,0.13871,1.2152,17.145,427.59,20.678,14.109,17.017,0.59233,2.6664,7.4135e+05,29.22,40.908,35.929,1
14.815,17.942,68.367,0.38001,67.987,-0.0038399,0.91205,-0.00057898,0.15589,1.2004,14.815,540.69,23.253,12.342,19.371,1.7758,5.1021,2.4511e+07,25.88,29.719,28.422,1
14.153,13.033,54.824,-0.06566,54.89,-0.03504,0.60375,0.00023588,0.10753,1.1288,14.154,369.8,19.23,12.538,17.035,1.5082,4.6116,4.3328e+06,0.0088288,0.050319,0.077449,1
9.1204,10.95,56.77,0.27129,56.499,0.098425,0.70094,-0.0020482,0.13942,1.1613,9.1204,202.81,14.241,7.8538,12.263,2.8389,11.368,6.9617e+06,249.52,356.21,300.38,1
12.822,10.684,41.595,0.002462,41.592,-0.024496,0.67091,-0.0027686,0.16787,1.1658,12.822,278.27,16.681,10.998,14.308,0.65806,2.5172,5.8619e+05,14.027,21.933,23.841,1
15.556,23.192,91.379,0.014498,91.364,-0.015727,1.0452,0.00037707,0.13722,1.2776,15.556,778.63,27.904,12.176,21.84,2.1191,6.2707,1.207e+08,2.1297,2.1588,1.4698,1
45.429,35.467,135.01,1.4635,133.55,0.020761,2.1556,-0.00032099,0.29003,1.9894,45.429,3318.9,57.61,22.836,28.959,0.6439,2.4642,2.1562e+08,18.487,28.862,35.221,1
42.702,31.867,179.73,5.8037e-06,179.73,0.062146,5.293,0.006163,2.3012,3.5169,42.702,2836.6,53.26,12.142,15.144,1.6633,6.0774,6.312e+08,309.84,237.94,839.08,1
15.759,7.7938,30.431,0.74328,29.688,0.035246,0.56555,-0.00059632,0.1042,1.1295,15.759,308.96,17.577,13.953,15.563,0.045622,1.9814,4547.3,49.52,60.143,55.295,1
34.886,19.15,77.384,0.41308,76.971,0.0051323,1.145,-0.0025445,0.19292,1.4231,34.886,1582.9,39.786,24.515,27.958,0.22632,2.4376,3.91e+06,91.277,124.1,149.04,1
23.704,12.415,49.946,0.26835,49.677,0.019095,0.89484,0.0030497,0.21132,1.2788,23.704,715.68,26.752,18.537,20.92,0.13945,2.454,2.3201e+05,146.96,220.69,203.52,1
24.799,12.869,52.426,0.045453,52.38,0.020864,0.99026,-0.0028036,0.20438,1.3254,24.799,780.25,27.933,18.711,21.076,0.02888,2.3885,1.8854e+05,200.79,260.19,249.11,1
28.073,21.161,73.919,1.2464,72.673,-0.034002,0.9871,0.00098584,0.17413,1.3052,28.073,1234.8,35.14,21.509,26.924,0.55419,1.9768,9.9778e+06,117.77,184.01,179.06,1
5.7101,5.9578,20.034,-0.00024123,20.034,0.015846,0.29334,0.0017619,0.056337,1.0361,5.7101,68.02,8.2474,5.511,7.9599,1.0072,2.585,34996,14.624,7.4255,0.91943,1
39.796,53.675,177.34,0.0001257,177.34,-0.023141,1.7838,0.0011183,0.17885,1.56,39.796,4458.1,66.769,25.51,42.8,1.4214,3.5591,3.4641e+09,0.60011,0.24595,0.57128,1
35.792,33.537,119.43,-0.33114,119.76,0.11926,1.6649,0.019181,0.21806,1.6138,35.795,2403.2,49.023,22.18,30.377,0.89813,2.674,2.0824e+08,24.299,0.37232,1.5946,1
40.016,43.131,169.25,-0.13034,169.38,-0.13551,1.8647,-0.024446,0.25308,1.634,40.017,3457.3,58.799,24.49,35.984,1.4925,4.5482,1.713e+09,0.22065,0.069487,0.13531,1
10.021,10.685,40.311,0.27111,40.04,0.019005,0.44427,0.00088484,0.11905,1.0835,10.021,214.32,14.64,9.2484,13.511,1.4414,3.9417,1.2973e+06,4.7972,6.8183,3.2009,1
12.809,9.1385,42.853,0,42.853,0.040482,1.777,-0.04368,0.83552,1.5089,12.809,247.39,15.729,8.4886,10.424,1.024,3.2084,4.1389e+05,42.797,20.414,30.611,1
13.384,7.2278,32.033,0.21049,31.822,-0.0088756,0.94579,-0.00081223,0.4518,1.3202,13.384,231.26,15.207,10.138,11.519,0.67654,3.0657,82931,18.276,15.37,15.08,1
12.049,7.5534,28.549,1.1839,27.365,-0.039502,0.5623,0.0020814,0.23141,1.1295,12.049,202.1,14.216,10.668,12.587,0.39735,1.8869,37816,5.3846,7.9107,8.9427,1
5.9981,6.7104,31.625,-0.14183,31.767,0.054195,0.54378,-0.0029524,0.21853,1.1189,5.9991,80.905,8.9947,5.3619,8.0393,2.3327,8.6204,4.0933e+05,95.797,109.79,86.418,1
13.199,9.2293,35.052,0.43751,34.615,-0.047491,0.5535,-0.00098972,0.17311,1.1251,13.199,259.21,16.1,11.731,14.309,0.81058,2.5687,2.7117e+05,18.363,30.123,29.107,1
24.092,12.366,60.513,0.31688,60.196,-0.027999,3.5744,0.016667,1.9549,3.3494,24.092,732.98,27.074,7.1928,8.083,0.56853,3.2354,1.3581e+06,41.206,71.504,24.182,1
13.518,7.3749,30.137,-0.76545,30.903,-0.019716,3.688,-0.013691,2.0079,3.4574,13.525,237,15.395,3.9118,4.4528,0.11806,2.0048,14667,84.271,18.482,94.057,1
22.423,12.811,48.539,0.041866,48.497,0.029613,0.80402,0.0082097,0.25255,1.2164,22.423,666.53,25.817,18.434,21.225,0.4592,2.294,7.0578e+05,54.613,48.995,44.352,1
12.608,6.8447,26.666,-0.25338,26.919,-0.049234,0.68536,0.00083478,0.27158,1.183,12.61,205.7,14.342,10.659,12.124,-0.0067336,2.1414,1335,0.96342,0.2377,1.2312,1
8.1923,4.7857,21.222,0.14693,21.075,-0.0059444,1.2048,0.0012095,0.57129,1.5078,8.1923,89.964,9.485,5.4332,6.2905,0.70064,2.9102,11227,3.8808,2.7072,9.7537,1
9.1751,5.7388,26.311,0.32492,25.986,0.0023475,1.2348,0.0054247,0.55503,1.5177,9.1751,117.04,10.819,6.0453,7.1281,0.91269,2.9833,32545,1.9052,6.9798,4.8425,1
7.7131,4.5264,27.631,-0.012965,27.644,0.014708,1.0781,0.00063288,0.48989,1.4114,7.7132,79.934,8.9406,5.4648,6.3344,1.0929,5.433,32121,23.045,19.49,18.082,1
9.8719,7.4583,29.257,0.036107,29.22,-0.0047801,1.5197,-0.0091098,0.69729,1.6732,9.8719,152.95,12.367,5.9001,7.3916,0.87299,2.7179,1.061e+05,44.738,22.779,53.618,1
1.8181,1.3155,6.7648,0.00033921,6.7645,-0.0030927,0.26416,-0.0017343,0.11765,1.0303,1.8181,5.032,2.2432,1.7646,2.1772,1.2897,4.351,44.875,0.11633,0.21834,0.21803,1
22.045,14.828,55.657,1.1369e-13,55.657,0.085341,1.5621,-0.021041,0.47176,1.654,22.045,705.36,26.559,13.328,16.057,0.5693,2.2977,2.0751e+06,168.98,264.01,233.1,1
25.702,11.842,64.065,0,64.065,0.044573,3.7023,-0.060894,1.9762,3.0134,25.702,800.49,28.293,8.5292,9.3891,1.0037,4.2062,1.9797e+06,47.165,34.173,21.106,1
8.899,10.331,35.46,-0.43057,35.89,-0.016561,0.46219,0.003298,0.12814,1.0818,8.9073,185.69,13.627,8.2335,12.596,1.4392,3.7491,9.7616e+05,0.79817,0.90183,1.0638,1
1.8628,1.2147,6.4777,-0.16514,6.6428,0.0072907,0.20437,-5.1377e-05,0.10153,1.018,1.864,4.9422,2.2231,1.8311,2.1838,1.5934,5.888,44.312,4.1504,2.582,2.3224,1
50.56,49.146,200.03,0.38415,199.65,-0.0046935,4.1651,-0.035471,1.5716,3.3149,50.56,4966.1,70.471,15.252,21.258,1.3855,3.8649,2.5521e+09,32.187,78.629,80.53,1
19.898,14.531,104.71,-1.1786,105.88,0.17114,2.2926,-0.0095727,1.0687,2.0836,19.915,606.63,24.63,9.5578,11.821,2.7959,15.927,5.3943e+07,879.1,327.24,110.89,1
39.747,30.134,126.32,0.10575,126.22,-0.1828,2.4556,-0.0036482,0.95198,2.2233,39.747,2485.8,49.858,17.877,22.425,0.95744,2.8976,1.4148e+08,66.468,113.33,130.26,1
20.737,15.908,70.018,1.5063,68.511,-0.022066,2.0253,0.006227,0.87192,1.9279,20.737,682.52,26.125,10.756,13.551,1.4577,4.4104,1.0993e+07,2.434,11.787,21.912,1
14.994,9.7346,37.469,0.58164,36.888,0.066625,0.80277,-0.0014534,0.30719,1.2384,14.994,319.36,17.871,12.107,14.43,0.33571,1.9394,1.5715e+05,102.73,71.622,57.373,1
8.9442,7.6103,36.041,0.32509,35.716,-0.06505,0.64689,0.0033229,0.29087,1.1678,8.9442,137.78,11.738,7.6587,10.051,1.9722,6.1541,4.4674e+05,4.9878,4.9676,4.1607,1
2.4308,1.2041,5.2145,0.0014012,5.2131,0.0058089,0.15437,0.0001445,0.085339,1.0095,2.4308,7.3552,2.712,2.408,2.6866,0.26883,2.556,4.021,0.8904,1.3158,0.83306,1
2.6583,1.1217,5.9878,0.069859,5.9179,-0.0036596,0.16895,0.00039296,0.093402,1.0117,2.6583,8.3222,2.8848,2.6276,2.8515,1.0314,4.3284,14.315,0.83278,0.75639,1.0016,1
2.9784,0.72553,4.6929,0.50605,4.1869,-0.0038598,0.21254,-0.00036196,0.125,1.0198,2.9784,9.3962,3.0653,2.9207,3.0059,-0.92134,4.5733,-1.8819,0.096019,0.077947,0.14454,1
2.9501,0.98816,5.602,0.162,5.44,0.0054324,0.18851,-0.00047511,0.10902,1.0151,2.9501,9.6776,3.1109,2.9062,3.0645,-0.22059,3.7787,-2.1034,0.9756,1.0392,1.1177,1
1.4017,0.98488,3.6088,-1.4211e-13,3.6088,0.00013698,0.06054,0.00085597,0.024224,0.99954,1.4017,2.9326,1.7125,1.4024,1.7133,0.78404,2.3707,3.0704,0.12383,0.12875,0.10759,1
1.5997,0.98707,4.5268,0.028296,4.4985,-0.0013372,0.081029,-5.1353e-05,0.034725,1.001,1.5997,3.5313,1.8792,1.5982,1.8773,1.1111,3.6182,6.774,0.015756,0.038675,0.054195,1
1.1541,0.38287,2.191,0.01401,2.177,0.0012894,0.064062,0.00014219,0.031634,0.99977,1.1541,1.4783,1.2158,1.1544,1.2161,-0.12553,2.9371,-0.010019,0.057597,0.15585,0.18689,1
0.91549,0.21836,1.4454,0.39789,1.0475,-8.9897e-05,0.050937,0.00010826,0.024218,0.99902,0.91549,0.88569,0.94111,0.91638,0.94203,0.10278,2.7259,0.00024264,0.12894,0.12205,0.13305,1
1.0835,0.36074,2.1449,0.0047027,2.1402,0.0025299,0.068752,-3.3381e-05,0.032889,1.0001,1.0835,1.3037,1.1418,1.0834,1.1417,-0.68234,4.7404,-0.030653,0.42484,0.30843,0.13252,1
30.869,35.888,116.93,0.061033,116.87,-0.02738,1.1619,0.0014511,0.26744,1.3976,30.869,2237.9,47.306,22.087,33.849,1.1775,2.8571,3.254e+08,10.035,8.6007,16.187,1
10.456,6.2289,28.5,0.045283,28.455,0.030867,0.69936,-0.003374,0.26402,1.1898,10.456,148.03,12.167,8.7877,10.226,0.74266,2.9337,47314,78.216,56.707,35.295,1
62.238,34.873,142.28,0.4492,141.83,0.00022021,15.35,0.045011,7.1766,13.771,62.238,5087,71.323,4.5194,5.1791,0.056061,1.8781,2.3994e+07,99.877,533.16,1168.8,1
75.6,36.23,193.88,9.5522,184.33,-0.073115,15.541,-0.044255,7.577,13.808,75.6,7025,83.815,5.4751,6.07,0.38886,2.7339,2.4259e+08,823.52,233.08,1543.7,1
72.944,35.167,169.58,4.8655,164.72,0.064466,15.629,0.038308,7.5115,13.995,72.944,6554.8,80.962,5.212,5.7848,0.12083,2.0681,5.5526e+07,384.02,773.47,2134.9,1
82.734,39.506,188.97,8.1215,180.85,-0.12822,15.322,0.047797,7.2546,13.677,82.734,8402.1,91.663,6.0491,6.702,0.37206,2.6149,2.8292e+08,1473.5,1463.3,147.7,1
81.573,42.187,193.46,1.9489,191.51,0.083567,16.925,0.023958,7.8843,15.157,81.573,8429.8,91.814,5.3819,6.0576,0.22543,2.2994,2.272e+08,640.06,2344.3,401.03,1
22.238,11.92,62.311,0.11597,62.195,0.054627,4.3802,-0.051524,2.4841,3.611,22.238,636.29,25.225,6.1584,6.9856,0.64662,3.1316,1.2874e+06,42.444,44.19,91.093,1
24.985,12.323,59.16,0.88434,58.276,-0.056111,4.8562,-0.0028606,2.8845,3.9826,24.985,775.77,27.853,6.2737,6.9937,0.15144,2.2139,2.8387e+05,67.716,27.942,124.92,1
18.781,12.157,53.804,-0.0054891,53.809,0.02043,2.9083,-0.0090778,1.6763,2.6394,18.781,500.21,22.365,7.1157,8.4735,0.73611,2.7554,1.1997e+06,11.272,38.84,16.366,1
30.684,14.414,65.014,2.9592,62.055,0.030954,4.3631,0.0033953,2.4704,3.4019,30.684,1148.8,33.894,9.0196,9.9633,0.20547,2.3247,8.4811e+05,36.075,86.934,67.367,1
15.142,12.327,56.982,1.1369e-13,56.982,0.02346,2.0748,-0.024487,0.88775,1.938,15.142,380.9,19.517,7.8132,10.07,1.4878,4.8349,3.657e+06,19.167,10.64,8.6669,1
7.6373,4.2666,22.138,0.020865,22.117,0.007423,1.1988,-0.00047074,0.56143,1.4528,7.6373,76.49,8.7459,5.257,6.0201,0.9979,4.1629,12762,10.67,40.66,27.375,1
12.012,7.5211,42.821,0.33143,42.489,-0.091866,0.87465,0.019292,0.3897,1.2234,12.012,200.73,14.168,9.8185,11.581,0.82042,3.2265,1.5552e+05,0.03669,0.24067,0.88003,1
16.795,19.98,75.246,-0.19485,75.44,0.011614,0.80697,-0.0015217,0.23565,1.2271,16.798,680.38,26.084,13.689,21.256,1.5532,4.1951,3.1679e+07,5.7062,11.125,9.8993,1
2.4256,0.84391,4.6127,5.6843e-14,4.6127,0.0058139,0.27777,-0.0031421,0.16664,1.0343,2.4256,6.5939,2.5679,2.3452,2.4827,-0.1635,2.9499,-0.60973,0.56584,0.54318,0.42135,1
4.0103,3.6129,16.465,0.028648,16.436,-0.00091338,0.36308,-6.7816e-05,0.20661,1.0587,4.0103,29.106,5.395,3.7879,5.0958,1.9007,5.9529,10429,0.27069,1.2124,0.59953,1
2.2298,1.0159,4.8564,0.11093,4.7455,0.0013561,0.27283,0.00078962,0.16086,1.0331,2.2298,6.0018,2.4498,2.1584,2.3713,0.19718,2.2865,1.4296,1.0509,1.6056,1.6108,1
13.408,10.51,41.373,-0.59723,41.97,-0.052461,1.7427,0.031602,0.91058,1.7244,13.413,289.96,17.028,7.7785,9.8751,0.90211,2.6496,5.8463e+05,3.6348,4.3359,13.171,1
13.813,6.989,40.811,0.032088,40.779,-0.0031794,1.6334,-0.0040039,0.84055,1.707,13.813,239.54,15.477,8.0919,9.0666,0.6396,4.2914,1.6008e+05,2.6321,4.5666,39.911,1
19.337,13.033,48.074,0.080403,47.994,-0.0073179,2.2751,0.00036884,1.271,2.0374,19.337,543.41,23.311,9.4909,11.441,0.36559,1.8651,5.9467e+05,1.8434,17.178,7.7019,1
9.3591,5.1404,22.22,-0.23956,22.459,-0.0075908,1.0559,0.0036235,0.53369,1.3851,9.3614,113.96,10.675,6.7587,7.7071,0.22616,2.3725,5437.1,0.28157,7.4389,12.299,1
14.798,9.3631,41.93,0.03115,41.899,0.022773,1.6526,0.0057234,0.90324,1.7394,14.798,306.44,17.505,8.5075,10.064,0.73946,2.8858,3.3796e+05,25.453,26.152,53.169,1
23.579,8.3256,42.906,0.3261,42.58,0.034605,4.0835,-0.025054,2.4195,3.4629,23.579,625.15,25.003,6.8091,7.2202,-0.50097,2.8729,-1.2884e+05,23.668,66.624,33.038,1
26.717,9.8669,52.746,1.468,51.278,0.011802,3.9586,-0.0010172,2.3177,3.3525,26.717,810.95,28.477,7.9694,8.4943,-0.11713,2.6066,-95180,81.599,71.776,94.434,1
28.914,11.865,55.451,-0.64315,56.094,0.0021814,3.1868,0.0049203,1.7271,2.7589,28.917,976.45,31.248,10.481,11.327,-0.30526,2.5488,-4.3068e+05,140.27,93.579,68.896,1
14.736,9.2565,42.694,1.1369e-13,42.694,0.040893,1.039,-0.020622,0.38443,1.293,14.736,302.62,17.396,11.397,13.454,0.96824,3.5598,4.9595e+05,35.713,51.101,41.611,1
13.856,10.5,42.852,0.26657,42.585,-0.031075,1.0645,0.00014126,0.31345,1.3551,13.856,302,17.378,10.226,12.825,0.76101,2.8273,6.3423e+05,5.7305,14.812,15.885,1
17.032,11.567,56.374,1.564e-05,56.374,0.024412,1.1823,-0.0024448,0.35496,1.4492,17.032,423.56,20.581,11.752,14.201,0.97432,3.8217,1.7792e+06,44.162,24.476,6.0843,1
7.1119,4.5926,18.812,-0.17917,18.992,0.0016035,0.51397,-0.0010681,0.201,1.1083,7.1132,71.623,8.463,6.418,7.6359,0.57177,2.7839,7836.7,3.8437,4.7203,2.8045,1
13.134,9.7784,36.779,0.44766,36.332,-0.0039723,0.70896,-0.0025562,0.19388,1.1889,13.134,267.91,16.368,11.048,13.768,0.62852,2.341,2.995e+05,3.5146,5.6065,7.7812,1
16.877,12.085,42.661,1.0557,41.605,0.0022374,0.95449,-0.00037149,0.25469,1.3273,16.877,430.53,20.749,12.715,15.633,0.47822,1.9409,5.2184e+05,2.4958,6.6794,7.9368,1
6.5978,4.7455,23.219,0.38485,22.834,-0.0066067,0.627,0.002403,0.30909,1.1618,6.5978,66,8.1241,5.6791,6.9928,1.2387,4.2937,26089,2.8757,1.7748,2.3231,1
28.299,19.569,71.282,-2.2737e-13,71.282,-0.027078,2.1981,-0.0093137,0.50997,2.0347,28.299,1182.9,34.394,13.908,16.904,0.54341,2.1803,6.9537e+06,39.541,79.662,85.569,1
5.5139,4.0387,14.755,0.029459,14.726,-0.0082472,0.1635,-0.00026376,0.042078,1.0108,5.5139,46.678,6.8321,5.455,6.7591,1.0512,2.9702,5623.5,0.48412,0.53839,0.70231,1
3.9288,3.1945,10.625,-0.0023767,10.627,0.0030479,0.13067,0.00057585,0.040322,1.0061,3.9288,25.617,5.0613,3.9049,5.0306,0.87095,2.4301,1235.9,0.34981,0.35952,0.2254,1
4.4781,2.0865,7.9892,-0.020937,8.0101,0.0063411,0.14694,-0.00030768,0.060016,1.0083,4.4782,24.397,4.9393,4.4411,4.8984,-0.30151,2.1169,-61.647,2.4666,3.5628,3.0784,1
3.1899,2.0481,9.303,-0.0036247,9.3066,0.0078199,0.11503,0.00022549,0.039041,1.0043,3.1899,14.361,3.7895,3.1764,3.7734,0.71394,3.6217,257.61,7.7808,9.7595,7.8596,1
4.0015,2.7647,10.554,0.059379,10.495,-0.012865,0.14983,0.00031835,0.047922,1.0088,4.0015,23.638,4.8619,3.9665,4.8194,0.48613,2.0483,373.1,0.78725,1.0994,0.56211,1
15.547,11.898,56.351,0.57776,55.774,-0.016667,0.81248,0.0017686,0.15726,1.2169,15.547,382.95,19.569,12.775,16.081,1.5081,5.3935,3.6457e+06,0.83549,1.5154,1.5423,1
8.7389,8.7557,30.505,-1.5063,32.012,-0.006571,0.32553,-1.2138e-05,0.055916,1.0416,8.8845,152.86,12.364,8.5293,11.869,1.0296,2.8897,2.7297e+05,0.018932,0.051255,0.046741,1
3.2306,3.0117,13.341,-0.28389,13.625,0.0016123,0.18836,9.2816e-05,0.049887,1.0141,3.2387,19.486,4.4143,3.1938,4.3531,1.4201,4.5524,2960.3,0.12246,0.23926,0.29763,1
4.6144,3.437,16.939,0.0034191,16.935,0.00013525,0.222,-1.9426e-05,0.041102,1.0203,4.6144,33.079,5.7514,4.5227,5.6371,1.4743,5.4228,7441.9,0.10047,0.22845,0.31915,1
1.4496,0.98526,4.7182,-0.023759,4.7419,-0.00088397,0.099602,2.4606e-05,0.037277,1.0026,1.4498,3.07,1.7521,1.446,1.7476,0.88127,3.6435,7.1526,0.06799,0.1045,0.099516,1
10.028,11.367,38.529,-0.059063,38.588,0.006736,0.43338,0.0011578,0.10518,1.0786,10.029,229.48,15.149,9.298,14.045,1.3463,3.3036,1.2991e+06,9.3742,9.6919,5.4079,1
5.6207,4.5229,14.734,-0.063691,14.798,-0.021241,0.25173,-0.00060939,0.10159,1.028,5.6214,52.002,7.2112,5.4684,7.015,0.58671,1.8957,4106.8,0.71008,3.6484,5.8584,1
4.6835,4.546,26.244,0.089496,26.154,0.048744,0.61182,-0.0028026,0.3452,1.1403,4.6835,42.555,6.5234,4.1072,5.7207,2.8629,11.997,94316,62.18,66.594,37.824,1
12.158,5.3175,26.733,0.1032,26.63,-0.034196,1.454,0.00011208,0.85017,1.6101,12.158,176.02,13.267,7.551,8.2401,0.44127,3.1216,13399,2.1002,9.4517,1.3567,1
10.379,6.3931,30.334,0.0023443,30.332,0.051844,2.1111,0.0030923,1.2257,1.9357,10.379,148.49,12.186,5.3616,6.2952,0.85363,3.2754,66393,17.274,10.706,5.8452,1
11.219,6.5021,30.592,-0.51062,31.103,-0.047893,1.2861,-0.0016613,0.74782,1.5123,11.222,168.05,12.963,7.4202,8.5717,0.72695,3.0545,57969,8.1437,9.7999,7.7107,1
8.2942,4.2002,21.289,0.24548,21.044,-0.004035,1.0587,0.0046914,0.6,1.4002,8.2942,86.395,9.2949,5.9234,6.6381,0.78042,3.3521,7658.3,13.803,9.5849,3.9553,1
33.5,11.843,66.56,0.18241,66.377,0.063698,5.6982,0.049116,3.3041,4.7029,33.5,1262.2,35.528,7.1234,7.5545,-0.16401,2.737,-2.3775e+05,209.74,222.28,152.89,1
34.832,13.54,74.942,3.2494,71.693,-0.011045,4.9107,0.0013505,2.8171,3.8872,34.832,1396.2,37.366,8.9608,9.6126,0.48142,3.2066,1.5011e+06,78.716,529.27,104.35,1
11.731,5.7796,26.408,0.67165,25.737,0.0068571,2.01,-0.01514,1.1027,1.9932,11.731,170.95,13.075,5.8855,6.5595,0.060819,2.1133,4967.9,36.53,8.7673,42.76,1
11.885,6.0194,30.089,0.063334,30.026,0.012704,2.6852,0.0014106,1.5157,2.6141,11.885,177.41,13.319,4.5465,5.0952,0.52646,2.7787,27909,21.479,19.925,26.346,1
3.9034,2.8025,11.604,0,11.604,0.01909,0.19272,-0.001158,0.061315,1.0156,3.9034,23.072,4.8034,3.8435,4.7297,1.255,3.6678,1317.8,6.7478,7.8809,5.9229,1
35.489,25.601,98.97,1.2264,97.743,0.11492,1.5593,-0.004068,0.25734,1.6417,35.489,1913.4,43.743,21.617,26.644,0.61021,2.3598,3.6517e+07,950.29,1050.5,708.16,1
38.903,33.753,122.66,-0.028529,122.69,-0.17177,2.0373,0.0060029,0.35556,1.8484,38.903,2650.1,51.479,21.047,27.85,0.83616,2.5751,1.9538e+08,24.043,20.162,15.916,1
36.394,27.068,95.834,0.055515,95.779,0.14198,2.1095,0.030163,0.37748,1.8342,36.394,2055.6,45.338,19.842,24.718,0.54717,2.0995,3.6078e+07,34.965,0.39091,0.58425,1
30.99,29.608,142.19,0.012029,142.18,-0.17324,1.9368,-0.031089,0.33841,1.7749,30.99,1835,42.837,17.46,24.135,1.8363,6.7504,4.9403e+08,5.1888,11.555,30.014,1
33.929,20.31,75.648,-0.49623,76.145,0.041009,1.4875,-0.00057798,0.25137,1.616,33.937,1562.7,39.531,21.001,24.463,0.20526,2.1579,3.3719e+06,80.449,126.47,116.6,1
27.317,23.873,84.527,0.19511,84.332,0.031653,2.3693,0.0070227,0.6048,2.0143,27.317,1314.9,36.261,13.562,18.002,0.90794,2.4936,3.3103e+07,144.96,431.93,577.58,1
16.839,10.233,53.498,0.18184,53.316,-0.034785,1.4105,0.00016579,0.4315,1.5733,16.839,388.02,19.698,10.703,12.521,0.8875,3.9078,1.0352e+06,23.5,32.426,22.513,1
44.015,33.91,121.54,1.5673,119.98,0.067828,2.4215,0.00012148,0.52542,2.162,44.015,3084.6,55.539,20.359,25.689,0.69669,2.3706,1.5134e+08,216.62,146.87,103.44,1
33.468,22.343,79.326,1.5545,77.771,-0.055214,2.1737,-0.0036919,0.59977,2.1013,33.468,1618.2,40.226,15.927,19.144,0.38816,1.8972,9.6191e+06,46.115,30.358,36.979,1
17.072,17.749,53.438,-0.39007,53.828,-0.018024,0.53718,0.00099691,0.085856,1.1181,17.086,605.78,24.613,15.282,22.013,0.90694,2.3029,6.4192e+06,0.0052911,0.0096282,0.01618,1
2.1784,1.0323,4.725,-0.26055,4.9855,0.0079781,0.12428,-0.00027133,0.056513,1.0054,2.182,5.8086,2.4101,2.1703,2.3972,0.049135,2.7538,0.39128,1.7655,1.744,1.3625,1
7.3424,5.5506,18.059,0.37516,17.683,0.011326,0.28465,0.0010937,0.053565,1.0344,7.3424,84.65,9.2005,7.098,8.8942,0.32006,1.6699,7005.3,9.1316,12.841,13.244,1
10.345,15.967,53.571,0.022287,53.549,-0.017555,0.56139,0.000777,0.069686,1.1068,10.345,361.38,19.01,9.3466,17.175,1.6263,4.0696,9.7104e+06,0.076485,0.11552,0.049081,1
2.921,3.196,12.299,0.016353,12.283,0.025971,0.19357,0.0017042,0.047202,1.0153,2.921,18.723,4.327,2.8768,4.2616,1.5177,4.3033,3454.6,4.9714,2.9505,3.5883,1
4.9581,5.8304,21.565,-0.0066636,21.572,-0.017123,0.17851,-0.002028,0.043085,1.013,4.9581,58.499,7.6485,4.8946,7.5504,1.7465,4.7679,79975,2.3329,2.854,2.4462,1
3.1054,2.2012,8.3093,-0.077059,8.3864,0.0027739,0.12865,0.0007053,0.047398,1.0059,3.106,14.478,3.805,3.0879,3.7828,0.5391,2.3034,158.57,0.11327,0.14311,0.037336,1
67.065,47.434,185.46,1.7024,183.75,0.053058,2.7097,0.0079716,0.61882,2.5262,67.065,6742.5,82.113,26.547,32.504,0.83707,2.7658,1.1211e+09,128.02,70.636,157.49,1
35.395,17.501,70.34,-0.15771,70.498,-0.058933,2.2829,0.0068355,0.56918,2.1939,35.396,1558.4,39.476,16.133,17.993,0.026702,2.1518,2.5806e+05,13.533,2.6961,9.4222,1
31.236,28.537,108.24,1.1369e-13,108.24,0.039567,1.9429,-0.006393,0.39691,1.8944,31.236,1788.2,42.287,16.488,22.322,1.128,3.1555,1.2155e+08,47.611,39.373,15.016,1
9.2343,5.6221,26.331,0.42071,25.91,-0.01284,0.47471,0.0011343,0.12481,1.0945,9.2343,116.81,10.808,8.4372,9.8749,0.78366,3.4196,37223,14.646,12.886,9.4328,1
18.21,20.731,78.965,0.0006928,78.965,-0.0091207,1.06,0.00020276,0.15444,1.2987,18.21,760.41,27.576,14.022,21.233,1.9034,5.4935,5.535e+07,4.9815,1.6664,0.029432,1
20.827,20.001,69.417,0.082507,69.334,-0.011356,1.3538,-0.00063196,0.28223,1.4715,20.827,832.92,28.86,14.154,19.613,1.1247,2.9913,1.8481e+07,1.7691,4.5298,7.442,1
21.286,14.954,58.989,-0.037924,59.027,0.099526,1.7065,0.0044266,0.36959,1.6858,21.286,676.22,26.004,12.627,15.425,0.67436,2.6411,2.8291e+06,95.096,45.32,59.876,1
8.0094,5.4092,24.174,0.021777,24.152,0.0011609,0.35832,-0.0015242,0.070137,1.0542,8.0094,93.345,9.6615,7.598,9.1652,0.77523,3.1476,27722,25.358,31.365,26.977,1
9.5435,5.7832,24.162,0.1913,23.971,-0.029712,0.38339,0.0013808,0.06743,1.0609,9.5435,124.45,11.156,8.9953,10.515,0.22699,2.3881,13182,0.014449,0.039112,0.14351,1
5.3817,5.0756,19.277,5.6843e-14,19.277,0.016413,0.32416,-0.0013855,0.073569,1.046,5.3817,54.666,7.3937,5.1453,7.0688,1.3128,3.7502,28324,6.1101,6.6086,3.2695,1
4.5188,4.7686,21.182,-0.22547,21.408,-0.015224,0.2687,0.00028142,0.05691,1.0307,4.5222,43.108,6.5656,4.3876,6.3703,1.8226,5.9259,42516,0.15139,0.13449,0.069871,1
21.263,18.118,79.496,0.026887,79.469,0.01572,1.4021,0.0056178,0.27744,1.4862,21.263,779.62,27.922,14.307,18.787,1.2407,4.2357,2.0901e+07,2.6356,1.4794,1.1681,1
10.88,8.3327,39.95,0.40954,39.541,-0.0040316,0.79286,-0.0070287,0.14676,1.1874,10.88,187.65,13.699,9.1628,11.536,1.5248,5.0699,5.5216e+05,9.7394,8.4593,6.5004,1
8.3346,9.94,41.258,-0.0051988,41.263,-0.018582,0.45097,-0.00030158,0.086597,1.0746,8.3346,168.04,12.963,7.7562,12.064,1.7511,5.4699,1.5068e+06,1.0585,1.252,2.0671,1
17.389,15.265,67.4,0.16675,67.233,0.13957,0.89367,-0.0017696,0.16687,1.2626,17.389,534.86,23.127,13.772,18.317,1.469,4.6693,1.0077e+07,438.31,485.76,330.75,1
8.1548,10.096,62.432,0.020618,62.412,-0.14036,0.49255,0.0035579,0.084233,1.1016,8.1548,168.21,12.969,7.4026,11.773,3.3446,15.041,7.1898e+06,0.0047705,0.049224,0.34526,1
1.8907,1.5222,6.2198,0.060391,6.1595,0.0078287,0.12022,0.0027657,0.031964,1.0046,1.8907,5.8865,2.4262,1.882,2.4151,1.1858,3.6263,64.894,0.33249,0.20318,0.10785,1
5.9468,5.5868,20.254,0.32995,19.925,-0.010082,0.19037,-0.0018255,0.046526,1.0149,5.9468,66.507,8.1552,5.8593,8.0351,1.2483,3.3904,37553,0.14219,0.16576,0.22841,1
3.079,4.8245,21.804,0.024991,21.779,0.044752,0.18604,-0.00034244,0.045921,1.0139,3.079,32.704,5.7187,3.0367,5.6401,2.9916,11.13,1.0688e+05,45.394,51.869,45.116,1
10.161,9.9513,33.628,0.032,33.596,-0.014606,0.35937,0.00033684,0.06713,1.0502,10.161,202.05,14.214,9.675,13.535,0.75718,2.4449,4.094e+05,19.94,24.208,22.642,1
10.761,6.5095,25.783,0.076271,25.707,0.030001,0.38538,0.00023498,0.082389,1.0656,10.761,158.08,12.573,10.099,11.799,0.53636,2.6423,35545,18.419,16.894,8.0475,1
20.646,14.564,49.583,-0.8305,50.413,-0.018343,0.89231,-0.0015235,0.14419,1.2458,20.665,637.88,25.256,16.588,20.274,0.34898,2.068,1.1154e+06,14.231,19.656,17.383,1
23.655,25.804,111.18,0,111.18,0.017003,1.4651,-0.0018589,0.31429,1.585,23.655,1223.9,34.984,14.925,22.072,2.0559,6.5446,2.2048e+08,4.1502,20.231,27.822,1
9.9779,8.197,39.348,-0.89123,40.239,-0.0074148,0.8067,0.0015612,0.26438,1.2337,9.9899,166.6,12.907,8.0978,10.463,1.3181,4.5217,4.5446e+05,2.2956,3.0016,6.4442,1
11.26,8.5356,51.203,0.019824,51.184,0.10682,0.97689,0.0069841,0.20936,1.2924,11.26,199.48,14.124,8.7129,10.929,1.4487,5.5527,7.9476e+05,103.21,36.921,2.9183,1
24.639,20.732,77.401,0.12207,77.279,-0.077318,1.1885,-0.0073478,0.29722,1.443,24.639,1035.9,32.185,17.074,22.304,0.83336,2.5453,1.6227e+07,60.925,109.48,116.94,1
13.218,8.1414,34.588,0.049216,34.539,-0.011541,0.74757,-0.001667,0.22474,1.2071,13.218,240.86,15.52,10.951,12.857,0.8403,3.2997,1.9996e+05,14.481,24.571,29.043,1
19.126,21.537,82.505,0.018855,82.486,-0.033015,1.0045,0.0035087,0.14839,1.2894,19.126,828.62,28.786,14.833,22.325,1.4318,4.0008,4.3566e+07,0.064953,0.55569,1.5736,1
8.8928,8.2165,30.487,-0.2219,30.708,0.05359,0.50303,-0.0025163,0.092987,1.0966,8.8958,146.44,12.101,8.112,11.035,1.0426,3.061,2.1864e+05,65.255,49.07,10.894,1
28.837,25.064,97.905,0.049701,97.855,-0.091174,1.2621,-0.016582,0.2434,1.4281,28.837,1458.4,38.188,20.192,26.74,0.97217,2.9029,5.5726e+07,10.535,4.3233,2.234,1
26.331,18.587,79.247,0.136,79.111,-0.027013,1.1889,-0.001221,0.25227,1.4004,26.331,1038,32.218,18.802,23.006,0.76565,3.1097,1.3237e+07,2.4067,4.3846,4.3934,1
40.883,33.073,139.1,2.092,137.01,0.019103,1.5496,-0.0011284,0.2093,1.6185,40.883,2762.8,52.562,25.26,32.477,1.2573,4.1679,3.8698e+08,25.473,36.247,29.399,1
21.957,18.144,69.372,-0.63263,70.005,-0.0020914,1.3492,1.3115e-05,0.24931,1.4112,21.964,810.57,28.47,15.564,20.175,1.1678,3.2833,1.2896e+07,13.095,13.918,8.6174,1
16.327,11.646,38.4,-0.00044529,38.4,0.067008,0.74349,-0.010537,0.238,1.2052,16.327,401.9,20.047,13.547,16.634,0.52906,1.7829,4.0038e+05,107.34,138.19,118.22,1
37.113,47.753,171.91,1.277,170.63,-0.039525,1.7084,0.00039022,0.42152,1.7413,37.113,3652.6,60.436,21.313,34.707,1.716,4.5609,2.8031e+09,11.127,13.789,16.515,1
16.946,14.486,55.316,0.18722,55.129,-0.021944,0.69878,0.0021783,0.25221,1.1907,16.946,496.52,22.283,14.231,18.713,1.21,3.5205,4.6554e+06,0.96547,6.8089,5.1671,1
6.4168,6.0382,30.045,-2.7594,32.804,0.062895,0.37632,0.0016768,0.15909,1.0643,6.5252,77.552,8.8064,6.1308,8.2741,1.8838,7.0211,1.8042e+05,82.209,82.489,49.889,1
19.714,10.337,41.973,0.062866,41.91,0.044842,0.6183,-0.00083027,0.13031,1.1571,19.714,495.24,22.254,17.038,19.233,0.034844,2.2353,48893,68.087,94.23,68.013,1
8.424,4.9354,20.633,0.83962,19.794,-0.01504,0.35451,0.00021295,0.085634,1.054,8.424,95.267,9.7605,7.9925,9.2605,0.48291,2.433,8686.6,0.47161,0.86985,0.9376,1
8.6805,9.2177,32.096,0.24989,31.846,0.033202,0.40035,-0.0014012,0.08178,1.0621,8.6805,160.12,12.654,8.1732,11.915,1.6256,4.2812,6.5231e+05,42.567,60.575,68.069,1
10.654,6.102,24.748,0.0029066,24.745,-0.012955,0.36893,0.0014003,0.097655,1.0585,10.654,150.65,12.274,10.065,11.596,0.40524,2.4569,17968,15.307,16.22,16.08,1
15.34,8.7774,36.982,0.78896,36.193,-0.01139,0.45716,-0.00066826,0.10293,1.0861,15.34,312.18,17.669,14.123,16.268,0.51074,2.6682,1.4952e+05,6.4657,7.1024,7.8124,1
6.267,4.9692,22.447,0.0025695,22.444,0.0063636,0.41021,0.0013659,0.11496,1.0725,6.267,63.912,7.9945,5.8431,7.4538,1.3318,4.2568,31638,5.3282,3.56,1.1457,1
1.9516,0.99384,4.0123,0.049671,3.9627,0.0020091,0.085353,-0.0002408,0.0359,1.0013,1.9516,4.794,2.1895,1.9489,2.1866,0.30906,2.0304,1.1862,0.35654,0.37203,0.41766,1
1.5244,0.55898,2.778,0.28638,2.4916,-0.0026533,0.078842,0.00016238,0.035103,1.0008,1.5244,2.6355,1.6234,1.5232,1.6221,-0.24244,2.17,-0.055943,0.089269,0.17011,0.21505,1
1.5976,0.56966,2.7028,-0.019585,2.7223,0.0013922,0.071466,-0.00037797,0.030461,1.0003,1.5978,2.8762,1.6959,1.5974,1.6955,-0.49237,3.0656,-0.22471,0.47658,0.40142,0.40928,1
1.8393,1.0783,3.863,0.015901,3.8471,-0.0026195,0.08565,0.00032088,0.034899,1.0014,1.8393,4.5432,2.1315,1.8368,2.1286,0.063005,1.7375,0.41218,0.047166,0.025924,0.032593,1
2.6248,2.6781,12.915,0.027012,12.888,-0.0050955,0.17627,0.00030303,0.042373,1.0127,2.6248,14.046,3.7477,2.5919,3.7008,2.2207,7.8735,3633.7,0.41763,0.12864,0.078734,1
4.7223,4.8848,26.072,-0.044337,26.117,0.05319,0.26489,0.00019583,0.046182,1.0311,4.7227,46.108,6.7903,4.5803,6.5854,2.0293,7.8492,79528,55.477,48.349,31.282,1
1.1009,0.59322,2.9901,0.041829,2.9483,-0.0021236,0.073852,-0.0007631,0.02821,1.0004,1.1009,1.5631,1.2502,1.1004,1.2497,1.1221,4.3096,0.74168,0.048041,0.06144,0.018746,1
1.717,1.2241,4.4425,-0.012088,4.4546,0.0059203,0.081012,3.7146e-05,0.028691,1.001,1.7171,4.4431,2.1079,1.7153,2.1058,0.64022,2.1896,7.8722,0.64962,0.70013,0.8205,1
14.517,18.061,62.105,0.063696,62.041,-0.021703,0.59421,-0.00052992,0.09039,1.127,14.517,536.18,23.156,12.881,20.547,1.4719,3.8127,1.658e+07,2.7629,5.1498,6.8835,1
22.408,23.012,80.986,-3.7031e-06,80.986,-0.0047374,0.99776,0.0016426,0.11644,1.3026,22.408,1030.5,32.101,17.202,24.644,1.0359,2.9267,3.7169e+07,0.14872,0.058204,0.38648,1
8.3292,6.4657,24.81,0.29439,24.515,-0.0035573,0.33077,0.00071265,0.097822,1.0475,8.3292,111.09,10.54,7.9511,10.061,1.0498,3.0841,68385,0.075054,0.34482,0.24788,1
5.1974,3.6675,14.366,0.30839,14.057,0.0067008,0.29316,-0.00092532,0.10932,1.0378,5.1974,40.433,6.3587,5.0079,6.1268,0.78311,2.8223,3190.6,2.2103,1.9795,1.1592,1
6.105,6.6018,26.919,-0.0068033,26.926,-0.00089625,0.3388,-0.00052842,0.079276,1.0483,6.105,80.756,8.9864,5.8235,8.5721,1.8787,5.7369,1.9879e+05,2.6096,5.7536,5.7684,1
7.1715,5.4529,22.119,-0.054008,22.173,0.02828,0.44359,0.00033826,0.094969,1.0823,7.1719,81.097,9.0054,6.6268,8.321,0.75238,2.7882,22663,11.943,13.535,12.789,1
7.8,4.5268,21.109,0.22148,20.888,-0.027188,0.30881,-0.00085811,0.067536,1.0402,7.8,81.286,9.0159,7.4985,8.6673,0.94086,3.6966,13869,0.44626,0.57202,0.44699,1
11.205,9.9926,37.204,-0.13456,37.338,0.075623,0.59488,-0.00099762,0.096134,1.1333,11.207,225.17,15.006,9.8886,13.241,0.91779,2.7599,4.9818e+05,131.93,152.66,111.83,1
16.23,11.545,44.334,0.21008,44.124,-0.073311,0.57322,0.0012359,0.091862,1.1311,16.23,396.39,19.91,14.349,17.602,0.50107,2.188,5.5464e+05,0.077856,0.26198,0.54139,1
3.137,3.7562,12.112,0.044096,12.067,-0.017977,0.12662,-3.7708e-05,0.021218,1.0057,3.137,23.918,4.8906,3.1192,4.8628,1.2062,3.0371,4516.8,0.1229,0.076252,0.037897,1
3.8297,3.6729,14.979,-0.018459,14.997,0.0023381,0.21907,-0.00083393,0.069623,1.0201,3.8298,28.126,5.3034,3.7544,5.199,1.74,5.0771,8774.9,0.30488,0.86186,0.82888,1
1.5283,0.77398,3.5092,0.0067665,3.5025,-0.0044997,0.15256,-0.00022494,0.06984,1.0091,1.5283,2.9335,1.7128,1.5145,1.6972,0.31947,2.4129,0.51188,0.17336,0.29132,0.12181,1
9.604,8.3462,36.117,-0.15289,36.27,-0.020655,0.40533,0.0017278,0.084718,1.0682,9.6066,161.74,12.718,8.9934,11.906,1.3894,4.5483,4.7882e+05,15.547,23.959,24.925,1
7.5566,4.9268,21.275,-0.14874,21.424,-0.013125,0.30473,0.00062437,0.060478,1.0388,7.5578,81.32,9.0178,7.2755,8.6809,0.87215,3.5819,19761,3.5872,5.9923,6.1173,1
4.6917,3.1401,12.798,0.203,12.595,0.010852,0.15469,-0.00022209,0.040534,1.0093,4.6917,31.85,5.6436,4.6484,5.5916,0.69445,2.478,1166.6,8.4508,9.295,7.3859,1
2.6814,1.8013,9.319,0.13556,9.1835,-0.019678,0.086993,0.00064279,0.036744,1.0017,2.6814,10.427,3.2291,2.6769,3.2237,1.4601,5.2031,264.43,0.0095767,0.039571,0.078491,1
4.2288,2.9229,10.504,0.0015832,10.503,0.00054268,0.11797,-0.00033447,0.030998,1.0046,4.2288,26.407,5.1387,4.2096,5.1154,0.8425,2.4779,747.68,0.069746,0.084315,0.1075,1
19.654,12.852,48.916,-0.00022852,48.916,0.071281,0.92226,0.0029004,0.17914,1.3008,19.654,551.07,23.475,15.109,18.046,0.22363,2.2394,5.6354e+05,203.82,260.39,232.23,1
17.153,9.4652,39.364,-0.49463,39.859,-0.053714,0.81383,0.0047725,0.17833,1.2549,17.168,383.61,19.586,13.681,15.607,0.12276,2.4305,57355,13.904,17.575,15.833,1
12.428,7.5103,45.902,1.1756,44.727,0.068574,0.77836,-0.0011295,0.17592,1.1914,12.428,210.73,14.516,10.432,12.185,1.2028,6.221,5.1937e+05,163.96,79.111,8.5861,1
15.28,8.4772,45.955,3.4106e-13,45.955,-0.069608,0.63282,-0.00061176,0.13217,1.1491,15.28,305.18,17.469,13.297,15.202,1.2733,5.1114,6.1839e+05,32.618,46.27,35.726,1
13.349,13.475,49.578,0.0026509,49.575,-0.021307,0.86463,0.00070684,0.15606,1.2323,13.349,359.36,18.957,10.833,15.384,1.2401,3.2571,2.9675e+06,2.6089,1.1935,0.2296,1
8.3527,5.3841,21.564,0.090654,21.474,0.0042157,0.3791,-0.0022542,0.15996,1.062,8.3527,98.689,9.9343,7.8653,9.3546,0.93278,3.0055,22448,1.3291,2.7994,1.0432,1
8.379,3.064,16.717,-2.2737e-13,16.717,-0.0016324,0.8338,-0.002423,0.44871,1.2527,8.379,79.574,8.9204,6.689,7.1212,0.11416,2.8575,65.223,5.5601,4.6724,6.0494,1
2.5219,1.2769,5.4774,2.8422e-13,5.4774,-0.00036979,0.19172,-0.0014052,0.088893,1.0155,2.5219,7.987,2.8261,2.4833,2.7829,0.017908,2.1043,0.72947,0.28938,0.34851,0.474,1
2.0281,1.2371,5.5592,-0.093067,5.6523,0.0013323,0.1744,0.00052262,0.077261,1.0125,2.0286,5.6399,2.3748,2.0037,2.3456,0.63232,2.4573,10.354,0.74753,1.1303,0.64695,1
1.6282,0.70829,3.9219,0.1897,3.7322,-0.00090008,0.16324,-0.0005485,0.076539,1.0107,1.6282,3.1515,1.7752,1.6109,1.7565,0.56979,2.9171,0.75993,0.72867,0.44351,1.4471,1
2.1055,1.0767,6.3404,0.0016061,6.3388,0.005705,0.19422,-0.00030484,0.088852,1.016,2.1055,5.5896,2.3642,2.0723,2.3271,1.4493,5.3669,21.477,2.8146,1.5983,1.1189,1
2.2647,1.0649,4.7746,0.013096,4.7615,-0.0016486,0.1901,0.0011423,0.091437,1.0152,2.2647,6.2603,2.5021,2.2308,2.4646,0.22845,2.5794,1.7514,0.59608,0.63511,0.33224,1
35.619,27.408,123.94,-0.43835,124.38,0.19417,1.7315,0.00092811,0.40455,1.7024,35.622,2018.2,44.924,20.925,26.389,1.1869,4.0507,1.5161e+08,1450.7,1437.5,1033.6,1
66.771,42.689,168.32,0.009981,168.31,-0.2583,4.2529,-0.0074632,1.5461,2.9294,66.771,6276.6,79.225,22.794,27.045,0.44134,2.3847,3.8052e+08,65.112,21.143,122.25,1
23.708,18.355,102.47,0.018082,102.45,0.21602,2.4905,0.012346,0.91367,2.1187,23.708,898.21,29.97,11.19,14.146,1.3296,4.5494,2.7334e+07,418.81,49.387,0.79598,1
48.639,29.583,123.27,0.92274,122.35,-0.19232,3.7127,-0.0081988,1.3997,2.9919,48.639,3238.9,56.911,16.257,19.022,0.66854,2.2621,6.9471e+07,88.989,272.8,424.89,1
38.49,27.714,116.55,0.73706,115.82,0.072568,2.9941,0.0080385,1.0989,2.6197,38.49,2247.8,47.411,14.692,18.098,0.77947,2.6695,7.32e+07,286.08,261.14,353.19,1
4.0505,2.5029,11.128,0.48193,10.646,-0.019362,0.21166,0.00085863,0.099346,1.0194,4.0505,22.657,4.7599,3.9736,4.6695,0.66526,2.5435,402.76,0.16398,0.25278,0.2963,1
3.341,2.6427,18.881,-0.05122,18.933,0.034799,0.28378,0.0047923,0.044559,1.0265,3.3414,18.13,4.2579,3.2553,4.1481,1.6245,7.0888,3948.4,6.4267,0.80971,0.0075705,1
8.771,12.954,43.233,0.052652,43.18,-0.038668,0.34166,-0.0045195,0.049219,1.0443,8.771,244.37,15.632,8.3987,14.969,1.5732,3.9749,3.3307e+06,0.19595,0.14861,0.14537,1
1.7755,0.88518,3.4607,0.015085,3.4456,-0.0019658,0.09259,-0.00041346,0.041069,1.002,1.7755,3.9341,1.9835,1.772,1.9795,0.19359,2.2578,0.26861,0.30679,0.42988,0.1689,1
2.9493,3.233,15.832,-0.038022,15.871,0.033704,0.1488,0.00046833,0.044801,1.0089,2.9495,19.127,4.3735,2.9234,4.3347,2.8478,10.814,13974,22.499,26.883,22.416,1
19.925,12.44,58.267,-0.022493,58.289,0.025606,1.0632,-0.0050975,0.36852,1.3161,19.925,551.4,23.482,15.139,17.842,0.90459,3.5812,2.2334e+06,4.3143,3.2109,6.9131,1
12.78,10.044,36.928,-0.072074,37,-0.00055782,0.72014,-0.006656,0.29279,1.1923,12.781,264,16.248,10.719,13.628,0.63137,2.1653,3.1389e+05,19.033,23.178,27.535,1
8.0706,6.7023,29.472,-0.75402,30.226,-0.0099447,0.86003,0.0011216,0.49368,1.2702,8.0772,109.95,10.486,6.3591,8.2554,1.2236,4.0133,1.3151e+05,1.7717,9.4052,2.1866,1
14.928,13.253,51.032,-0.26733,51.3,-0.010369,0.87056,0.0019483,0.31293,1.2314,14.93,398.08,19.952,12.124,16.202,1.2262,3.352,2.8368e+06,0.71575,0.59162,0.79065,1
6.2902,3.421,16.072,1.1369e-13,16.072,0.018624,0.40021,-0.0023592,0.13839,1.0688,6.2902,51.243,7.1584,5.8855,6.6978,0.65789,3.0352,1983.6,5.6619,7.8638,7.9832,1
3.4648,2.0142,11.277,0.10218,11.175,-0.013021,0.26459,0.0003356,0.1194,1.0308,3.4648,16.053,4.0066,3.3613,3.8869,1.5311,6.2964,650.25,0.48722,0.18848,0.25778,1
6.4345,5.9001,27.289,-0.0069543,27.296,4.3911e-05,0.772,-0.0005039,0.33804,1.1403,6.4345,76.135,8.7255,5.6426,7.6517,1.5429,4.6717,86993,0.61274,1.334,1.0884,1
5.6741,4.3127,18.885,0.11527,18.77,0.0070831,0.33876,0.00064001,0.12682,1.0485,5.6741,50.753,7.1241,5.4116,6.7945,1.4695,4.3987,16095,1.6886,4.9929,3.8096,1
21.88,20.827,81.021,0.14073,80.88,0.014445,0.81287,-0.00057066,0.078264,1.2089,21.88,911.53,30.192,18.099,24.974,1.4237,4.0931,3.7146e+07,9.9925,12.73,11.763,1
1.9545,2.0529,9.1851,-0.45706,9.6422,-0.010278,0.10709,0.0007873,0.033367,1.0034,1.9805,8.025,2.8328,1.9737,2.8232,1.4823,4.4719,424.48,2.2757,3.2153,3.4436,1
11.727,15.366,60.011,0.43551,59.576,-0.00761,0.71244,-0.00055873,0.083332,1.1567,11.727,373.1,19.316,10.139,16.699,1.93,5.5907,1.3078e+07,0.70614,1.0634,1.8179,1
6.7338,10.712,44.457,2.1896e-06,44.457,0.0079357,0.56091,7.8406e-05,0.088474,1.0913,6.7338,159.84,12.643,6.1705,11.585,2.2762,7.1122,3.0814e+06,2.1223,2.7,3.2809,1
20.447,22.383,80.619,0.37969,80.239,-0.027697,0.7519,-0.0012074,0.10512,1.2019,20.447,917.95,30.298,17.013,25.209,1.504,4.1317,5.3911e+07,0.27347,0.16254,0.03981,1
4.6262,3.8912,12.667,-0.64071,13.307,0.0053683,0.21662,0.00061042,0.074251,1.0201,4.6544,36.509,6.0422,4.5626,5.9231,0.53445,1.878,1888.8,0.41863,1.62,2.5668,1
25.43,17.527,64.955,0.50046,64.455,0.014187,0.90494,-1.3419e-05,0.14586,1.2898,25.43,953.16,30.873,19.716,23.936,0.49915,2.1593,3.9443e+06,8.672,15.73,17.627,1
13.325,14.354,50.334,1.185,49.149,0.042802,0.60444,-0.0017342,0.12252,1.1375,13.325,383.15,19.574,11.715,17.209,1.2871,3.3661,4.4243e+06,94.206,107.57,101.1,1
55.112,35.612,136.98,1.7079,135.27,0.17863,3.9313,0.0079654,1.5792,2.8615,55.112,4302.6,65.594,19.26,22.923,0.34212,1.992,1.0474e+08,566.44,655.03,265.93,1
69.888,36.479,167.8,5.6987,162.1,-0.1358,5.478,-0.0046871,2.2704,3.8337,69.888,6212,78.816,18.23,20.559,0.68462,2.7054,2.6949e+08,132.83,141.83,69.086,1
33.704,55.622,301.65,-0.010112,301.66,0.52703,5.0141,-0.063041,1.9509,2.7784,33.704,4222.7,64.982,12.131,23.388,3.4889,14.159,3.0694e+10,8736,7147.3,5342.9,1
44.92,28.256,231.37,-0.053195,231.42,-0.38739,6.4438,0.077592,3.1822,4.7271,44.92,2814.4,53.051,9.5028,11.223,1.9918,10.433,9.5058e+08,66.105,773.43,301.47,1
30.194,12.298,64.542,2.3388,62.203,-0.05094,4.9792,0.0043549,2.9334,4.3363,30.194,1062.6,32.597,6.963,7.5172,0.45135,2.9695,8.6083e+05,29.048,56.454,96.267,1
21.202,9.1807,47.348,0.46753,46.88,-0.038411,2.76,0.0025504,1.5733,2.4364,21.202,533.61,23.1,8.7022,9.4814,-0.12527,2.5059,-627.04,6.7627,51.35,24.543,1
7.184,6.9287,27.559,0.22922,27.33,-0.019074,0.27713,-0.0030352,0.072904,1.0325,7.184,99.507,9.9753,6.9577,9.6612,1.0948,3.2129,1.1288e+05,20.014,26.316,22.173,1
3.4356,2.945,14.064,0.57211,13.492,-0.029199,0.12991,-6.9339e-05,0.052704,1.0064,3.4356,20.456,4.5229,3.4135,4.4939,2.156,6.9145,4690.1,0.032575,0.14534,0.24709,1
2.0935,1.2995,4.9904,0.00097525,4.9894,0.00011941,0.10736,9.8175e-06,0.04084,1.0034,2.0935,6.0679,2.4633,2.0864,2.4549,0.43085,2.0596,7.1396,0.12488,0.20619,0.24123,1
1.5662,0.64071,2.9006,0.0063408,2.8943,-0.0002533,0.069998,-1.4664e-05,0.030091,1.0002,1.5662,2.8625,1.6919,1.5659,1.6916,-0.11845,2.3051,-0.10491,0.064641,0.029229,0.06628,1
23.707,21.092,70.063,-0.067106,70.13,-0.00065696,0.92646,0.0012912,0.11446,1.2693,23.707,1005.9,31.715,18.677,24.986,0.64803,2.0619,1.1335e+07,0.72236,0.049384,0.022613,1
8.8646,5.2039,21.388,0.00054059,21.387,-0.0064093,0.30075,-0.0011793,0.070685,1.04,8.8646,105.6,10.276,8.5239,9.8813,0.77661,2.4775,13032,1.1956,1.9159,2.845,1
29.036,20.598,74.623,0.0063231,74.617,0.056661,1.056,0.00024366,0.16363,1.346,29.036,1266.4,35.587,21.572,26.438,0.41122,2.052,7.7175e+06,64.821,60.536,40.825,1
9.718,8.2527,31.62,-0.00063954,31.621,0.054753,0.64744,-0.0073264,0.17569,1.1483,9.718,162.39,12.743,8.4631,11.098,1.1299,3.1806,2.4599e+05,51.001,55.636,61.318,1
10.139,8.5829,33.775,-0.17485,33.95,-0.045199,0.51474,0.0023074,0.13301,1.1045,10.142,176.31,13.278,9.182,12.022,1.1045,3.5558,3.5626e+05,0.6702,0.85217,0.51214,1
6.7719,5.5438,26.094,0.080356,26.013,0.031467,0.39097,-0.0013427,0.10491,1.0605,6.7719,76.522,8.7477,6.3852,8.2482,1.4559,4.7975,68206,25.317,16.684,11.957,1
11.276,8.6467,31.908,0.091804,31.816,-0.039905,0.56786,-0.00039412,0.21123,1.133,11.276,201.75,14.204,9.9524,12.536,0.72037,2.2082,1.5259e+05,0.28603,0.23553,0.11272,1
5.0343,3.958,16.109,0.29656,15.812,0.013683,0.29719,-0.00017682,0.10093,1.0382,5.0343,40.974,6.4011,4.8491,6.1657,1.1494,3.63,7544.5,4.8132,5.1928,6.649,1
60.17,43.371,184.37,4.5475e-13,184.37,0.088162,4.0793,-0.024237,0.9691,3.3217,60.17,5497.3,74.144,18.114,22.321,0.60611,2.5858,6.3817e+08,214.7,368.76,389.7,1
46.316,39.515,187.59,0.065611,187.52,-0.012976,3.0966,-0.00064203,0.6296,2.4889,46.316,3703.1,60.853,18.609,24.45,1.5578,5.2449,1.4738e+09,125.28,132.86,70.516,1
9.994,8.9499,45.037,0.0019261,45.035,0.0095884,0.9418,-0.0042739,0.32189,1.2469,9.994,179.8,13.409,8.0149,10.754,2.1403,7.771,1.5013e+06,11.356,18.638,27.525,1
2.6749,2.3153,10.429,0.040668,10.388,-0.016206,0.38067,-0.00043698,0.17571,1.0614,2.6749,12.504,3.536,2.5202,3.3315,1.7024,5.3187,960.47,2.8704,0.85323,0.46676,1
4.3945,3.1623,15.088,0.029866,15.059,0.021234,0.26569,0.0014221,0.093572,1.0293,4.3945,29.289,5.4119,4.2693,5.2577,1.8711,6.7082,6255.8,17.349,21.758,20.777,1
5.0992,3.8047,15.208,0.045318,15.163,-0.014332,0.32164,-0.0011526,0.10703,1.0458,5.0992,40.445,6.3596,4.876,6.0813,0.86506,2.9537,4376.8,5.8244,8.158,5.9971,1
2.9551,1.7462,7.3177,0.05206,7.2656,-0.013483,0.31924,0.00055727,0.13866,1.0447,2.9551,11.775,3.4314,2.8285,3.2845,0.604,2.6826,56.78,0.0038205,0.085354,0.11884,1
9.1885,7.9079,33.459,0.030688,33.428,-0.014813,0.59531,0.0095682,0.24112,1.1302,9.1885,146.82,12.117,8.1301,10.721,1.0318,3.2601,2.1502e+05,2.5242,4.2861,3.4725,1
5.6318,5.3645,20.365,0.0014261,20.364,-0.010515,0.42848,-1.7227e-05,0.19209,1.0779,5.6318,60.429,7.7736,5.2245,7.2115,1.222,3.64,35446,0.0095178,0.88613,1.2456,1
3.6211,2.949,13.194,0.002,13.192,0.02443,0.30859,-0.0020859,0.14169,1.0418,3.6211,21.789,4.6679,3.4757,4.4805,1.4666,4.7675,2729,15.706,13.418,12.928,1
6.8477,5.3102,23.738,-0.023338,23.761,-0.0056927,0.39425,0.0013232,0.14406,1.0663,6.8478,75.025,8.6617,6.4221,8.1232,1.0502,3.788,34929,12.75,17.332,19.42,1
6.7494,3.3716,15.266,0.062569,15.203,-0.00027044,0.50024,8.8856e-05,0.18441,1.1036,6.7494,56.896,7.543,6.1159,6.835,-0.039503,2.4611,214.08,7.3803,5.7772,4.6015,1
17.168,11.605,51.897,1.6907,50.207,-0.069895,0.83684,0.0035412,0.18183,1.2527,17.168,429.11,20.715,13.705,16.536,1.0416,3.6545,1.6265e+06,0.82001,0.35495,0.73088,1
16.898,14.296,50.396,0.35909,50.037,0.0047929,0.9076,-0.0015519,0.15872,1.2403,16.898,489.47,22.124,13.624,17.838,0.91309,2.425,2.3967e+06,7.1551,9.6983,8.9685,1
14.857,12.354,52.84,0.47162,52.369,0.058461,0.68974,-0.0013635,0.13314,1.1721,14.857,373.01,19.313,12.676,16.478,1.2908,4.1734,2.9536e+06,127.7,174.31,172.46,1
35.534,40.293,149.75,-0.16229,149.91,0.19127,1.2083,0.0026303,0.18827,1.3698,35.535,2882.5,53.689,25.941,39.194,1.6113,4.5028,1.149e+09,1276.3,1792,1731.9,1
30.199,31.81,117.6,-2.1866,119.78,-0.26247,1.913,-0.0010593,0.3363,1.7157,30.255,1921.6,43.836,17.634,25.55,1.1685,3.4195,2.4036e+08,0.22206,0.34471,0.39046,1
2.0762,2.3195,8.4204,0.013751,8.4066,-0.0026468,0.084223,0.00058161,0.024382,1.0012,2.0762,9.6784,3.111,2.0736,3.1072,1.4954,3.9621,613.22,0.01308,0.094894,0.074264,1
0.85361,0.61864,2.5432,0.0087966,2.5344,0.0012631,0.051182,-0.000492,0.020722,0.99903,0.85361,1.1105,1.0538,0.85444,1.0548,0.93099,2.8453,0.44967,0.18832,0.16343,0.10575,1
19.191,28.466,105.67,5.6843e-14,105.67,0.0078202,1.2896,-0.0021452,0.23243,1.3303,19.191,1176.8,34.304,14.426,25.786,1.8562,5.1221,2.5203e+08,0.34366,0.13695,0.20866,1
10.76,11.772,47.848,-0.17618,48.024,0.02907,0.64996,-0.0004893,0.11859,1.116,10.763,254.04,15.938,9.6445,14.282,1.4511,4.1341,2.3203e+06,23.745,24.055,20.937,1
12.596,8.3846,33.19,0.33708,32.853,-0.026338,0.45387,0.00049719,0.089448,1.079,12.596,228.81,15.126,11.674,14.019,0.51582,2.3411,1.2848e+05,2.1423,3.0915,2.4968,1
3.8421,3.6981,15.472,0.20774,15.264,-0.0021422,0.19923,-0.00069151,0.041482,1.0163,3.8421,28.407,5.3298,3.7804,5.2442,1.7116,5.1415,9429.2,1.9697,2.8915,3.0036,1
2.2334,1.6272,5.1812,0.12623,5.0549,-0.006871,0.077605,0.00026929,0.028758,1.0007,2.2334,7.6298,2.7622,2.2317,2.7602,0.47533,1.6837,18.518,0.033304,0.017339,0.026989,1
19.756,15.762,63.964,0.39028,63.574,-0.018174,1.0819,0.0011224,0.24795,1.3666,19.756,638.17,25.262,14.456,18.485,1.0045,3.1717,6.087e+06,0.44426,1.6577,1.5842,1
20.015,12.308,52.828,0.19258,52.635,-0.010497,1.2197,0.00035639,0.36124,1.4225,20.015,551.74,23.489,14.07,16.512,0.59122,2.791,1.1179e+06,1.6798,2.563,4.8181,1
6.6811,3.65,18.175,-0.41804,18.593,0.016884,0.5425,0.00016383,0.23112,1.1234,6.6848,57.93,7.6112,5.9503,6.7749,0.68284,3.0851,3367.3,13.741,14.577,11.879,1
10.226,7.0745,25.544,0.17025,25.374,-0.028161,0.6783,-0.0052852,0.36198,1.1846,10.226,154.51,12.43,8.6327,10.493,0.54631,1.8587,36727,11.627,20.428,15.161,1
20.316,29.974,97.397,0.32966,97.068,-0.011269,0.98272,0.0015062,0.096075,1.2485,20.316,1309.1,36.182,16.273,28.981,1.5591,3.8725,2.1064e+08,1.0873,1.3563,1.124,1
14.801,15.357,59.239,-5.6843e-14,59.239,0.037533,0.72256,-0.0028008,0.11268,1.1938,14.801,454.38,21.316,12.399,17.856,1.6301,4.6438,9.8086e+06,63.662,82.324,60.752,1
21.404,11.425,55.321,0.90614,54.415,0.018203,1.2441,0.0013043,0.52463,1.4795,21.404,588.35,24.256,14.467,16.395,0.90166,3.8129,1.3859e+06,50.358,42.925,53.569,1
14.018,8.4355,40.335,0.17211,40.163,-0.020171,1.3599,-0.0043266,0.61366,1.5325,14.018,267.51,16.356,9.1477,10.673,0.63722,2.9296,1.9514e+05,18.46,23.135,22.985,1
4.4935,2.3067,10.252,0.077966,10.174,-0.012804,0.64744,-0.0014342,0.33113,1.1709,4.4935,25.5,5.0498,3.8375,4.3126,0.38551,2.376,132.28,3.286,1.8631,7.3041,1
17.653,20.204,81.742,-0.016154,81.758,0.16428,1.1801,-0.0043325,0.27615,1.4161,17.653,718.9,26.812,12.465,18.933,1.4206,4.2033,3.6642e+07,635.94,735.33,454.56,1
21.882,16.881,78.946,0.075748,78.871,-0.14863,1.6633,-0.0022965,0.62362,1.6371,21.882,763.16,27.625,13.366,16.874,1.5375,5.1519,1.9074e+07,9.6867,2.0905,10.62,1
21.109,11.788,48.732,-0.2626,48.994,0.057922,1.3446,0.012236,0.45314,1.4821,21.111,584.24,24.171,14.244,16.309,0.14508,1.9087,1.9693e+05,97.659,116.97,136.68,1
10.252,12.013,58.157,-0.96525,59.122,-0.08269,0.82164,-0.0088058,0.31239,1.2336,10.262,249.09,15.782,8.319,12.794,2.3827,7.9952,6.5608e+06,1.5696,5.1607,8.3411,1
8.604,6.8907,31.034,0.37595,30.658,0.0070298,0.70289,0.00064318,0.27101,1.184,8.604,121.4,11.018,7.2668,9.3059,1.1876,3.6118,1.2548e+05,2.8582,1.7228,0.79443,1
9.0223,13.649,54.537,0.025995,54.511,-0.0058734,0.70132,-0.00031739,0.11842,1.1268,9.0223,267.28,16.349,8.0073,14.51,2.0482,6.0593,8.2588e+06,0.088777,0.28878,0.42036,1
1.8817,0.79979,3.45,0.11215,3.3378,0.0011759,0.11136,-0.00049248,0.051299,1.0039,1.8817,4.1789,2.0442,1.8744,2.0364,-0.066906,1.8953,-0.098983,0.15548,0.082974,0.079841,1
0.96903,0.54638,2.1994,-0.020078,2.2195,0.00099281,0.080873,0.00036465,0.037747,1.001,0.96918,1.2369,1.1121,0.96824,1.1111,0.30012,2.1177,0.069867,0.37534,0.41087,0.14555,1
2.3392,1.2432,5.7266,0.0021354,5.7244,-0.00074864,0.089405,1.1487e-05,0.031028,1.0017,2.3392,7.014,2.6484,2.3353,2.644,0.66426,3.3809,14.856,0.30867,0.40459,0.48115,1
7.8321,4.676,18.645,-0.096543,18.742,-0.021521,0.66486,-0.0016976,0.26858,1.1738,7.8325,83.157,9.119,6.6727,7.7687,0.38087,2.3299,4717.4,1.2219,0.25405,0.1838,1
13.707,12.675,59.983,0.049871,59.933,0.019953,1.4312,-0.001218,0.49545,1.5018,13.707,348.16,18.659,9.1269,12.424,1.4121,4.356,3.7908e+06,25.186,80.525,115.45,1
13.74,12.123,58.922,0.214,58.708,0.019677,1.2747,0.0023965,0.45316,1.4292,13.74,335.44,18.315,9.6138,12.815,1.9477,6.3833,5.0292e+06,26.29,18.341,17.718,1
22.323,17.419,81.173,0.11927,81.054,-0.041782,2.369,-0.0061956,0.93495,1.9611,22.323,801.06,28.303,11.383,14.432,1.0453,3.5361,1.3017e+07,24.559,33.25,31,1
21.95,17.075,57.421,-0.0093319,57.431,0.027243,1.59,-0.0028583,0.58703,1.6233,21.95,772.71,27.798,13.522,17.124,0.7144,2.1038,4.1391e+06,21.079,40.129,40.64,1
8.8862,5.1589,28.42,0.35038,28.07,-0.022665,0.97735,0.00073689,0.44041,1.3262,8.8862,105.52,10.272,6.7007,7.7458,0.94252,4.0161,38426,1.1185,0.26642,3.5724,1
16.066,11.951,51.836,-0.052972,51.889,0.07284,1.5518,0.0029636,0.53675,1.6552,16.066,400.62,20.015,9.7064,12.092,0.83512,3.261,1.6186e+06,95.213,63.974,3.6861,1
36.289,23.574,98.674,0.63427,98.04,-0.038032,1.7368,-0.0032595,0.61486,1.7006,36.289,1871.4,43.259,21.339,25.437,0.79824,2.8789,3.2936e+07,11.768,18.094,13.655,1
26.143,14.58,57.51,0.0087716,57.501,0.053836,0.99399,-0.0021738,0.17372,1.3117,26.143,895.57,29.926,19.931,22.815,0.091446,2.4433,4.3994e+05,91.674,119.19,119.36,1
23.787,26.784,115.07,1.0473e-05,115.07,-0.0091741,1.3159,0.0017873,0.2098,1.4324,23.787,1281.6,35.799,16.607,24.993,1.7897,5.5084,2.1473e+08,54.925,81.507,73.737,1
27.303,30.434,132.41,0.0010372,132.41,0.0080656,1.6872,0.0011794,0.27431,1.693,27.303,1669.6,40.86,16.127,24.136,1.7233,5.3545,3.991e+08,3.6082,5.0331,5.085,1
13.357,12.123,53.43,-0.018497,53.448,0.012977,1.1742,-0.00084064,0.2553,1.4068,13.357,325.05,18.029,9.4946,12.815,1.1897,4.2774,2.8782e+06,23.633,51.096,70.628,1
12.462,8.8051,41.417,0.29101,41.126,-0.0055128,0.82979,0.00058269,0.17778,1.2214,12.462,232.66,15.253,10.203,12.488,1.442,4.6232,6.1021e+05,8.3858,12.06,18.419,1
16.804,13.007,62.037,0.002437,62.035,0.062964,1.1902,-0.0027272,0.24073,1.4368,16.804,451.17,21.241,11.695,14.783,1.2777,4.6792,4.6739e+06,191.42,338.3,374.37,1
18.865,16.813,69.467,0.0026331,69.464,-0.042732,1.0702,0.0021891,0.17575,1.3383,18.865,637.93,25.257,14.096,18.872,1.118,3.5443,1.0614e+07,37.921,58.496,71.606,1
29.008,26.793,122.38,-0.40114,122.78,0.034869,1.5577,0.0063909,0.34717,1.5813,29.013,1557.7,39.468,18.347,24.958,1.5922,5.476,2.1482e+08,75.566,98.345,112.2,1
32.696,17.58,70.727,0,70.727,0.045218,9.1331,0.058119,5.1971,7.9922,32.696,1377.4,37.113,4.091,4.6437,0.22423,2.0097,1.5292e+06,254.83,420.02,63.974,1
38.339,19.851,73.718,3.9115,69.806,-0.019437,10.976,0.0013393,6.1884,9.9348,38.339,1863.1,43.164,3.8591,4.3447,0.00054797,1.6063,29739,235.36,373.63,65.398,1
36.167,19.931,69.413,1.1297,68.283,0.031086,10.857,-0.060567,6.0467,9.8343,36.167,1704.4,41.284,3.6776,4.198,-0.0091572,1.6192,-94352,223.66,231.09,442.09,1
35.25,17.344,67.153,3.9754,63.178,-0.0093257,9.5669,0.015019,5.3435,8.5682,35.25,1542.7,39.278,4.1141,4.5841,-0.049903,1.7025,-2.825e+05,110.23,235.67,256.56,1
33.561,15.967,59.934,7.2724,52.661,-0.030584,8.971,-0.0006942,5.0561,8.1544,33.561,1380.7,37.157,4.1156,4.5567,-0.00080595,1.5637,2891.5,220.57,126.36,339.76,1
5.0276,5.5103,16.98,0.046305,16.933,-0.0095757,0.21774,0.00081354,0.066974,1.0192,5.0276,55.571,7.4546,4.9328,7.314,1.0626,2.4765,21460,0.0321,0.0038426,0.024581,1
1.0421,0.88657,3.8605,0.0032882,3.8572,8.2378e-06,0.10814,0.00027806,0.046707,1.0034,1.0421,1.8702,1.3676,1.0385,1.3629,1.7072,5.1001,7.377,0.0226,0.067931,0.019535,1
0.52479,0.21899,1.2713,0.057683,1.2136,0.00018437,0.077085,-0.00022533,0.039296,1.0007,0.52479,0.32325,0.56855,0.52443,0.56817,0.40628,2.9337,0.0019573,0.043334,0.05346,0.090075,1
2.2781,3.4676,20.587,-0.002992,20.59,0.045235,0.24332,0.001853,0.057897,1.0229,2.2781,17.187,4.1457,2.2271,4.0527,2.5991,10.749,23201,26.542,23.224,10.699,1
14.66,8.3619,38.068,1.7053e-13,38.068,0.0061197,1.2694,-0.022132,0.58912,1.4093,14.66,284.66,16.872,10.402,11.972,0.94051,3.3555,2.5933e+05,2.5028,1.6598,1.0517,1
12.31,7.9438,29.059,0.026455,29.033,0.0053582,0.6761,-0.00042023,0.25774,1.1698,12.31,214.5,14.646,10.523,12.52,0.47921,2.0018,59855,1.8279,2.049,0.7524,1
8.3393,5.7946,26.484,-0.47436,26.958,0.018366,0.61587,-0.0017619,0.2177,1.1515,8.3453,103.04,10.151,7.2471,8.8153,0.94688,3.3629,45751,23.996,56.232,56.873,1
7.0685,4.1796,17.022,0.16157,16.861,-0.0098976,0.65634,-0.0011372,0.2897,1.1658,7.0685,67.393,8.2093,6.0635,7.042,0.35663,2.4502,2973.7,7.2325,0.38212,0.77904,1
16.02,7.7535,36.246,5.6843e-14,36.246,0.025498,1.7763,-0.003326,0.8919,1.8202,16.02,316.62,17.794,8.8011,9.7756,0.31693,2.7016,57936,32.429,18.54,25.665,1
10.401,3.4724,20.326,3.4774,16.849,-0.017537,1.435,-0.0068218,0.76832,1.665,10.401,120.21,10.964,6.2468,6.585,0.42546,2.7149,1666,5.6113,5.608,9.8856,1
11.231,5.0235,27.211,0.0014629,27.21,0.029247,1.5137,0.0028522,0.80904,1.7062,11.231,151.3,12.301,6.5821,7.2092,0.38635,3.1434,11018,10.763,10.654,16.37,1
11.024,6.6625,27.22,-1.1369e-13,27.22,0.013568,0.79417,0.0053998,0.40113,1.2324,11.024,165.82,12.877,8.9456,10.449,0.26073,2.2803,23226,34.155,48.829,56.204,1
6.7383,5.3367,22.005,0.0024343,22.002,-0.020464,0.49844,0.00086959,0.2495,1.1046,6.7383,73.82,8.5919,6.1004,7.7785,1.1729,3.6356,35188,4.6159,13.405,10.452,1
11.581,10.674,45.157,-0.27038,45.427,-0.0050276,0.78109,0.0017949,0.32036,1.2189,11.582,247.8,15.742,9.5025,12.915,1.6343,5.0504,1.8912e+06,3.1096,3.3758,4.6896,1
25.079,20.283,89.575,1.0246,88.55,-0.041292,1.2979,-0.0023015,0.2471,1.4959,25.079,1039.4,32.24,16.765,21.552,1.3076,4.3597,3.8335e+07,34.417,59.91,83.987,2
35.126,25.487,95.352,0.45918,94.893,0.12984,1.2739,0.00025029,0.27543,1.4754,35.126,1881.9,43.381,23.807,29.403,0.55044,2.658,4.0559e+07,528.19,711.25,719.99,2
51.78,32.585,117.69,9.0949e-13,117.69,0.051749,3.3179,-0.0048473,0.69191,2.9328,51.78,3740.6,61.16,17.655,20.854,0.24219,1.9836,3.9755e+07,30.004,92.094,174.71,2
0.93022,0.3982,1.9515,0.062121,1.8894,-0.0031637,0.059764,-3.4733e-05,0.025985,0.9995,0.93022,1.0235,1.0117,0.93068,1.0122,0.51545,3.1745,0.033763,0.018811,0.011085,0.053846,2
12.993,10.359,42.205,0.0010128,42.204,0.042151,0.65402,-0.0012825,0.2046,1.1612,12.993,275.9,16.61,11.19,14.305,1.3568,4.1317,1.1062e+06,49.335,82.781,104.68,2
2.492,1.727,6.8452,0.0029857,6.8422,0.000637,0.12559,-0.0003346,0.039276,1.0055,2.492,9.1858,3.0308,2.4784,3.0143,0.57946,2.3304,46.501,0.10012,0.065458,0.18116,2
12.897,7.5716,33.829,0.52448,33.305,0.031743,0.7941,0.00056091,0.25519,1.2135,12.897,223.53,14.951,10.628,12.321,0.43382,2.4212,75647,111.34,97.526,48.508,2
25.221,12.911,58.107,0,58.107,0.028023,1.6616,-0.004853,0.57721,1.5703,25.221,802.4,28.327,16.061,18.039,0.16233,2.2519,4.132e+05,24.338,51.014,54.487,2
60.14,46.512,191.75,1.6544,190.09,0.17236,4.5079,-0.012955,1.891,3.7175,60.14,5775.3,75.996,16.178,20.443,0.92035,2.8886,1.2325e+09,1017.6,1055.4,1229.9,2
10.309,11.496,39.47,0.026762,39.443,-0.0079107,0.3291,0.00079874,0.05356,1.046,10.309,238.14,15.432,9.8557,14.753,1.1628,3.0629,1.2568e+06,0.38357,0.42154,0.37696,2
3.3697,2.2605,7.8193,-0.075871,7.8951,0.0082493,0.14611,0.00041254,0.043476,1.0077,3.3703,16.454,4.0563,3.3445,4.0252,0.21071,1.7973,59.807,2.0017,2.6679,1.9847,2
6.0184,6.0717,24.46,0.45042,24.01,-0.0034188,0.303,0.00013823,0.061703,1.0377,6.0184,73.002,8.5441,5.7997,8.2336,1.622,4.6988,97481,0.49001,0.52318,0.50298,2
34.549,23.856,95.489,-0.0024339,95.492,0.018241,1.9124,0.0026097,0.37873,1.8653,34.549,1761.5,41.97,18.522,22.5,0.38491,2.2301,1.9235e+07,300.69,231.71,43.656,2
5.8355,3.1112,14.936,1.0832,13.853,-0.025687,0.22119,0.00026231,0.045682,1.0214,5.8355,43.711,6.6114,5.7132,6.4729,0.7638,3.2992,1744.8,0.54167,0.64165,0.95477,2
16.141,17.141,56.125,0.0012292,56.124,0.038044,1.0392,0.0020861,0.15248,1.2877,16.141,553.7,23.531,12.535,18.274,0.92061,2.4287,6.1065e+06,54.024,27.383,2.1794,2
5.4553,3.248,14.834,-0.15918,14.993,0.0095241,0.25417,-0.0006455,0.047345,1.0276,5.4592,40.286,6.3471,5.3127,6.1767,0.57177,3.2426,1827.1,2.5411,2.362,1.0413,2
15.665,13.386,57.935,0.16889,57.766,-0.046129,0.87301,-0.00027284,0.15858,1.2439,15.665,424.17,20.595,12.593,16.557,1.4044,4.4747,4.9056e+06,3.1021,4.7761,5.5146,2
5.6816,4.2108,17.523,3.4106e-13,17.523,0.0073772,0.2398,-0.0031939,0.067026,1.0245,5.6816,49.972,7.0691,5.5458,6.9001,1.209,3.921,11132,3.5536,3.7905,2.0271,2
10.977,9.1474,25.557,0.0035421,25.553,-0.044437,0.80554,-0.00030349,0.30024,1.1464,10.977,203.98,14.282,9.5752,12.458,0.28092,1.3419,48948,0.72542,0.91226,0.81548,2
19.731,21.961,93.173,-0.28153,93.455,-0.00069826,1.038,0.00017268,0.17322,1.2864,19.736,870.52,29.505,15.341,22.935,1.6976,5.4557,7.8756e+07,9.0604,13.252,14.344,2
11.336,12.015,42.877,8.8263e-05,42.877,0.0027472,0.57783,9.441e-05,0.086276,1.1154,11.336,272.55,16.509,10.163,14.801,1.1374,3.2734,1.7532e+06,0.35153,0.22248,0.24589,2
35.026,32.749,106.15,0.32205,105.82,0.10986,1.5583,-0.0049962,0.26099,1.5882,35.026,2296.9,47.926,22.054,30.176,0.72688,1.987,1.0487e+08,459.54,690.54,654.17,2
20.036,10.581,47.196,0.0055806,47.191,0.045033,1.1895,0.0023325,0.42699,1.4262,20.036,513.13,22.652,14.049,15.883,0.056003,2.2504,1.038e+05,24.336,66.072,39.152,2
16.253,14.566,46.058,0,46.058,0.0092009,0.79037,-0.00612,0.12894,1.192,16.253,475.86,21.814,13.636,18.301,0.65439,1.9352,1.6836e+06,1.6049,2.6211,2.1232,2
15.223,15.099,46.833,2.2737e-13,46.833,0.084758,0.72026,-0.0056954,0.095983,1.1855,15.223,459.22,21.429,12.841,18.077,0.72121,2.0485,2.2851e+06,165.74,211.38,186.64,2
7.1507,5.6963,23.944,0.080365,23.864,0.0027154,0.38873,-0.0035662,0.09219,1.0608,7.1507,83.506,9.1382,6.741,8.6146,1.2027,3.4357,43901,1.5936,2.0716,2.1126,2
17.418,13.659,48.332,2.2737e-13,48.332,-0.033565,0.77904,0.0011779,0.1225,1.2177,17.418,489.54,22.126,14.304,18.17,0.85438,2.6789,2.0265e+06,0.44978,0.48622,0.46254,2
29.647,20.389,82.666,4.5475e-13,82.666,0.087728,1.7254,-0.01084,0.44218,1.7507,29.647,1293.7,35.969,16.934,20.545,0.63105,2.4469,1.2641e+07,302.71,334.75,309.34,2
5.7199,3.6482,15.943,0,15.943,0.016463,0.42729,-0.0016511,0.19655,1.0773,5.7199,45.996,6.7821,5.3093,6.2953,0.39857,2.1906,1596.1,4.1726,4.4137,2.512,2
10.762,5.9812,21.713,0,21.713,0.0062794,0.48556,-0.0032329,0.14875,1.1,10.762,151.5,12.309,9.7829,11.189,-0.012361,1.8121,-362.39,3.0494,4.5248,7.7793,2
8.2,9.2716,34.709,1.7053e-13,34.709,0.011414,0.51233,-0.0058919,0.15913,1.1,8.2,153.01,12.37,7.4545,11.245,1.59,4.2682,7.0096e+05,1.1479,1.9838,1.2545,2
13.817,7.2853,32.889,0,32.889,0.023435,2.1277,-0.028522,1.0193,1.9484,13.817,243.87,15.616,7.0915,8.0149,0.4317,2.5206,50181,7.1494,0.99998,1.307,2
4.5954,4.1509,16.123,0,16.123,0.0061995,0.52276,-0.0053344,0.22513,1.1078,4.5954,38.308,6.1894,4.1482,5.587,1.6103,4.5194,13285,0.78513,0.94827,1.3233,2
6.2948,6.7253,23.258,0.00012566,23.258,0.0034592,0.29645,0.00037968,0.078184,1.0357,6.2948,84.752,9.2061,6.0777,8.8886,1.5227,3.8766,1.1663e+05,0.49499,0.51923,0.50391,2
12.117,7.111,26.173,-0.072023,26.245,-0.02412,0.55644,0.0026382,0.22328,1.127,12.118,197.28,14.046,10.752,12.463,0.24296,1.9453,18278,16.207,10.478,13.344,2
20.921,10.319,51.09,0.71129,50.378,0.0074113,2.2052,-0.021894,1.207,2.0188,20.921,543.93,23.322,10.363,11.552,0.044695,2.2392,1.1643e+05,27.915,26.523,39.399,2
7.732,6.5477,26.757,5.6843e-14,26.757,0.011037,0.4485,-0.0072469,0.13159,1.0772,7.732,102.56,10.127,7.1776,9.401,1.351,3.9383,1.0996e+05,1.7263,1.5732,1.4921,2
6.4561,4.8776,20.029,-0.00010067,20.029,0.020679,0.29149,0.00052228,0.081056,1.0377,6.4561,65.419,8.0882,6.2215,7.7942,0.92004,3.2581,17909,4.5225,4.2058,1.8583,2
18.251,8.9637,32.266,-0.014153,32.28,-0.041555,0.7847,-0.0035779,0.15639,1.219,18.251,413.27,20.329,14.972,16.676,-0.30553,1.9621,-81484,10.287,20.066,25.471,2
4.7798,3.605,13.478,-0.061845,13.54,-0.0079271,0.15518,0.0012701,0.039745,1.0094,4.7805,35.814,5.9844,4.7358,5.9286,0.91358,2.8259,2940.5,0.11666,0.22349,0.16257,2
13.973,13.494,49.044,0.024539,49.019,0.013248,0.65934,-0.00087284,0.089289,1.1585,13.973,376.92,19.415,12.061,16.758,1.0471,3.0916,2.7667e+06,8.2152,10.049,9.3595,2
41.451,17.298,103.45,1.4637,101.99,0.10416,7.9186,-0.014428,4.5033,6.6158,41.451,2016.7,44.908,6.2655,6.788,0.32155,3.2744,6.5562e+06,62.084,467.54,105.22,2
11.41,5.2776,25.764,0.92253,24.841,-0.043729,1.7159,0.017861,0.97913,1.8204,11.41,157.98,12.569,6.2678,6.9044,0.19759,2.4173,6658.8,1.4054,7.023,5.3115,2
15.107,10.676,45.821,-0.2846,46.106,-0.0029943,2.0887,0.0080701,1.1251,2.0765,15.108,341.94,18.492,7.276,8.9054,1.162,3.6344,1.037e+06,10.411,9.7527,6.2233,2
5.7635,4.6694,18.409,-2.8422e-13,18.409,-0.001204,0.3125,0.00089724,0.063759,1.0419,5.7635,54.972,7.4143,5.5319,7.1163,0.98238,3.1788,13949,0.044079,0.083256,0.047079,2
11.269,8.6048,31.934,0.011896,31.922,-0.003113,0.53258,0.00044821,0.084931,1.1185,11.269,200.87,14.173,10.076,12.672,0.85583,2.6211,2.0297e+05,7.8941,1.6437,0.017927,2
6.1783,3.4036,13.49,0.10314,13.387,-0.010994,0.18794,-0.00011996,0.067351,1.0149,6.1783,49.73,7.0519,6.0877,6.9484,0.48085,2.211,962.59,0.12996,0.36422,0.27818,2
8.2177,8.3888,39.293,0.0062332,39.287,0.0038233,0.48658,0.0030026,0.085266,1.0913,8.2177,137.74,11.736,7.5299,10.754,1.9974,6.8701,9.0748e+05,0.029985,0.037472,0.15206,2
12.701,6.8655,28.189,-0.15958,28.349,-0.014243,0.50068,0.0018787,0.12608,1.1078,12.702,208.35,14.435,11.467,13.03,0.10721,2.1554,11975,1.0313,4.6486,8.3801,2
9.6294,7.1302,27.894,-0.071456,27.965,0.019945,0.38236,0.00050594,0.078303,1.0637,9.6302,143.45,11.977,9.0536,11.26,0.68938,2.6392,78967,71.358,63.549,34.05,2
1.2828,0.90252,3.3334,5.6843e-14,3.3334,0.0025218,0.091444,-0.00027593,0.042156,1.0019,1.2828,2.4582,1.5679,1.2804,1.5649,0.49435,2.0735,1.3612,0.090209,0.19137,0.26276,2
7.9025,6.0159,26.038,-0.1198,26.157,-0.0023624,0.37032,-2.7198e-05,0.059164,1.0543,7.9043,98.558,9.9276,7.4972,9.4163,1.2504,4.4899,84412,3.9337,6.0358,7.7683,2
1.6108,1.2671,5.255,0.031207,5.2238,-0.0091415,0.074927,-3.9344e-05,0.028669,1.0006,1.6108,4.1965,2.0485,1.6099,2.0474,1.1316,3.3656,22.694,0.13145,0.28229,0.39594,2
21.245,11.06,46.457,0.014171,46.442,0.00067533,1.7068,-0.0052897,0.6517,1.7651,21.245,573.38,23.945,12.036,13.566,0.29366,2.3944,2.3029e+05,13.109,36.824,26.634,2
20.612,10.35,53.527,3.656,49.871,-0.10098,1.2619,0.026454,0.45747,1.3569,20.612,531.73,23.059,15.191,16.995,0.48733,2.588,3.743e+05,13.294,25.222,26.601,2
16.515,19.782,73.795,-0.77562,74.571,-0.034563,0.84625,-0.00207,0.14812,1.1998,16.534,663.2,25.753,13.78,21.463,1.2536,3.4805,2.441e+07,0.092356,0.080573,0.17324,2
3.6445,2.9441,14.373,0.04336,14.33,0.0045748,0.28407,-0.0008996,0.094846,1.0351,3.6445,21.93,4.683,3.5209,4.5242,1.6039,5.5545,3600.5,0.77164,1.5065,1.2029,2
21.064,25.919,105.26,1.8878e-06,105.26,-0.0067247,1.1927,-2.7976e-05,0.13384,1.3727,21.064,1113.9,33.376,15.345,24.313,1.886,5.6859,1.8651e+08,0.62014,1.6807,2.6009,2
6.1702,3.9777,15.814,3.4106e-13,15.814,6.6916e-05,0.1863,-0.00063655,0.051055,1.0146,6.1702,53.857,7.3388,6.0816,7.2334,0.62393,2.4349,3225.3,0.034397,0.042621,0.1006,2
23.241,12.713,64.269,0,64.269,0.015443,1.9213,-0.017679,0.76018,1.8314,23.241,701.4,26.484,12.691,14.461,1.043,4.1666,3.1547e+06,4.116,6.8562,7.4364,2
8.5516,9.4772,33.455,0.12854,33.326,-0.053874,0.2221,-0.0024928,0.041674,1.0223,8.5516,162.74,12.757,8.3652,12.479,1.6366,4.1944,7.3454e+05,0.037512,0.14581,0.17348,2
10.683,6.2395,25.294,0.028067,25.266,0.0019129,0.79862,0.011603,0.26372,1.2043,10.683,152.96,12.368,8.87,10.269,0.13622,2.0438,9934.5,28.043,24.61,22.88,2
36.137,39.462,163.34,0.099594,163.24,-0.0038929,2.0463,-0.0024893,0.38257,1.9643,36.137,2859.6,53.475,18.397,27.224,1.7032,5.1909,1.3425e+09,2.5107,2.7633,1.5349,2
8.7931,4.4807,20.071,0.81372,19.257,-0.011887,0.50795,-0.0016347,0.20022,1.1071,8.7931,97.35,9.8666,7.9426,8.9122,0.38258,2.9194,5134.1,1.6089,2.4533,2.4591,2
25.758,17.935,63.624,-0.068973,63.693,0.1028,1.0626,-0.0056971,0.14952,1.3636,25.758,984.4,31.375,18.89,23.009,0.51858,2.0985,4.5046e+06,187.16,210.76,151.81,2
11.485,11.295,40.418,1.7053e-13,40.418,0.010417,0.83453,-0.0047519,0.31367,1.245,11.485,259.18,16.099,9.2245,12.931,1.0244,2.7297,9.4445e+05,1.7123,1.4826,0.52849,2
8.6396,4.3928,18.542,-0.0042559,18.546,0.0099335,0.72716,-0.0027353,0.33943,1.2069,8.6397,93.896,9.69,7.1584,8.0286,0.0033168,2.1256,393.54,2.0785,3.0638,4.6398,2
16.658,10.462,38.55,-0.022889,38.573,0.087052,0.84594,-0.0037088,0.16618,1.2471,16.658,386.7,19.665,13.357,15.768,0.70168,2.5132,4.0399e+05,141.55,142.68,68.929,2
7.454,7.878,32.33,-0.98575,33.316,0.017493,0.51979,0.001398,0.0924,1.0892,7.5182,117.48,10.839,6.9022,9.9509,1.315,4.0247,3.0308e+05,13.76,5.4827,1.0765,2
33.846,19.125,91.704,7.259,84.445,-0.016326,1.7928,0.0066523,0.60569,1.7895,33.846,1510.5,38.865,18.914,21.718,1.089,3.7649,2.1097e+07,17.725,20.674,46.835,2
33.373,24.375,90.405,-0.0010945,90.406,0.024301,1.6565,-0.014301,0.24747,1.6002,33.373,1706.5,41.31,20.855,25.815,0.55539,2.2905,2.5072e+07,18.975,29.634,36.404,2
0.59077,0.22736,1.2662,5.6843e-14,1.2662,0.0013641,0.077995,-0.0011395,0.038066,1.0007,0.59077,0.40058,0.63291,0.59034,0.63246,0.11618,3.1917,0.00056135,0.043133,0.008203,0.022058,2
12.552,6.567,30.045,0.93787,29.107,-0.01578,1.1486,0.0063908,0.61676,1.4498,12.552,200.59,14.163,8.6582,9.7691,0.56886,2.5118,38077,3.7766,1.0418,5.1106,2
14.329,12.025,56.509,-0.00062602,56.51,0.1275,0.8815,-0.012222,0.25308,1.2528,14.329,349.58,18.697,11.437,14.924,1.8702,7.0002,5.5142e+06,294.76,357.31,299.16,2
