12.368,15.104,69.05,0.0096855,69.04,-0.0041495,0.6778,-0.00094667,0.13372,1.1492,12.368,380.89,19.516,10.762,16.983,1.6669,4.6862,1.0079e+07,125.37,263.52,312,1
47.493,50.73,261.11,-2.2737e-13,261.11,-0.06543,4.0286,0.0087857,1.1949,3.0986,47.493,4826.6,69.474,15.327,22.421,1.9622,6.4864,6.8583e+09,29.133,24.777,46.258,1
83.67,92.849,475.35,-0.65421,476,0.061388,4.9748,-0.0027787,1.3439,3.8103,83.674,15613,124.95,21.96,32.794,2.5293,9.4927,2.3593e+11,81.458,46.674,9.2417,1
71.309,73.719,282.3,0.10253,282.2,0.066113,3.4565,-0.011452,1.0584,2.7198,71.309,10514,102.54,26.218,37.7,1.1414,3.1354,1.4403e+10,11102,13645,13408,1
34.923,29.901,109.04,-1.4663,110.5,0.0089461,1.454,-0.0016023,0.41717,1.5891,34.941,2112.9,45.966,21.987,28.925,0.86763,2.536,1.0104e+08,12.914,21.473,35.016,1
20.486,14.529,72.068,0.043469,72.025,0.003638,1.112,-0.0019185,0.44504,1.4085,20.486,630.58,25.111,14.545,17.829,1.2458,4.043,6.2521e+06,43.925,54.904,82.426,1
35.593,34.297,157.54,-0.5497,158.09,-0.045804,1.5597,-0.00043256,0.23454,1.5413,35.595,2442,49.417,23.094,32.061,1.4089,4.6115,5.9553e+08,10.277,12.802,14.895,1
5.2011,7.1917,40.105,-0.54065,40.646,0.00072251,0.27308,-0.00042289,0.042534,1.0311,5.2224,78.722,8.8725,5.065,8.605,3.1373,13.423,1.0981e+06,24.229,62.618,132.72,1
14.048,19.853,81.848,-0.15272,82.001,-0.0021221,0.71613,-0.00033668,0.11463,1.1613,14.049,591.1,24.313,12.098,20.937,2.0783,6.1396,5.4382e+07,0.05629,0.21281,0.88747,1
12.842,15.076,70.313,-0.5693,70.882,0.01597,0.57279,-0.00047999,0.106,1.1229,12.856,391.97,19.798,11.449,17.631,1.9551,6.7963,1.7241e+07,64.148,80.57,168.47,1
86.796,71.005,356.07,0,356.07,-0.021882,6.7,0.019485,2.3193,5.1544,86.796,12570,112.12,16.839,21.752,1.094,3.803,1.7496e+10,88.352,127.89,128.59,1
56.238,47.507,240.92,0.0066138,240.91,0.012825,5.6791,-0.0065528,2.0629,4.6045,56.238,5417.6,73.604,12.214,15.985,1.6326,5.3049,3.6338e+09,176.29,309.24,324.67,1
1.5967,1.4562,6.9957,-0.0015485,6.9973,0.00048842,0.088063,2.8902e-05,0.030736,1.0029,1.5967,4.668,2.1606,1.5921,2.1544,1.4345,4.6159,79.777,0.67084,0.82292,0.80159,1
23.395,25.063,135.31,-2.2737e-13,135.31,-0.012991,2.1128,0.00071428,0.75095,1.9573,23.395,1174.9,34.276,11.953,17.512,2.1714,7.8926,2.8043e+08,7.0465,28.468,66.794,1
0.74301,1.1522,6.0549,-1.9841e-05,6.0549,0.0056354,0.063585,0,0.019655,1.001,0.74301,1.8785,1.3706,0.74223,1.3691,2.669,10.148,79.483,5.652,3.6332,1.7258,1
13.889,12.006,57.145,2.2737e-13,57.145,-0.0070096,1.1829,0.0014486,0.47031,1.4225,13.889,336.91,18.355,9.7634,12.903,1.6109,4.8519,3.1898e+06,22.761,35.787,35.006,1
18.357,18.825,87.593,0.09898,87.494,-0.0055417,0.91611,-0.00062776,0.28282,1.2741,18.357,691.05,26.288,14.408,20.632,1.6915,5.4486,3.8142e+07,49.899,68.117,85.142,1
6.4802,8.3791,39.47,-0.075871,39.545,0.0035432,0.2432,0.00044316,0.048809,1.0258,6.4804,112.13,10.589,6.3173,10.323,2.3341,7.9576,1.1028e+06,18.789,20.372,9.1596,1
13.73,16.281,85.295,0.08212,85.213,-0.051257,0.70258,0.0029942,0.15061,1.1502,13.73,453.35,21.292,11.938,18.512,2.4066,8.8379,3.7223e+07,15.331,44.015,50.591,1
64.654,50.767,193.6,-0.058764,193.66,0.0031031,2.6945,0.0014747,0.45908,2.2668,64.654,6754.9,82.188,28.522,36.258,0.84906,2.8461,1.6671e+09,3140,5907.5,5505.1,1
4.7655,6.1915,29.246,0.080216,29.166,-0.0011219,0.26167,2.4105e-05,0.042223,1.0267,4.7655,61.008,7.8108,4.6415,7.6075,2.2583,8.0012,2.5256e+05,1.4051,1.9667,1.5478,1
18.707,30.09,132.86,-0.00032093,132.86,0.053601,0.71689,-0.0011924,0.096154,1.1601,18.707,1254.5,35.419,16.126,30.531,2.227,7.2479,5.7404e+08,888.22,1246.5,1640.8,1
13.966,16.28,79.436,-0.020721,79.457,-0.0017669,0.81317,-7.8084e-05,0.10775,1.206,13.966,459.85,21.444,11.581,17.781,2.0274,7.046,2.6558e+07,0.069039,0.21263,0.33159,1
11.419,16.924,67.484,-0.048079,67.532,0.045031,0.70369,-3.8099e-05,0.10262,1.1486,11.419,416.53,20.409,9.9417,17.769,1.8881,5.2535,1.9317e+07,409.49,47.356,0.51629,1
16.165,11.504,55.815,0.044698,55.77,-0.013364,1.054,0.00045449,0.4207,1.3696,16.165,393.51,19.837,11.803,14.484,1.2905,4.3751,2.2937e+06,30.333,34.136,26.024,1
16.622,9.9615,50.716,-0.0025015,50.719,0.008193,1.0724,0.0030089,0.40594,1.3882,16.622,375.43,19.376,11.974,13.958,0.96482,3.9323,8.3303e+05,4.994,13.151,19.413,1
18.103,16.593,60.464,-0.53395,60.998,0.033677,0.76985,0.00047145,0.10177,1.2065,18.11,602.77,24.551,15.011,20.35,0.84737,2.5551,5.6771e+06,335.09,273.96,98.746,1
14.861,11.798,48.317,0.34275,47.974,-0.025745,0.55955,0.0001296,0.083955,1.1249,14.861,359.9,18.971,13.211,16.865,0.91479,3.0134,1.3306e+06,33.612,26.633,9.7387,1
11.695,9.7584,41.916,-1.0422,42.958,0.0032481,0.52875,-0.0007734,0.10362,1.1111,11.708,231.91,15.229,10.537,13.705,1.195,3.7678,7.4571e+05,5.096,8.2961,11.729,1
13.041,13.05,57.224,-0.63578,57.859,-6.7658e-05,0.64316,2.2959e-05,0.10873,1.1471,13.05,340.2,18.444,11.376,16.079,1.4437,4.4507,4.2581e+06,5.3413,10.076,14.305,1
10.937,7.7456,31.831,-0.01417,31.845,-0.0012378,0.53551,-0.00039187,0.14455,1.1152,10.937,179.56,13.4,9.8069,12.015,0.71857,2.6779,1.1669e+05,12.812,39.295,87.625,1
7.5966,5.2208,33.044,-0.1404,33.184,-0.0049223,0.32026,0.00047112,0.060185,1.0417,7.598,84.938,9.2162,7.2942,8.8476,1.661,8.2103,1.2529e+05,7.3162,9.2389,10.298,1
4.6303,2.7389,14.037,-0.2913,14.328,0.0085268,0.18685,0.00013733,0.042359,1.0158,4.6326,28.934,5.379,4.5606,5.2954,0.56318,3.2673,844.26,23.406,11.783,0.59044,1
11.734,13.467,74.279,0.17544,74.104,-0.011664,0.85697,-0.00047234,0.24673,1.2303,11.734,318.87,17.857,9.5377,14.514,2.7513,11.057,1.9488e+07,7.4007,11.572,27.264,1
9.196,7.9699,32.35,-0.00013191,32.35,-0.001226,0.41711,-0.00021974,0.1246,1.0752,9.196,148.03,12.167,8.5528,11.316,1.2022,3.524,2.4882e+05,1.8749,6.6057,8.7078,1
2.5458,3.8968,20.323,0.0016036,20.321,0.001138,0.14995,5.01e-05,0.029965,1.0095,2.5458,21.652,4.6531,2.5218,4.6092,2.948,11.444,40592,0.53599,0.56755,0.67967,1
2.9209,2.2355,11.366,-0.016636,11.382,-9.7859e-06,0.15256,-2.4246e-05,0.035218,1.0102,2.921,13.525,3.6776,2.8915,3.6405,1.2163,4.8121,784.45,1.6831,3.1265,3.3214,1
12.992,15.652,75.248,0.061909,75.186,-0.0033584,0.60241,0.00073209,0.1022,1.1128,12.992,413.55,20.336,11.675,18.274,2.0896,7.0429,2.1744e+07,1.4467,2.5197,3.6363,1
18.035,25.133,111.54,-0.03197,111.57,0.031153,0.75225,-0.0025986,0.12278,1.1882,18.035,956.32,30.924,15.178,26.027,2.2808,7.4704,2.3705e+08,1175,1712.7,2028.1,1
13.656,14.076,62.295,0.011849,62.283,-0.0045793,0.8064,0.00071223,0.25458,1.2364,13.656,384.44,19.607,11.045,15.858,1.3395,4.0867,5.7341e+06,7.9307,1.2079,12.444,1
9.0229,7.1135,36.038,0.0067507,36.031,-0.0054795,0.63959,-3.0428e-05,0.26804,1.159,9.0229,131.97,11.488,7.7852,9.9119,1.3758,4.6171,2.2749e+05,4.1361,7.0422,9.6958,1
2.5976,2.4108,9.5816,0.0070831,9.5745,-0.0008388,0.10236,0.00011038,0.034915,1.0042,2.5976,12.554,3.5432,2.5867,3.5283,1.1916,3.387,593.94,0.70525,0.62665,0.30415,1
0.89987,0.48889,2.7163,-0.00040987,2.7167,-0.0011119,0.060076,-1.6507e-05,0.027571,1.0008,0.89987,1.0486,1.024,0.89912,1.0231,1.1438,4.6277,0.31104,0.035152,0.038493,0.08363,1
13.722,12.31,50.727,-0.0011471,50.728,-0.027453,0.76417,0.0060056,0.18618,1.1937,13.722,339.7,18.431,11.495,15.44,1.2282,3.3451,1.9856e+06,1.3083,1.7521,5.8131,1
13.822,13.91,57.429,0.038579,57.39,-0.005885,0.73652,-0.001169,0.16657,1.1787,13.822,384.34,19.605,11.726,16.633,1.5214,4.3356,5.5257e+06,1.7281,3.7278,4.8862,1
16.557,15.495,79.42,0.015777,79.404,0.0047821,0.81974,-0.00034177,0.17586,1.2279,16.557,514,22.672,13.484,18.464,1.5732,5.597,1.5411e+07,49.161,111.23,176.02,1
18.472,22.2,97.392,-0.0041901,97.396,0.0032738,1.0754,-0.00031547,0.21397,1.2889,18.472,833.58,28.872,14.332,22.401,1.7869,5.7053,9.1436e+07,4.6027,3.0033,4.1346,1
17.05,18.957,85.901,0.027154,85.874,0.028348,0.97847,-0.0030644,0.20383,1.2822,17.05,649.73,25.49,13.297,19.879,1.6613,5.0306,3.4128e+07,1076.2,1133.7,909.48,1
27.093,29.797,146.45,0,146.45,0.016567,1.3361,-0.0016306,0.2094,1.436,27.093,1621,40.262,18.867,28.038,2.0499,7.3948,5.8909e+08,103.47,155.12,213.85,1
22.234,20.445,90.759,0.0069335,90.752,-0.014886,1.2501,0.00128,0.21141,1.3883,22.234,911.91,30.198,16.015,21.751,1.3409,4.3645,4.1053e+07,1.5938,7.2099,18.293,1
17.03,15.5,68.367,0.20074,68.166,0.028022,0.86145,-0.0016396,0.1442,1.2166,17.03,530.03,23.022,13.998,18.924,1.3329,4.2925,9.6441e+06,327.95,496.1,550.38,1
11.915,11.374,56.77,-0.06566,56.836,0.0016461,0.72598,-0.00090648,0.14014,1.1857,11.915,271.2,16.468,10.049,13.889,1.6956,5.7178,3.2616e+06,144.46,16.886,1.1719,1
17.03,15.5,68.367,0.20074,68.166,0.028022,0.86145,-0.0016396,0.1442,1.2166,17.03,530.03,23.022,13.998,18.924,1.3329,4.2925,9.6441e+06,327.95,496.1,550.38,1
11.915,11.374,56.77,-0.06566,56.836,0.0016461,0.72598,-0.00090648,0.14014,1.1857,11.915,271.2,16.468,10.049,13.889,1.6956,5.7178,3.2616e+06,144.46,16.886,1.1719,1
19.869,27.131,135.01,0.002462,135.01,-0.0066037,1.2406,-0.0014087,0.17896,1.3552,19.869,1130.2,33.618,14.662,24.808,2.2971,8.1205,4.1912e+08,112.23,168.09,263.7,1
24.927,16.601,77.384,0.41308,76.971,0.020759,0.89671,-0.00095449,0.17139,1.2792,24.927,896.68,29.945,19.486,23.409,0.98947,3.7676,1.034e+07,205.49,125.79,100.28,1
24.352,16.171,73.919,0.045453,73.874,-0.012018,0.96544,0.00057335,0.18479,1.3039,24.352,854.27,29.228,18.676,22.415,0.74411,3.2212,6.6821e+06,79.139,51.813,1.5535,1
25.013,40.431,177.34,-0.33114,177.67,-0.0077536,1.2765,7.4778e-06,0.13635,1.33,25.014,2258.7,47.526,18.807,35.733,2.2678,7.4778,2.6437e+09,0.17245,2.3766,7.2574,1
30.148,36.343,169.25,-0.13034,169.38,0.0039879,1.5753,-0.00032737,0.22032,1.4853,30.149,2228.4,47.206,20.298,31.782,1.8824,6.2218,1.235e+09,16.648,22.395,11.274,1
9.8131,7.9787,32.418,-0.14183,32.56,-0.020191,0.56716,0.0011186,0.22153,1.1302,9.8135,159.89,12.645,8.6826,11.188,0.88577,2.8529,1.697e+05,0.98968,7.6949,14.967,1
8.3273,5.0806,26.311,0.14693,26.164,-0.0039993,1.1917,0.00063321,0.55144,1.4963,8.3273,95.131,9.7535,5.5651,6.5183,0.98064,3.541,24192,5.3293,8.5855,9.7533,1
7.8749,12.538,53.718,-0.43057,54.148,0.036525,0.42721,0.0014066,0.13291,1.0707,7.8789,219.07,14.801,7.3585,13.823,2.353,7.6445,7.6786e+06,543.86,577.84,476.94,1
38.581,37.985,200.03,-1.1786,201.21,0.037088,3.3175,-0.016465,1.3314,2.714,38.588,2930,54.13,14.218,19.944,1.9607,6.8295,1.7766e+09,1445.6,926.38,847.4,1
2.6544,1.123,5.9878,0.0014012,5.9864,0.0018628,0.1727,-0.00011372,0.09687,1.0137,2.6544,8.3057,2.882,2.6186,2.8431,0.36567,3.3571,5.5628,1.7074,2.0384,2.3679,1
1.4532,0.93604,4.5268,-1.4211e-13,4.5268,-5.9934e-05,0.07022,0.00037777,0.030214,1.0015,1.4532,2.987,1.7283,1.451,1.7257,1.0355,3.5129,5.0619,0.1704,0.3308,0.3351,1
1.0597,0.27414,2.191,0.39789,1.7931,-0.00011706,0.059265,3.9617e-05,0.028959,1.0008,1.0597,1.198,1.0945,1.0588,1.0937,0.35887,3.5948,0.00863,0.35006,0.34064,0.31966,1
21.864,26.248,116.93,0.045283,116.88,-0.010813,1.0672,0.00042389,0.29012,1.3509,21.864,1166.3,34.151,16.185,25.281,2.0909,6.6256,2.5077e+08,67.404,95.708,214.18,1
68.847,35.852,193.88,0.4492,193.43,0.019548,15.505,0.024712,7.4381,13.888,68.847,6024.1,77.615,4.9575,5.5888,0.21088,2.4309,1.4469e+08,2023.1,1909.2,1728.7,1
78.762,38.797,188.97,1.9489,187.02,0.0014649,15.748,0.025806,7.4194,14.095,78.762,7707.2,87.791,5.588,6.2286,0.27411,2.4638,2.0722e+08,2770.8,4374,3343.9,1
22.401,12.149,62.311,0.11597,62.195,0.021461,4.3996,-0.020728,2.5603,3.6139,22.401,649.26,25.481,6.1986,7.0508,0.46739,2.5925,8.8174e+05,130.07,36.242,13.763,1
27.361,14.222,65.014,-0.0054891,65.02,0.020333,3.5685,-6.2592e-05,1.9937,2.9631,27.361,950.67,30.833,9.2339,10.406,0.30002,2.3099,1.0577e+06,531.56,538.19,444.41,1
11.604,9.6997,56.982,1.1369e-13,56.982,0.0064491,1.6147,-0.009605,0.70412,1.6511,11.604,228.65,15.121,7.0282,9.1584,2.0489,8.0463,2.5686e+06,98.128,131.41,136.58,1
3.0813,2.5657,16.465,5.6843e-14,16.465,0.003843,0.32099,-0.00071913,0.18779,1.0473,3.0813,16.071,4.0088,2.9421,3.8277,3.1131,13.877,6777.8,1.242,1.5998,1.5942,1
12.675,8.7011,41.373,-0.59723,41.97,-0.017058,1.6967,0.012611,0.87794,1.7325,12.678,236.3,15.372,7.3173,8.8725,0.98757,3.599,3.8817e+05,20.111,46.053,5.4502,1
14.798,10.77,48.074,-0.23956,48.313,-0.0080641,1.7468,0.0039438,0.97324,1.7112,14.799,334.87,18.299,8.6482,10.694,1.0099,3.257,9.2463e+05,11.265,7.0884,11.378,1
26.46,9.7084,55.451,0.3261,55.125,0.011252,3.8995,-0.0094104,2.28,3.3198,26.46,794.29,28.183,7.9702,8.4893,-0.082942,2.9916,-22386,186.83,177.1,171.02,1
15.309,10.965,56.374,1.1369e-13,56.374,0.015961,1.0921,-0.0095227,0.34419,1.3528,15.309,354.46,18.827,11.316,13.917,0.95895,3.6531,1.3204e+06,100.1,46.386,16.134,1
11.058,8.9406,39.436,-0.17917,39.615,0.0099186,0.67889,-1.3101e-06,0.20446,1.1768,11.059,202.14,14.218,9.3976,12.082,1.0751,3.5181,4.4268e+05,0.92891,17.09,36.084,1
4.7034,3.5518,14.755,-0.0023767,14.758,-0.0019854,0.15056,5.0743e-05,0.045473,1.0101,4.7034,34.725,5.8928,4.6562,5.8336,1.0518,3.4583,4100.1,0.27459,0.094636,0.83023,1
3.8067,2.3378,10.554,-0.020937,10.575,0.0069016,0.13158,-0.00017676,0.046789,1.0076,3.8068,19.951,4.4667,3.7781,4.433,0.42183,2.5569,212.48,14.64,9.1318,6.7904,1
10.653,10.785,56.351,-1.5063,57.858,0.00097106,0.57782,0.00050954,0.11073,1.115,10.718,229.67,15.155,9.6119,13.591,1.5829,6.0828,3.0285e+06,21.756,2.2463,0.17086,1
3.385,3.009,16.939,-0.023759,16.962,-0.010185,0.16973,0.00028771,0.041258,1.0126,3.3851,20.504,4.5281,3.343,4.4719,1.6906,6.6689,5811.3,0.10243,0.011943,0.0027553,1
8.2397,5.905,26.733,0.0023443,26.73,0.0084346,1.1485,-0.00028171,0.67071,1.4068,8.2397,102.73,10.135,5.8572,7.2048,0.91953,3.3127,49246,3.6246,6.0798,7.4505,1
10.6,6.2542,30.592,-0.51062,31.103,-0.0022672,1.622,-0.0026894,0.93471,1.6423,10.602,151.45,12.306,6.4554,7.4934,0.79606,3.1611,55411,18.697,18.41,7.8392,1
12.029,5.8025,30.089,0.063334,30.026,0.0028942,2.3672,-0.002052,1.3199,2.3128,12.029,178.33,13.354,5.2009,5.7738,0.29627,2.5561,15519,62.229,94.595,94.923,1
34.845,28.638,122.66,-0.028529,122.69,-0.015581,1.7322,4.5425e-05,0.30175,1.6937,34.845,2033.5,45.094,20.573,26.625,0.97516,3.1928,1.2917e+08,319.11,576.15,364.28,1
36.712,27.614,142.19,0.012029,142.18,0.0029532,2.0081,-0.0010776,0.34683,1.8224,36.712,2109.6,45.93,20.145,25.204,0.95387,4.0154,1.6906e+08,668.44,1072.9,743.28,1
21.534,18.941,84.527,0.18184,84.345,-0.0066987,1.9024,0.0038675,0.51152,1.7682,21.534,822.13,28.673,12.178,16.216,1.4747,4.491,2.7848e+07,2.7192,3.3288,16.298,1
11.37,16.767,57.456,-0.39007,57.846,0.036242,0.48552,0.00026975,0.077181,1.0871,11.377,410.14,20.252,10.465,18.629,1.6647,4.2208,1.3074e+07,569.79,681.58,599.32,1
7.6713,11.427,53.571,0.016353,53.555,-0.001358,0.41167,0.0007686,0.060197,1.0617,7.6713,189.3,13.758,7.2253,12.958,2.4418,8.6477,5.8309e+06,0.7501,1.0973,1.4686,1
5.0058,4.5755,21.565,-0.0066636,21.572,0.003001,0.20696,-0.00020569,0.04536,1.0192,5.0059,45.973,6.7804,4.9114,6.6524,1.616,5.6504,33982,6.7926,9.0105,12.102,1
20.863,23.594,108.24,1.1369e-13,108.24,0.073121,1.4217,-0.0016195,0.28261,1.4969,20.863,991.41,31.487,13.938,21.035,1.927,5.8853,1.2525e+08,1166.8,888.85,140.75,1
19.204,18.09,77.632,0.082507,77.55,-0.021365,1.3365,-0.0021908,0.27537,1.4433,19.204,695.69,26.376,13.305,18.274,1.3665,4.0254,1.8492e+07,191.13,78.032,146.37,1
15.888,14.743,79.496,-0.0014238,79.498,0.012126,1.0828,-0.00012615,0.21057,1.3142,15.888,469.58,21.67,12.089,16.489,1.6951,6.358,1.5273e+07,93.863,152.43,225.69,1
11.474,13.035,67.4,-0.0051988,67.405,-0.013806,0.67152,0.00075442,0.12207,1.1532,11.474,301.39,17.361,9.9489,15.054,2.1776,7.7901,1.0165e+07,0.94831,2.3451,8.5725,1
3.4675,4.3377,20.254,0.060391,20.194,-0.0015462,0.14915,0.00036154,0.039558,1.0096,3.4675,30.821,5.5517,3.4345,5.4988,2.3278,8.0097,40863,0.091701,0.18205,0.15382,1
15.809,18.912,111.18,-0.89123,112.07,0.0060767,1.1165,-0.00015682,0.27765,1.3749,15.814,607.25,24.642,11.502,17.923,3.1636,14.123,1.5174e+08,16.201,56.428,40.756,1
17.293,16.054,77.401,0.019824,77.382,-0.00063709,1.0489,-7.7423e-05,0.25457,1.3455,17.293,556.52,23.591,12.853,17.533,1.6834,5.4413,1.6558e+07,10.406,21.486,35.462,1
28.618,22.372,97.905,0.049701,97.855,-0.012744,1.1559,-0.0085061,0.22974,1.3789,28.618,1319.1,36.319,20.755,26.34,0.79439,2.8031,2.95e+07,562.26,735.33,796.81,1
28.328,27.346,139.1,-0.63263,139.73,-0.03446,1.5338,0.0034629,0.26393,1.574,28.331,1549.5,39.364,17.999,25.009,1.7971,6.5667,3.369e+08,26.172,137.69,423.63,1
23.567,34.224,171.91,-0.00044529,171.91,0.015293,1.231,-0.003265,0.32974,1.422,23.567,1725.6,41.54,16.574,29.213,2.93,11.251,2.0351e+09,24.262,11.18,11.829,1
19.772,19.026,84.365,-2.7594,87.124,0.02694,0.84385,0.00027389,0.22554,1.2453,19.818,752.6,27.434,15.915,22.03,1.2334,3.9913,2.4984e+07,56.325,9.1992,38.877,1
8.4573,6.95,32.096,0.0029066,32.093,-0.00023607,0.37452,0.00097914,0.08695,1.059,8.4573,119.78,10.944,7.9865,10.335,1.7299,6.1039,2.947e+05,8.4673,14.977,22.287,1
11.965,8.103,36.982,0.0025695,36.98,-0.003533,0.4307,-0.00087966,0.10791,1.0792,11.965,208.75,14.448,11.087,13.388,0.73186,3.0904,1.9672e+05,0.12959,1.4643,5.9833,1
1.737,0.801,4.0123,0.049671,3.9627,2.628e-05,0.079436,-8.4145e-05,0.034352,1.0022,1.737,3.6582,1.9126,1.7333,1.9085,0.5761,2.9986,1.3588,0.23635,0.19811,0.34548,1
16.303,20.042,80.986,-3.7031e-06,80.986,-0.011341,0.76048,0.00040637,0.10205,1.1869,16.303,667.1,25.828,13.735,21.761,1.5139,4.2119,3.439e+07,1.109,5.5202,7.2053,1
6.1384,5.341,24.81,-0.0068033,24.816,0.00020044,0.29548,-0.00062781,0.099256,1.0395,6.1385,66.18,8.1351,5.9053,7.8261,1.4982,5.0365,61598,4.5311,4.328,1.2541,1
6.8713,4.9418,22.119,-0.13456,22.253,0.013966,0.38436,0.0008363,0.080109,1.0627,6.8723,71.613,8.4624,6.467,7.9633,0.91734,3.4173,20040,0.18211,1.9414,4.1022,1
3.0496,3.3563,14.979,-0.018459,14.997,0.0086244,0.19512,-0.0005973,0.071745,1.0172,3.0496,20.554,4.5337,2.998,4.4569,2.0353,6.184,7587,24.285,32.012,25.893,1
8.4304,6.4446,36.117,-0.15289,36.27,-0.014042,0.33735,0.0012122,0.070057,1.0487,8.432,112.56,10.61,8.0402,10.117,1.7237,6.9306,2.6703e+05,5.962,8.2831,7.0131,1
3.4233,2.5253,10.504,0.0015832,10.503,0.0019163,0.11629,-7.5134e-05,0.035456,1.0057,3.4233,18.09,4.2532,3.404,4.2293,1.3331,3.9083,853.44,15.696,19.46,16.145,1
17.527,10.782,48.916,-0.49463,49.411,0.0075164,0.83325,0.0030256,0.17951,1.2586,17.534,423.34,20.575,13.931,16.347,0.45934,2.8175,5.2462e+05,44.381,8.6246,8.3982,1
14.901,10.721,49.578,3.4106e-13,49.578,-0.011004,0.82219,-0.00082642,0.15593,1.2146,14.901,336.87,18.354,12.269,15.112,1.208,4.0857,1.3459e+06,35.604,139.43,254.55,1
2.2015,1.2145,5.5592,-0.093067,5.6523,-0.00078286,0.18183,-0.00048314,0.082712,1.0151,2.2018,6.3202,2.514,2.169,2.4766,0.44565,2.3437,6.647,0.3325,0.47643,1.266,1
2.1147,1.0277,6.3404,0.0016061,6.3388,-0.00011339,0.18992,1.2501e-05,0.089744,1.0165,2.1147,5.5271,2.351,2.0803,2.3127,0.96024,4.0551,10.801,0.42812,1.3575,0.79828,1
48.082,37.395,168.32,-0.43835,168.76,-0.029225,3.1455,0.0020898,1.1043,2.2921,48.083,3708.9,60.901,20.977,26.569,1.0464,3.5558,5.8339e+08,26.451,82.862,49.311,1
38.044,28.854,123.27,0.018082,123.26,0.027042,3.2489,0.00064661,1.2114,2.6944,38.044,2279.1,47.74,14.12,17.718,0.95658,2.9349,1.0914e+08,341.12,251.12,134.32,1
5.3333,9.1067,43.233,-0.05122,43.284,-0.0029472,0.29263,1.4202e-05,0.046232,1.0315,5.3335,111.3,10.55,5.1705,10.227,2.8832,10.54,2.4243e+06,0.10791,0.22671,0.16467,1
14.485,11.81,58.267,-0.75402,59.021,0.0041085,0.86035,-0.0041686,0.33316,1.2353,14.488,349.15,18.686,11.728,15.126,1.0428,3.8462,2.2823e+06,3.3635,2.5317,2.9202,1
12.944,12.42,51.032,-0.26733,51.3,0.0030003,0.92338,-0.00089146,0.41718,1.2813,12.945,321.65,17.935,10.103,13.997,1.3801,4.1782,2.9714e+06,46.173,102.74,90.595,1
4.9152,3.6302,27.289,-0.0069543,27.296,0.021376,0.56661,1.2353e-05,0.24152,1.0907,4.9153,37.325,6.1094,4.5065,5.6013,2.0098,8.9598,25155,53.942,81.551,2.9086,1
6.4557,4.7486,23.892,0.0021375,23.89,-0.017199,0.35063,-0.00098363,0.1291,1.0537,6.4557,64.204,8.0128,6.1268,7.6045,1.3172,4.5858,29348,9.8536,13.239,5.9842,1
10.501,16.748,81.021,-0.45706,81.478,-0.00053803,0.53413,-4.5463e-06,0.056371,1.0915,10.512,390.5,19.761,9.6303,18.104,2.5394,9.2208,4.3938e+07,0.70194,0.75909,1.5724,1
13.625,17.261,80.619,-0.64071,81.259,-0.0092053,0.55208,-0.00041793,0.09343,1.1148,13.637,483.3,21.984,12.233,19.721,2.2343,7.9524,4.1777e+07,18.559,39.064,52.449,1
38.898,40.8,301.65,-0.053195,301.71,0.023809,5.7816,-0.0099637,2.7676,3.9643,38.898,3176.1,56.357,9.8121,14.216,3.6993,19.547,1.1811e+10,169.01,188.79,289.21,1
4.6768,5.3931,27.559,0.00097525,27.558,-0.019921,0.20266,-0.0013003,0.06064,1.0182,4.6768,50.93,7.1365,4.5934,7.0093,2.0018,6.6311,1.0047e+05,0.2938,1.0032,1.0735,1
18.356,18.567,70.063,-0.067106,70.13,0.01349,0.79964,0.0020651,0.11593,1.1993,18.356,681.34,26.103,15.305,21.764,1.2333,3.209,1.4373e+07,1.5548,20.385,82.637,1
8.9897,8.0629,33.775,-0.17485,33.95,7.734e-05,0.55061,-0.0030136,0.15081,1.1137,8.9907,145.76,12.073,8.0731,10.841,1.3423,4.0246,3.284e+05,0.19331,0.67512,1.2122,1
8.5694,7.4175,31.908,0.080356,31.828,0.0071717,0.46767,-0.00050082,0.15611,1.0904,8.5694,128.4,11.331,7.8591,10.392,1.1511,3.4573,1.6872e+05,28.07,40.984,44.822,1
49.45,40.131,187.59,4.5475e-13,187.59,0.016739,3.4013,-0.0098266,0.77708,2.7269,49.45,4054.3,63.673,18.134,23.35,1.2044,4.0042,1.0489e+09,321.49,186.16,230.27,1
5.808,7.0001,45.037,0.0019261,45.035,-0.002773,0.66582,-0.0014675,0.24146,1.1351,5.808,82.687,9.0932,5.1168,8.011,3.1325,14.878,1.2128e+06,3.5813,1.7111,1.5924,1
4.5647,3.3904,15.208,0.029866,15.178,-0.00015135,0.3146,-0.00057404,0.11281,1.0443,4.5647,32.32,5.6851,4.3711,5.444,1.2666,4.4785,4955.2,0.25769,0.85057,0.48298,1
6.7449,6.6397,33.459,0.0014261,33.457,-0.0095816,0.49055,0.0040684,0.20762,1.0953,6.7449,89.537,9.4624,6.1578,8.6388,1.5121,4.8965,1.8178e+05,1.4126,4.2575,1.6304,1
6.0697,4.5341,23.738,-0.023338,23.761,0.0005929,0.4128,-0.00045702,0.15643,1.0738,6.0698,57.38,7.575,5.6525,7.0542,1.0107,4.1631,20595,13.062,7.0031,3.5237,1
15.901,12.561,51.897,0.35909,51.538,-0.013489,0.82557,0.00056526,0.16122,1.2249,15.901,410.48,20.26,12.981,16.54,1.1013,3.2744,2.1019e+06,133.31,53.213,10.154,1
31.903,33.691,149.75,-2.1866,151.94,-0.017849,1.5312,0.0011888,0.25808,1.5073,31.927,2151.8,46.387,21.182,30.776,1.7073,5.4658,6.6952e+08,0.69072,3.1662,8.1354,1
1.3856,1.6842,8.4204,0.0087966,8.4116,-0.0006989,0.067749,7.7876e-05,0.022084,1.0013,1.3856,4.7534,2.1802,1.3837,2.1774,2.6035,9.5883,470.95,0.56628,0.77203,0.6993,1
14.999,20.631,105.67,-0.17618,105.84,0.03161,0.95727,-0.00079058,0.17315,1.2052,15,650.2,25.499,12.446,21.158,2.5783,9.8421,1.4016e+08,106.44,103.5,100.29,1
5.4915,6.1737,33.19,0.12623,33.064,-0.030657,0.26232,-0.00019431,0.055836,1.0272,5.4915,68.235,8.2604,5.3461,8.0417,2.1875,7.9076,2.5479e+05,0.15508,0.066165,0.013107,1
21.773,35.011,175.17,-0.41804,175.58,0.11122,1.3101,-0.00019268,0.31844,1.3967,21.775,1698.7,41.215,15.59,29.508,3.1024,12.025,2.4343e+09,3937.4,4942.5,5111.3,1
15.449,21.884,97.397,0.17025,97.227,0.036929,0.83413,-0.0018846,0.24635,1.216,15.449,717.12,26.779,12.705,22.023,2.3513,7.8299,1.2872e+08,588.41,457.17,133.28,1
19.719,17.941,81.742,-0.2626,82.005,0.026573,1.4972,-4.0339e-05,0.49458,1.5496,19.72,710.42,26.654,12.726,17.2,1.3429,4.4876,2.2248e+07,5.6498,2.1709,7.8264,1
13.2,11.692,58.157,-0.96525,59.122,-0.021768,0.86753,-0.0020051,0.3227,1.2629,13.204,310.81,17.63,10.455,13.96,1.278,4.0523,2.3063e+06,10.386,6.7662,6.2598,1
4.7222,9.6298,54.537,0.025995,54.511,-0.002181,0.46227,-0.00021585,0.085084,1.0567,4.7222,114.94,10.721,4.4689,10.146,3.6133,15.764,5.8674e+06,0.19851,0.14947,0.067965,1
1.7041,1.2973,5.7266,-0.068753,5.7953,0.0019446,0.087533,-0.00012963,0.033234,1.0028,1.7047,4.5854,2.1414,1.6998,2.1353,1.1329,3.7604,30.885,4.5455,5.3396,3.8659,1
10.483,9.3982,59.983,-0.096543,60.079,-0.0024937,1.0456,-0.00043502,0.3745,1.3045,10.483,198.13,14.076,8.036,10.79,2.1964,8.771,2.5174e+06,21.029,43.917,66.018,1
23.421,17.956,81.173,0.11927,81.054,0.0037654,2.1121,-9.005e-05,0.77729,1.865,23.421,870.66,29.507,12.558,15.822,0.94595,3.013,1.0994e+07,152.38,282.28,301.89,1
15.725,13.888,57.421,-0.052972,57.474,0.012218,1.3656,-0.0014637,0.51734,1.5104,15.725,439.96,20.975,10.411,13.887,1.4448,4.2074,5.2063e+06,121.07,394.94,196.65,1
19.694,22.651,132.41,-0.018497,132.43,0.0076304,1.3787,0.00034119,0.25223,1.509,19.694,900.43,30.007,13.05,19.885,2.513,10.396,2.5624e+08,41.904,30.061,53.589,1
14.86,12.2,62.037,0.002437,62.035,0.00047381,0.99908,-6.2147e-05,0.19669,1.3099,14.86,369.53,19.223,11.345,14.675,1.4444,5.0956,4.0065e+06,43.085,90.61,154.36,1
35.516,19.144,73.718,0,73.718,0.042429,10.207,0.017826,5.7418,9.1074,35.516,1627.5,40.343,3.8997,4.4296,0.12092,1.7597,1.1091e+06,546.98,585.63,563.75,1
35.241,17.722,69.413,2.499,66.914,-0.037407,9.771,-0.011421,5.4693,8.8102,35.241,1555.7,39.442,4,4.4769,-0.0026021,1.6831,50820,349.93,352.28,364.43,1
2.6367,4.1717,16.98,0.0032882,16.976,-0.0042333,0.16106,0.00030898,0.055626,1.011,2.6367,24.339,4.9334,2.6079,4.8796,2.3204,7.0843,26624,0.028379,0.036459,0.07451,1
8.6587,12.787,46.439,-0.002992,46.442,0.0077313,0.43253,-6.8266e-05,0.094118,1.0752,8.6587,238.33,15.438,8.0529,14.358,1.5049,4.0326,3.3353e+06,47.872,90.055,126.35,1
12.207,8.2294,38.068,-0.47436,38.543,0.015139,0.95949,-0.008778,0.42549,1.2659,12.21,216.68,14.72,9.6456,11.628,0.87547,3.1451,2.3279e+05,10.184,5.3484,3.3686,1
13.005,6.54,36.246,5.6843e-14,36.246,0.0099351,1.579,-0.0027627,0.81537,1.7243,13.005,211.86,14.555,7.5421,8.4412,0.87233,3.8841,94756,25.474,28.662,37.485,1
10.168,8.7127,45.157,-1.1369e-13,45.157,-0.0050028,0.71816,0.0042278,0.32347,1.1919,10.168,179.22,13.387,8.5311,11.232,1.5992,6.1799,1.0284e+06,1.7906,4.5048,8.3975,1
