12.311,15.048,69.05,0.0096855,69.04,0.0029488,0.69945,0.0036796,0.14349,1.1571,12.311,377.78,19.437,10.64,16.798,1.68,4.7376,1.0052e+07,37.888,136.61,248.59,1
47.192,50.581,261.11,-2.2737e-13,261.11,-0.060034,4.0104,0.009768,1.1897,3.0813,47.192,4783.1,69.16,15.315,22.445,1.9762,6.5488,6.8568e+09,20.734,29.29,23.197,1
83.861,92.427,475.35,-0.65421,476,0.051026,4.9538,-0.0045872,1.3388,3.791,83.865,15567,124.77,22.122,32.912,2.5336,9.5542,2.3302e+11,1531.1,64.696,45.744,1
70.876,73.538,282.3,0.10253,282.2,-0.064185,3.6692,0.0010712,1.0651,2.8257,70.876,10426,102.11,25.083,36.136,1.1573,3.1675,1.4472e+10,2947,8826.7,12451,1
34.66,29.881,109.04,-1.4663,110.5,0.0040219,1.453,-0.003216,0.42234,1.5893,34.678,2093.4,45.753,21.82,28.789,0.87969,2.5567,1.0256e+08,9.1952,12.414,20.615,1
20.38,14.499,72.068,0.043469,72.025,0.002668,1.1028,-0.0017321,0.43753,1.4025,20.38,625.36,25.007,14.531,17.831,1.2599,4.0767,6.2876e+06,20.346,31.674,54.284,1
35.306,34.259,157.54,-0.5497,158.09,-0.04639,1.5523,-0.00068712,0.23346,1.5363,35.308,2419.1,49.184,22.982,32.014,1.4187,4.6408,5.9874e+08,7.0236,10.524,11.66,1
5.1498,7.1697,40.105,-0.54065,40.646,-0.0039191,0.27505,0.00020725,0.042799,1.0317,5.171,77.876,8.8247,5.0123,8.5539,3.1556,13.55,1.0968e+06,4.5347,11.901,29.828,1
13.939,19.789,81.848,-0.15272,82.001,-0.00061732,0.713,-0.00027646,0.11445,1.1599,13.94,585.54,24.198,12.018,20.862,2.0931,6.2065,5.4377e+07,0.73263,0.057318,0.20248,1
12.957,14.974,70.313,-0.5693,70.882,0.0058792,0.57383,-0.00022604,0.10594,1.1236,12.97,391.9,19.796,11.544,17.619,1.9562,6.8526,1.688e+07,57.474,76.044,66.727,1
86.204,70.926,356.07,0,356.07,-0.025466,6.6802,0.011184,2.3126,5.1431,86.204,12457,111.61,16.761,21.701,1.1056,3.826,1.7605e+10,106.99,92.393,108.59,1
56.007,47.468,240.92,0.0066138,240.91,0.08654,5.7668,0.021801,2.0696,4.6438,56.007,5387.8,73.402,12.061,15.806,1.6303,5.3109,3.6291e+09,96.349,141.51,180.71,1
23.197,25.024,135.31,-2.2737e-13,135.31,-0.011934,2.1031,0.00060508,0.74779,1.9489,23.197,1163.7,34.114,11.903,17.504,2.1789,7.9387,2.8077e+08,1.5801,8.2946,27.242,1
13.825,11.968,57.145,2.2737e-13,57.145,-0.011814,1.1791,0.0011411,0.46868,1.4203,13.825,334.21,18.281,9.7336,12.871,1.625,4.9037,3.1911e+06,24.976,24.291,33.295,1
18.29,18.749,87.593,0.09898,87.494,-0.0048269,0.91528,0.0012494,0.28294,1.2742,18.29,685.7,26.186,14.354,20.551,1.7063,5.5104,3.8007e+07,51.09,50.554,64.071,1
14.036,16.545,85.295,0.08212,85.213,-0.010069,0.83239,-0.00059527,0.16187,1.1812,14.036,470.47,21.69,11.883,18.362,2.3145,8.281,3.6683e+07,14.985,18.009,41.725,1
64.34,50.628,193.6,-0.058764,193.66,-0.0114,2.6908,-0.0030221,0.45997,2.2659,64.34,6700.5,81.856,28.396,36.126,0.86362,2.8731,1.6801e+09,298.81,3581.5,5440.4,1
4.7422,6.1666,29.246,0.080216,29.166,-0.0018879,0.26062,3.2566e-05,0.042254,1.0265,4.7422,60.479,7.7768,4.6197,7.576,2.2747,8.0884,2.5151e+05,1.3316,1.4339,1.8413,1
19.136,30.024,132.86,-0.00032093,132.86,0.011648,0.78181,-0.001254,0.10037,1.186,19.136,1266.8,35.592,16.136,30.011,2.187,7.1232,5.5631e+08,468.81,734.95,1003.7,1
13.838,16.255,79.436,-0.020721,79.457,-0.0016196,0.80935,-0.00012231,0.1074,1.2041,13.838,455.48,21.342,11.493,17.724,2.0356,7.0904,2.6616e+07,0.10665,0.079101,0.20142,1
12.302,17.718,67.484,-0.048079,67.532,0.043388,0.71643,-0.0014372,0.10846,1.1557,12.302,464.94,21.562,10.644,18.657,1.7221,4.5366,1.9416e+07,572.51,520.21,372.37,1
16.144,11.452,55.815,0.044698,55.77,-0.01462,1.051,0.00091489,0.42097,1.3679,16.144,391.65,19.79,11.802,14.467,1.301,4.4224,2.2797e+06,44.443,29.827,30.623,1
17.028,10.306,50.716,-0.0025015,50.719,0.024887,1.0819,-0.0025341,0.40589,1.394,17.028,396.09,19.902,12.216,14.277,0.91129,3.6175,8.39e+05,215.55,23.887,7.5233,1
18.278,16.611,60.464,-0.53395,60.998,0.027764,0.76887,-4.4619e-07,0.10177,1.2062,18.285,609.74,24.693,15.16,20.472,0.81827,2.4998,5.4778e+06,317.8,332.13,246.97,1
14.581,11.548,48.317,0.34275,47.974,-0.02378,0.55548,0.00029072,0.083729,1.123,14.581,345.83,18.596,12.983,16.559,0.96889,3.2068,1.342e+06,34.063,31.369,35.441,1
11.616,9.7451,41.916,-1.0422,42.958,0.0029638,0.52628,-0.00056974,0.10326,1.1101,11.629,229.81,15.16,10.475,13.656,1.2069,3.796,7.5164e+05,3.7872,5.3575,7.6367,1
12.926,13.04,57.224,-0.63578,57.859,3.8739e-05,0.64145,0.00024555,0.10904,1.1466,12.935,336.96,18.356,11.282,16.01,1.4525,4.4796,4.2888e+06,1.1225,3.2369,6.4782,1
10.839,7.774,31.831,-0.01417,31.845,-0.0028675,0.53349,8.1842e-05,0.14397,1.1144,10.839,177.85,13.336,9.7257,11.967,0.71942,2.6796,1.1921e+05,2.8297,14.153,38.128,1
7.5703,5.2027,33.044,-0.1404,33.184,-0.0052461,0.31877,0.00059851,0.059912,1.0413,7.5718,84.353,9.1844,7.2716,8.8203,1.6761,8.2797,1.2489e+05,6.1225,7.4231,8.5699,1
4.7848,2.9519,14.12,-0.2913,14.411,0.0063425,0.18723,-0.00019901,0.04249,1.0159,4.7871,31.599,5.6213,4.7124,5.5336,0.71706,3.4689,1434.7,39.017,35.789,23.553,1
11.645,13.434,74.279,0.17544,74.104,-0.013676,0.85357,-0.00014699,0.24635,1.2287,11.645,315.9,17.774,9.4776,14.465,2.7618,11.136,1.9462e+07,4.5927,7.7048,10.611,1
9.1147,7.9752,32.35,-0.00013191,32.35,-0.0019821,0.41535,0.00010602,0.12409,1.0746,9.1147,146.62,12.109,8.482,11.268,1.2072,3.5425,2.5179e+05,1.0659,1.9198,6.4363,1
2.5356,3.8796,20.323,0.0016036,20.321,0.00075826,0.14943,0.00017251,0.029927,1.0095,2.5356,21.466,4.6332,2.5118,4.5897,2.9666,11.568,40339,0.72961,0.52373,0.53003,1
2.9027,2.2325,11.366,-0.016636,11.382,-0.00043406,0.15208,-3.9025e-05,0.035135,1.0101,2.9027,13.405,3.6612,2.8736,3.6245,1.2286,4.8371,787.68,0.39621,1.0889,1.9854,1
12.933,15.589,75.248,0.061909,75.186,-0.0017221,0.60005,0.00029103,0.10191,1.1121,12.933,410.05,20.25,11.629,18.209,2.1057,7.1213,2.1662e+07,2.9928,1.5313,2.3773,1
18.279,25.012,111.54,-0.03197,111.57,0.014024,0.76749,-0.00052434,0.12615,1.1953,18.28,959.17,30.97,15.293,25.911,2.2645,7.454,2.3121e+08,174.81,588.75,1358.5,1
13.624,14.013,62.295,0.011849,62.283,-0.0041951,0.80344,0.00090481,0.25471,1.2349,13.624,381.78,19.539,11.033,15.823,1.3516,4.1338,5.7053e+06,16.47,7.5907,1.1557,1
8.8837,7.1385,36.038,0.0067507,36.031,-0.0079663,0.63603,-0.00052957,0.26568,1.1572,8.8837,129.83,11.394,7.6769,9.8465,1.3902,4.632,2.3329e+05,1.9801,4.3029,4.5509,1
2.5919,2.4001,9.5816,0.0070831,9.5745,-0.00085009,0.1023,2.2475e-05,0.035061,1.0042,2.5919,12.473,3.5317,2.581,3.5168,1.2031,3.4268,591.53,0.85244,0.68537,0.57433,1
0.88332,0.47655,2.7163,-0.00040987,2.7167,-0.00090456,0.059802,0.00021441,0.027362,1.0008,0.88332,1.0071,1.0036,0.88259,1.0027,1.1954,4.948,0.31067,0.09551,0.06693,0.037447,1
14.007,12.62,53.02,-0.0011471,53.021,0.0021861,0.833,0.0017908,0.19261,1.214,14.007,355.31,18.85,11.538,15.527,1.2189,3.3281,2.2487e+06,27.44,1.4201,1.542,1
13.725,13.879,57.429,0.038579,57.39,-0.0034858,0.7344,-0.00061685,0.16671,1.1779,13.725,380.83,19.515,11.652,16.567,1.5341,4.3781,5.5496e+06,2.1014,1.8196,3.5772,1
16.461,15.452,79.42,0.015777,79.404,-0.0017755,0.81678,-0.00057756,0.17599,1.2264,16.461,509.5,22.572,13.422,18.405,1.5876,5.6473,1.5417e+07,8.5675,23.892,59.945,1
18.338,22.136,97.392,-0.0041901,97.396,0.0047507,1.0704,-7.6549e-05,0.2131,1.2863,18.338,825.82,28.737,14.257,22.342,1.8008,5.7609,9.1487e+07,6.1306,4.0202,2.7527,1
17.188,18.85,85.901,0.027154,85.874,0.0010194,0.99306,-0.00086012,0.20629,1.2925,17.188,650.39,25.503,13.298,19.732,1.6552,5.0469,3.3368e+07,131.3,555.09,1206.4,1
27.009,29.667,146.45,0,146.45,0.02057,1.3311,-0.00022804,0.20894,1.4335,27.009,1608.8,40.11,18.841,27.979,2.0653,7.4765,5.8591e+08,68.224,107.21,145.35,1
22.514,20.544,90.759,0.0069335,90.752,0.029518,1.3068,-0.0011268,0.21886,1.4177,22.514,928.55,30.472,15.88,21.493,1.2898,4.2006,3.9757e+07,122.78,0.33573,2.0645,1
17.15,15.475,68.367,0.20074,68.166,0.023281,0.8592,-0.0020434,0.14411,1.2158,17.15,533.38,23.095,14.105,18.995,1.3085,4.2423,9.4089e+06,228.15,338.68,464.48,1
11.917,11.275,56.77,-0.06566,56.836,-0.012306,0.73408,0.0004253,0.13941,1.1905,11.917,269.03,16.402,10.011,13.778,1.7045,5.8269,3.2178e+06,151.6,241.47,130.76,1
17.15,15.475,68.367,0.20074,68.166,0.023281,0.8592,-0.0020434,0.14411,1.2158,17.15,533.38,23.095,14.105,18.995,1.3085,4.2423,9.4089e+06,228.15,338.68,464.48,1
11.917,11.275,56.77,-0.06566,56.836,-0.012306,0.73408,0.0004253,0.13941,1.1905,11.917,269.03,16.402,10.011,13.778,1.7045,5.8269,3.2178e+06,151.6,241.47,130.76,1
19.799,27.012,135.01,0.002462,135.01,-0.012981,1.2366,-0.001811,0.17848,1.3539,19.799,1120.9,33.481,14.623,24.728,2.313,8.2101,4.1666e+08,66.429,115.79,157.23,1
24.909,16.526,77.384,0.41308,76.971,0.010251,0.89912,-0.00091602,0.17115,1.2811,24.909,893.3,29.888,19.443,23.329,0.99659,3.8044,1.0267e+07,193.26,197.39,113.03,1
24.262,16.106,73.919,0.045453,73.874,0.0012105,0.95687,-0.00038816,0.18529,1.2982,24.262,847.82,29.117,18.689,22.428,0.76202,3.2597,6.7161e+06,67.223,70.322,86.244,1
24.811,40.29,177.34,-0.33114,177.67,-0.0062599,1.2705,-0.0001053,0.13582,1.3271,24.812,2237.3,47.3,18.697,35.643,2.2834,7.5566,2.6385e+09,0.67183,0.16031,2.376,1
29.939,36.231,169.25,-0.13034,169.38,-0.00049243,1.5682,-0.0002547,0.21968,1.4813,29.939,2207.8,46.987,20.211,31.72,1.8971,6.2835,1.2345e+09,9.341,12.54,17.579,1
9.7565,7.9619,32.418,-0.14183,32.56,-0.01944,0.56752,0.0001388,0.22183,1.1305,9.7569,158.52,12.591,8.6304,11.137,0.89999,2.8781,1.7125e+05,0.54772,1.2187,7.55,1
8.2664,5.0967,26.311,0.031266,26.28,-0.006274,1.1904,0.0023736,0.55011,1.4957,8.2664,94.284,9.71,5.5268,6.492,0.97588,3.5408,24523,5.5617,5.3316,8.5648,1
38.89,37.944,200.03,-1.1786,201.21,0.061791,3.3196,-0.010181,1.3278,2.7168,38.897,2950.8,54.321,14.317,19.994,1.9313,6.7384,1.7388e+09,1078.5,1410.9,787.45,1
2.6602,1.1195,5.9878,0.0014012,5.9864,0.001385,0.17309,-6.5342e-05,0.09726,1.0137,2.6602,8.3287,2.8859,2.6241,2.8468,0.35274,3.3605,5.3611,2.4238,1.7569,1.9652,1
1.4485,0.93285,4.5268,-1.4211e-13,4.5268,-0.00027385,0.070079,0.00030801,0.030151,1.0015,1.4485,2.9676,1.7227,1.4464,1.7201,1.0495,3.549,5.0752,0.15989,0.17499,0.31358,1
1.0588,0.27401,2.191,0.39789,1.7931,-7.6922e-05,0.059922,-9.9862e-06,0.029344,1.0008,1.0588,1.196,1.0936,1.0579,1.0927,0.36022,3.5826,0.0086202,0.18786,0.23227,0.37053,1
68.934,35.814,193.88,0.4492,193.43,-0.01282,15.513,0.035518,7.4546,13.893,68.934,6033.3,77.674,4.9617,5.5908,0.20953,2.429,1.4267e+08,1969,1877.3,1909.2,1
79.958,39.745,193.46,1.9489,191.51,-0.0067411,15.814,-0.051467,7.4368,14.148,79.958,7971.5,89.283,5.6516,6.3107,0.30637,2.5209,2.5467e+08,4977.8,2806,3509.2,1
22.446,12.11,62.311,0.11597,62.195,0.018154,4.3867,-0.020048,2.5538,3.6054,22.446,650.35,25.502,6.2258,7.0733,0.45863,2.5963,8.6115e+05,207.76,118.45,32.707,1
27.605,14.28,65.014,-0.0054891,65.02,0.0094797,3.5572,-0.0022458,1.9862,2.9554,27.605,965.74,31.076,9.3405,10.515,0.26533,2.2611,9.5702e+05,389.77,439.41,592.01,1
3.0769,2.5552,16.465,5.6843e-14,16.465,0.0026727,0.32236,-0.00066198,0.18857,1.0477,3.0769,15.99,3.9988,2.9367,3.8166,3.1261,13.993,6726.3,1.9711,1.1671,1.5459,1
12.722,8.6765,41.373,-0.59723,41.97,-0.010425,1.6914,0.013746,0.8741,1.729,12.725,237.07,15.397,7.3597,8.9053,0.97353,3.5872,3.7983e+05,30.526,19.773,45.871,1
14.784,10.727,48.074,-0.23956,48.313,-0.013257,1.7585,-0.0028706,0.97475,1.7201,14.785,333.51,18.262,8.595,10.617,1.0167,3.2848,9.1891e+05,64.397,8.1892,10.401,1
26.491,9.7803,55.451,0.3261,55.125,-0.00014321,3.9732,-0.017096,2.3056,3.3664,26.491,797.32,28.237,7.8692,8.3879,-0.080724,2.9807,-24724,198.04,186.69,161.59,1
15.273,10.922,56.374,1.1369e-13,56.374,0.0064694,1.0914,-0.0091729,0.34296,1.3533,15.273,352.45,18.774,11.286,13.872,0.9696,3.6885,1.317e+06,92.82,96.932,38.532,1
11.164,8.9757,39.436,-0.17917,39.615,0.024824,0.69527,0.0015736,0.20444,1.1836,11.164,205.11,14.322,9.4322,12.1,1.0463,3.4337,4.326e+05,21.65,1.6271,16.877,1
4.6872,3.5388,14.755,-0.0023767,14.758,-0.0017368,0.15006,-2.7754e-06,0.045512,1.0101,4.6872,34.481,5.872,4.6404,5.8134,1.066,3.4961,4105.2,0.90557,0.27371,0.093219,1
3.8979,2.4031,10.554,-0.020937,10.575,0.0033217,0.13388,-0.00020849,0.046647,1.0079,3.8979,20.963,4.5785,3.8675,4.5427,0.39737,2.4492,213.22,16.667,20.553,14.845,1
10.65,10.733,56.351,-1.5063,57.858,-0.00074993,0.57534,0.00058313,0.11021,1.1141,10.714,228.51,15.117,9.6171,13.568,1.5911,6.1425,3.0007e+06,31.104,19.068,1.4901,1
3.2874,2.9178,16.939,-0.023759,16.962,-0.0071852,0.16868,0.00021259,0.041457,1.0124,3.2875,19.312,4.3946,3.2473,4.3408,1.79,7.347,5820.5,0.48928,0.20545,0.087393,1
8.2819,5.8999,26.733,0.0023443,26.73,0.016955,1.1504,0.00024519,0.66964,1.4082,8.2819,103.37,10.167,5.8812,7.2198,0.90267,3.2834,48138,7.9075,3.942,6.0742,1
10.555,6.231,30.592,-0.51062,31.103,-0.011766,1.6149,-0.00051245,0.93207,1.6378,10.557,150.2,12.256,6.4455,7.483,0.81532,3.2015,55941,20.726,18.032,19.967,1
34.794,28.508,122.66,-0.028529,122.69,-0.004935,1.7337,0.00356,0.30468,1.6955,34.795,2022.6,44.973,20.522,26.526,0.98424,3.2271,1.2847e+08,155.81,343.81,541.43,1
36.393,27.639,142.19,0.012029,142.18,-0.032893,1.9984,-0.0046069,0.34149,1.8189,36.393,2087.6,45.691,20.008,25.12,0.96574,4.0179,1.7098e+08,118.93,327.34,793.5,1
21.557,18.892,84.527,0.18184,84.345,0.030098,1.9371,0.0091734,0.51233,1.7897,21.557,821.27,28.658,12.045,16.013,1.4712,4.4922,2.7526e+07,7.8731,2.4552,3.2809,1
7.6177,11.385,53.571,0.016353,53.555,-0.0019867,0.40985,0.00060352,0.060057,1.0612,7.6177,187.53,13.694,7.1783,12.904,2.458,8.7373,5.8145e+06,0.82406,0.74387,1.0137,1
5.0237,4.5455,21.565,-0.0066636,21.572,0.0023292,0.2061,8.3892e-05,0.045196,1.0191,5.0238,45.88,6.7735,4.9297,6.6467,1.6231,5.7181,33442,4.8957,6.077,7.6259,1
21.385,24.078,108.24,1.1369e-13,108.24,0.06723,1.4192,-0.0038285,0.28294,1.4961,21.385,1036.5,32.194,14.294,21.519,1.8436,5.4699,1.2397e+08,1103.1,1162,795.34,1
18.868,17.26,70.524,0.082507,70.442,-0.053837,1.3551,0.0013084,0.27358,1.4588,18.868,653.62,25.566,12.934,17.525,1.2961,3.809,1.3216e+07,378.93,626.76,149.36,1
15.882,14.673,79.496,-0.0014238,79.498,0.010489,1.0779,0.00028593,0.20967,1.3115,15.882,467.34,21.618,12.11,16.483,1.7044,6.4214,1.5136e+07,62.761,97.815,143.47,1
11.296,13.005,67.4,-0.0051988,67.405,-0.010155,0.66838,-4.9959e-05,0.12143,1.1518,11.296,296.57,17.221,9.807,14.952,2.2088,7.9077,1.0267e+07,2.8113,0.52842,1.1108,1
3.436,4.329,20.254,0.024991,20.229,-0.0018387,0.14856,0.00041277,0.039462,1.0095,3.436,30.528,5.5252,3.4035,5.4729,2.3372,8.0685,40914,0.049149,0.10165,0.16557,1
15.734,18.838,111.18,-0.89123,112.07,0.010079,1.1132,0.00083751,0.27826,1.3731,15.739,602.08,24.537,11.462,17.87,3.1821,14.262,1.5097e+08,5.6601,18.056,54.059,1
17.097,16.086,77.401,0.019824,77.382,-0.0079247,1.0451,-0.0017552,0.25412,1.3434,17.097,550.82,23.469,12.726,17.47,1.6797,5.4424,1.6738e+07,3.8116,4.7091,12.093,1
28.73,22.295,97.905,0.049701,97.855,-0.017566,1.1514,-0.0084117,0.22867,1.3765,28.73,1322,36.36,20.872,26.415,0.78141,2.8,2.8834e+07,415.97,574.77,683.67,1
28.313,27.227,139.1,-0.63263,139.73,-0.0053641,1.5709,-0.0014516,0.27028,1.5973,28.316,1542.3,39.272,17.728,24.586,1.8046,6.622,3.3396e+08,195.54,5.2046,38.105,1
23.492,34.069,171.91,-0.00044529,171.91,0.014891,1.2254,-0.0033476,0.32866,1.4183,23.492,1711.5,41.37,16.563,29.169,2.9483,11.374,2.0215e+09,42.545,22.182,9.9979,1
20.315,19.273,84.365,-2.7594,87.124,0.031685,0.8415,9.6393e-05,0.22561,1.2444,20.36,783.78,27.996,16.362,22.498,1.1405,3.69,2.3594e+07,438.46,246.79,45.753,1
8.5048,6.936,32.096,0.0029066,32.093,0.0061037,0.37905,0.00055543,0.087016,1.0605,8.5048,120.39,10.972,8.0199,10.347,1.7081,6.0518,2.8863e+05,9.93,9.1821,13.834,1
11.796,8.147,36.982,0.0025695,36.98,-0.013734,0.42417,-0.0004604,0.10727,1.0769,11.796,205.45,14.333,10.953,13.31,0.75184,3.0821,2.0509e+05,5.282,3.2442,0.13847,1
1.7289,0.80173,4.0123,0.049671,3.9627,-0.00059532,0.079533,4.4688e-06,0.034321,1.0022,1.7289,3.6314,1.9056,1.7252,1.9014,0.5858,2.9987,1.389,0.34194,0.23062,0.17861,1
16.172,19.991,80.986,-3.7031e-06,80.986,-0.011013,0.7569,0.0002542,0.10169,1.1852,16.172,660.81,25.706,13.646,21.69,1.5275,4.2565,3.4498e+07,0.70785,1.5631,5.2481,1
6.0762,5.3496,24.81,-0.0068033,24.816,-0.00077718,0.29593,0.00034048,0.099487,1.0396,6.0762,65.512,8.0939,5.8446,7.7854,1.4982,5.0392,62225,0.48678,2.805,5.0288,1
6.9646,5.0101,22.119,-0.13456,22.253,0.016601,0.38399,3.2791e-06,0.080339,1.0626,6.9656,73.583,8.5781,6.555,8.0724,0.88854,3.2796,19780,20.138,0.10274,1.9344,1
8.3916,6.426,36.117,-0.15289,36.27,-0.014817,0.33585,0.0010278,0.069784,1.0483,8.3933,111.67,10.568,8.0064,10.081,1.7377,6.9874,2.6677e+05,4.6747,6.1517,7.7138,1
3.4573,2.5317,10.504,0.0015832,10.503,0.00086257,0.11663,2.819e-05,0.035577,1.0057,3.4573,18.356,4.2844,3.4376,4.2601,1.2857,3.778,820.62,7.9714,11.604,17.34,1
17.538,10.731,48.916,-0.49463,49.411,0.011163,0.83037,0.0025255,0.17883,1.257,17.544,422.63,20.558,13.957,16.354,0.45847,2.8417,5.1763e+05,52.43,39.564,6.7322,1
14.691,10.741,49.578,3.4106e-13,49.578,-0.01409,0.81777,-0.00023808,0.15537,1.2122,14.691,331.08,18.196,12.119,15.01,1.2353,4.1229,1.3885e+06,5.5078,9.5988,49.918,1
2.1934,1.2117,5.5592,-0.093067,5.6523,-0.00037055,0.18136,-0.00024959,0.082458,1.015,2.1936,6.2777,2.5055,2.1612,2.4684,0.4608,2.358,6.7831,0.2392,0.34328,0.46606,1
2.1059,1.027,6.3404,0.0016061,6.3388,2.7146e-06,0.18915,-6.7423e-05,0.089355,1.0164,2.1059,5.4886,2.3428,2.0719,2.305,0.97045,4.0683,10.887,0.34678,0.27759,0.42769,1
47.696,37.424,168.32,-0.43835,168.76,-0.026217,3.1316,0.0028113,1.1004,2.2825,47.697,3674.1,60.615,20.897,26.556,1.0529,3.5669,5.9018e+08,9.5116,27.881,81.602,1
38.133,28.6,123.27,0.018082,123.26,0.020591,3.2388,-0.00049941,1.2109,2.6874,38.133,2271.3,47.658,14.189,17.734,0.97419,2.987,1.0748e+08,172.09,100.31,398.51,1
5.2853,9.0764,43.233,-0.05122,43.284,-0.0032638,0.2913,3.9552e-05,0.046136,1.0312,5.2855,110.24,10.499,5.1253,10.181,2.8986,10.641,2.4184e+06,0.041689,0.11177,0.21508,1
14.393,11.791,58.267,-0.75402,59.021,0.0029117,0.85839,-0.0042423,0.33348,1.2347,14.396,346.06,18.603,11.66,15.067,1.0558,3.871,2.2938e+06,4.1425,3.3617,2.3579,1
12.889,12.374,51.032,-0.26733,51.3,-0.00059231,0.92409,-0.00071312,0.41932,1.2824,12.89,319.11,17.864,10.052,13.93,1.3941,4.2248,2.97e+06,11.168,22.455,57.3,1
5.092,4.0383,27.289,-0.0069543,27.296,0.021779,0.56498,-0.0013491,0.24102,1.0904,5.0921,42.221,6.4978,4.6699,5.9591,2.2421,9.6611,43673,65.264,68.962,68.39,1
6.2381,4.4405,22.847,0.0021375,22.845,-0.019458,0.34877,7.5499e-05,0.12849,1.0532,6.2381,58.613,7.6559,5.923,7.2692,1.2043,4.1282,17300,2.7106,6.3862,11.738,1
10.428,16.685,81.021,-0.45706,81.478,0.00060797,0.53172,0.00017191,0.056173,1.0907,10.439,386.86,19.669,9.5705,18.032,2.5561,9.3175,4.3781e+07,0.98532,0.67952,0.71762,1
13.55,17.198,80.619,-0.64071,81.259,-0.0011376,0.55915,0.0016145,0.095813,1.1174,13.562,479.08,21.888,12.137,19.588,2.2495,8.0333,4.1639e+07,5.4804,20.303,36.582,1
38.836,40.631,301.65,-0.053195,301.71,0.032599,5.7955,-0.0095977,2.7872,3.9882,38.837,3157.6,56.192,9.7379,14.09,3.7138,19.707,1.1715e+10,234.27,192.18,184.84,1
4.6445,5.3774,27.559,0.00097525,27.558,-0.020109,0.20183,-0.0012357,0.060491,1.018,4.6445,50.461,7.1036,4.5623,6.9779,2.0156,6.6943,1.0041e+05,0.36791,0.3146,0.97132,1
18.427,18.495,70.063,-0.067106,70.13,0.022711,0.80275,0.00045915,0.11654,1.2017,18.427,681.27,26.101,15.334,21.72,1.2253,3.2101,1.4103e+07,28.613,2.0507,20.059,1
8.9436,8.0456,33.775,-0.17485,33.95,0.010231,0.56102,-0.0010602,0.15149,1.1177,8.9446,144.66,12.027,8.0028,10.761,1.3504,4.0564,3.29e+05,0.16833,0.23063,0.63024,1
8.5611,7.3715,31.908,0.091804,31.816,-0.0064398,0.45031,-0.0018517,0.15421,1.0848,8.5611,127.58,11.295,7.892,10.412,1.1699,3.5097,1.6771e+05,8.6005,17.008,31.914,1
5.7874,6.9698,45.037,0.0019261,45.035,-0.0023658,0.66267,-0.001428,0.24034,1.1338,5.7874,82.026,9.0568,5.1043,7.9879,3.1518,15.031,1.2048e+06,1.9643,3.5422,1.5642,1
4.5374,3.3832,15.208,0.029866,15.178,-0.0008291,0.31393,0.00011103,0.11295,1.0441,4.5374,32.023,5.6589,4.3457,5.4198,1.2835,4.5169,4987.6,1.6074,2.6359,0.34983,1
6.7005,6.6235,33.459,0.0014261,33.457,-0.0095755,0.4883,0.0037339,0.20666,1.0945,6.7005,88.726,9.4194,6.1221,8.6064,1.5254,4.9404,1.8212e+05,0.68618,1.5733,4.1612,1
6.0358,4.5267,23.738,-0.023338,23.761,8.1504e-05,0.41289,0.00019307,0.15696,1.0739,6.0358,56.902,7.5434,5.6203,7.0241,1.0229,4.1861,20686,1.7059,2.9809,13.837,1
15.932,12.506,51.897,0.35909,51.538,-0.016897,0.82271,0.001089,0.16085,1.2236,15.932,410.09,20.251,13.02,16.549,1.0981,3.2901,2.0693e+06,111.95,128.62,44.157,1
31.669,33.609,149.75,-2.1866,151.94,-0.0025095,1.5289,-0.0011675,0.25807,1.5081,31.693,2131.4,46.167,21.015,30.613,1.7212,5.5165,6.7128e+08,23.588,0.75038,0.63096,1
15.163,20.601,105.67,-0.17618,105.84,0.028868,0.95347,-0.0016332,0.17258,1.2039,15.164,653.89,25.571,12.596,21.241,2.5468,9.7293,1.374e+08,185.28,100.38,96.806,1
5.1559,5.5714,30.282,0.12623,30.156,-0.027847,0.25896,0.00042233,0.054873,1.0264,5.1559,57.594,7.5891,5.0235,7.3942,2.0388,7.0318,1.2667e+05,0.33279,0.2042,0.14869,1
15.821,22.11,97.397,0.17025,97.227,0.027491,0.83607,-0.0028563,0.24556,1.2177,15.821,738.68,27.179,12.993,22.32,2.2613,7.3856,1.251e+08,660.41,581.55,410,1
19.864,17.917,81.742,-0.2626,82.005,0.023471,1.4924,-0.0019855,0.49329,1.5472,19.865,715.29,26.745,12.839,17.286,1.3172,4.431,2.1714e+07,127.22,4.5457,2.1715,1
12.899,11.454,58.157,-0.96525,59.122,-0.022724,0.86166,0.00019135,0.32049,1.2594,12.903,297.44,17.247,10.246,13.695,1.3551,4.3651,2.3441e+06,21.012,36.042,9.8056,1
4.6893,9.5897,54.537,0.025995,54.511,-0.0022803,0.46008,-0.00023233,0.084717,1.0561,4.6893,113.86,10.671,4.44,10.103,3.6338,15.926,5.8336e+06,0.29484,0.18115,0.13929,1
1.7302,1.3001,5.7266,-0.068753,5.7953,0.0015107,0.087269,-9.8827e-05,0.033024,1.0028,1.7307,4.6821,2.1638,1.7258,2.1577,1.0691,3.6173,29.277,1.8221,2.8359,5.211,1
10.483,9.3544,59.983,-0.096543,60.079,-0.00018165,1.0429,-0.0012801,0.37424,1.3036,10.483,197.32,14.047,8.0416,10.775,2.206,8.8508,2.4932e+06,13.511,23.209,41.051,1
23.321,17.903,81.173,0.11927,81.054,0.0039924,2.1041,-0.00021687,0.77449,1.8602,23.321,864.1,29.396,12.537,15.802,0.95942,3.0432,1.1041e+07,19.872,25.156,215.24,1
15.755,13.829,57.421,-0.052972,57.474,0.02041,1.3643,-0.0018493,0.51744,1.5106,15.755,439.29,20.959,10.43,13.875,1.4432,4.2262,5.1332e+06,48.15,130.7,379.82,1
19.582,22.572,132.41,-0.018497,132.43,0.0054333,1.3724,0.00086477,0.25128,1.5046,19.582,892.47,29.874,13.015,19.856,2.5289,10.493,2.5531e+08,27.855,40.187,27.701,1
14.791,12.163,62.037,0.002437,62.035,-0.0010598,0.99442,-0.00070415,0.19541,1.307,14.791,366.59,19.147,11.317,14.649,1.4585,5.1432,4.0066e+06,17.481,26.768,51.347,1
35.505,19.132,73.718,0,73.718,0.029942,10.211,0.023489,5.7423,9.1116,35.505,1626.3,40.328,3.8967,4.4259,0.12184,1.7592,1.1171e+06,571.79,575.33,577.95,1
35.177,17.671,69.413,2.499,66.914,-0.0065754,9.7363,-0.015611,5.4615,8.7781,35.177,1549.4,39.362,4.0073,4.4841,-0.0043209,1.683,48128,353.36,346.4,364.95,1
2.6153,4.1575,16.98,0.0032882,16.976,-0.0041003,0.16038,0.00036327,0.055444,1.0109,2.6153,24.108,4.91,2.587,4.8569,2.3358,7.1617,26597,0.044396,0.030886,0.035964,1
8.6317,12.729,46.439,-0.002992,46.442,0.00040424,0.43619,0.00058411,0.095824,1.0768,8.6317,236.37,15.374,8.0164,14.278,1.5177,4.0808,3.318e+06,7.7913,22.259,60.438,1
12.245,8.1992,38.068,-0.47436,38.543,0.016029,0.95517,-0.0086799,0.42374,1.2636,12.248,217.11,14.735,9.6929,11.661,0.86399,3.1457,2.2789e+05,29.075,10.405,4.3408,1
12.98,6.5205,36.246,5.6843e-14,36.246,0.014131,1.5766,-0.0015798,0.8139,1.723,12.98,210.95,14.524,7.533,8.4293,0.88066,3.9092,94723,18.587,26.756,26.967,1
10.202,8.6856,45.157,-1.1369e-13,45.157,0.0073125,0.73014,0.0038636,0.32511,1.1969,10.202,179.44,13.396,8.5232,11.192,1.5893,6.1745,1.0127e+06,1.7714,2.1078,4.458,1
