14.975,15.584,69.05,0.0096855,69.04,-0.0032363,0.76994,-0.0003217,0.14993,1.1968,14.975,466.93,21.608,12.513,18.056,1.1289,3.0965,6.5035e+06,101.79,265.03,385.14,1
43.89,46.848,261.11,-2.2737e-13,261.11,-0.025935,3.7726,0.0080427,1.1194,2.9159,43.89,4119.4,64.182,15.052,22.011,2.223,7.9163,6.2257e+09,1157,187.17,284.8,1
76.828,86.169,475.35,-0.65421,476,-0.0019954,4.6809,-0.0039045,1.2696,3.5934,76.831,13322,115.42,21.381,32.12,2.7641,11.27,2.1198e+11,200.95,239.15,520.8,1
31.307,28.258,109.04,-1.4663,110.5,0.00017378,1.3536,-0.0031816,0.40143,1.5231,31.321,1778,42.166,20.564,27.685,1.1254,3.1498,1.1386e+08,11.79,16.311,16.61,1
29.414,33.494,157.54,-0.5497,158.09,-0.035704,1.4067,-0.00041499,0.21228,1.4411,29.416,1986.2,44.567,20.412,30.925,1.608,5.2788,6.6089e+08,8.8554,5.0335,2.6047,1
13.141,18.23,81.848,-0.15272,82.001,0.014095,0.67325,0.00021568,0.11297,1.147,13.141,504.76,22.467,11.457,19.588,2.3106,7.4716,4.7795e+07,8.4113,0.38811,3.0329,1
76.234,67.886,356.07,0,356.07,0.020667,6.2658,0.018169,2.2093,4.8197,76.234,10416,102.06,15.817,21.176,1.3645,4.5166,1.8689e+10,244.1,151.89,245.37,1
22.564,23.089,135.31,-2.2737e-13,135.31,0.011993,2.0527,0.00060218,0.75359,1.9222,22.564,1041.9,32.278,11.739,16.792,2.3501,9.2522,2.3852e+08,231.49,87.433,27.656,1
12.585,11.207,57.145,2.2737e-13,57.145,-0.0083337,1.108,0.0013022,0.44596,1.38,12.585,283.89,16.849,9.1198,12.209,1.8979,6.0428,3.1619e+06,15.455,19.77,10.872,1
16.756,17.404,87.593,0.00098899,87.592,-0.011534,0.84526,0.00011379,0.2637,1.2376,16.756,583.4,24.154,13.539,19.517,1.9733,6.769,3.5655e+07,17.945,41.537,54.835,1
19.845,24.588,100.18,0.08212,100.1,-0.053527,1.1381,-0.0015372,0.21117,1.3166,19.845,997.9,31.59,15.073,23.993,1.7636,5.063,1.2222e+08,3.8948,4.5857,1.7587,1
57.974,48.723,193.6,-0.058764,193.66,0.0024396,2.5513,-0.00086531,0.45893,2.1735,57.974,5733,75.717,26.674,34.837,1.0563,3.3376,1.8904e+09,133.05,156.3,199.5,1
4.4922,5.798,29.246,0.080216,29.166,0.001829,0.24455,8.575e-06,0.040462,1.0237,4.4922,53.77,7.3328,4.388,7.1628,2.3614,8.9232,2.1862e+05,14.309,18.589,25.36,1
12.705,15.737,79.436,-0.020721,79.457,0.013241,0.77385,-0.00036859,0.10313,1.1876,12.705,408.87,20.221,10.698,17.026,2.0321,7.2915,2.429e+07,201.54,288.11,225.5,1
16.385,11.512,55.815,-0.0025015,55.817,-0.013776,1.0425,0.00022737,0.40936,1.3672,16.385,400.88,20.022,11.984,14.644,1.1878,4.0351,1.9968e+06,111.9,108.58,76.684,1
18.368,16.264,60.464,-0.53395,60.998,-0.0014588,0.75669,0.00021902,0.10038,1.2037,18.374,601.69,24.529,15.265,20.379,0.80225,2.4841,4.8215e+06,34.627,126.31,300.25,1
11.35,10.802,47.881,-1.0422,48.923,0.030226,0.53388,-0.00041585,0.10165,1.1127,11.361,245.41,15.666,10.21,14.079,1.3804,4.2191,1.5309e+06,516.31,342.74,98.362,1
10.881,7.5838,31.831,-0.01417,31.845,0.017801,0.55751,0.00093585,0.14597,1.1224,10.881,175.87,13.262,9.695,11.816,0.65506,2.6174,99182,0.95228,3.4383,2.3452,1
7.2332,4.9537,33.044,-0.1404,33.184,-0.0031206,0.30007,0.00042523,0.0573,1.037,7.2344,76.84,8.7658,6.976,8.4528,1.6948,8.8283,1.1068e+05,17.789,25.008,26.382,1
14.033,15.425,103.98,0.072922,103.91,0.069081,0.98504,0.0010933,0.24196,1.2773,14.033,434.68,20.849,10.987,16.323,2.5649,10.792,4.029e+07,661.81,21.027,7.0303,1
9.2868,8.2189,32.35,-0.042761,32.393,0.010369,0.42992,0.00051089,0.1238,1.0799,9.2869,153.74,12.399,8.5997,11.482,1.1232,3.2024,2.4563e+05,12.116,5.9509,13.349,1
2.2612,3.568,20.323,0.0016036,20.321,0.00054782,0.13825,7.1007e-05,0.029078,1.0082,2.2612,17.834,4.223,2.2429,4.1888,3.3404,14.262,36142,0.62828,0.11156,0.22337,1
11.265,14.596,75.248,0.061909,75.186,-0.0037348,0.547,0.00031044,0.093967,1.0939,11.265,339.8,18.434,10.299,16.852,2.3928,8.6547,2.0822e+07,1.7346,0.58161,0.18514,1
13.899,13.152,62.295,0.011849,62.283,-0.0038026,0.80543,0.00056986,0.26413,1.2365,13.899,366.01,19.131,11.24,15.472,1.3299,4.3486,4.5434e+06,33.394,37.767,54.321,1
2.3059,2.2628,9.5816,0.0070831,9.5745,-0.0016798,0.096067,5.0417e-05,0.033686,1.0038,2.3059,10.434,3.2301,2.2972,3.2179,1.4877,4.2678,629.54,0.19833,0.20484,0.23876,1
16.113,13.952,57.93,-0.0011471,57.931,-0.034479,0.87553,0.0012852,0.22293,1.2381,16.113,454.13,21.31,13.014,17.212,1.1064,3.1548,3.4908e+06,24.835,33.201,28.091,1
13.195,13.732,57.429,0.038579,57.39,0.0044162,0.73552,-0.0012857,0.16204,1.1806,13.195,362.53,19.04,11.176,16.127,1.5389,4.3722,5.2888e+06,226.83,451.8,327.36,1
16.748,20.477,97.392,-0.0041901,97.396,0.0057977,0.99315,-0.00035803,0.20371,1.2538,16.748,699.51,26.448,13.358,21.094,2.0693,7.0779,8.4439e+07,18.112,10.667,13.122,1
23.734,27.907,146.45,0,146.45,0.0033709,1.2169,-0.0010345,0.19157,1.368,23.734,1341.5,36.626,17.35,26.774,2.3223,8.8903,5.6296e+08,5.4143,5.8927,6.8013,1
15.802,14.511,68.367,0.10949,68.258,0.00022417,0.79534,-0.00099275,0.13707,1.1886,15.802,460.1,21.45,13.294,18.046,1.5218,5.0674,9.1197e+06,4.354,8.2972,10.134,1
15.802,14.511,68.367,0.10949,68.258,0.00022417,0.79534,-0.00099275,0.13707,1.1886,15.802,460.1,21.45,13.294,18.046,1.5218,5.0674,9.1197e+06,4.354,8.2972,10.134,1
24.372,29.48,135.01,0.002462,135.01,0.036716,1.4289,-0.0018661,0.21101,1.4696,24.372,1462.4,38.241,16.584,26.021,1.6545,5.0358,3.1923e+08,855.11,1200.5,1629,1
24.164,15.811,77.384,0.26835,77.116,0.032968,0.90663,4.9646e-05,0.17502,1.2831,24.164,833.69,28.874,18.832,22.503,1.0153,4.053,9.2391e+06,364.22,257.54,17.53,1
27.503,40.239,177.34,-0.33114,177.67,0.012916,1.3057,-0.00090186,0.13931,1.3697,27.504,2374.3,48.727,20.08,35.574,1.9968,6.3251,2.0762e+09,608.28,1120,1962.3,1
10.08,8.3487,35.052,-0.14183,35.194,0.0064557,0.54875,-0.00039804,0.21048,1.1233,10.081,171.26,13.086,8.9741,11.65,1.08,3.3412,2.8537e+05,276.93,187.45,95.816,1
8.3149,5.0778,27.631,-0.012965,27.644,-0.0035981,1.1745,0.00071617,0.54057,1.4828,8.315,94.903,9.7418,5.6077,6.5699,1.0109,3.8469,28794,36.228,14.048,34.293,1
37.068,37.032,200.03,-1.1786,201.21,-0.0086329,3.1191,-0.011917,1.2324,2.563,37.074,2744.4,52.387,14.465,20.44,1.9641,6.8103,1.5828e+09,74.669,61.921,80.943,1
2.7298,1.0476,5.9878,0.0014012,5.9864,0.00013661,0.18057,-8.0008e-05,0.10267,1.0152,2.7298,8.5481,2.9237,2.6889,2.8799,0.21411,3.5855,2.9893,1.864,2.0509,3.0552,1
1.3928,0.86559,4.5268,-1.4211e-13,4.5268,4.1639e-05,0.068773,0.00033638,0.030256,1.0016,1.3928,2.6886,1.6397,1.3906,1.6371,1.238,4.25,4.7921,0.18541,0.16706,0.14486,1
69.695,35.547,193.88,0.4492,193.43,-0.0091332,15.441,0.0080131,7.3979,13.839,69.695,6120,78.23,5.036,5.6528,0.17986,2.3343,1.1619e+08,1754.8,2057.1,2201.9,1
22.389,12.362,62.311,-0.0054891,62.316,0.013102,4.1641,-0.017028,2.4176,3.438,22.389,654,25.573,6.5123,7.4384,0.44739,2.5115,8.7211e+05,40.032,139.45,234.25,1
2.8588,2.3888,16.465,5.6843e-14,16.465,0.0024357,0.31069,-0.00083308,0.18135,1.0446,2.8588,13.875,3.7249,2.7367,3.5658,3.3552,16.248,6068.9,0.21641,0.31859,0.94256,1
15.747,10.892,48.074,-0.59723,48.671,-0.015019,1.9092,0.011333,1.0221,1.8256,15.749,366.5,19.144,8.6265,10.487,0.78194,2.7771,7.1185e+05,82.722,93.888,118.35,1
26.657,10.284,55.451,-0.64315,56.094,0.0060312,3.7921,-0.012754,2.1888,3.2186,26.658,816.29,28.571,8.2826,8.8768,-0.11447,2.8099,-86549,34.986,75.12,136.12,1
15.41,10.6,56.374,1.1369e-13,56.374,0.010875,1.0947,-0.0066815,0.35347,1.3641,15.41,349.73,18.701,11.296,13.709,0.93053,3.6357,1.0999e+06,52.294,102.19,100.11,1
12.614,10.254,42.661,-0.17917,42.84,-0.0025107,0.75094,-0.0012003,0.21335,1.2115,12.614,264.17,16.253,10.412,13.416,0.99539,3.0809,6.8195e+05,7.84,7.869,31.722,1
4.6156,3.3184,14.755,-0.020937,14.776,0.00099134,0.14816,-5.1398e-06,0.047403,1.01,4.6157,32.307,5.6839,4.57,5.6277,1.0932,3.8597,3511.5,3.6249,2.3908,1.966,1
9.4003,10.127,56.351,-1.5063,57.858,-0.0055294,0.52399,0.00063769,0.10165,1.0952,9.4533,190.85,13.815,8.6319,12.615,1.849,7.2408,2.9027e+06,0.57304,0.42434,1.0717,1
9.0777,6.2988,30.295,0.0023443,30.293,-2.4187e-06,1.5255,-0.00079286,0.89207,1.5676,9.0777,122.05,11.048,5.791,7.0476,0.82385,3.0571,57254,22.081,38.256,52.63,1
37.653,28.981,122.66,-0.028529,122.69,-0.025082,1.7636,-0.00011786,0.30979,1.743,37.653,2257,47.508,21.602,27.256,0.73829,2.6394,9.3956e+07,141.98,457.54,1072,1
29.142,27.442,121.54,0.18184,121.36,0.027233,2.1375,0.0018565,0.52569,1.9305,29.142,1601.8,40.022,15.095,20.731,1.4322,4.3443,1.7412e+08,1065.1,406.98,597.23,1
6.8411,10.547,53.571,0.016353,53.555,0.0054825,0.37893,0.00038302,0.056671,1.053,6.8411,157.96,12.568,6.4967,11.935,2.7292,10.518,5.254e+06,32.28,15.249,1.3463,1
20.007,22.707,108.24,1.1369e-13,108.24,0.0090431,1.3225,-0.0021676,0.25898,1.4406,20.007,915.49,30.257,13.888,21.003,1.9907,6.2342,1.133e+08,34.459,36.494,67.272,1
13.763,14.153,79.496,-0.0051988,79.501,0.00077746,0.9787,0.00043508,0.19095,1.258,13.763,389.57,19.738,10.94,15.689,1.8721,7.2076,1.5178e+07,6.4266,1.3494,0.064883,1
3.2256,3.9921,20.254,0.024991,20.229,0.0036689,0.14344,0.00044561,0.038569,1.0091,3.2256,26.329,5.1312,3.1967,5.0852,2.584,9.6912,36068,4.1288,1.364,0.065003,1
15.042,17.584,111.18,-0.89123,112.07,0.0030913,1.0816,-0.00032066,0.26671,1.3555,15.046,535.21,23.135,11.1,17.067,3.3142,15.955,1.2902e+08,0.84123,1.9611,1.1817,1
32.431,27.323,139.1,0.049701,139.05,-0.024886,1.3609,-0.0067653,0.23692,1.4966,32.431,1797.7,42.4,21.669,28.33,1.3644,5.1144,2.3281e+08,215.95,272.64,451.82,1
23.902,31.506,171.91,-0.00044529,171.91,0.013844,1.1622,-0.0035916,0.31704,1.3886,23.902,1563.2,39.537,17.214,28.474,3.0368,12.617,1.6331e+09,186.82,316.89,477.67,1
9.1087,7.113,32.096,0.0029066,32.093,0.0051469,0.3802,0.00028115,0.089437,1.0612,9.1087,133.52,11.555,8.583,10.888,1.3629,4.6425,2.2046e+05,14.546,0.067347,3.4683,1
1.6778,0.76615,4.0123,-0.019585,4.0319,0.00055581,0.079124,4.1022e-05,0.034042,1.0023,1.6778,3.4015,1.8443,1.6739,1.84,0.58374,3.3884,1.2757,1.0124,0.95837,0.84861,1
15.513,18.359,80.986,-3.7031e-06,80.986,-0.0085963,0.70681,-3.8229e-05,0.10277,1.1653,15.513,577.45,24.03,13.312,20.621,1.7134,5.1546,3.0172e+07,5.3613,13.574,29.111,1
8.2957,6.5302,31.593,-0.13456,31.728,0.00069277,0.42047,-5.5293e-05,0.084002,1.0738,8.2965,111.43,10.556,7.726,9.8301,1.2268,4.3468,1.3226e+05,1.6213,8.7845,9.3284,1
7.2772,6.2997,36.117,-0.15289,36.27,-0.01365,0.30717,0.0011803,0.064907,1.0406,7.2786,92.613,9.6236,6.9949,9.2485,1.8663,7.5275,2.7752e+05,0.066414,0.37051,1.0766,1
16.466,10.359,48.916,-0.49463,49.411,-0.0037474,0.79155,0.0023775,0.17178,1.2346,16.471,378.34,19.451,13.342,15.756,0.58584,3.0502,5.7766e+05,3.7517,12.105,35.808,1
2.0376,1.1719,5.5592,-0.093067,5.6523,0.00059457,0.17378,-0.00023542,0.078827,1.0139,2.0378,5.5243,2.3504,2.0099,2.3181,0.66192,2.6451,8.7085,0.97625,0.67864,0.13504,1
42.59,36.014,168.32,-0.43835,168.76,-0.016816,2.9456,0.0013792,1.0664,2.2188,42.591,3109.9,55.766,19.196,25.134,1.2657,4.1418,6.3958e+08,109.02,114.76,153.39,1
4.7245,8.317,43.233,-0.05122,43.284,-0.0020491,0.26701,-0.00016903,0.045488,1.0265,4.7246,91.439,9.5624,4.6028,9.3157,3.2799,13.24,2.1553e+06,0.40818,0.54603,0.51085,1
13.781,11.245,58.267,-0.75402,59.021,0.0095843,0.88344,-0.0020333,0.37883,1.2551,13.784,316.27,17.784,10.983,14.17,1.1113,4.1716,2.0697e+06,29.027,34.05,48.521,1
5.4349,4.3841,27.289,-0.0069543,27.296,0.0052125,0.53,-0.0013871,0.22338,1.0828,5.4349,48.744,6.9817,5.0193,6.4478,1.8798,7.2613,42190,18.642,31.005,22.746,1
12,17.279,81.021,-0.45706,81.478,0.010701,0.63185,-0.00051446,0.068991,1.1259,12.009,442.33,21.032,10.666,18.679,2.1558,7.1521,3.5872e+07,208.8,377.81,603.83,1
16.957,19.06,80.619,-0.64071,81.259,0.00094829,0.69903,-7.0566e-05,0.11339,1.1764,16.967,650.54,25.506,14.423,21.682,1.5312,4.62,3.0954e+07,10.335,0.99528,13.418,1
36.503,37.321,301.65,-0.053195,301.71,0.014847,5.5975,-0.0043642,2.7754,3.998,36.503,2724.3,52.195,9.1304,13.055,4.0996,23.716,1.0134e+10,141.38,125.52,141.38,1
4.3204,4.9483,27.559,0.00097525,27.558,-0.016193,0.18993,-0.0010096,0.057566,1.0161,4.3204,43.132,6.5675,4.2521,6.4637,2.2957,8.2479,90053,1.2984,1.5348,2.8208,1
20.646,19.522,74.623,-0.067106,74.69,0.00085024,0.83417,-6.336e-06,0.12214,1.2215,20.647,807.08,28.409,16.902,23.257,1.0461,2.8823,1.5786e+07,31.602,26.167,1.0325,1
8.793,7.8062,33.775,-0.17485,33.95,0.0063498,0.53305,-0.0021981,0.14101,1.1071,8.7938,138.21,11.756,7.9429,10.619,1.3418,4.1048,2.9172e+05,6.4347,3.0593,1.0333,1
5.4798,6.4063,45.037,0.0019261,45.035,-0.0038232,0.60583,-0.00095983,0.22064,1.1131,5.4798,71.037,8.4284,4.923,7.5719,3.4514,17.935,1.0337e+06,0.23876,0.07985,0.33124,1
5.9959,6.2422,33.459,0.0014261,33.457,-0.0027109,0.46346,0.0032021,0.1975,1.0863,5.9959,74.886,8.6537,5.5197,7.9663,1.7598,5.9191,1.7847e+05,2.6139,0.27633,1.1854,1
15.449,11.977,51.897,0.35909,51.538,0.00019081,0.80537,0.0030854,0.15838,1.2173,15.449,382,19.545,12.691,16.055,1.1091,3.4899,1.8576e+06,147.62,140.79,207.65,1
14.52,18.965,105.67,-0.17618,105.84,0.0031039,0.88592,-0.0010467,0.1612,1.1816,14.522,570.22,23.879,12.29,20.21,2.7685,11.488,1.1739e+08,14.917,25.997,40.663,1
15.01,20.559,97.397,-5.6843e-14,97.397,-0.015136,0.79819,-0.0015123,0.22562,1.2058,15.01,647.66,25.449,12.449,21.106,2.4349,8.5211,1.0879e+08,21.988,10.486,43.29,1
20.04,16.773,81.742,-0.2626,82.005,-0.0023445,1.4138,-0.0026983,0.47501,1.5081,20.041,682.74,26.129,13.289,17.326,1.3021,4.7196,1.7506e+07,14.227,19.942,51.756,1
4.0341,8.8007,54.537,-0.020078,54.557,-0.0017957,0.41817,-0.00018866,0.078491,1.0467,4.0341,93.666,9.6781,3.8542,9.2464,4.0656,19.596,5.1581e+06,0.22418,0.10953,0.020084,1
11.783,10.957,59.983,-0.096543,60.079,-0.0044615,1.1714,-0.00091803,0.41746,1.3696,11.783,258.79,16.087,8.6029,11.745,2.0628,7.3687,3.9547e+06,14.605,15.468,23.211,1
15.775,13.516,57.421,-0.052972,57.474,0.0046825,1.392,-0.00033484,0.52372,1.5334,15.776,431.4,20.77,10.288,13.546,1.3961,4.2086,4.5726e+06,50.117,36.82,57.023,1
17.928,20.989,132.41,-0.018497,132.43,0.0018885,1.2911,0.00041683,0.24074,1.449,17.928,761.6,27.597,12.372,19.045,2.7862,12.374,2.2853e+08,15.16,30.935,28.58,1
35.647,19.275,73.718,0,73.718,-0.0034973,10.325,0.014188,5.809,9.242,35.647,1641.9,40.521,3.857,4.3844,0.09802,1.7276,9.079e+05,538.94,613.05,882.92,1
2.2446,3.8489,16.98,0.0032882,16.976,-0.0033272,0.14889,0.0003151,0.052707,1.0095,2.2446,19.84,4.4543,2.2234,4.4123,2.6757,8.987,25259,0.13302,0.10802,0.084051,1
11.636,7.9437,38.068,-0.47436,38.543,0.0096141,0.90417,-0.0069653,0.39399,1.2449,11.638,198.44,14.087,9.3485,11.316,0.9361,3.3672,2.2388e+05,23.748,8.8659,2.2591,1
12.663,6.2407,36.246,5.6843e-14,36.246,0.0037207,1.5812,-0.00042602,0.82373,1.7316,12.663,199.27,14.116,7.3129,8.1521,0.94592,4.1761,87854,17.095,12.088,17.496,1
9.8825,8.2845,45.157,-0.27038,45.427,-0.0022896,0.71094,0.002183,0.33,1.1902,9.883,166.24,12.894,8.3038,10.833,1.6244,6.4702,8.8065e+05,14.911,5.3107,2.4653,1
