14.404,15.243,69.05,1.7279e-05,69.05,-0.0050487,0.75315,0.00036577,0.14914,1.1898,14.404,439.66,20.968,12.107,17.624,1.2215,3.349,6.5689e+06,9.7996,23.425,35.675,1
45.881,47.424,261.11,-2.2737e-13,261.11,-0.026027,3.9513,0.0050387,1.1299,3.0201,45.881,4352.4,65.973,15.192,21.845,2.0914,7.2302,5.7884e+09,462.86,995.68,5828.7,1
73.181,84.438,475.35,-0.65421,476,-0.019677,4.5373,-0.0018582,1.2344,3.4577,73.183,12480,111.71,21.165,32.309,2.8545,11.914,2.0881e+11,90.381,102.94,138.31,1
30.478,27.561,109.04,-1.4663,110.5,0.0094969,1.3318,-0.003302,0.4001,1.5114,30.491,1687.9,41.084,20.174,27.183,1.2093,3.4043,1.1416e+08,176.88,192.3,107.58,1
27.767,32.971,157.54,-0.5497,158.09,-0.035536,1.3603,8.4589e-06,0.2053,1.4131,27.768,1857.3,43.096,19.651,30.499,1.6953,5.5993,6.6958e+08,0.53678,2.5418,4.7119,1
13.458,17.718,81.848,-0.15272,82.001,0.0032904,0.65443,-0.0003805,0.1104,1.1396,13.459,494.84,22.245,11.811,19.52,2.3034,7.6585,4.3449e+07,38.013,61.632,97.259,1
74.533,66.257,356.07,0,356.07,-0.01446,6.125,0.010639,2.1706,4.7193,74.533,9942,99.709,15.793,21.128,1.4342,4.8046,1.8224e+10,149.68,426.44,681.45,1
22.334,22.463,135.31,-2.2737e-13,135.31,-0.0063827,2.0456,-0.00026187,0.7618,1.9178,22.334,1003,31.67,11.646,16.514,2.4117,9.7533,2.2568e+08,76.429,41.989,68.701,1
12.276,10.938,57.145,2.2737e-13,57.145,-0.0026006,1.0853,0.0013985,0.43847,1.3675,12.276,270.23,16.439,8.9768,12.021,1.9779,6.4528,3.093e+06,42.55,10.375,4.9307,1
17.059,17.107,87.593,0.00098899,87.592,0.0012372,0.85738,-0.00026695,0.26997,1.2466,17.059,583.46,24.155,13.685,19.377,1.8973,6.6589,3.2449e+07,169.23,261.2,242.14,1
19.414,23.944,100.18,0.08212,100.1,-0.037097,1.1308,-0.0016625,0.21169,1.318,19.414,949.79,30.819,14.73,23.382,1.83,5.3955,1.1793e+08,76.708,215.87,65.863,1
55.892,47.873,193.6,-0.058764,193.66,-0.016561,2.4742,0.00061527,0.44748,2.1128,55.892,5414.1,73.581,26.454,34.827,1.1408,3.5607,1.9485e+09,22.457,117.29,275.46,1
4.5746,5.6828,29.246,0.080216,29.166,0.0076904,0.24508,0.00025323,0.039987,1.0242,4.5746,53.197,7.2936,4.4664,7.1212,2.3317,8.9454,2.0082e+05,16.106,1.7439,1.9407,1
12.359,15.312,79.436,-0.020721,79.457,-0.00058583,0.75096,4.1766e-05,0.10007,1.1774,12.359,387.03,19.673,10.497,16.709,2.1211,7.7942,2.3423e+07,2.7554,6.1902,12.976,1
16.054,11.316,55.815,-0.0025015,55.817,-0.0069262,1.0491,0.0011769,0.4073,1.3717,16.054,385.68,19.639,11.703,14.317,1.2342,4.2034,1.9742e+06,42.285,138.47,47.88,1
18.624,16.246,60.464,-0.53395,60.998,0.013345,0.76677,-0.00012671,0.10141,1.2093,18.63,610.62,24.711,15.405,20.434,0.73585,2.3689,4.3638e+06,343.94,434.09,246.9,1
11.963,10.882,47.881,-1.0422,48.923,0.0089865,0.53088,-0.00071481,0.10057,1.1119,11.973,261.44,16.169,10.767,14.541,1.2517,3.8674,1.3752e+06,66.521,63.559,58.162,1
11.29,7.7174,31.831,-0.01417,31.845,0.00087377,0.55235,-0.00024727,0.14683,1.1206,11.29,186.99,13.674,10.075,12.203,0.58257,2.4561,91452,30.037,73.041,83.761,1
6.9468,4.9353,33.044,-0.2913,33.335,-0.0051687,0.2926,0.00067138,0.055896,1.0353,6.9496,72.597,8.5204,6.7124,8.2295,1.7018,8.839,1.1039e+05,0.13577,0.57707,1.9056,1
19.183,26.923,136.58,0.072922,136.51,-0.0081612,1.1198,-0.001057,0.24683,1.3429,19.183,1092.3,33.051,14.285,24.61,2.7914,10.74,5.8552e+08,646.14,2300.7,4063.6,1
10.507,9.3386,36.507,-0.042761,36.55,0.014509,0.43589,-0.00067225,0.12433,1.0824,10.507,197.55,14.055,9.7069,12.985,1.0298,2.9408,4.0695e+05,276.81,327.1,282.55,1
2.4755,3.7069,20.323,-0.016636,20.339,0.0039704,0.15372,-3.5962e-05,0.030184,1.0103,2.4756,19.859,4.4563,2.4504,4.411,2.8796,11.336,32306,22.289,32.173,14.848,1
10.75,14.244,75.248,0.061909,75.186,-0.003442,0.52997,0.00027715,0.091895,1.0884,10.75,318.31,17.841,9.877,16.393,2.5024,9.276,2.0416e+07,2.7278,0.70002,2.246,1
13.923,12.954,62.295,0.0067507,62.289,0.0016979,0.81107,0.001213,0.26503,1.2385,13.923,361.53,19.014,11.242,15.352,1.2996,4.3401,4.2334e+06,162.1,188.12,56.966,1
2.1944,2.2301,9.5816,-0.00040987,9.582,-0.0010018,0.094975,7.9953e-05,0.033949,1.0037,2.1944,9.7851,3.1281,2.1862,3.1165,1.5674,4.5555,647.29,0.28952,0.097458,0.0097895,1
15.493,13.692,57.93,-0.0011471,57.931,-0.031548,0.84941,0.00084496,0.2169,1.2249,15.493,427.36,20.673,12.648,16.877,1.2065,3.4009,3.6139e+06,12.974,12.447,5.5026,1
13.557,13.558,57.429,0.038579,57.39,0.0040603,0.74899,-0.00082059,0.16282,1.188,13.557,367.47,19.169,11.411,16.136,1.4641,4.2111,4.7271e+06,116.04,255.74,230.12,1
15.83,20.101,97.392,-0.0041901,97.396,0.0021604,0.96243,-0.00012409,0.19932,1.2395,15.83,654.34,25.58,12.772,20.638,2.1576,7.5209,8.4337e+07,1.211,0.48494,0.87707,1
23.517,27.309,146.45,0,146.45,0.031067,1.219,-2.9783e-05,0.19151,1.376,23.517,1298.3,36.031,17.09,26.185,2.3302,9.1443,5.3135e+08,267.49,446.26,165.97,1
14.865,14.466,68.367,-0.06566,68.433,0.0010752,0.77014,-0.0006193,0.13401,1.1773,14.865,430.07,20.738,12.627,17.615,1.5662,5.2375,9.5136e+06,0.75799,0.59777,0.26399,1
14.865,14.466,68.367,-0.06566,68.433,0.0010752,0.77014,-0.0006193,0.13401,1.1773,14.865,430.07,20.738,12.627,17.615,1.5662,5.2375,9.5136e+06,0.75799,0.59777,0.26399,1
23.951,28.932,135.01,0.002462,135.01,-0.014091,1.4109,-0.00070218,0.20572,1.4648,23.951,1410.1,37.551,16.351,25.636,1.6835,5.1957,3.0627e+08,3.7079,18.696,39.8,1
24.986,15.859,77.384,0.26835,77.116,0.024093,0.92077,-0.00066046,0.18351,1.2904,24.986,875.63,29.591,19.363,22.932,0.87893,3.6749,7.8367e+06,250.45,77.313,246.34,1
31.22,44.565,177.34,-0.33114,177.67,0.06599,1.6481,-0.0025041,0.18413,1.4924,31.222,2959.3,54.399,20.921,36.452,1.7784,5.1392,2.4683e+09,5986,6976.9,2385.5,1
10.207,8.4189,35.052,-0.14183,35.194,-0.016199,0.55456,0.00014664,0.20742,1.1263,10.208,175.01,13.229,9.0632,11.746,1.041,3.2034,2.7567e+05,10.267,18.225,14.421,1
8.7661,5.5334,28.313,-0.012965,28.326,-0.002356,1.194,0.00058675,0.54719,1.4938,8.7661,107.44,10.365,5.8683,6.9389,1.0508,3.8725,45385,83.478,150.6,122.13,1
35.962,36.095,200.03,-1.1786,201.21,-0.002028,3.0733,-0.010121,1.2326,2.5444,35.967,2595.2,50.943,14.136,20.022,2.0626,7.3038,1.5458e+09,34.484,130.53,187.96,1
2.6362,1.0867,5.9878,0.0014012,5.9864,0.00079833,0.18031,0.0001331,0.10246,1.0152,2.6362,8.1294,2.8512,2.5967,2.8085,0.1942,3.3643,3.6821,0.28252,0.32895,0.244,1
1.3683,0.84417,4.5268,-1.4211e-13,4.5268,-0.0003244,0.06846,0.00027253,0.03027,1.0016,1.3683,2.5843,1.6076,1.3661,1.605,1.3214,4.547,4.7521,0.28399,0.28428,0.22198,1
70.187,35.55,193.88,0.4492,193.43,0.010032,15.39,0.018353,7.357,13.779,70.187,6189.1,78.671,5.0939,5.7096,0.20283,2.3824,1.2447e+08,2115.2,1737.8,1718.2,1
21.722,12.291,62.311,-0.0054891,62.316,0.011657,4.0614,-0.015103,2.3592,3.3492,21.722,622.79,24.956,6.4856,7.4513,0.51884,2.587,9.727e+05,90.705,39.829,27.275,1
2.8883,2.3192,16.465,5.6843e-14,16.465,0.0015267,0.30386,-0.00080578,0.17689,1.0427,2.8883,13.717,3.7037,2.77,3.5519,3.3917,16.915,5597.8,2.3463,2.6269,2.1284,1
15.149,10.824,48.074,-0.59723,48.671,-0.019636,1.8774,0.0095211,1.0085,1.8082,15.151,346.56,18.616,8.379,10.295,0.84511,2.9076,7.6584e+05,9.0266,3.6813,6.2065,1
26.651,10.314,55.451,-0.64315,56.094,0.032237,3.7291,-0.0065639,2.1547,3.1762,26.652,816.61,28.576,8.3913,8.997,-0.13554,2.7845,-1.0103e+05,195.46,231.28,277.28,1
15.04,10.465,56.374,1.1369e-13,56.374,0.012916,1.0912,-0.0077206,0.34983,1.3662,15.04,335.66,18.321,11.009,13.41,0.96369,3.7598,1.1005e+06,5.4226,20.53,55.417,1
12.032,10.168,42.661,-0.17917,42.84,-0.001342,0.74068,-0.00074508,0.22198,1.2071,12.032,248.07,15.75,9.9678,13.048,1.0744,3.2541,7.2911e+05,2.8431,1.5133,5.5351,1
4.6005,3.2243,14.755,-0.020937,14.776,0.00043654,0.14823,0.00013399,0.048404,1.0101,4.6005,31.553,5.6172,4.5547,5.5613,1.1239,4.0697,3313.5,1.8192,2.5548,5.3709,1
9.0083,9.9151,56.351,-1.5063,57.858,-0.0017478,0.50837,0.00039954,0.098941,1.0898,9.0577,179.39,13.394,8.311,12.289,1.9404,7.6745,2.8533e+06,5.3297,3.1919,0.58075,1
9.4067,6.5429,30.592,0.0023443,30.59,0.0085802,1.5048,-0.0009527,0.87298,1.5551,9.4067,131.26,11.457,6.0491,7.3676,0.84553,3.1677,74602,54.472,120.85,200.29,1
38.954,31.044,142.19,-0.028529,142.22,-9.418e-05,2.05,-0.0009215,0.35632,1.8381,38.954,2480.5,49.804,21.193,27.096,0.85407,3.0494,1.8144e+08,1556.9,4123.1,3097.6,1
30.742,27.532,121.54,0.18184,121.36,0.033058,2.112,-0.0010116,0.5264,1.9212,30.742,1702.5,41.262,16.001,21.477,1.2604,3.8628,1.4855e+08,1221.5,1174.8,535.75,1
7.3195,10.465,53.571,0.016353,53.555,0.0091799,0.37973,0.00025669,0.056959,1.0541,7.3195,163,12.767,6.9439,12.112,2.5379,9.7448,4.636e+06,110.61,110.59,52.132,1
19.226,22.248,108.24,1.1369e-13,108.24,0.027661,1.3101,-0.00084058,0.25671,1.4355,19.226,864.27,29.398,13.393,20.479,2.0659,6.6161,1.12e+08,8.9607,7.4366,10.357,1
13.243,13.866,79.496,-0.0051988,79.501,0.0029553,0.95336,4.1148e-05,0.18629,1.247,13.243,367.49,19.17,10.62,15.373,1.9503,7.613,1.4889e+07,38.868,1.3966,0.32444,1
4.0897,5.1588,21.804,0.024991,21.779,0.0072986,0.17107,0.00023352,0.041565,1.0129,4.0897,43.32,6.5818,4.0378,6.4983,2.0043,6.0524,63284,58.505,79.357,96.932,1
16.064,18.293,111.18,-0.89123,112.07,0.013593,1.1262,-0.0015384,0.26455,1.3794,16.068,592.43,24.34,11.648,17.645,2.8671,12.736,1.1633e+08,412.59,878.16,779.54,1
31.157,26.917,139.1,0.049701,139.05,-0.028825,1.3369,-0.0023218,0.23879,1.4789,31.157,1694.8,41.168,21.068,27.837,1.4386,5.3685,2.3446e+08,5.4235,34.81,43.722,1
22.609,30.879,171.91,-2.7594,174.67,0.00071708,1.1304,-0.0025087,0.31107,1.3699,22.644,1464,38.262,16.53,27.931,3.1182,13.303,1.6021e+09,0.97515,0.38298,0.71138,1
9.4486,7.0033,32.096,0.0029066,32.093,0.0046176,0.37153,3.175e-05,0.088963,1.0587,9.4486,138.29,11.76,8.925,11.108,1.2207,4.3923,1.8797e+05,62.888,51.34,38.542,1
1.6731,0.75233,4.0123,-0.019585,4.0319,-0.00049843,0.078263,-1.6504e-05,0.033636,1.0023,1.6732,3.365,1.8344,1.6693,1.8302,0.58157,3.4485,1.2115,0.44873,0.55734,0.6281,1
14.957,17.923,80.986,-3.7031e-06,80.986,-0.0020777,0.68859,-0.00013524,0.10072,1.1579,14.957,544.71,23.339,12.917,20.157,1.7985,5.5302,2.9728e+07,51.58,33.396,3.0156,1
9.4051,7.968,37.204,-0.13456,37.338,0.015714,0.46632,-0.00029399,0.08752,1.0874,9.4059,151.9,12.325,8.6496,11.334,1.2991,4.1966,3.3213e+05,206.52,193.99,242.22,1
7.2583,6.107,36.117,-0.15289,36.27,-0.010996,0.30107,0.00082992,0.063345,1.0391,7.2596,89.952,9.4843,6.9866,9.1277,1.9213,7.9879,2.6033e+05,10.112,14.809,18.674,1
16.721,10.832,48.916,-0.49463,49.411,-0.00088423,0.84266,0.0015356,0.1755,1.2527,16.725,396.83,19.921,13.351,15.902,0.62548,2.9904,7.0371e+05,99.729,306.1,485.01,1
2.0547,1.1459,5.5592,-0.093067,5.6523,-0.00076961,0.1772,-0.00052631,0.081428,1.0146,2.0549,5.5338,2.3524,2.0254,2.3187,0.63616,2.6908,7.8026,1.5282,1.074,1.3584,1
43.037,36.18,168.32,-0.43835,168.76,-0.0040869,3.0041,0.0018794,1.0575,2.2608,43.038,3160.2,56.216,19.037,24.865,1.1896,3.8867,5.9399e+08,956.76,2582.1,2391.5,1
4.4805,8.0925,43.233,-0.05122,43.284,-0.002376,0.25955,6.9102e-05,0.045318,1.0251,4.4806,85.515,9.2475,4.3708,9.0209,3.4101,14.209,2.0868e+06,0.12531,0.51153,0.21568,1
13.863,11.606,58.267,-0.75402,59.021,0.035112,0.92209,-0.0031734,0.39224,1.2775,13.866,326.8,18.078,10.853,14.15,1.1595,4.1288,2.3127e+06,226.9,4.9946,6.4238,1
5.3092,4.2746,27.289,-0.0069543,27.296,0.0029138,0.517,-0.0010635,0.21871,1.0797,5.3092,46.446,6.8151,4.9175,6.3123,1.9707,7.7417,41007,1.798,1.7784,2.193,1
11.463,16.859,81.021,-0.45706,81.478,-0.00025803,0.61549,0.00013334,0.067991,1.1204,11.471,415.42,20.382,10.239,18.192,2.2518,7.6605,3.5139e+07,0.13717,0.23669,0.54775,1
16.414,18.58,80.619,-0.64071,81.259,-0.0042856,0.68164,-0.00017673,0.11324,1.1686,16.423,614.4,24.787,14.054,21.211,1.62,4.9719,3.0484e+07,3.0351,8.3437,16.368,1
35.609,36.28,301.65,-0.053195,301.71,0.02164,5.4918,0.0032857,2.7312,3.9519,35.609,2583.3,50.826,9.0105,12.861,4.2364,25.229,9.6616e+09,149.94,207.68,197.06,1
4.1258,4.8393,27.559,0.00097525,27.558,-0.015514,0.18459,-0.00099216,0.056227,1.0152,4.1258,40.424,6.358,4.0641,6.2629,2.3982,8.8087,88714,0.42873,0.80175,0.33511,1
20.367,18.989,74.623,-0.067106,74.69,0.015336,0.84429,0.0018783,0.1261,1.2275,20.367,775.14,27.841,16.593,22.682,1.0981,3.0774,1.529e+07,22.731,91.006,157.23,1
8.925,7.66,33.775,-0.17485,33.95,0.014999,0.54413,-0.0012257,0.14208,1.1128,8.9257,138.29,11.76,8.0213,10.568,1.2935,4.0771,2.6392e+05,4.0949,32.415,70.835,1
5.8995,6.4506,45.037,0.0019261,45.035,-0.00061849,0.59698,-0.0011483,0.21464,1.1114,5.8995,76.383,8.7397,5.3081,7.8637,3.0704,15.62,9.099e+05,32.99,52.146,46.949,1
6.2035,6.1091,33.459,0.0014261,33.457,-0.0046561,0.45421,0.0024825,0.19334,1.0833,6.2035,75.776,8.705,5.7267,8.0359,1.6741,5.8139,1.5836e+05,13.391,18.012,28.061,1
16.653,12.748,52.84,0.35909,52.481,-0.012998,0.80479,0.0005131,0.15636,1.2173,16.653,439.71,20.969,13.681,17.227,0.99258,3.1376,2.0922e+06,148.3,209.13,254.94,1
13.753,18.562,105.67,-0.17618,105.84,0.0004525,0.85753,-0.00083404,0.15632,1.1707,13.754,533.45,23.097,11.749,19.729,2.8651,12.168,1.1509e+08,0.71579,2.824,5.189,1
15.091,19.93,97.397,-5.6843e-14,97.397,-0.006081,0.79813,-0.0016732,0.22301,1.2082,15.091,624.66,24.993,12.491,20.687,2.4859,8.9752,1.0107e+08,45.293,40.171,85.011,1
20.871,16.918,81.742,-0.2626,82.005,0.0070546,1.4206,-0.001132,0.47238,1.52,20.872,721.62,26.863,13.731,17.673,1.1574,4.2383,1.5414e+07,373.72,594.52,578.63,1
3.8838,8.5258,54.537,-0.020078,54.557,-0.00078293,0.40464,-0.0001445,0.076268,1.0438,3.8838,87.72,9.3659,3.7208,8.9729,4.2291,21.081,4.9022e+06,1.0889,0.88411,0.81572,1
11.632,10.714,59.983,-0.096543,60.079,0.0016351,1.171,0.00072982,0.4165,1.3731,11.632,250.02,15.812,8.4715,11.515,2.092,7.6594,3.7688e+06,13.445,7.916,77.064,1
16.183,13.565,57.421,-0.052972,57.474,0.027501,1.397,-0.0014754,0.52759,1.5375,16.183,445.76,21.113,10.526,13.732,1.2587,3.8373,4.0676e+06,170.27,213.26,252.28,1
17.407,20.446,132.41,-0.018497,132.43,0.0063466,1.2726,-0.00024202,0.23896,1.4408,17.407,720.74,26.847,12.082,18.634,2.8819,13.136,2.1939e+08,50.479,2.0792,13.771,1
35.67,19.305,73.718,0,73.718,-0.00019099,10.366,0.015086,5.8248,9.2876,35.67,1644.8,40.556,3.8406,4.3667,0.091448,1.7121,8.4572e+05,496.34,756.68,882.27,1
2.1394,3.7418,16.98,0.0032882,16.976,-0.0028779,0.14569,0.00028417,0.05221,1.0091,2.1394,18.568,4.309,2.12,4.27,2.7994,9.7116,24582,0.066769,0.13536,0.15308,1
11.633,7.796,38.068,-0.47436,38.543,0.0062461,0.89261,-0.0070742,0.3858,1.2415,11.635,196.05,14.002,9.3715,11.278,0.93783,3.43,2.1045e+05,16.472,7.8002,31.427,1
12.534,6.1249,36.246,5.6843e-14,36.246,0.0093875,1.5764,-0.00016296,0.82343,1.7316,12.534,194.58,13.949,7.238,8.0555,0.97219,4.3206,85611,24.496,44.68,61.012,1
9.5778,8.0976,45.157,-0.27038,45.427,-0.0049977,0.69263,0.002593,0.32397,1.1812,9.5782,157.26,12.54,8.1088,10.616,1.7226,6.8835,8.6674e+05,4.9581,5.4439,4.7639,1
