13.583,14.729,69.05,1.7279e-05,69.05,0.014139,0.71981,0.0010515,0.1445,1.1754,13.583,401.32,20.033,11.557,17.044,1.3375,3.7095,6.4868e+06,84.423,21.632,6.3713,1
66.391,81.591,475.35,-0.65421,476,-0.012271,4.2808,-0.0020977,1.1691,3.2173,66.393,11061,105.17,20.637,32.689,3.0021,13.068,2.0338e+11,183.7,37.092,34.355,1
29.117,26.475,109.04,-1.4663,110.5,0.0082939,1.3063,-0.003061,0.40479,1.5003,29.129,1548.3,39.348,19.415,26.227,1.3299,3.8153,1.1295e+08,50.85,58.553,42.048,1
25.025,31.927,157.54,-0.5497,158.09,-0.034277,1.2795,-0.00024261,0.19334,1.366,25.034,1644.9,40.558,18.327,29.691,1.8585,6.261,6.7555e+08,0.0090883,0.069755,0.32513,1
12.163,17.05,81.848,-0.5693,82.418,0.00075389,0.6179,-0.00011912,0.10592,1.125,12.173,438.46,20.94,10.82,18.613,2.4773,8.6364,4.29e+07,3.2532,1.5086,1.4781,1
74.343,65.743,356.07,0,356.07,0.0095146,6.2052,0.010639,2.1372,4.7932,74.343,9846.2,99.228,15.51,20.702,1.3708,4.5871,1.6492e+10,7831.7,490.41,21.303,1
23.242,21.99,135.31,-2.2737e-13,135.31,0.0029126,2.0526,-0.00043578,0.77138,1.9279,23.242,1023.4,31.991,12.056,16.594,2.2244,9.1527,1.9072e+08,542.04,913.19,741.17,1
16.299,16.345,87.593,0.00098899,87.592,0.0049379,0.83293,0.00087093,0.26543,1.2362,16.299,532.63,23.079,13.185,18.67,2.0413,7.446,3.0633e+07,63.298,31.761,21.104,1
20.342,23.877,100.18,-0.084666,100.26,-0.039355,1.2604,-0.0014642,0.23413,1.3629,20.342,983.56,31.362,14.925,23.01,1.7328,5.0822,1.067e+08,35.057,90.365,244.99,1
4.8555,5.7744,29.246,0.0030567,29.243,-0.0014626,0.23881,1.5163e-05,0.040036,1.0233,4.8555,56.898,7.5431,4.7449,7.3713,2.0576,7.5233,1.7252e+05,0.29301,0.046921,0.42209,1
11.13,14.792,79.436,-0.048079,79.484,8.1248e-05,0.70671,-4.3379e-05,0.094822,1.1573,11.13,342.54,18.508,9.6169,15.992,2.2856,8.6584,2.3123e+07,1.2263,1.2476,2.0082,1
16.975,11.854,55.815,-0.0025015,55.817,-0.00099395,1.0986,0.00056927,0.41345,1.4017,16.975,428.57,20.702,12.11,14.77,1.0662,3.5847,1.8704e+06,11.62,56.32,247.7,1
17.549,15.744,60.464,-0.53395,60.998,0.015296,0.73748,0.00095148,0.097955,1.1955,17.554,555.69,23.573,14.683,19.717,0.86696,2.6319,4.6449e+06,112.21,15.78,8.3209,1
11.582,10.364,47.881,-1.0422,48.923,0.0039472,0.51535,-0.00056228,0.099899,1.1064,11.591,241.47,15.539,10.476,14.045,1.3699,4.3676,1.3068e+06,25.741,30.999,17.204,1
6.6532,4.7439,33.044,-0.2913,33.335,-0.00054479,0.28219,0.00044275,0.054505,1.0332,6.6557,66.755,8.1704,6.4421,7.9081,1.8426,9.6175,1.0447e+05,6.2185,2.5055,4.4396,1
19.185,25.672,136.58,0.072922,136.51,-0.0045253,1.1333,0.00037151,0.26651,1.3573,19.185,1026.7,32.042,14.135,23.608,2.8574,11.496,5.1761e+08,34.287,52.035,32.883,1
2.4436,3.5247,20.323,-0.016636,20.339,0.00084511,0.1491,0.00014425,0.030294,1.0098,2.4436,18.386,4.2879,2.42,4.2465,2.9896,12.371,28859,0.22139,0.26953,0.20955,1
10.655,13.506,75.248,0.061909,75.186,-0.0025275,0.50294,5.6166e-05,0.087581,1.0804,10.655,295.83,17.2,9.8624,15.92,2.6131,10.22,1.8204e+07,26.087,48.218,75.28,1
13.075,12.462,62.295,0.0067507,62.289,-0.007666,0.79102,8.7564e-06,0.27139,1.2293,13.075,326.17,18.06,10.636,14.691,1.4561,4.877,4.2127e+06,8.5554,8.1743,6.9652,1
2.0664,2.1375,9.5816,-0.00040987,9.582,-0.00023641,0.091807,6.7614e-05,0.033099,1.0035,2.0664,8.8361,2.9726,2.0591,2.9621,1.7233,5.184,637.81,1.2591,0.58809,0.049067,1
14.579,13.2,57.93,-0.0011471,57.931,-0.023923,0.81628,0.00060525,0.21275,1.2113,14.579,386.65,19.663,12.035,16.233,1.3564,3.8609,3.6931e+06,70.88,10.299,22.334,1
12.598,13.078,57.429,0.038579,57.39,0.0031655,0.71418,-0.00029151,0.15963,1.1728,12.598,329.62,18.155,10.741,15.481,1.6179,4.7772,4.8043e+06,4.6289,0.79749,3.2292,1
14.514,19.298,97.392,-0.0041901,97.396,0.0096071,0.91159,-0.00039358,0.1889,1.2173,14.514,582.83,24.142,11.923,19.832,2.3287,8.4525,8.1923e+07,25.388,0.49135,0.97183,1
25.487,27.723,146.45,0,146.45,0.009861,1.3229,-0.00099977,0.22038,1.4203,25.487,1417.6,37.652,17.944,26.509,2.041,7.6202,4.4604e+08,144.61,183.68,140.69,1
13.898,13.926,68.367,-0.06566,68.433,0.0025182,0.73556,-0.00096245,0.12995,1.164,13.898,386.97,19.672,11.94,16.9,1.7212,5.8675,9.4205e+06,2.5987,4.7769,12.101,1
13.898,13.926,68.367,-0.06566,68.433,0.0025182,0.73556,-0.00096245,0.12995,1.164,13.898,386.97,19.672,11.94,16.9,1.7212,5.8675,9.4205e+06,2.5987,4.7769,12.101,1
25.043,15.233,77.384,0.26835,77.116,0.010801,0.90929,-0.00064051,0.1863,1.2868,25.043,859.02,29.309,19.461,22.776,0.8535,3.8377,6.8522e+06,180.43,39.154,17.559,1
31.074,42.651,177.34,-0.33114,177.67,0.034727,1.6255,0.0017981,0.19355,1.5014,31.075,2783.6,52.76,20.698,35.14,1.8165,5.4701,2.1994e+09,16.781,9.1128,21.4,1
8.4235,5.3858,28.313,-0.012965,28.326,-0.0058416,1.176,0.0003845,0.54039,1.4831,8.4235,99.943,9.9972,5.6797,6.7408,1.1249,4.1696,45388,10.109,24.428,18.797,1
35.096,34.656,200.03,-1.1786,201.21,0.0076222,3.0146,-0.010428,1.2095,2.5133,35.1,2432,49.315,13.966,19.621,2.1259,7.8271,1.4143e+09,63.359,93.734,79.236,1
2.7238,1.1006,5.9878,0.0014012,5.9864,0.00060118,0.18083,-3.8431e-06,0.10266,1.0154,2.7238,8.6296,2.9376,2.6825,2.8931,0.17735,3.2316,2.8197,1.5468,1.8196,1.9322,1
1.306,0.81531,4.5268,-1.4211e-13,4.5268,0.00011984,0.066366,0.00016674,0.029407,1.0015,1.306,2.3699,1.5395,1.304,1.5371,1.4773,5.0783,4.8543,0.14743,0.21036,0.23498,1
71.929,36.558,193.88,0.4492,193.43,-0.0026448,15.365,-0.0012773,7.3202,13.758,71.929,6509.4,80.681,5.228,5.8642,0.24871,2.4893,1.6877e+08,3424.6,3438.4,4794.1,1
23.631,13.61,65.014,-0.0054891,65.02,0.022781,4.1735,-0.01908,2.3987,3.4149,23.631,743.51,27.267,6.9198,7.9848,0.55605,2.6495,1.7641e+06,781.47,822.22,771.97,1
14.48,10.446,48.074,-0.59723,48.671,-0.013236,1.8009,0.0084276,0.96573,1.7611,14.483,318.72,17.853,8.2234,10.137,0.97227,3.241,7.9356e+05,39.351,36.621,2.5667,1
11.634,9.8393,42.661,-0.17917,42.84,0.0036476,0.74403,-0.00092573,0.24002,1.2105,11.634,232.1,15.235,9.6115,12.586,1.1351,3.5015,7.0497e+05,87.52,93.68,5.6235,1
4.4011,3.1408,14.755,-0.020937,14.776,-0.0027893,0.14282,5.4194e-05,0.047238,1.0094,4.4012,29.228,5.4063,4.3603,5.3561,1.1779,4.3811,3294.5,0.055982,0.14493,0.61587,1
8.4598,9.5388,56.351,-1.5063,57.858,0.0036709,0.48724,0.00029839,0.094268,1.0834,8.5035,162.5,12.747,7.8487,11.766,2.069,8.4019,2.7058e+06,9.6863,0.017642,0.25244,1
9.2782,6.2736,30.592,0.0023443,30.59,0.0062823,1.4653,-0.00099078,0.84807,1.538,9.2782,125.42,11.199,6.0328,7.2817,0.89187,3.4187,69104,16.531,18.409,22.717,1
36.426,30.543,142.19,-0.028529,142.22,-0.01627,1.9913,0.0011559,0.34758,1.8031,36.426,2259.1,47.53,20.202,26.36,0.94853,3.2526,1.9156e+08,44.041,1.1845,4.444,1
29.78,26.596,121.54,0.18184,121.36,0.014722,2.1414,0.004326,0.52979,1.9557,29.78,1593.7,39.921,15.227,20.413,1.3162,4.1415,1.407e+08,23.694,160.02,665.41,1
6.9162,9.995,53.571,-0.0066636,53.578,-0.0017282,0.36151,0.00044962,0.056114,1.0494,6.9162,147.67,12.152,6.591,11.58,2.6804,10.784,4.3095e+06,0.085845,0.033256,0.21117,1
18.882,21.363,108.24,1.1369e-13,108.24,0.020868,1.2859,-0.0020808,0.25562,1.4255,18.882,812.6,28.506,13.246,19.998,2.1063,7.0347,1.0148e+08,321.63,161.19,6.3345,1
13.043,13.186,79.496,-0.0051988,79.501,0.00191,0.90953,-2.8981e-05,0.17889,1.228,13.044,343.88,18.544,10.622,15.101,2.0407,8.3575,1.3408e+07,4.3758,19.235,32.217,1
3.9092,4.9938,21.804,0.024991,21.779,-0.00095307,0.16596,0.000224,0.040504,1.0122,3.9092,40.203,6.3406,3.8622,6.2644,2.0604,6.4322,59554,0.079394,0.1049,0.063347,1
15.221,17.507,111.18,-0.89123,112.07,0.013977,1.0924,-0.00099972,0.26364,1.3607,15.224,537.96,23.194,11.189,17.046,3.0145,14.002,1.0822e+08,83.404,3.0819,7.6075,1
31.37,26.359,139.1,-0.63263,139.73,-0.0002981,1.4043,-0.0064236,0.24782,1.5011,31.372,1678.4,40.968,20.9,27.293,1.3587,5.2082,2.0527e+08,286.87,4.2031,33.743,1
20.614,29.553,171.91,-2.7594,174.67,0.0027204,1.0705,-0.0022616,0.29755,1.3347,20.645,1297.8,36.025,15.468,26.992,3.3226,14.896,1.5256e+09,3.9091,5.3994,12.809,1
10.424,7.9227,36.982,0.0029066,36.979,0.01344,0.38933,6.0827e-05,0.090829,1.0643,10.424,171.4,13.092,9.7943,12.301,1.2011,4.07,2.9921e+05,314.18,293.82,177.35,1
1.6767,0.83371,4.0123,-0.019585,4.0319,0.00036887,0.080471,-5.6988e-05,0.033569,1.0026,1.6767,3.5059,1.8724,1.6724,1.8676,0.51217,3.066,1.4918,0.028541,0.2396,1.0931,1
13.734,17.219,80.986,-3.7031e-06,80.986,-0.0048941,0.65409,-0.00041286,0.10053,1.1436,13.734,484.92,22.021,12.009,19.255,1.9725,6.2915,2.9481e+07,22.08,7.9695,0.38129,1
9.8328,8.0376,37.204,-0.13456,37.338,0.0064835,0.47313,-8.6715e-05,0.086926,1.0898,9.8335,161.25,12.698,9.0233,11.652,1.1278,3.6683,2.794e+05,59.366,105.53,125.48,1
6.6744,5.9761,36.117,-0.15289,36.27,-0.010099,0.28437,0.00087275,0.060584,1.0349,6.6755,80.238,8.9576,6.4503,8.6554,2.026,8.5097,2.5978e+05,3.3575,2.5416,1.3866,1
16.064,10.522,48.916,-0.49463,49.411,0.003157,0.81528,0.0012559,0.16976,1.2373,16.068,368.68,19.201,12.986,15.518,0.75012,3.1828,7.4268e+05,25.276,14.319,15.04,1
2.0229,1.0911,5.5592,-0.093067,5.6523,4.8276e-05,0.17405,-0.00016675,0.080073,1.0141,2.0231,5.2819,2.2982,1.9949,2.2663,0.73,2.9853,7.554,0.93513,1.2461,1.3854,1
43.063,35.703,168.32,-0.43835,168.76,0.040756,3.2646,0.0011855,1.1759,2.4242,43.064,3128.4,55.932,17.764,23.072,1.1838,3.8322,5.4471e+08,1156.2,100.08,269.14,1
4.2098,7.6475,43.233,-0.05122,43.284,-0.00085062,0.24633,5.1154e-05,0.045008,1.0228,4.21,76.169,8.7275,4.1163,8.5332,3.6733,16.259,1.9184e+06,0.71832,0.72185,1.021,1
14.722,12.202,58.267,-0.75402,59.021,0.0086059,0.93309,-0.0024675,0.39252,1.2795,14.724,365.52,19.119,11.508,14.943,1.0514,3.6125,2.3059e+06,4.7938,2.9596,18.118,1
5.1927,4.0968,27.289,-0.0069543,27.296,0.0021351,0.49698,-0.0007816,0.21061,1.0754,5.1927,43.737,6.6134,4.8285,6.1496,2.0541,8.3609,37593,1.211,1.7707,4.347,1
11.683,16.58,81.021,-0.45706,81.478,-0.0011657,0.64936,-6.6601e-05,0.077851,1.1319,11.691,411.23,20.279,10.329,17.916,2.1518,7.3134,3.0852e+07,1.4388,2.2328,16.04,1
16.992,18.368,80.619,-0.64071,81.259,-0.0056156,0.6916,-0.00019545,0.11338,1.1739,17,625.91,25.018,14.482,21.311,1.5135,4.6254,2.6155e+07,15.61,46.999,136.36,1
34.349,34.406,301.65,-0.053195,301.71,0.0074994,5.2647,0.00083623,2.6368,3.8037,34.349,2362.9,48.609,9.0306,12.78,4.4891,28.223,8.7853e+09,81.959,107.55,350.39,1
3.7859,4.6488,27.559,0.00097525,27.558,-0.01286,0.17556,-0.00089068,0.053948,1.0138,3.7859,35.93,5.9942,3.7345,5.9128,2.5788,9.886,85923,0.24228,0.11388,0.05707,1
10.131,8.2921,33.775,-0.17485,33.95,0.0040654,0.53878,-0.0020385,0.14276,1.1122,10.131,171.34,13.09,9.109,11.769,0.99062,3.0301,2.3273e+05,30.7,64.789,55.545,1
5.72,6.1559,45.037,0.0019261,45.035,-0.002276,0.57112,-0.0010108,0.20517,1.1037,5.72,70.59,8.4018,5.1827,7.6125,3.1951,17.023,8.2583e+05,7.0721,1.1986,0.31814,1
5.7859,5.8905,33.459,-0.023338,33.482,-0.0029472,0.43793,0.0025998,0.18565,1.0781,5.7859,68.151,8.2554,5.367,7.6576,1.8188,6.4683,1.5534e+05,1.2585,0.77184,0.19243,1
15.782,12.564,52.84,-0.16229,53.002,-0.0070905,0.77252,0.00076739,0.15019,1.2015,15.782,406.82,20.17,13.136,16.788,1.0294,3.3132,2.1512e+06,156.32,79.415,0.96898,1
12.398,17.85,105.67,-0.17618,105.84,0.0019571,0.80706,-0.00060862,0.14756,1.1516,12.399,472.14,21.729,10.767,18.868,3.0424,13.487,1.1065e+08,2.0378,3.6293,4.2029,1
19.01,16.743,81.742,-0.96525,82.708,-0.0016974,1.3532,-0.0010659,0.45544,1.4782,19.013,641.51,25.328,12.862,17.134,1.2796,4.5126,1.6577e+07,11.088,5.8429,5.9399,1
3.6579,8.0475,54.537,-0.020078,54.557,-0.00098307,0.38136,-0.00015866,0.072694,1.0391,3.6579,78.101,8.8375,3.5203,8.505,4.5254,23.974,4.4451e+06,0.14515,0.044223,0.11812,1
12.152,11.123,61.218,-0.096543,61.314,0.013628,1.321,-0.0013528,0.48753,1.4145,12.152,271.31,16.472,8.5909,11.644,1.9549,6.9131,3.9354e+06,203.17,264.2,485.79,1
20.145,18.611,98.674,-0.052972,98.727,0.060858,1.4617,-0.0026722,0.53847,1.5581,20.145,751.96,27.422,12.929,17.599,1.5727,5.4162,3.7291e+07,2012.5,1111.4,1293.7,1
17.212,19.611,132.41,-0.018497,132.43,0.0041691,1.2606,0.00012797,0.24038,1.4404,17.212,680.62,26.089,11.95,18.112,2.9199,13.855,1.9592e+08,3.0308,24.234,10.593,1
35.494,19.324,73.718,0,73.718,-0.0035446,10.396,0.0099747,5.8252,9.3313,35.494,1633,40.411,3.8038,4.3307,0.079119,1.6944,7.5122e+05,877.75,654.94,583.33,1
1.955,3.5552,16.98,-0.002992,16.983,-0.0026476,0.14032,0.0002713,0.051194,1.0085,1.955,16.453,4.0563,1.9385,4.0219,3.029,11.148,23320,0.13133,0.1225,0.059186,1
10.9,7.688,38.068,-0.47436,38.543,0.0063137,0.85988,-0.0064941,0.37142,1.2281,10.902,177.88,13.337,8.8773,10.86,1.0371,3.6838,2.2611e+05,22.187,7.9664,1.0595,1
