17.688,19.973,100.1,1.7279e-05,100.1,0.023021,0.86124,3.9922e-06,0.15066,1.2201,17.688,711.56,26.675,14.497,21.862,1.5934,5.425,5.5933e+07,1706.7,2570.5,2533.9,1
61.941,78.035,475.35,-0.65421,476,0.022036,4.1026,-0.0030469,1.1255,3.0733,61.942,9922.6,99.612,20.155,32.412,3.1672,14.474,1.9072e+11,1079.9,1051,614,1
27.205,25.69,109.04,-1.4663,110.5,0.032524,1.2688,-0.0015228,0.39868,1.4785,27.215,1399.7,37.413,18.407,25.305,1.4571,4.2415,1.1585e+08,130.34,73.181,65.835,1
22.205,30.928,157.54,-0.5497,158.09,-0.028256,1.201,-0.00028787,0.18182,1.3227,22.219,1449.1,38.066,16.798,28.78,2.021,6.9894,6.7957e+08,3.2073,2.6218,1.199,1
11.093,16.272,81.848,-0.5693,82.418,0.0022543,0.58367,-4.8987e-05,0.1024,1.1123,11.102,387.68,19.69,9.9814,17.702,2.6855,9.8617,4.1336e+07,1.0403,1.2913,5.0429,1
72.179,63.428,356.07,0,356.07,0.080294,6.151,0.012194,2.1264,4.773,72.179,9230.7,96.077,15.122,20.129,1.4375,4.9068,1.5377e+10,1142.2,470.94,352.9,1
21.891,21.228,135.31,-1.145e-05,135.31,0.0084729,2.1272,-0.0031569,0.83028,1.963,21.891,929.57,30.489,11.151,15.531,2.3243,9.89,1.8096e+08,16.829,82.02,155.25,1
15.923,15.734,87.593,-0.011837,87.604,0.010898,0.82702,0.00073045,0.26322,1.2324,15.923,500.99,22.383,12.921,18.162,2.081,7.8678,2.7875e+07,13.678,1.9984,12.76,1
20.769,24.009,100.18,-0.084666,100.26,-0.023132,1.2894,-0.0012324,0.23937,1.3788,20.769,1007.4,31.74,15.063,23.02,1.6901,4.9056,1.0383e+08,1107.3,2220.5,526.39,1
6.3786,8.7079,42.351,0.0030567,42.347,0.0092892,0.31778,-0.00054138,0.047573,1.0401,6.3786,116.47,10.792,6.1328,10.376,2.3411,8.2607,1.4357e+06,543.89,376.37,416.1,1
10.345,14.062,79.436,-0.048079,79.484,0.0023698,0.66539,9.3217e-05,0.089907,1.14,10.345,304.63,17.454,9.0746,15.31,2.4948,9.8841,2.1834e+07,5.5624,4.2741,7.2719,1
16.632,11.476,55.815,-0.0025015,55.817,-0.0050299,1.0611,-0.00013058,0.40278,1.3786,16.632,408.27,20.206,12.065,14.657,1.0873,3.7792,1.7481e+06,38.981,7.8465,11.061,1
17.33,15.116,60.464,-0.53395,60.998,0.001116,0.7076,0.00010717,0.095158,1.1822,17.334,528.7,22.994,14.663,19.45,0.90168,2.8177,4.2487e+06,77.73,116.32,75.121,1
12.287,11.569,57.224,-1.0422,58.266,0.0044518,0.56724,-0.00051064,0.10127,1.1246,12.295,284.73,16.874,10.932,15.004,1.5027,4.9059,2.8311e+06,11.85,10.844,48.762,1
6.341,4.6293,33.044,-0.2913,33.335,-0.0035782,0.27045,0.00058577,0.053312,1.0307,6.3433,61.627,7.8503,6.1544,7.6166,1.8608,9.9223,98649,0.51409,0.12907,0.59197,1
19.96,24.942,136.58,0.072922,136.51,0.0017947,1.2054,-0.00039734,0.28084,1.399,19.96,1020.2,31.94,14.267,22.831,2.7088,11.104,4.3999e+08,468.91,598.9,460.3,1
2.4797,3.3339,20.323,-0.016636,20.339,0.001882,0.14661,7.2651e-05,0.030884,1.0095,2.4797,17.257,4.1542,2.4563,4.1149,3.0824,13.48,25115,2.5953,2.3059,4.3031,1
11.354,13.788,75.248,-0.03197,75.28,-0.0025567,0.5301,0.00021224,0.087228,1.094,11.354,318.91,17.858,10.378,16.323,2.2975,8.4822,1.5715e+07,0.23145,2.0253,10.049,1
12.043,12.044,62.295,0.0067507,62.289,-0.0048206,0.76479,0.00059398,0.27046,1.2165,12.043,290.01,17.03,9.9005,14,1.6278,5.4779,4.2666e+06,11.374,17.118,12.172,1
1.9508,2.0373,9.5816,-0.00040987,9.582,-0.0013661,0.087814,4.6948e-05,0.032075,1.0033,1.9508,7.954,2.8203,1.9445,2.8111,1.9018,5.9576,618.55,0.16766,0.25266,0.29575,1
13.752,12.657,57.93,-0.0011471,57.931,-0.022063,0.78984,0.0014039,0.21303,1.2022,13.752,349.23,18.688,11.439,15.545,1.5153,4.4198,3.693e+06,28.232,18.73,9.4507,1
13.478,13.189,57.429,0.038579,57.39,0.0061533,0.72343,-0.00075382,0.15996,1.1798,13.478,355.51,18.855,11.423,15.981,1.4699,4.3085,4.2616e+06,542.51,615.76,198.64,1
14.412,18.441,97.392,-0.0041901,97.396,0.024309,0.88604,2.7316e-05,0.1835,1.2115,14.412,547.57,23.4,11.896,19.315,2.3958,9.0285,7.2819e+07,217.08,22.675,56.107,1
24.786,26.783,146.45,0,146.45,0.0048485,1.3084,-9.3086e-05,0.2168,1.4132,24.786,1331.3,36.487,17.539,25.818,2.0692,7.9605,4.0721e+08,9.4879,21.302,101.15,1
13.809,13.961,68.367,-0.06566,68.433,0.024019,0.76477,-0.0011599,0.13633,1.1784,13.81,385.5,19.634,11.719,16.662,1.7429,5.8408,9.3592e+06,321.45,28.805,42.851,1
13.809,13.961,68.367,-0.06566,68.433,0.024019,0.76477,-0.0011599,0.13633,1.1784,13.81,385.5,19.634,11.719,16.662,1.7429,5.8408,9.3592e+06,321.45,28.805,42.851,1
24.788,15.267,77.384,0.045453,77.339,0.020076,0.92303,-0.00062839,0.18325,1.2915,24.788,847.38,29.11,19.194,22.54,0.7878,3.65,6.3084e+06,812.84,165.94,12.272,1
30.346,40.992,177.34,-0.33114,177.67,-0.0058985,1.5443,-0.00024514,0.19229,1.4637,30.347,2600.3,50.993,20.733,34.838,1.8582,5.8055,1.9972e+09,1.0518,1.5078,12.827,1
8.7355,5.8032,29.257,-0.012965,29.269,0.001587,1.2686,-0.00038232,0.58269,1.5302,8.7355,109.97,10.487,5.7089,6.8532,1.0813,3.8438,57064,133.48,90.825,187.38,1
32.703,33.357,200.03,-1.1786,201.21,-0.0096085,2.8602,-0.009954,1.1472,2.391,32.707,2181.5,46.707,13.679,19.535,2.2732,8.685,1.3682e+09,142.61,130.81,26.03,1
2.7556,1.0486,5.9878,0.0014012,5.9864,0.0009277,0.18232,-1.5595e-06,0.10431,1.0157,2.7556,8.6922,2.9483,2.7129,2.9026,0.1106,3.4598,1.8484,3.8087,3.0442,3.0287,1
1.2683,0.77491,4.5268,-1.4211e-13,4.5268,-2.3987e-07,0.06501,0.00022885,0.029049,1.0015,1.2683,2.2088,1.4862,1.2664,1.4839,1.644,5.7964,4.6553,0.37513,0.31143,0.40538,1
73.35,37.213,193.88,0.4492,193.43,-0.034183,15.448,0.011314,7.3745,13.837,73.35,6764.3,82.245,5.3012,5.9441,0.28733,2.5674,2.0439e+08,4217.2,3402.7,4742.2,1
24.194,13.453,65.014,-0.0054891,65.02,0.012451,4.1877,-0.013218,2.4162,3.4144,24.194,766.21,27.681,7.0858,8.107,0.47562,2.5824,1.4678e+06,355.22,475.9,154.37,1
13.989,10.073,48.074,-0.59723,48.671,-0.017618,1.7304,0.0072434,0.92579,1.7164,13.991,297.09,17.236,8.1512,10.042,1.0519,3.5479,7.797e+05,48.27,96.931,97.615,1
10.943,9.4719,42.661,-0.17917,42.84,-0.0016864,0.71904,-0.00044752,0.24378,1.1987,10.943,209.41,14.471,9.1295,12.073,1.2937,3.9774,7.2347e+05,7.7317,13.446,20.226,1
4.279,3.0779,14.755,-0.020937,14.776,0.0022464,0.14021,-1.9049e-08,0.046193,1.0091,4.2791,27.778,5.2705,4.2405,5.223,1.2,4.4783,3144.1,13.162,8.2288,5.971,1
8.0396,9.0892,56.351,-1.5063,57.858,-0.0053661,0.4606,0.00042241,0.089304,1.075,8.0781,147.2,12.133,7.5147,11.286,2.2272,9.3866,2.514e+06,1.1848,2.0329,2.4314,1
9.5946,6.4174,30.592,-0.51062,31.103,0.0045997,1.466,-0.0014353,0.85174,1.5525,9.5953,133.22,11.542,6.1805,7.4344,0.80523,3.0949,62601,9.4812,8.044,21.085,1
35.394,29.257,142.19,-0.028529,142.22,-0.022104,1.9269,-0.00029881,0.33584,1.7779,35.394,2108.2,45.916,19.907,25.825,1.0276,3.572,1.8131e+08,453.64,944.23,451.83,1
30.415,26.038,121.54,0.18184,121.36,0.0023537,2.1312,0.0012345,0.54422,1.966,30.415,1602.7,40.034,15.471,20.363,1.2285,3.9712,1.1993e+08,150.3,138.68,27.755,1
6.3897,9.4952,53.571,-0.0066636,53.578,0.00064867,0.3414,0.00038239,0.054277,1.0442,6.3897,130.93,11.443,6.1193,10.958,2.9056,12.293,4.051e+06,3.5722,0.28875,1.3057,1
19.884,21.913,108.24,1.1369e-13,108.24,0.0015411,1.3174,-0.0013803,0.26246,1.442,19.884,875.28,29.585,13.789,20.517,1.8567,5.8247,8.8342e+07,8.9249,18.097,69.2,1
14.475,14.44,79.496,-0.0051988,79.501,0.033179,0.94918,-0.00040974,0.1833,1.2547,14.475,417.93,20.443,11.537,16.294,1.7762,6.4727,1.3879e+07,630.42,148.45,32.917,1
5.2647,7.0004,33.628,0.024991,33.603,0.0069728,0.23257,0.00020005,0.049476,1.0227,5.2647,76.694,8.7575,5.148,8.5633,1.9735,6.3789,3.4886e+05,100.73,157.23,289.11,1
17.373,18.818,111.18,-0.89123,112.07,0.0097688,1.137,-0.00041809,0.27407,1.3908,17.376,655.73,25.607,12.494,18.412,2.3741,9.5839,9.1351e+07,221.13,25.253,131.65,1
29.534,25.454,139.1,-0.63263,139.73,-0.025256,1.3438,-0.0045983,0.23893,1.4671,29.535,1519.8,38.985,20.132,26.573,1.4981,5.7164,2.0163e+08,19.378,18.379,46.008,1
19.21,28.114,171.91,-2.7594,174.67,0.01708,1.013,-0.0018055,0.28402,1.3027,19.237,1159,34.043,14.768,26.133,3.5322,16.718,1.4152e+09,117.35,56.453,45.117,1
10.776,7.9729,36.982,0.0029066,36.979,-0.0015379,0.39739,-9.7053e-05,0.092352,1.067,10.776,179.66,13.404,10.1,12.562,1.074,3.6959,2.6098e+05,42.5,76.373,103.83,1
1.7282,0.8524,4.0123,-0.019585,4.0319,-0.00046928,0.080494,-5.6461e-05,0.034106,1.0027,1.7282,3.7128,1.9269,1.7237,1.9218,0.39591,2.7179,1.1542,0.15786,0.55528,0.81453,1
12.629,16.458,80.986,-3.7031e-06,80.986,-0.0058153,0.62085,0.00014514,0.10395,1.1307,12.629,430.2,20.741,11.169,18.344,2.1651,7.2097,2.8754e+07,8.4361,9.113,17.365,1
10.595,9.1347,44.334,-0.13456,44.469,0.00083542,0.49641,-2.5601e-05,0.088287,1.0986,10.596,195.65,13.988,9.6447,12.732,1.2948,4.1835,6.7148e+05,5.5971,19.138,62.23,1
6.1281,5.8092,36.117,-0.15289,36.27,-0.010646,0.26861,0.00070871,0.058721,1.0312,6.1291,71.282,8.4429,5.9435,8.1872,2.1602,9.2083,2.5584e+05,0.29405,0.48776,1.0561,1
16.097,10.094,48.916,-0.49463,49.411,0.0040949,0.79559,0.0013335,0.16739,1.2261,16.101,360.94,18.998,13.131,15.495,0.73317,3.36,6.4718e+05,110.21,83.235,86.574,1
2.0702,1.1427,6.3404,-0.093067,6.4335,0.0014429,0.1812,-0.00047261,0.08301,1.0154,2.0704,5.591,2.3645,2.039,2.3287,0.79065,3.1832,11.498,0.90018,0.70896,2.2115,1
43.632,34.59,168.32,-0.43835,168.76,-0.010224,3.2096,-0.00043477,1.1574,2.4401,43.633,3099.6,55.674,17.881,22.816,1.1386,3.8324,4.6831e+08,2149.1,1494.7,1579.1,1
4.2045,7.3272,43.233,-0.05122,43.284,0.0069515,0.24041,4.4771e-05,0.045069,1.0222,4.2047,71.336,8.4461,4.1135,8.2629,3.7206,17.066,1.6928e+06,38.811,4.9908,5.5587,1
13.93,11.712,58.267,-0.75402,59.021,0.0011696,0.88618,-0.0021551,0.37553,1.2546,13.932,331.13,18.197,11.105,14.504,1.2107,4.0826,2.316e+06,3.8987,6.7794,16.622,1
5.4673,4.3245,27.289,-0.0069543,27.296,0.0031739,0.48477,-0.00052311,0.20204,1.0739,5.4673,48.582,6.9701,5.0909,6.4903,1.8053,6.6942,34806,20.369,33.875,58.533,1
10.577,15.863,81.021,-0.45706,81.478,0.0011157,0.61066,-8.8497e-06,0.074083,1.1169,10.584,363.37,19.062,9.4756,17.067,2.346,8.3287,2.9962e+07,12.078,11.147,2.0548,1
15.975,17.844,80.619,-0.64071,81.259,0.0086858,0.67002,-0.00063079,0.11484,1.1643,15.982,573.42,23.946,13.727,20.568,1.5881,4.9601,2.5457e+07,297.45,93.362,3.6789,1
32.372,32.866,301.65,-0.053195,301.71,0.012279,4.9833,-0.00064783,2.5031,3.5761,32.372,2127.5,46.124,9.0523,12.898,4.6882,30.976,8.0869e+09,97.718,78.077,63.001,1
3.5646,4.4082,27.559,0.00097525,27.558,-0.012098,0.16616,-0.00082638,0.051597,1.0123,3.5646,32.128,5.6682,3.5211,5.599,2.8022,11.32,80275,0.43896,0.60645,0.82283,1
9.4662,8.0254,33.775,-0.17485,33.95,0.00024804,0.53963,-0.0017388,0.16118,1.1135,9.4668,153.98,12.409,8.5021,11.144,1.1519,3.4374,2.4799e+05,1.9601,2.1787,5.1269,1
5.5326,5.8998,45.037,0.0019261,45.035,6.558e-05,0.54853,-0.00092328,0.19632,1.0976,5.5326,65.397,8.0868,5.0404,7.3675,3.2782,18.205,7.4769e+05,11.596,5.5138,0.85712,1
6.3215,6.0062,33.459,-0.023338,33.482,-0.0016403,0.44382,0.0021653,0.18401,1.0809,6.3215,76.015,8.7186,5.8485,8.0663,1.555,5.386,1.3044e+05,97.801,136.21,69.644,1
21.127,24.474,149.75,-0.16229,149.91,0.046223,0.93416,0.0010367,0.16671,1.2609,21.127,1045,32.326,16.756,25.638,3.0337,14.077,5.6849e+08,6486.2,5209.1,2392.4,1
11.599,16.963,105.67,-0.17618,105.84,0.0020992,0.7626,-0.00075547,0.13918,1.1372,11.6,422.12,20.546,10.2,18.066,3.2475,15.169,1.0235e+08,3.2534,0.86947,7.0257,1
17.68,16.212,81.742,-0.96525,82.708,-0.002375,1.2933,-0.0010136,0.43879,1.4447,17.683,575.24,23.984,12.24,16.602,1.4306,5,1.6741e+07,78.74,118.24,26.912,1
3.5535,7.5721,54.537,-0.020078,54.557,-0.0011106,0.35955,-0.00015343,0.068851,1.035,3.5536,69.931,8.3625,3.4333,8.0796,4.824,27.198,3.9611e+06,2.4425,3.3696,4.2169,1
14.412,13.599,81.173,-0.096543,81.27,-0.0059095,1.5587,-0.0012207,0.59024,1.5193,14.412,392.55,19.813,9.4863,13.041,1.8152,6.2788,9.7011e+06,130.97,114.01,338.57,1
20.805,18.855,98.674,-0.052972,98.727,0.0098366,1.4916,-0.00069216,0.54792,1.579,20.805,788.16,28.074,13.176,17.78,1.5419,5.3193,3.8262e+07,79.406,369.01,628.24,1
17.492,19.087,132.41,-0.018497,132.43,0.01963,1.2569,-0.00045095,0.23938,1.4418,17.492,670.07,25.886,12.132,17.953,2.8403,13.644,1.7109e+08,610.1,59.71,95.025,1
35.609,18.824,73.718,0,73.718,0.011866,10.157,0.0011663,5.7012,9.0985,35.609,1622.1,40.276,3.9138,4.4267,0.065789,1.7324,5.8456e+05,641.79,569.04,637.15,1
2.2193,3.719,20.587,-0.002992,20.59,0.0089734,0.17735,0.00063873,0.053682,1.0133,2.2193,18.748,4.3299,2.1902,4.2731,2.7076,9.6168,24480,3.7091,11.795,18.579,1
10.598,7.4304,38.068,-0.47436,38.543,0.004986,0.84735,-0.0062771,0.36846,1.2261,10.6,167.5,12.942,8.6452,10.556,1.0841,3.9516,2.1523e+05,5.1421,35.387,38.264,1
