17.548,19.789,100.1,1.7279e-05,100.1,-0.0061466,0.86275,0.00015576,0.1494,1.2229,17.548,699.3,26.444,14.35,21.624,1.5966,5.4635,5.4187e+07,7.6699,49.58,269.35,1
65.481,78.524,475.35,-0.65421,476,0.047788,4.0767,-0.0011081,1.1174,3.0734,65.482,10450,102.23,21.306,33.262,2.9148,13.07,1.7391e+11,10867,8746.9,3925.9,1
28.03,25.593,109.04,-1.4663,110.5,0.031363,1.2963,-0.0021608,0.40795,1.4962,28.04,1440.3,37.952,18.741,25.365,1.3593,4,1.0455e+08,565.91,323.39,901.49,1
21.4,30.483,157.54,-0.5497,158.09,-0.026372,1.1747,-0.0002786,0.17788,1.3087,21.413,1386.6,37.238,16.362,28.454,2.0885,7.3068,6.7492e+08,4.3087,3.6639,4.2016,1
11.118,15.967,81.848,-0.5693,82.418,0.0065311,0.57912,-0.00043494,0.10179,1.1116,11.126,378.43,19.453,10.009,17.5,2.715,10.157,3.9457e+07,99.4,12.454,15.929,1
74.758,64.595,356.07,0,356.07,0.0085575,6.2159,0.008881,2.1278,4.8331,74.758,9759.1,98.788,15.468,20.44,1.3314,4.4609,1.4473e+10,4061.3,15413,6513.2,1
21.34,20.949,135.31,-1.145e-05,135.31,-0.00010862,2.1268,0.00026603,0.83283,1.9614,21.34,894.02,29.9,10.88,15.245,2.3784,10.231,1.7841e+08,81.981,29.459,34.184,1
16.712,15.979,87.593,-0.011837,87.604,-0.0040863,0.82931,0.00017769,0.26452,1.2349,16.712,534.49,23.119,13.533,18.721,1.8706,6.8859,2.5189e+07,363.54,486.65,670.56,1
20.418,23.612,100.18,-0.084666,100.26,-0.038157,1.2638,-0.0011321,0.23465,1.366,20.418,974.11,31.211,14.947,22.848,1.7369,5.123,1.0205e+08,12.683,69.075,158.47,1
6.3973,8.6157,42.351,0.0030567,42.347,-0.0018863,0.31987,-4.5383e-05,0.047724,1.0409,6.3973,115.12,10.729,6.1456,10.307,2.3171,8.2461,1.3699e+06,0.8906,17.377,65.934,1
10.26,13.76,79.436,-0.048079,79.484,0.0020641,0.65121,-5.0628e-05,0.088029,1.1342,10.261,294.5,17.161,9.0466,15.13,2.565,10.374,2.1041e+07,28.437,27.937,21.258,1
16.722,11.263,55.815,-0.0025015,55.817,-0.0055371,1.0573,0.0010613,0.40452,1.3778,16.722,406.41,20.16,12.137,14.631,1.0801,3.8649,1.6445e+06,160.88,157.9,102.16,1
17.156,14.959,60.464,-0.53395,60.998,0.013844,0.70737,5.7656e-05,0.095172,1.1822,17.16,517.98,22.759,14.515,19.252,0.92068,2.8671,4.1875e+06,72.955,14.648,16.896,1
12.928,11.935,57.224,-1.0422,58.266,0.010045,0.61242,-0.00026589,0.10795,1.139,12.936,309.51,17.593,11.357,15.445,1.3838,4.4096,2.7724e+06,160.37,440.5,509.89,1
6.2573,4.5501,33.044,-0.2913,33.335,-0.0034138,0.26724,0.00057554,0.053018,1.0301,6.2595,59.847,7.7361,6.0768,7.5102,1.9233,10.312,96190,10.1,3.5016,7.9355,1
19.826,24.697,136.58,0.072922,136.51,0.026046,1.2253,0.0016858,0.28157,1.4089,19.826,1002.7,31.665,14.072,22.475,2.6932,11.135,4.2386e+08,115.8,0.91195,27.625,1
2.5401,3.2818,20.323,-0.016636,20.339,-0.00015262,0.14781,-9.082e-06,0.031095,1.0098,2.5401,17.217,4.1493,2.5156,4.1092,3.0434,13.511,23548,6.002,4.7995,7.2077,1
11.431,13.556,75.248,-0.03197,75.28,-0.0023794,0.53254,-8.7339e-05,0.087085,1.0962,11.431,314.32,17.729,10.428,16.173,2.2994,8.6361,1.492e+07,79.006,156.82,44.168,1
11.666,11.916,62.295,0.0067507,62.289,-0.007422,0.75503,0.00051428,0.26987,1.2117,11.666,278.01,16.674,9.6278,13.76,1.6842,5.69,4.2903e+06,2.8347,4.3481,10.851,1
1.8864,2.0157,9.5816,-0.00040987,9.582,-0.0011972,0.086343,7.5228e-05,0.031742,1.0032,1.8864,7.6191,2.7603,1.8804,2.7516,1.9562,6.2051,623.62,0.084874,0.03596,0.062953,1
13.776,12.388,57.93,-0.0011471,57.931,-0.021655,0.77818,0.0006954,0.2118,1.1971,13.776,343.15,18.524,11.508,15.474,1.5406,4.5961,3.5193e+06,71.594,100.67,58.584,1
13.282,13.019,57.429,0.015777,57.413,0.0065297,0.72418,-0.00042703,0.15995,1.1809,13.282,345.8,18.596,11.248,15.748,1.4943,4.4435,4.1957e+06,0.71354,6.2867,42.309,1
14.721,18.276,97.392,-0.0041901,97.396,0.0073042,0.8874,-0.00042021,0.18522,1.2161,14.721,550.54,23.464,12.105,19.295,2.3311,8.8282,6.8211e+07,26.943,225.39,378.27,1
24.313,26.308,146.45,0,146.45,0.0018682,1.284,-0.0010866,0.21277,1.4,24.313,1282.9,35.817,17.366,25.583,2.1374,8.3342,3.9884e+08,40.591,99.001,128.81,1
14.376,14.177,68.367,-0.06566,68.433,0.0048803,0.7608,-0.00088832,0.13538,1.1787,14.376,407.55,20.188,12.197,17.128,1.6203,5.294,8.7082e+06,77.37,272.04,623.34,1
14.376,14.177,68.367,-0.06566,68.433,0.0048803,0.7608,-0.00088832,0.13538,1.1787,14.376,407.55,20.188,12.197,17.128,1.6203,5.294,8.7082e+06,77.37,272.04,623.34,1
24.441,15.185,77.384,0.045453,77.339,-0.0010451,0.91248,2.9809e-06,0.18106,1.2862,24.441,827.81,28.772,19.002,22.37,0.80469,3.6792,6.3348e+06,31.403,88.415,253.76,1
29.361,40.384,177.34,-0.33114,177.67,0.0068041,1.5143,-6.401e-05,0.18981,1.4486,29.363,2492.1,49.921,20.27,34.462,1.9223,6.0854,1.9883e+09,15.314,10.645,1.2726,1
9.5315,7.406,56.001,-0.012965,56.014,0.020084,1.299,2.9168e-05,0.59316,1.5486,9.5315,145.67,12.069,6.1549,7.7937,2.1838,10.718,1.161e+06,382.14,94.499,89.554,1
31.478,33.13,200.03,-1.1786,201.21,-0.012162,2.8013,-0.0094921,1.1233,2.34,31.482,2087.8,45.693,13.454,19.527,2.3029,8.8934,1.3722e+09,1.8683,8.235,11.408,1
2.751,1.0321,5.9878,0.0014012,5.9864,0.0011819,0.18432,-4.9128e-05,0.10566,1.0161,2.751,8.6328,2.9382,2.7074,2.8916,0.12267,3.5352,1.86,1.531,2.3936,2.7435,1
1.2657,0.75861,4.5268,-1.4211e-13,4.5268,8.9486e-05,0.064467,0.00021673,0.028938,1.0015,1.2657,2.177,1.4755,1.2637,1.4732,1.6864,6.0603,4.4798,0.43749,0.61051,0.57294,1
73.129,37.164,193.88,0.4492,193.43,-0.050276,15.476,-0.00091625,7.3638,13.87,73.129,6728.3,82.026,5.2725,5.914,0.27608,2.5394,1.9772e+08,3514.4,1962,2063.9,1
24.273,13.288,65.014,-0.0054891,65.02,0.014462,4.1139,-0.010818,2.371,3.3502,24.273,765.68,27.671,7.2455,8.2596,0.47404,2.6156,1.3908e+06,302.99,154.97,193.09,1
14.197,10.116,48.074,-0.59723,48.671,-0.0067603,1.7205,0.0069696,0.9151,1.7137,14.199,303.85,17.431,8.2857,10.172,1.001,3.41,7.3859e+05,316.39,184.27,54.105,1
10.621,9.3918,42.661,-0.17917,42.84,-0.0010276,0.7099,-0.00057538,0.24432,1.1943,10.621,200.97,14.176,8.8931,11.87,1.348,4.1347,7.4117e+05,4.4258,12.009,3.3819,1
4.244,3.0692,14.755,-0.020937,14.776,-0.0026045,0.141,1.1545e-05,0.046405,1.0092,4.2441,27.427,5.2371,4.2053,5.1892,1.1746,4.4354,3069.1,0.60108,5.6788,13.789,1
7.7779,8.9802,56.351,-1.5063,57.858,-0.0042522,0.4516,0.00037522,0.087782,1.0722,7.8148,141.1,11.878,7.2885,11.078,2.2803,9.6956,2.4854e+06,5.4316,0.9113,0.066051,1
9.4949,6.3381,30.592,-0.51062,31.103,0.0063108,1.4489,-8.3182e-05,0.8412,1.5442,9.4956,130.3,11.415,6.1492,7.3921,0.83146,3.1798,62231,19.276,7.1174,18.661,1
34.779,28.938,142.19,-0.028529,142.22,0.0059953,1.903,8.1083e-05,0.33217,1.764,34.779,2046.5,45.238,19.716,25.645,1.0626,3.6763,1.8089e+08,105.21,123.57,41.376,1
29.517,25.851,121.54,0.18184,121.36,-0.0022637,2.0975,0.0021968,0.53828,1.9428,29.517,1539.1,39.232,15.193,20.194,1.2763,4.1082,1.2246e+08,57.785,6.9144,19.559,1
6.3226,9.3056,53.571,-0.0066636,53.578,0.0020336,0.33593,0.00025243,0.053662,1.0429,6.3227,126.52,11.248,6.0624,10.785,2.9727,12.831,3.907e+06,13.067,1.8582,3.1913,1
19.935,21.736,108.24,1.1369e-13,108.24,0.0096976,1.3489,-0.0012214,0.26875,1.4547,19.935,869.63,29.49,13.704,20.272,1.8254,5.7747,8.4332e+07,347.62,610.03,0.47742,1
14.767,14.592,79.496,-0.0051988,79.501,0.0023009,0.94928,0.00025033,0.18016,1.2578,14.767,430.87,20.757,11.741,16.503,1.7312,6.1828,1.3561e+07,22.599,109.78,466.74,1
5.4132,6.9046,33.628,0.024991,33.603,0.0012785,0.23134,0.00016155,0.04962,1.0225,5.4132,76.95,8.7721,5.2939,8.5788,1.9179,6.2939,3.2319e+05,18.026,31.145,37.013,1
17.163,18.443,111.18,-0.89123,112.07,0.0042704,1.117,-0.00056843,0.2712,1.3787,17.165,634.5,25.189,12.45,18.27,2.4446,10.047,8.8596e+07,56.877,51.755,66.052,1
28.682,25.224,139.1,-0.63263,139.73,-0.029005,1.315,-0.0044556,0.23417,1.4479,28.683,1458.5,38.191,19.811,26.377,1.5516,5.8923,2.0266e+08,26.406,51.473,53.583,1
19.814,27.654,171.91,-2.7594,174.67,0.011097,0.99511,-0.0026615,0.27887,1.2934,19.84,1156.9,34.014,15.34,26.298,3.4909,16.775,1.3238e+09,361.97,454.84,413.12,1
10.466,7.9425,36.982,0.0025695,36.98,-0.0040918,0.39226,0.00023872,0.093384,1.0654,10.466,172.58,13.137,9.8229,12.33,1.1183,3.7958,2.7114e+05,2.3009,5.4052,9.8057,1
1.6845,0.86531,4.0123,-0.019585,4.0319,0.00042746,0.080048,1.286e-05,0.033819,1.0026,1.6845,3.5859,1.8936,1.6801,1.8887,0.40282,2.6887,1.2902,0.2011,0.14567,0.014406,1
12.173,16.24,80.986,-0.0068033,80.993,-0.0065939,0.60813,0.00036679,0.10278,1.1256,12.173,411.77,20.292,10.815,18.029,2.2276,7.5281,2.8669e+07,0.32337,2.2495,3.9705,1
10.667,9.104,44.334,-0.13456,44.469,0.0057079,0.50237,-0.00022201,0.088391,1.101,10.667,196.62,14.022,9.6883,12.735,1.241,4.0648,6.3398e+05,141.62,111.05,2.0589,1
5.9945,5.7176,36.117,-0.15289,36.27,-0.0088085,0.26375,0.00065895,0.05779,1.0301,5.9954,68.607,8.283,5.8201,8.0407,2.2295,9.5958,2.5147e+05,3.0193,4.0034,4.1667,1
16.442,10.675,49.578,-0.49463,50.073,0.014912,0.83005,0.00092815,0.17114,1.2384,16.445,384.23,19.602,13.28,15.829,0.80863,3.3848,8.8001e+05,639.26,57.919,21.499,1
2.134,1.1676,6.3404,-0.093067,6.4335,0.00035325,0.18119,-0.00013842,0.083172,1.0154,2.1341,5.9164,2.4324,2.1017,2.3954,0.69716,2.9042,10.399,3.5008,4.9487,6.3097,1
44.229,34.235,168.32,-0.43835,168.76,0.005141,3.2256,-0.00040481,1.162,2.4745,44.23,3127.6,55.925,17.874,22.6,1.0872,3.7669,4.3337e+08,1571.6,1084,1123.1,1
4.4227,7.2828,43.233,-0.05122,43.284,0.00042479,0.23807,6.3859e-05,0.04481,1.0219,4.4229,72.57,8.5188,4.3282,8.3365,3.5751,16.346,1.57e+06,14.217,32.117,59.413,1
13.399,11.723,58.267,-0.75402,59.021,0.00061645,0.86815,-0.002038,0.36849,1.2448,13.401,316.88,17.801,10.766,14.301,1.2413,4.1551,2.4059e+06,0.72552,0.98987,1.4587,1
5.5201,4.4348,27.289,-0.0069543,27.296,0.0075931,0.48867,-0.00075962,0.20072,1.0764,5.5201,50.128,7.0801,5.1283,6.5776,1.7231,6.1547,34478,32.641,0.30014,3.913,1
10.184,15.626,81.021,-0.45706,81.478,-0.0011661,0.59761,-3.9596e-05,0.072763,1.1121,10.191,347.75,18.648,9.1637,16.769,2.4143,8.7062,2.966e+07,0.18918,0.65979,2.5466,1
15.845,17.498,80.619,-0.64071,81.259,-0.0029753,0.66032,1.336e-05,0.11409,1.1602,15.852,557.09,23.603,13.663,20.344,1.6321,5.1793,2.4664e+07,32.735,47.042,103.55,1
31.537,32.41,301.65,-0.053195,301.71,0.0067578,4.9083,-0.0021104,2.4712,3.536,31.537,2044.4,45.215,8.9188,12.787,4.7411,31.822,7.8804e+09,88.103,43.052,77.136,1
3.4604,4.3471,27.559,-6.6102e-05,27.559,-0.010277,0.16399,-0.00078831,0.050765,1.012,3.4604,30.861,5.5553,3.4193,5.4893,2.8545,11.729,78928,0.54756,0.031629,0.079706,1
9.1173,8.0194,33.775,-0.17485,33.95,0.00029079,0.52929,-0.001876,0.15842,1.1093,9.1179,147.4,12.141,8.2194,10.945,1.1901,3.5394,2.6042e+05,1.252,0.42194,0.375,1
5.509,5.7777,45.037,0.0019261,45.035,0.00037465,0.541,-0.00082227,0.19395,1.0957,5.509,63.713,7.9821,5.0278,7.2848,3.35,18.986,7.1766e+05,6.3405,12.124,7.9773,1
6.3732,5.9353,33.459,-0.023338,33.482,-0.0023729,0.44859,0.0022689,0.18326,1.0829,6.3732,75.826,8.7078,5.8855,8.0414,1.5276,5.371,1.2321e+05,52.364,5.4137,11.848,1
22.339,25.487,149.75,-0.16229,149.91,-0.015125,1.0107,0.00015022,0.1736,1.2987,22.339,1148.3,33.886,17.202,26.093,2.7887,12.092,5.5548e+08,365.92,450.21,2279.6,1
11.279,16.658,105.67,-0.17618,105.84,0.0026643,0.74616,-0.0006379,0.13631,1.1315,11.28,404.57,20.114,9.9688,17.776,3.3335,15.856,9.9835e+07,5.9904,7.0449,3.8776,1
17.262,16.062,81.742,-0.96525,82.708,0.006674,1.2748,-0.0012981,0.43208,1.4346,17.265,555.82,23.576,12.035,16.434,1.4621,5.1332,1.6694e+07,25.695,3.0678,5.4452,1
3.4341,7.4275,54.537,-0.068753,54.605,-0.00193,0.35195,-0.00012291,0.067736,1.0336,3.4344,66.931,8.1812,3.3227,7.9151,4.9345,28.416,3.8402e+06,0.10184,0.2618,0.60856,1
15.64,14.954,81.173,-0.096543,81.27,0.0085605,1.6922,0.00072653,0.62159,1.58,15.64,468.1,21.636,9.8987,13.693,1.679,5.4199,1.2062e+07,712.7,447.91,1393.1,1
20.262,18.636,98.674,-0.052972,98.727,0.0032744,1.475,-0.00095142,0.54431,1.5689,20.262,757.68,27.526,12.915,17.544,1.5976,5.5258,3.835e+07,69.936,8.5124,8.6651,1
17.362,18.76,132.41,-0.018497,132.43,0.0015362,1.2356,0.00065588,0.23497,1.4289,17.362,653.2,25.558,12.151,17.886,2.8794,14.066,1.6477e+08,32.631,74.477,175.67,1
35.411,18.741,73.718,0,73.718,-0.0063411,10.118,0.0014215,5.6753,9.0691,35.411,1605,40.062,3.9045,4.4174,0.072599,1.7364,6.6631e+05,539.36,695.19,627.48,1
3.8069,8.4118,46.439,-0.002992,46.442,0.014163,0.2214,-2.1649e-05,0.055433,1.0204,3.8069,85.212,9.231,3.7307,9.0464,3.5642,15.834,3.0243e+06,593.06,684.76,472.03,1
10.487,7.2977,38.068,-0.47436,38.543,0.0035553,0.83637,-0.0055164,0.36408,1.2217,10.489,163.21,12.775,8.5854,10.457,1.1344,4.1337,2.1225e+05,16.008,27.373,34.017,1
