18.161,19.988,100.1,-1.1369e-13,100.1,0.01134,0.9122,-5.4502e-05,0.15581,1.2414,18.161,729.12,27.002,14.629,21.751,1.4813,5.0177,5.0612e+07,859.1,413.65,0.38808,1
68.989,79.742,475.35,-0.65421,476,0.061965,4.0565,-0.0038116,1.1156,3.0753,68.991,11115,105.43,22.434,34.281,2.6551,11.56,1.6073e+11,12581,9249.2,7506,1
28.644,25.458,109.04,-1.4663,110.5,0.016565,1.2976,-0.0033715,0.41327,1.4979,28.653,1468.2,38.317,19.129,25.581,1.2876,3.8538,9.653e+07,717.21,998.96,1088.7,1
20.922,30.114,157.54,-0.5497,158.09,-0.024606,1.1561,-0.00030727,0.17522,1.2991,20.934,1344.1,36.662,16.114,28.221,2.1413,7.5652,6.683e+08,15.008,10.009,6.7096,1
11.294,15.858,81.848,-0.5693,82.418,0.012952,0.59252,-0.00025362,0.1036,1.118,11.302,378.92,19.466,10.11,17.412,2.6685,10.012,3.7676e+07,93.118,16.372,110.92,1
73.613,64.068,356.07,0,356.07,0.032112,6.2357,0.018035,2.1348,4.8607,73.613,9521.4,97.578,15.144,20.075,1.3606,4.5732,1.4437e+10,1659.7,66.716,740.23,1
21.239,20.659,135.31,-1.145e-05,135.31,0.0026089,2.1241,-0.00022617,0.83372,1.9594,21.239,877.66,29.625,10.84,15.119,2.4153,10.524,1.7374e+08,60.544,181.38,40.624,1
16.514,15.782,87.593,-0.011837,87.604,-0.007785,0.8264,0.00060142,0.26425,1.2334,16.514,521.63,22.839,13.389,18.518,1.9124,7.1082,2.4824e+07,62.269,48.345,81.995,1
19.797,23.489,100.18,-0.66133,100.84,-0.037146,1.2443,-0.00119,0.23151,1.3552,19.802,943.38,30.715,14.612,22.664,1.7692,5.264,1.0361e+08,0.66245,0.18195,2.0466,1
6.247,8.5197,42.351,0.0030567,42.347,-0.0015574,0.31518,-0.0001425,0.047304,1.0398,6.247,111.57,10.563,6.008,10.159,2.3678,8.5199,1.36e+06,1.4526,0.52156,0.18277,1
10.053,13.596,79.436,-0.048079,79.484,0.0040148,0.64367,0.00058727,0.08718,1.1316,10.053,285.8,16.906,8.8835,14.939,2.6159,10.702,2.0752e+07,1.1476,7.8595,17.656,1
16.621,11.126,55.815,-0.0025015,55.817,-0.0067367,1.0638,0.0001499,0.41134,1.3807,16.621,399.96,19.999,12.038,14.485,1.1056,3.978,1.6218e+06,52.057,85.611,87.978,1
17.325,14.762,60.464,-0.53395,60.998,0.0084913,0.69844,0.00043247,0.094984,1.1779,17.329,517.97,22.759,14.711,19.321,0.89671,2.8877,3.9397e+06,167.51,209.49,316.57,1
12.961,11.784,57.224,-1.0422,58.266,0.0028312,0.60724,-0.00046257,0.10857,1.1372,12.969,306.77,17.515,11.404,15.402,1.3859,4.4811,2.6709e+06,62.428,129.63,106.02,1
6.2755,4.4832,33.044,-0.2913,33.335,-0.002476,0.26606,0.0002152,0.052869,1.0299,6.2775,59.469,7.7116,6.0953,7.4879,1.9362,10.566,92766,14.574,22.224,5.5863,1
20.946,25.443,136.58,0.072922,136.51,0.0022671,1.2541,-0.00068264,0.28395,1.4272,20.946,1085.7,32.95,14.676,23.087,2.4593,9.6299,4.0079e+08,904.08,2342.9,962.02,1
2.5741,3.2556,20.323,-0.016636,20.339,0.0018437,0.14851,2.6575e-05,0.031109,1.0099,2.5741,17.219,4.1496,2.5489,4.109,2.9971,13.397,22551,9.4001,0.96515,2.395,1
11.516,13.508,75.248,-0.03197,75.28,0.0087614,0.55299,-0.00036126,0.092438,1.1027,11.516,314.98,17.748,10.443,16.095,2.255,8.4619,1.4349e+07,66.842,5.4322,20.602,1
11.72,11.791,62.295,0.0067507,62.289,0.00095143,0.7539,0.00026698,0.26973,1.2118,11.72,276.31,16.623,9.6715,13.718,1.6696,5.7226,4.1252e+06,120.13,22.587,2.1605,1
1.8493,1.9945,9.5816,-0.00040987,9.582,-0.00080339,0.085828,7.1472e-05,0.031657,1.0031,1.8493,7.3959,2.7195,1.8435,2.7111,2.0042,6.4197,622.42,0.17093,0.20084,0.17359,1
14.251,13.182,62.242,-0.0011471,62.243,0.0027728,0.82053,0.00071617,0.21365,1.2147,14.251,376.79,19.411,11.732,15.98,1.573,4.7214,5.0319e+06,357.69,4.9828,50.879,1
13.536,12.893,57.429,0.015777,57.413,0.0089519,0.71509,-0.00019337,0.1597,1.1768,13.536,349.35,18.691,11.502,15.883,1.4397,4.3642,3.9099e+06,147.21,123.66,118.42,1
15.031,18.338,97.392,-0.0041901,97.396,0.022989,0.90264,-0.00055016,0.18741,1.2264,15.031,562.04,23.707,12.257,19.331,2.2393,8.3799,6.4923e+07,232.39,9.6077,54.245,1
24.763,26.321,146.45,0,146.45,0.019175,1.3179,-0.0012048,0.21608,1.4195,24.763,1305.6,36.134,17.445,25.456,2.0469,7.9649,3.7838e+08,1264.1,187.74,17.725,1
14.229,14.009,68.367,-0.06566,68.433,0.0020366,0.76274,-0.00050235,0.13756,1.1813,14.229,398.62,19.965,12.046,16.902,1.6524,5.4499,8.5842e+06,81.937,7.2853,59.621,1
14.229,14.009,68.367,-0.06566,68.433,0.0020366,0.76274,-0.00050235,0.13756,1.1813,14.229,398.62,19.965,12.046,16.902,1.6524,5.4499,8.5842e+06,81.937,7.2853,59.621,1
23.837,15.314,77.384,0.045453,77.339,0.00085203,0.89898,0.00016185,0.17886,1.2781,23.837,802.62,28.331,18.651,22.167,0.81594,3.6422,6.6446e+06,7.3112,7.0342,10.565,1
29.423,39.76,177.34,-0.33114,177.67,0.010671,1.4943,-0.00049471,0.18814,1.4396,29.424,2445.7,49.454,20.439,34.354,1.9461,6.2599,1.9207e+09,383.44,190.86,154.17,1
10.211,8.5911,56.376,-0.012965,56.389,0.0061495,1.3592,-0.00041715,0.61176,1.5779,10.211,178.02,13.343,6.471,8.4559,2.3291,10.46,2.1363e+06,396.34,680.81,816.62,1
30.696,32.892,200.03,-1.1786,201.21,-0.011446,2.7609,-0.0098389,1.1079,2.3066,30.7,2023.6,44.984,13.309,19.502,2.3362,9.0936,1.3696e+09,22.241,17.116,17.332,1
2.7817,1.0329,5.9878,0.0014012,5.9864,0.0011544,0.18549,5.167e-06,0.10658,1.0163,2.7817,8.8039,2.9671,2.7369,2.9194,0.073481,3.4635,1.3138,4.6236,4.2545,3.5545,1
1.2632,0.74747,4.5268,-1.4211e-13,4.5268,-6.6171e-05,0.064746,0.00019431,0.029131,1.0016,1.2632,2.1541,1.4677,1.2612,1.4654,1.7166,6.2495,4.3621,0.51395,0.39257,0.43591,1
72.907,37.171,193.88,0.4492,193.43,0.0068149,15.485,0.01171,7.3654,13.881,72.907,6696.3,81.831,5.2524,5.8953,0.27025,2.5272,1.9426e+08,1815.2,2468.7,1513.1,1
24.189,13.168,65.014,-0.0054891,65.02,0.0092517,4.086,-0.012624,2.3532,3.3365,24.189,758.39,27.539,7.2497,8.2538,0.48011,2.6624,1.3687e+06,249.55,250.59,422.59,1
14.324,10.038,48.074,-0.59723,48.671,-0.010869,1.7162,0.0067082,0.9134,1.7114,14.326,305.89,17.49,8.3712,10.22,0.97508,3.3894,6.9889e+05,176.04,182.21,116.35,1
10.468,9.303,42.661,-0.17917,42.84,0.0015405,0.70436,-0.00021578,0.24438,1.1919,10.468,196.08,14.003,8.7832,11.749,1.3809,4.2588,7.4122e+05,17.228,2.6096,2.7986,1
4.1693,3.0564,14.755,-0.020937,14.776,-0.00051838,0.13988,-1.1476e-05,0.046143,1.0091,4.1694,26.72,5.1691,4.1318,5.1226,1.1994,4.5106,3108.3,1.1867,0.21299,0.11281,1
7.5858,8.9018,56.351,-1.5063,57.858,-0.0048889,0.44458,0.00044581,0.086609,1.07,7.6215,136.75,11.694,7.1228,10.929,2.3214,9.9292,2.4658e+06,0.70426,1.9935,3.259,1
9.6978,6.3547,30.592,-0.51062,31.103,0.0048105,1.4393,-0.0011981,0.83449,1.5411,9.6985,134.41,11.593,6.293,7.5226,0.75242,3.0148,56284,116.6,79.863,65.51,1
35.486,28.825,142.19,-0.028529,142.22,-0.0065088,1.8939,-0.00071885,0.32994,1.7649,35.486,2089.7,45.713,20.107,25.901,0.9949,3.5475,1.6721e+08,1701.8,843.23,844.98,1
29.393,25.549,121.54,0.18184,121.36,0.0046369,2.0913,0.0017804,0.53597,1.941,29.393,1516.3,38.94,15.143,20.062,1.2934,4.1978,1.1969e+08,507.55,269.92,95.788,1
6.2863,9.1626,53.571,-0.0066636,53.578,0.0010569,0.33149,0.00041098,0.053195,1.0419,6.2863,123.43,11.11,6.0336,10.663,3.0272,13.268,3.8005e+06,7.0432,13.699,21.817,1
19.704,21.432,108.24,1.1369e-13,108.24,0.0040753,1.3283,-0.001203,0.26506,1.4415,19.704,847.34,29.109,13.669,20.194,1.8749,5.9973,8.3122e+07,52.405,66.97,119.92,1
14.471,14.456,79.496,-0.0051988,79.501,-0.0007472,0.93454,-5.3738e-05,0.17761,1.25,14.471,418.26,20.451,11.577,16.361,1.7765,6.3659,1.3537e+07,9.2597,14.713,24.381,1
5.3572,6.8018,33.628,0.024991,33.603,0.00077911,0.22793,0.00020538,0.049088,1.0219,5.3572,74.94,8.6568,5.2424,8.4713,1.9669,6.5363,3.1688e+05,4.4342,4.191,7.6797,1
16.91,18.224,111.18,-0.89123,112.07,0.0018451,1.1051,-0.00036019,0.26846,1.3722,16.913,617.88,24.857,12.325,18.115,2.4897,10.346,8.7221e+07,62.219,46.536,22.305,1
27.918,25.186,139.1,-0.63263,139.73,-0.022479,1.3005,-0.0031413,0.23213,1.4398,27.919,1413.4,37.596,19.391,26.112,1.5708,5.9545,2.0495e+08,9.1096,14.448,5.9145,1
19.596,27.324,171.91,-2.7594,174.67,0.024139,1.0092,-0.0006043,0.27552,1.3027,19.621,1130.2,33.618,15.062,25.806,3.5263,17.161,1.2924e+09,1.1732,51.505,213.85,1
10.265,7.9012,36.982,0.0025695,36.98,-0.0031625,0.39299,7.1638e-05,0.096531,1.0658,10.265,167.76,12.952,9.6314,12.153,1.1557,3.8869,2.7691e+05,10.006,3.3368,1.2449,1
1.7196,0.87566,4.0123,-0.019585,4.0319,0.00049237,0.080433,-7.8801e-06,0.03406,1.0027,1.7196,3.7234,1.9296,1.715,1.9244,0.34021,2.5525,1.0974,3.3037,2.6127,1.0813,1
11.867,16.072,80.986,-0.0068033,80.993,-0.0044299,0.59984,0.00023589,0.10229,1.1224,11.867,399.02,19.975,10.573,17.797,2.275,7.774,2.8544e+07,1.3414,1.4906,1.1235,1
10.515,9.0016,44.334,-0.13456,44.469,0.0022273,0.49606,-0.00019643,0.087737,1.0986,10.515,191.55,13.84,9.5713,12.597,1.288,4.2074,6.3455e+05,8.3143,15.008,51.693,1
5.9182,5.6426,36.117,-0.15289,36.27,-0.0083194,0.25991,0.0005991,0.057231,1.0293,5.9191,66.847,8.176,5.7508,7.9435,2.2844,9.9205,2.4734e+05,4.6351,4.1098,2.8978,1
16.487,10.622,49.578,-0.49463,50.073,-0.0011886,0.82336,0.0013886,0.16894,1.2355,16.491,384.59,19.611,13.348,15.873,0.79232,3.3577,8.459e+05,107.88,220.35,534.44,1
2.149,1.1569,6.3404,-0.093067,6.4335,0.0006238,0.18381,2.9712e-05,0.084704,1.0159,2.1492,5.9561,2.4405,2.1155,2.4023,0.67199,2.9074,9.7587,2.1673,3.0681,2.6788,1
45.12,34.419,168.32,-0.43835,168.76,0.0054974,3.2626,-0.00082424,1.1714,2.52,45.121,3219.9,56.744,17.905,22.518,1.0235,3.5722,4.0643e+08,3463,1217.1,1590.8,1
4.4022,7.1681,43.233,-0.05122,43.284,-0.00034332,0.23482,-3.318e-05,0.04452,1.0213,4.4024,70.735,8.4104,4.3105,8.235,3.6394,16.908,1.525e+06,4.6147,5.4624,7.1053,1
13.018,11.729,58.267,-0.75402,59.021,0.0027278,0.85612,-0.0021997,0.36352,1.2383,13.02,306.97,17.521,10.514,14.148,1.2622,4.2096,2.4699e+06,0.27878,0.92864,1.3517,1
5.6255,4.4192,27.289,-0.0069543,27.296,0.0026496,0.48332,-0.00097179,0.1984,1.0751,5.6255,51.166,7.153,5.2327,6.6536,1.6469,5.9289,32293,20.902,39.143,82.997,1
9.9125,15.451,81.021,-0.45706,81.478,-0.0002359,0.58819,4.4293e-05,0.071736,1.1086,9.9185,336.85,18.353,8.947,16.556,2.4657,8.9945,2.9411e+07,0.95307,0.60602,0.14412,1
15.444,17.365,80.619,-0.64071,81.259,-0.0055511,0.65154,-0.00014554,0.11407,1.1562,15.45,539.9,23.236,13.363,20.097,1.6736,5.3329,2.483e+07,3.1009,6.1169,20.825,1
31.059,32.023,301.65,-0.053195,301.71,0.0024611,4.8727,-0.0025011,2.4629,3.5332,31.059,1989.6,44.604,8.7905,12.624,4.7998,32.623,7.713e+09,139.74,146.87,158.1,1
3.4536,4.2781,27.559,-6.6102e-05,27.559,-0.01016,0.16153,-0.00072774,0.050035,1.0117,3.4536,30.22,5.4973,3.4138,5.4339,2.9049,12.127,76573,3.7914,3.2937,3.9592,1
8.9722,7.9435,33.775,-0.17485,33.95,0.0028065,0.52317,-0.0015717,0.15704,1.107,8.9728,143.57,11.982,8.1053,10.824,1.2296,3.6581,2.6233e+05,12.436,1.4713,1.7918,1
5.4259,5.7124,45.037,0.0019261,45.035,-0.0019991,0.53546,-0.00070802,0.19207,1.0942,5.4259,62.055,7.8775,4.9586,7.1992,3.3939,19.442,7.0353e+05,2.3349,5.6601,10.624,1
6.4587,5.867,33.459,-0.023338,33.482,-0.0016662,0.44796,0.0019904,0.18354,1.0828,6.4588,76.119,8.7246,5.9648,8.0574,1.4943,5.364,1.166e+05,34.738,17.515,22,1
23.749,27.096,149.75,-0.16229,149.91,0.011063,1.2339,0.00045273,0.21405,1.3592,23.75,1297.8,36.026,17.474,26.506,2.4832,9.7713,5.4924e+08,3757.6,1061,128.11,1
11.062,16.438,105.67,-0.17618,105.84,0.0017948,0.73436,-0.00058333,0.13422,1.1274,11.063,392.42,19.809,9.8121,17.57,3.3974,16.376,9.7973e+07,7.0202,7.5392,8.6798,1
17.364,15.841,81.742,-0.96525,82.708,0.0070147,1.2655,-0.0010491,0.43117,1.4303,17.366,552.31,23.501,12.142,16.431,1.4591,5.2176,1.6001e+07,198.92,76.089,156.51,1
3.3451,7.326,54.537,-0.068753,54.605,-0.0013978,0.34659,-0.00014088,0.066936,1.0326,3.3454,64.832,8.0518,3.2397,7.7974,5.0147,29.319,3.7563e+06,0.19343,0.11547,0.0352,1
15.941,14.843,81.173,-0.096543,81.27,0.0079707,1.6824,-0.00048973,0.6189,1.5791,15.941,474.29,21.778,10.095,13.791,1.6206,5.2965,1.1312e+07,162.62,313.27,415.99,1
19.795,18.525,98.674,-0.052972,98.727,0.0021198,1.4579,-0.0010935,0.53986,1.558,19.795,734.83,27.108,12.705,17.399,1.6339,5.656,3.8647e+07,7.8883,22.4,23.04,1
16.953,18.601,132.41,-0.018497,132.43,0.0024779,1.217,0.00044633,0.23185,1.4167,16.953,633.22,25.164,11.967,17.762,2.9155,14.354,1.6304e+08,5.5658,7.8308,7.5471,1
35.354,18.657,73.718,0,73.718,0.017268,10.081,0.0090996,5.6581,9.0394,35.354,1597.8,39.972,3.9111,4.422,0.073534,1.7391,6.7481e+05,707.86,722.35,632.81,1
4.389,8.9127,46.439,-0.002992,46.442,0.0078817,0.24404,-0.00012788,0.058946,1.025,4.389,98.657,9.9326,4.2819,9.6903,3.0255,12.098,2.8006e+06,121.13,159.92,387.69,1
10.362,7.2194,38.068,-0.47436,38.543,0.0029359,0.82994,-0.0053417,0.36302,1.2194,10.363,159.46,12.628,8.4989,10.356,1.1794,4.2654,2.1265e+05,16.475,13.408,17.723,1
