18.304,19.702,100.1,-1.1369e-13,100.1,0.0069926,0.91544,-0.00034343,0.15746,1.2458,18.304,723.01,26.889,14.692,21.583,1.473,5.0859,4.8267e+07,80.148,141.88,357.51,1
69.656,78.671,475.35,-0.65421,476,0.043216,4.1024,0.00027791,1.1368,3.1273,69.658,11038,105.06,22.274,33.595,2.646,11.683,1.5353e+11,1084.5,4218.2,8080.1,1
28.283,25.111,109.04,-1.4663,110.5,0.0058812,1.305,-0.00073324,0.42701,1.5054,28.292,1430.2,37.818,18.793,25.12,1.3311,4.0064,9.5906e+07,100.77,193.29,374.36,1
20.372,29.716,157.54,-0.5497,158.09,-0.02692,1.1361,-0.00035717,0.17219,1.2893,20.384,1297.6,36.022,15.81,27.939,2.1996,7.8595,6.6118e+08,20.245,12.241,13.909,1
11.759,15.924,81.848,-0.5693,82.418,0.016329,0.62149,-2.1356e-05,0.10714,1.1297,11.766,391.69,19.791,10.416,17.519,2.5188,9.2998,3.5088e+07,280.01,48.878,262.54,1
73.364,63.338,356.07,0,356.07,0.0032626,6.2278,0.013129,2.1533,4.869,73.364,9392.1,96.913,15.068,19.904,1.3709,4.6478,1.402e+10,709.57,2645.1,4027.6,1
21.325,20.373,135.31,-1.145e-05,135.31,-0.00088962,2.1481,-0.00013847,0.84954,1.9727,21.325,869.59,29.489,10.81,14.948,2.4232,10.699,1.6681e+08,107.31,193.47,422.07,1
16.066,15.678,87.593,-0.011837,87.604,-0.0084254,0.81575,0.00072902,0.26239,1.2282,16.066,503.78,22.445,13.081,18.275,1.9472,7.2738,2.4895e+07,7.9005,11.095,5.9977,1
19.317,23.215,100.18,-0.66133,100.84,-0.034171,1.2253,-0.0011854,0.22862,1.346,19.322,911.82,30.196,14.355,22.435,1.8207,5.475,1.0366e+08,34.54,27.791,0.39963,1
7.0337,10.041,64.939,-0.00032093,64.94,0.030942,0.38067,0.00098961,0.055617,1.0554,7.0337,150.24,12.257,6.6647,11.614,2.419,8.9426,3.491e+06,521.57,91.644,0.53436,1
11.468,15.496,79.436,-0.048079,79.484,0.024103,0.68903,0.00029773,0.091493,1.15,11.468,371.54,19.275,9.9724,16.761,2.2396,7.7902,2.395e+07,1285.9,1160.4,116.55,1
16.595,10.96,55.815,-0.0025015,55.817,-0.006417,1.0623,0.00022339,0.41318,1.3808,16.595,395.48,19.887,12.018,14.402,1.12,4.086,1.5714e+06,116.07,123.13,114.91,1
17.047,14.631,60.464,-0.53395,60.998,-0.00082083,0.68979,0.00027932,0.0948,1.1741,17.051,504.58,22.463,14.523,19.133,0.9269,2.9735,3.973e+06,17.886,82.263,129.74,1
12.545,11.777,57.224,-1.0422,58.266,0.00056698,0.59726,-0.0001635,0.10706,1.1328,12.557,296.01,17.205,11.084,15.188,1.408,4.5606,2.7455e+06,0.090314,1.5469,9.7347,1
6.2031,4.4206,33.044,-0.2913,33.335,-0.0032585,0.26178,0.00026547,0.0522,1.029,6.2051,58.011,7.6165,6.0305,7.4021,1.9922,10.91,90964,5.0369,8.0052,10.043,1
20.836,25.12,136.58,0.072922,136.51,0.010731,1.2582,-0.00062522,0.28858,1.4311,20.836,1064.9,32.632,14.56,22.802,2.4762,9.8211,3.8868e+08,76.385,24.148,144.33,1
2.6553,3.2405,20.323,-0.016636,20.339,0.0018265,0.15246,-7.3154e-05,0.032106,1.0105,2.6554,17.546,4.1888,2.6278,4.1453,2.8849,12.903,21179,12.167,6.7651,4.9078,1
11.79,13.397,75.248,-0.03197,75.28,0.014248,0.57159,0.00067752,0.098726,1.111,11.79,318.38,17.843,10.612,16.06,2.1928,8.2888,1.3494e+07,90.113,94.87,202.5,1
11.637,11.609,62.295,0.0067507,62.289,-0.0046222,0.74387,0.00044608,0.26731,1.2067,11.637,270.12,16.435,9.644,13.621,1.7062,5.9235,4.0227e+06,23.381,51.163,81.283,1
1.8118,1.9688,9.5816,-0.00040987,9.582,-0.0011186,0.085291,9.5524e-05,0.031888,1.0031,1.8118,7.1567,2.6752,1.8062,2.6669,2.0608,6.6796,618.83,0.22484,0.29398,0.34629,1
14.773,13.509,62.242,-0.0011471,62.243,-0.021456,0.81835,0.00059295,0.21141,1.2158,14.773,400.62,20.015,12.151,16.463,1.4827,4.3553,4.9989e+06,207.87,540.53,982.81,1
13.685,12.764,57.429,0.015777,57.413,0.010468,0.73612,0.0011849,0.16258,1.1836,13.685,350.1,18.711,11.562,15.809,1.4058,4.3272,3.6879e+06,81.261,195.3,208.4,1
15.381,18.227,97.392,-0.0041901,97.396,0.026425,0.93462,0.002005,0.18966,1.2413,15.381,568.62,23.846,12.391,19.211,2.1722,8.1547,6.1161e+07,61.494,294.17,623.49,1
24.671,25.916,146.45,0,146.45,0.025138,1.3135,0.0007188,0.21329,1.4205,24.671,1279.9,35.776,17.367,25.185,2.0789,8.2048,3.6664e+08,59.913,156.89,413.19,1
14.161,13.851,68.367,-0.06566,68.433,0.0041001,0.77068,-0.00013243,0.13935,1.1872,14.161,392.3,19.807,11.929,16.684,1.6616,5.5405,8.3478e+06,26.957,183.93,71.762,1
14.161,13.851,68.367,-0.06566,68.433,0.0041001,0.77068,-0.00013243,0.13935,1.1872,14.161,392.3,19.807,11.929,16.684,1.6616,5.5405,8.3478e+06,26.957,183.93,71.762,1
24.962,16.501,77.384,0.045453,77.339,0.02188,0.93749,-0.00045873,0.18038,1.2939,24.962,895.24,29.92,19.292,23.125,0.86264,3.4933,8.6508e+06,1667.7,1379.9,91.832,1
28.85,39.198,177.34,-0.33114,177.67,-0.0043323,1.4706,-0.00015781,0.18556,1.428,28.851,2368,48.662,20.204,34.077,1.9981,6.5091,1.8959e+09,31.343,122.76,340.9,1
10.304,8.5438,56.376,-0.012965,56.389,0.0036783,1.3664,0.0012007,0.61504,1.584,10.305,179.14,13.384,6.5054,8.4498,2.2667,10.246,2.036e+06,22.802,77.067,148.04,1
29.845,32.615,200.03,-1.1786,201.21,-0.0085681,2.7223,-0.0080242,1.0931,2.2786,29.849,1953.9,44.203,13.1,19.4,2.3742,9.3282,1.3649e+09,16.812,4.7631,22.491,1
2.8125,1.0301,5.9878,0.0014012,5.9864,0.0011095,0.18756,-4.5495e-05,0.10801,1.0167,2.8125,8.971,2.9952,2.7662,2.9459,0.019364,3.4196,0.76148,5.1697,4.4485,4.4844,1
1.2617,0.73453,4.5268,-1.4211e-13,4.5268,0.00015284,0.064378,0.00016557,0.029011,1.0016,1.2617,2.1312,1.4599,1.2597,1.4576,1.7505,6.4774,4.2212,0.56272,0.47454,0.58693,1
72.672,37.182,193.88,0.4492,193.43,-0.034551,15.513,0.0093605,7.3925,13.901,72.672,6663.1,81.628,5.2279,5.8721,0.26296,2.5139,1.895e+08,2948.4,2588.5,2038.9,1
24.242,13.133,65.014,-0.0054891,65.02,0.019433,4.0712,-0.013633,2.3423,3.336,24.242,760.06,27.569,7.2667,8.2642,0.47333,2.6458,1.3268e+06,298.99,219.2,117.59,1
14.103,9.9544,48.074,-0.59723,48.671,-0.012347,1.7211,0.0072237,0.91865,1.7187,14.105,297.93,17.261,8.2065,10.043,1.0123,3.4859,7.0939e+05,25.1,43.304,50.683,1
10.265,9.2035,42.661,-0.17917,42.84,-0.00063352,0.69725,-0.0006666,0.24425,1.1885,10.266,190.04,13.785,8.6371,11.599,1.4305,4.4197,7.4609e+05,8.7462,5.0579,19.402,1
4.1142,3.0209,14.755,-0.020937,14.776,-0.0019782,0.13901,2.7102e-05,0.046257,1.009,4.1142,26.048,5.1037,4.0776,5.0582,1.2422,4.656,3101.6,2.1741,3.921,5.2962,1
7.3422,8.8343,56.351,-1.5063,57.858,-0.0042297,0.43697,0.00048375,0.085304,1.0677,7.3766,131.91,11.485,6.9089,10.757,2.3565,10.141,2.4518e+06,0.070225,0.28515,0.31098,1
9.6165,6.274,30.592,-0.51062,31.103,0.0015518,1.4243,-0.0014204,0.82536,1.5336,9.6171,131.82,11.481,6.2709,7.4864,0.78666,3.1068,56179,16.256,22.835,59.352,1
35.311,28.642,142.19,-0.028529,142.22,0.0062282,1.9025,-0.00064854,0.33139,1.7703,35.311,2066.9,45.463,19.947,25.681,0.99251,3.5552,1.6327e+08,273.33,82.801,367.72,1
29.509,25.229,121.54,0.18184,121.36,0.0090798,2.0988,0.00072221,0.53713,1.9511,29.509,1507,38.82,15.124,19.896,1.2883,4.2426,1.1452e+08,409.95,275.01,151.52,1
6.2266,9.0109,53.571,-0.0066636,53.578,5.2461e-05,0.3299,0.00018521,0.053381,1.0418,6.2266,119.93,10.951,5.9771,10.512,3.0882,13.762,3.6924e+06,5.5071,5.4344,10.895,1
19.47,21.148,108.24,1.1369e-13,108.24,0.00029866,1.3159,-0.0010047,0.26216,1.4367,19.47,826.1,28.742,13.552,20.005,1.9094,6.1893,8.1589e+07,127.48,169.11,24.361,1
14.214,14.279,79.496,-0.0051988,79.501,-0.00040253,0.92256,3.6358e-05,0.17583,1.2448,14.214,405.81,20.145,11.418,16.183,1.8234,6.5847,1.3401e+07,31.338,44.389,2.8202,1
5.2708,6.697,33.628,0.024991,33.603,-7.462e-05,0.22434,0.00022157,0.04851,1.0212,5.2708,72.609,8.5211,5.1613,8.344,2.0237,6.8123,3.1148e+05,2.8738,5.3865,4.1435,1
16.812,17.973,111.18,-0.89123,112.07,0.0063681,1.1043,-9.2034e-05,0.26956,1.373,16.815,605.52,24.607,12.247,17.923,2.5176,10.604,8.4661e+07,196.29,106.88,5.5656,1
28.77,25.264,139.1,-0.63263,139.73,-0.013045,1.3179,-0.0048373,0.23215,1.4525,28.772,1465.7,38.284,19.809,26.358,1.4559,5.5468,1.89e+08,1299.4,1425.2,260.65,1
21.23,28.261,171.91,-2.7594,174.67,0.016159,1.0335,-0.0032475,0.27672,1.3184,21.254,1249,35.341,16.121,26.806,3.0883,14.088,1.184e+09,2231,1703.3,825.51,1
10.207,7.8071,36.982,0.0025695,36.98,0.0036312,0.40467,0.00030457,0.097507,1.0696,10.207,165.11,12.849,9.5427,12.013,1.1717,3.9736,2.7117e+05,12.188,62.303,14.761,1
1.7107,0.86654,4.0123,-0.019585,4.0319,-0.00022223,0.08002,1.5504e-05,0.033919,1.0027,1.7108,3.6771,1.9176,1.7062,1.9125,0.36046,2.5926,1.1183,0.61816,1.1811,1.8796,1
11.683,15.816,80.986,-0.0068033,80.993,-0.0047015,0.59017,0.00015512,0.10107,1.1187,11.683,386.51,19.66,10.444,17.574,2.336,8.1047,2.7993e+07,13.929,24.629,15.799,1
10.262,8.9445,44.334,-0.13456,44.469,0.0011526,0.49007,-0.00013137,0.087802,1.0965,10.262,185.27,13.611,9.3591,12.413,1.3296,4.3281,6.4533e+05,9.2086,0.78184,5.9977,1
5.7746,5.5957,36.117,-0.15289,36.27,-0.0081548,0.25639,0.00067183,0.056569,1.0285,5.7754,64.642,8.04,5.6153,7.8171,2.3194,10.141,2.4553e+05,0.3016,2.2416,3.8948,1
16.092,10.657,49.578,-0.49463,50.073,0.0011752,0.81258,0.0011423,0.16747,1.23,16.095,372.45,19.299,13.086,15.69,0.81417,3.3787,8.8755e+05,5.5428,3.7011,12.466,1
2.155,1.1431,6.3404,-0.093067,6.4335,-0.0001266,0.18658,-0.0003329,0.086477,1.0164,2.1551,5.95,2.4393,2.1203,2.3999,0.6665,2.9467,9.3141,1.804,2.1491,2.8705,1
44.061,34.305,168.32,-0.43835,168.76,-0.015783,3.2235,0.00088407,1.1635,2.4995,44.062,3117.6,55.836,17.628,22.339,1.0587,3.6489,4.1657e+08,46.125,143.29,615.67,1
4.3322,7.0497,43.233,-0.05122,43.284,-0.0013278,0.23151,-0.00010487,0.044578,1.0208,4.3324,68.442,8.2729,4.2443,8.1048,3.7186,17.577,1.4859e+06,1.9536,2.6923,3.4759,1
13.583,12.376,58.267,-0.75402,59.021,0.017594,0.87613,-0.001687,0.36169,1.2493,13.585,337.59,18.374,10.874,14.707,1.2248,3.9139,2.7934e+06,782.29,135.57,4.8254,1
5.5815,4.3606,27.289,-0.0069543,27.296,0.00473,0.47928,-0.00043155,0.19624,1.0744,5.5815,50.158,7.0822,5.1949,6.5917,1.6791,6.105,31623,5.4736,6.2716,11.364,1
9.6295,15.245,81.021,-0.45706,81.478,-0.0006543,0.5777,-5.4373e-05,0.070555,1.1048,9.6353,325.02,18.028,8.7216,16.319,2.5261,9.3401,2.9071e+07,1.0972,1.8015,1.6136,1
14.974,17.229,80.619,-0.64071,81.259,-0.0042825,0.64046,-0.00025152,0.11249,1.151,14.981,520.93,22.824,13.015,19.83,1.718,5.5029,2.5051e+07,1.9775,0.57298,1.7104,1
30.363,31.674,301.65,-0.053195,301.71,0.0044435,4.8108,3.8827e-05,2.4371,3.4957,30.363,1924.7,43.871,8.6859,12.55,4.8392,33.3,7.5545e+09,39.152,69.171,106.65,1
3.4121,4.2077,27.559,-6.6102e-05,27.559,-0.010657,0.15901,-0.00070016,0.049373,1.0113,3.4121,29.338,5.4165,3.3738,5.3558,2.9733,12.616,74670,1.8201,2.3395,2.812,1
8.7855,7.8694,33.775,-0.17485,33.95,0.0023585,0.51571,-0.0016279,0.15468,1.1042,8.786,139.08,11.793,7.9572,10.681,1.2763,3.7932,2.6602e+05,3.6447,2.4059,8.5749,1
5.3677,5.6227,45.037,0.0019261,45.035,-0.0015354,0.52934,-0.00058213,0.19073,1.0925,5.3677,60.411,7.7724,4.9131,7.1142,3.4618,20.12,6.8436e+05,5.8275,8.9858,2.5297,1
6.4591,5.7775,33.459,-0.023338,33.482,-0.0042292,0.44723,0.001516,0.18345,1.0827,6.4591,75.082,8.665,5.9657,8.003,1.5099,5.5031,1.1245e+05,9.9556,28.071,27.859,1
24.448,27.066,149.75,-0.16229,149.91,-0.01054,1.2279,0.00059491,0.21231,1.3612,24.448,1329.9,36.468,17.961,26.791,2.3721,9.284,5.1356e+08,481.03,1379.6,1209.8,1
10.751,16.225,105.67,-0.17618,105.84,0.00044002,0.72136,-0.000534,0.13193,1.123,10.752,378.7,19.46,9.5736,17.328,3.4588,16.904,9.6295e+07,1.6755,3.3444,4.3884,1
16.917,15.76,81.742,-0.96525,82.708,-0.0021891,1.2469,-0.00032502,0.42451,1.4194,16.92,534.46,23.118,11.92,16.287,1.4888,5.3248,1.6129e+07,1.285,12.09,111.19,1
3.2547,7.2101,54.537,-0.068753,54.605,-0.001216,0.34059,-0.00012448,0.066025,1.0315,3.255,62.552,7.909,3.1555,7.6671,5.1094,30.395,3.6597e+06,0.23106,0.20599,0.18334,1
15.852,14.626,81.173,-0.096543,81.27,-0.00095621,1.6586,0.00045877,0.61089,1.5664,15.852,465.08,21.566,10.12,13.768,1.6495,5.4614,1.102e+07,49.793,85.998,216.76,1
19.267,18.411,98.674,-0.15682,98.831,0.0028803,1.444,-0.0003825,0.53697,1.5501,19.268,710.01,26.646,12.43,17.19,1.6699,5.7975,3.8962e+07,2.0998,13.459,27.339,1
16.857,18.599,132.41,-0.018497,132.43,0.027297,1.2224,0.00039405,0.22981,1.4196,16.857,629.91,25.098,11.875,17.68,2.857,13.989,1.5834e+08,16.829,1.4866,10.496,1
35.376,18.586,73.718,0,73.718,0.0069939,10.053,-0.00091518,5.6423,9.0166,35.376,1596.7,39.959,3.9235,4.4318,0.069735,1.7368,6.3318e+05,821.4,778.09,692.91,1
4.5539,8.845,46.439,-0.002992,46.442,0.0037581,0.26171,0.00087339,0.060938,1.029,4.5539,98.931,9.9464,4.4257,9.6665,2.9538,11.839,2.6433e+06,11.012,50.863,135.74,1
10.181,7.1664,38.068,-0.47436,38.543,0.0035716,0.82462,-0.0046208,0.36158,1.218,10.183,154.99,12.45,8.36,10.221,1.2182,4.3754,2.1497e+05,9.1577,4.4015,15.155,1
