11.989,15.368,69.05,0.0096855,69.04,-0.016621,0.76164,0.00043812,0.16288,1.1841,11.989,379.52,19.481,10.125,16.452,1.9529,5.9535,1.5398e+07,0.4305,0.78923,0.6331,1
16.861,15.941,44.475,0.61347,43.862,0.062063,0.70376,-0.0014311,0.13302,1.1627,16.861,537.97,23.194,14.502,19.949,0.6055,1.6298,1.9046e+06,224.58,172.68,137.51,1
22.847,24.632,100.1,1.7279e-05,100.1,0.046437,1.0733,1.7645e-05,0.15391,1.3083,22.847,1127.7,33.581,17.464,25.668,1.4808,4.5176,1.0711e+08,727.96,887.34,993.39,1
54.136,48.364,215.9,-2.2737e-13,215.9,-0.12879,4.3736,0.011737,1.3126,3.3647,54.136,5265.7,72.565,16.089,21.567,1.4858,4.542,3.0627e+09,38.22,66.523,92.988,1
35.521,47.297,261.11,0.0023585,261.1,0.02494,3.2331,-0.0020702,0.96013,2.5206,35.521,3494.9,59.118,14.092,23.454,3.0445,12.14,1.1515e+10,107.35,192.42,184.85,1
108.52,112.56,475.35,-0.65421,476,0.45537,5.0655,-0.035401,1.3071,3.9915,108.52,24423,156.28,27.189,39.154,1.9,5.8145,2.8768e+11,20312,24609,22592,1
54.379,43.06,305.89,0.55227,305.34,-0.36543,4.5992,0.03124,1.3177,3.4386,54.379,4808,69.34,15.814,20.165,1.8012,8.6087,5.5462e+09,924.42,1218.4,1302.4,1
22.466,15.886,93.943,0.10253,93.84,-0.024864,1.9493,0.01541,0.61713,1.8124,22.466,756.63,27.507,12.395,15.177,1.7033,6.2814,2.1057e+07,60.213,196.94,311.82,1
45.214,33.437,109.04,-3.7776e-07,109.04,0.088383,1.68,-0.0084328,0.4393,1.7323,45.214,3160.4,56.217,26.101,32.453,0.33843,1.6982,5.2024e+07,577.57,657.89,924.85,1
21.973,16.2,68.507,-1.4663,69.973,-0.063605,1.0559,0.00059257,0.38221,1.3782,22.004,744.83,27.292,15.966,19.802,1.0983,3.6,8.3011e+06,40.921,41.214,29.298,1
13.905,9.0374,45.883,0.043469,45.839,0.015679,0.90672,0.0022958,0.3747,1.3011,13.905,274.9,16.58,10.687,12.743,1.3941,4.9413,7.7148e+05,30.974,41.336,28.746,1
29.27,17.744,72.068,0.018938,72.049,-0.027532,1.3519,-0.0030875,0.50788,1.5585,29.27,1171,34.221,18.781,21.957,0.30923,1.8756,2.4906e+06,3.4059,5.2905,5.8539,1
54.869,34.769,157.54,-0.5497,158.09,0.0011514,2.0417,-0.00358,0.30359,1.8886,54.872,4217.4,64.941,29.054,34.386,0.94576,3.5027,3.5268e+08,525.37,786.78,1161.3,1
9.5533,8.7644,53.927,0.30834,53.619,-0.091322,0.44577,0.0026962,0.085093,1.0819,9.5533,167.95,12.959,8.8305,11.979,2.0081,8.6394,1.8128e+06,0.087491,0.17312,0.076071,1
2.9165,2.7631,9.2155,-0.54065,9.7562,0.0037818,0.11729,0.00013346,0.034758,1.005,2.9548,16.128,4.0159,2.9401,3.996,0.74686,2.2547,531.9,1.3196,1.1914,1.1617,1
20.845,24,81.848,-0.15272,82.001,0.055414,0.91869,-0.002132,0.12832,1.256,20.846,1009.5,31.773,16.597,25.297,1.2923,3.1732,5.1881e+07,286.52,366.47,462.59,1
6.121,6.2864,35.989,-0.085638,36.074,-0.027431,0.31778,0.0004689,0.093913,1.0442,6.1215,76.917,8.7703,5.8626,8.3993,2.3069,8.5259,3.1034e+05,57.079,52.941,50.283,1
6.5811,6.9445,25.262,-0.5693,25.831,-0.030412,0.28753,0.0015504,0.079355,1.0353,6.6057,91.453,9.5631,6.3807,9.2375,1.2922,3.424,1.1741e+05,0.060209,0.12215,0.44933,1
85.695,70.089,279.49,0.01229,279.48,0.011131,6.6739,0.035754,2.445,5.0797,85.695,12248,110.67,16.87,21.787,0.91878,2.7259,8.2938e+09,25.052,81.548,149.12,1
75.76,68.885,356.07,0,356.07,0.0049726,6.2441,0.0095277,2.0645,4.8728,75.76,10477,102.36,15.548,21.005,1.5719,5.8308,2.9847e+10,111.99,324.79,223.34,1
54.409,44.207,208.22,0.0066138,208.22,-0.0071015,5.2344,-0.0017023,1.7577,4.209,54.409,4911.3,70.08,12.927,16.65,1.5444,4.9496,2.2196e+09,713.13,282.27,194.59,1
75.204,70.816,363.89,0,363.89,0.48234,7.1513,-0.014584,2.4566,5.7505,75.204,10662,103.26,13.078,17.956,2.0252,7.5029,4.6123e+10,15102,16710,8835,1
1.6481,1.327,5.5636,0.0021734,5.5614,0.00011137,0.0836,7.725e-05,0.029441,1.0017,1.6481,4.474,2.1152,1.6452,2.1115,1.1639,3.7731,35.082,0.0067319,0.012234,0.063266,1
33.894,29.139,135.31,-2.2737e-13,135.31,-0.021823,2.5084,-0.00018948,0.84462,2.2426,33.894,1996.4,44.681,15.113,19.924,1.4655,4.7779,2.7374e+08,15.407,27.098,82.447,1
11.467,7.7695,49.487,0.13031,49.357,0.073825,1.5203,-0.004997,0.64133,1.6278,11.467,191.75,13.847,7.0443,8.5068,1.6364,7.0665,7.5128e+05,178.73,118.36,77.737,1
20.451,14.132,71.635,-1.145e-05,71.635,-0.06318,2.1807,0.0069744,0.94631,1.9844,20.451,617.59,24.851,10.306,12.524,0.7574,3.2477,3.8248e+06,4.5574,4.598,14.15,1
0.59773,1.0043,4.5772,-1.9841e-05,4.5772,0.0012565,0.06253,9.0363e-06,0.018725,1.0002,0.59773,1.3641,1.168,0.59762,1.1677,2.5011,8.8258,31.591,0.076259,0.07081,0.065862,1
18.207,14.334,57.145,2.2737e-13,57.145,-0.016645,1.387,0.0071573,0.52386,1.5361,18.207,536.62,23.165,11.853,15.08,0.87213,2.6113,2.7335e+06,3.3667,11.812,9.1365,1
8.2474,3.5166,16.122,0.45375,15.668,0.0080374,0.82949,-0.0035243,0.37918,1.2608,8.2474,80.364,8.9646,6.5413,7.1102,0.054286,2.2417,84.694,6.0638,13.034,17.961,1
22.686,21.758,87.593,0.37067,87.222,-0.021913,1.0323,-0.0015368,0.3005,1.3266,22.686,987.26,31.421,17.101,23.686,1.3375,3.9458,4.5672e+07,9.6963,23.032,28.209,1
11.992,11.362,48.175,0.00098899,48.174,0.0029328,0.69277,0.0031077,0.24257,1.1806,11.992,272.67,16.513,10.157,13.986,1.7693,5.4605,2.7742e+06,4.1978,0.7066,0.41757,1
12.727,8.4043,33.482,-0.011837,33.494,0.0038637,0.64503,0.0004027,0.23327,1.1642,12.727,232.49,15.248,10.932,13.097,0.84593,2.7965,1.7985e+05,1.0808,0.0028993,0.1039,1
60.077,35.55,192.94,-0.6504,193.59,0.055468,5.2876,-0.025591,1.9894,4.3995,60.08,4870.8,69.791,13.656,15.863,0.92473,3.913,5.3362e+08,1582,2122.2,2031.8,1
53.96,65.364,262.57,2.0189,260.55,0.00064435,3.2895,-0.0007039,0.57799,2.4129,53.96,7176.8,84.716,22.363,35.109,1.6876,4.91,1.5458e+10,501.7,762.55,863.29,1
28.423,35.843,163.06,-2.2737e-13,163.06,0.14031,1.7161,0.010851,0.23716,1.5867,28.423,2090.4,45.721,17.913,28.814,2.2576,7.6772,1.4857e+09,334.96,61.827,1.0401,1
8.564,10.546,39.47,-0.075871,39.545,0.002738,0.30314,0.0005863,0.055804,1.0393,8.5644,184.36,13.578,8.2407,13.065,1.54,4.2201,1.3484e+06,6.5631,5.8008,4.2374,1
13.419,19.44,85.295,0.69629,84.599,-0.11989,0.57842,-0.0035613,0.13444,1.1235,13.419,557.33,23.608,11.944,21.012,2.3345,7.4527,6.6027e+07,0.16381,0.53189,0.46479,1
26.274,27.369,100.18,0.08212,100.1,0.1661,1.4611,-0.0019793,0.27723,1.4734,26.274,1438.1,37.922,17.832,25.738,1.3988,3.7429,1.2876e+08,1078.4,395.56,186.98,1
22.156,23.167,97.887,-0.084666,97.972,-0.086947,1.5814,0.0014111,0.28033,1.5351,22.156,1026.7,32.042,14.433,20.872,1.5851,4.6414,7.8496e+07,470.85,709.33,971.31,1
58.203,39.023,142.88,-0.058764,142.94,0.0059726,2.0798,0.0031578,0.33281,1.9714,58.203,4907.8,70.055,29.523,35.536,0.39894,2.0613,1.8262e+08,81.02,27.237,9.8795,1
62.534,59.336,193.6,0.37411,193.23,0.070033,3.1123,-0.0037614,0.56945,2.4923,62.534,7425.3,86.17,25.091,34.574,0.96883,2.6112,3.2042e+09,826.52,629.25,247.87,1
28.868,36.765,143.02,-0.22587,143.24,-0.021214,1.5361,0.0002708,0.19811,1.6022,28.87,2182.7,46.719,18.019,29.159,1.5505,4.4839,7.8249e+08,4.3066,4.6116,7.6384,1
7.5351,7.1213,29.246,0.22531,29.021,0.0050303,0.34095,-0.00052035,0.049151,1.0446,7.5351,107.4,10.364,7.2135,9.9212,1.5478,4.8078,2.2916e+05,11.178,15.948,23.27,1
1.3184,0.91831,6.9268,0.080216,6.8466,-0.01073,0.087801,0.00054865,0.031534,1.0021,1.3184,2.5801,1.6063,1.3156,1.6028,2.1797,10.713,33.339,0.037497,0.10474,0.16045,1
9.4721,11.046,42.351,0.0030567,42.347,0.068834,0.37699,-0.0010805,0.056946,1.0566,9.4721,211.52,14.544,8.9646,13.765,1.7884,5.163,2.1907e+06,230.41,207.79,170.53,1
11.797,7.9865,31.995,0.0026422,31.992,0.053029,0.78209,-0.0014336,0.31354,1.2317,11.797,202.84,14.242,9.5773,11.563,0.77213,2.7831,1.4259e+05,128.97,115.44,70.522,1
15.899,13.398,65.126,0.033966,65.092,0.01301,0.79773,0.00015918,0.11462,1.2129,15.899,432,20.785,13.108,17.136,1.5983,5.8289,7.5467e+06,12.918,18.918,29.602,1
9.2798,17.511,79.436,-0.020721,79.457,-0.012432,0.7425,-0.00020116,0.089432,1.1552,9.2798,392.22,19.804,8.033,17.143,2.7412,9.6561,5.6249e+07,0.44047,0.27285,0.23348,1
6.022,7.8963,36.163,-0.048079,36.211,0.0038722,0.39633,0.00033702,0.058612,1.0527,6.0223,98.509,9.9252,5.7209,9.4284,2.4531,8.3745,8.585e+05,1.83,1.6483,1.4754,1
12.161,8.5988,40.851,0.044698,40.806,-0.018486,0.96963,0.0044492,0.42758,1.3231,12.161,221.7,14.889,9.1909,11.253,1.5715,5.1257,6.4252e+05,23.178,23.309,22.53,1
21.311,12.815,55.815,-0.0025015,55.817,0.0048013,1.133,-0.0052205,0.39943,1.4202,21.311,618.09,24.861,15.006,17.506,0.74789,2.965,1.7015e+06,121.51,143.01,208.5,1
16.401,10.923,50.716,0.10835,50.608,-0.013915,1.0871,-7.7688e-05,0.38373,1.3947,16.401,388.1,19.7,11.76,14.126,0.8974,3.4542,1.1229e+06,13.922,6.2479,3.4497,1
14.908,7.3619,42.413,0.08824,42.325,-0.0036205,1.0825,-0.00069215,0.45177,1.3925,14.908,276.34,16.624,10.706,11.938,0.74684,4.904,2.43e+05,1.9679,23.325,10.744,1
14.686,15.959,60.464,0.084165,60.38,0.021967,0.63118,-2.9344e-05,0.083478,1.1503,14.686,469.93,21.678,12.767,18.846,1.339,3.6409,8.5902e+06,70.282,106.72,145.81,1
20.448,15.921,58.784,-0.53395,59.318,-0.013654,0.84323,0.0020402,0.1139,1.2383,20.461,671.17,25.907,16.523,20.921,0.54251,2.2732,3.1873e+06,5.6653,4.8552,5.0138,1
17.088,12.907,48.317,0.35249,47.964,0.0084853,0.63679,-0.0015837,0.086906,1.1575,17.088,458.31,21.408,14.763,18.495,0.7437,2.5502,1.4094e+06,31.196,43.909,50.033,1
12.889,10.191,41.916,-1.0422,42.958,0.026074,0.57893,-0.00056962,0.11197,1.1281,12.912,269.79,16.425,11.446,14.56,1.0719,3.4082,7.5996e+05,23.242,20.729,17.661,1
8.5805,8.6275,37.739,-0.098785,37.838,-0.015719,0.41384,-0.00022237,0.085295,1.072,8.5811,147.93,12.163,8.0049,11.346,1.5985,5.1406,6.8656e+05,4.9398,3.162,1.1142,1
15.496,14.251,57.224,0.022565,57.201,0.004525,0.68451,0.0014567,0.10463,1.1734,15.496,442.85,21.044,13.206,17.934,1.2454,3.6033,4.627e+06,1.0111,0.018931,1.2805,1
10.041,9.3366,46.745,-0.63578,47.381,-0.0097319,0.56487,-0.00097299,0.11166,1.1087,10.057,187.85,13.706,9.0709,12.362,1.8466,6.9154,1.6254e+06,1.5038,2.8944,3.2728,1
9.4518,6.1562,22.298,-0.01417,22.312,0.0027415,0.46932,-0.0010228,0.13218,1.0923,9.4518,127.17,11.277,8.6535,10.325,0.34101,2.1214,13906,10.954,14.294,18.898,1
12.711,8.6251,31.831,0.20956,31.621,0.033016,0.58496,-3.7273e-05,0.15409,1.1345,12.711,235.84,15.357,11.204,13.536,0.48847,2.0803,1.0443e+05,59.758,47.147,29.892,1
9.3432,5.8638,33.044,0.041781,33.002,-0.0078792,0.39102,0.00080299,0.073475,1.06,9.3432,121.62,11.028,8.8142,10.404,1.4543,6.6771,1.4736e+05,5.1744,6.9221,8.6979,1
4.9044,3.0438,12.757,-0.1404,12.898,0.0039087,0.19859,0.00042011,0.038306,1.0168,4.9069,33.302,5.7708,4.8259,5.6755,0.38226,2.4059,655.55,4.7108,0.74519,0.009848,1
4.9651,2.7218,11.017,-0.2913,11.308,-0.013025,0.16357,-0.00026587,0.041041,1.0114,4.9693,32.048,5.6611,4.9133,5.5974,0.11468,2.2452,109.77,0.37844,0.24813,0.033229,1
5.1902,3.1954,14.12,-0.054559,14.174,-0.00072114,0.2056,0.00022829,0.042657,1.0184,5.1907,37.131,6.0935,5.097,5.9835,0.80977,3.3626,1931.3,0.062978,0.40144,0.64696,1
9.372,7.6365,39.168,0.17544,38.992,-0.014267,0.73026,-0.001466,0.26617,1.1926,9.372,146.05,12.085,7.8584,10.133,1.8022,6.4379,5.1771e+05,4.2182,9.3127,14.41,1
16.316,16.764,74.279,0.18789,74.092,0.02788,0.9737,0.00070047,0.21521,1.2708,16.316,546.76,23.383,12.839,18.4,1.7811,5.8246,2.2347e+07,78.866,71.799,58.633,1
34.064,34.958,136.58,0.072922,136.51,0.011481,1.7023,-0.0011364,0.34502,1.7308,34.064,2380.4,48.789,19.681,28.189,1.6371,4.8201,6.3895e+08,205.7,275.67,238.58,1
8.1344,7.4441,30.703,0.037046,30.666,0.0041922,0.3328,-0.0001612,0.063229,1.04,8.1344,121.49,11.022,7.8214,10.598,1.5324,4.5894,2.5957e+05,2.8905,3.0836,2.7662,1
10.719,9.1867,32.35,0.12291,32.227,0.0018047,0.46497,0.00065993,0.13015,1.0917,10.719,199.15,14.112,9.8191,12.927,0.90444,2.5519,2.8082e+05,1.4406,0.83878,2.0885,1
6.4763,5.4895,22.782,-0.042761,22.825,0.027607,0.37472,0.0012656,0.11814,1.0602,6.4765,72.026,8.4868,6.1088,8.005,1.2353,3.6704,40822,21.3,3.6503,0.65067,1
1.0667,0.77127,3.6539,0.0059092,3.648,0.0005238,0.064031,0.00012686,0.024072,1.0003,1.0667,1.7317,1.3159,1.0664,1.3155,1.14,3.8019,2.3477,0.14869,0.16699,0.21653,1
3.6606,4.8844,20.323,0.0016036,20.321,0.0004906,0.19327,2.56e-05,0.03423,1.0156,3.6606,37.217,6.1006,3.6043,6.0067,2.0197,6.1357,50030,0.41548,0.21835,0.019127,1
2.6321,2.3845,11.366,-0.016636,11.382,0.0038403,0.15144,0.00048576,0.033122,1.0091,2.6322,12.604,3.5502,2.6084,3.5181,1.9795,6.8612,1673.9,0.5417,0.61239,0.69412,1
20.943,33.923,130.97,-0.14753,131.12,-0.061349,1.2589,0.0020152,0.1914,1.3994,20.945,1587.4,39.843,14.967,28.471,2.2169,6.7239,8.8528e+08,1.3788,1.2777,0.68187,1
17.378,19.198,75.248,0.27447,74.974,0.0479,0.73124,-0.0002074,0.11503,1.1531,17.378,669.91,25.883,15.07,22.446,1.3698,3.9734,2.5005e+07,223.35,257.44,263.62,1
7.0444,5.5542,36.521,0.061909,36.459,-0.059155,0.34108,0.0016001,0.077459,1.05,7.0444,80.421,8.9678,6.709,8.5407,2.4222,10.588,2.4265e+05,0.022279,0.13284,0.9386,1
9.9728,10.937,45.849,-0.03197,45.881,-0.0021081,0.44188,-0.00080508,0.061004,1.0776,9.973,218.88,14.794,9.2546,13.729,1.788,5.7635,2.6235e+06,0.020707,0.20593,0.71834,1
3.7235,3.2165,11.577,0.0084642,11.568,0.0019157,0.16352,-0.00016308,0.043145,1.0112,3.7235,24.193,4.9186,3.6821,4.8639,0.75261,2.451,1391.4,0.20012,0.14889,0.14491,1
23.427,24.142,113.88,0.17386,113.7,-0.021834,1.5775,0.0013414,0.41699,1.5377,23.427,1130.7,33.626,15.235,21.868,1.7657,5.969,1.4985e+08,93.819,85.705,48.93,1
9.6043,11.953,46.721,0.011849,46.709,-0.018436,0.67282,0.0020561,0.24712,1.1769,9.6043,234.87,15.326,8.1606,13.022,1.7863,5.1672,3.4013e+06,2.9124,0.76163,0.59166,1
16.959,13.874,62.295,0.040527,62.255,0.036848,0.93945,0.0029775,0.27786,1.3052,16.959,479.75,21.903,12.993,16.781,1.2922,4.3101,5.5132e+06,13.165,0.57038,1.5328,1
9.7989,8.2749,36.038,0.0067507,36.031,-0.033014,0.66165,-0.0042299,0.28904,1.17,9.7989,164.37,12.821,8.3753,10.958,1.267,3.724,3.3031e+05,3.3634,7.8172,10.019,1
2.5439,2.1945,7.4356,0.0070831,7.4285,-0.0012536,0.098405,0.00041717,0.035557,1.0031,2.5439,11.279,3.3584,2.5361,3.3481,0.84991,2.3334,180.03,0.28483,0.21039,0.03015,1
2.3646,2.4471,9.5816,0.093357,9.4882,-0.0014753,0.099656,-0.00015898,0.033387,1.0032,2.3646,11.57,3.4014,2.3571,3.3906,1.7202,4.9005,1086.6,0.059659,0.0773,0.077929,1
0.98886,0.53138,2.7163,-0.00040987,2.7167,-0.0007261,0.06114,-1.1281e-05,0.027096,1.0001,0.98887,1.2597,1.1224,0.98873,1.1222,0.89883,4.1499,0.33775,0.062171,0.083631,0.10392,1
14.264,12.762,50.727,-0.0011471,50.728,-0.082454,0.69141,0.0029984,0.17797,1.1741,14.264,366.06,19.133,12.149,16.296,1.1384,3.0228,1.9732e+06,3.5465,6.1442,4.5884,1
17.531,15.387,57.93,-0.00047451,57.93,0.072494,1.0524,-0.00024312,0.25983,1.3107,17.531,543.68,23.317,13.375,17.79,1.0252,2.9028,4.8868e+06,272.21,235.7,187.85,1
9.6422,7.5019,45.033,1.1958,43.837,-0.058112,0.53278,2.8238e-06,0.19057,1.1194,9.6422,149.15,12.213,8.6134,10.91,2.497,10.279,9.7575e+05,7.3652,9.6878,5.5855,1
20.411,15.482,57.429,0.25735,57.172,0.0053151,0.90747,-0.0025823,0.1834,1.2556,20.411,655.88,25.61,16.256,20.396,0.79854,2.4742,3.3334e+06,37.449,55.655,89.418,1
5.1974,3.2817,20.246,0.038579,20.207,-0.010286,0.41521,0.0017587,0.14309,1.0731,5.1974,37.764,6.1452,4.8433,5.7265,1.3754,6.0628,7858.8,8.2455,4.8033,4.3422,1
14.309,12.323,49.328,0.24873,49.08,0.048725,0.75123,-0.002186,0.14769,1.2025,14.309,356.33,18.877,11.9,15.698,1.1904,3.5418,2.1381e+06,237.31,301.31,294.72,1
23.969,26.788,97.392,1.1369e-13,97.392,0.07899,1.2301,-0.00045941,0.23129,1.349,23.969,1290.8,35.928,17.768,26.634,1.2103,3.4872,1.0594e+08,231.49,398.6,749.68,1
10.523,10.432,51.013,-0.0041901,51.017,-0.04251,0.79429,0.0026244,0.18816,1.1963,10.523,219.37,14.811,8.7961,12.38,2.1657,7.6755,3.1721e+06,16.949,20.89,21.527,1
7.9297,5.9964,34.025,0.027154,33.998,0.02232,0.46758,0.002402,0.10907,1.0862,7.9297,98.775,9.9386,7.3002,9.1496,1.0196,3.9226,79533,50.119,16.345,6.5257,1
39.846,28.008,106.98,0.090234,106.89,-0.018854,1.8802,-0.0029393,0.34375,1.845,39.846,2370.8,48.69,21.596,26.39,0.56753,2.2808,4.7292e+07,27.886,1.185,0.065493,1
38.658,34.718,146.45,0,146.45,0.060636,1.7206,-0.0044014,0.26819,1.6872,38.658,2697.7,51.939,22.912,30.784,1.4115,4.5642,5.7914e+08,253.34,359.21,543.68,1
12.409,10.05,41.672,0.028226,41.643,-0.044132,0.54896,0.0010683,0.092904,1.1198,12.409,254.81,15.963,11.081,14.255,1.1183,3.5577,7.9519e+05,15.771,18.147,13.214,1
23.973,22.637,90.759,0.0069335,90.752,-0.0071297,1.389,0.00065384,0.24877,1.4398,23.973,1086.3,32.958,16.65,22.891,1.2851,4.0384,5.8351e+07,3.5739,4.4163,6.1724,1
20.649,16.318,68.367,0.20074,68.166,0.030271,1.04,-0.0013465,0.17093,1.2989,20.649,692.17,26.309,15.897,20.255,1.1319,3.8096,9.7036e+06,65.585,99.734,143.63,1
12.652,12.238,54.824,0.10949,54.714,-0.012112,0.55522,-0.0015876,0.10405,1.1119,12.652,309.58,17.595,11.378,15.823,1.619,5.3379,4.0884e+06,29.29,34.017,22.037,1
6.851,5.4249,42.437,-0.06566,42.503,0.050982,0.55332,0.0063073,0.1156,1.1019,6.8512,76.314,8.7358,6.2177,7.9281,1.8789,9.8261,2.3503e+05,50.938,27.886,17.095,1
20.649,16.318,68.367,0.20074,68.166,0.030271,1.04,-0.0013465,0.17093,1.2989,20.649,692.17,26.309,15.897,20.255,1.1319,3.8096,9.7036e+06,65.585,99.734,143.63,1
12.652,12.238,54.824,0.10949,54.714,-0.012112,0.55522,-0.0015876,0.10405,1.1119,12.652,309.58,17.595,11.378,15.823,1.619,5.3379,4.0884e+06,29.29,34.017,22.037,1
6.851,5.4249,42.437,-0.06566,42.503,0.050982,0.55332,0.0063073,0.1156,1.1019,6.8512,76.314,8.7358,6.2177,7.9281,1.8789,9.8261,2.3503e+05,50.938,27.886,17.095,1
18.767,20.723,91.379,0.002462,91.376,-0.021082,1.0537,-0.0026165,0.17896,1.3123,18.767,780.91,27.945,14.301,21.295,1.8572,6.2439,7.1757e+07,35.539,63.033,101.79,1
22.607,33.149,135.01,0.014498,135,0.15205,1.5802,-0.0018828,0.20828,1.4899,22.607,1608,40.1,15.174,26.915,1.9863,5.8553,6.6654e+08,1295.3,1045.6,596.72,1
41.381,29.975,179.73,5.8037e-06,179.73,0.025088,5.2023,0.011674,2.2389,3.6623,41.381,2609.3,51.082,11.299,13.948,1.6458,6.3821,5.1387e+08,58.47,53.322,266.96,1
18.126,9.3423,42.352,0.74328,41.608,0.027302,0.6495,0.0039437,0.11501,1.1617,18.126,415.68,20.388,15.603,17.55,0.28317,2.577,1.7648e+05,5.6973,2.6266,17.664,1
30.499,18.564,77.384,0.41308,76.971,0.0050792,1.0865,-0.0023608,0.21548,1.394,30.499,1274.2,35.696,21.878,25.606,0.59992,2.7408,8.3042e+06,34.029,32.373,32.191,1
24.932,13.392,52.367,0.045453,52.322,0.044612,0.98734,-0.00069086,0.20414,1.3199,24.932,800.63,28.295,18.889,21.437,-0.06002,2.2001,-25595,328.54,258.29,103.74,1
27.461,20.328,73.919,0.50127,73.418,-0.02546,0.9469,-0.0010134,0.16223,1.2904,27.461,1166.6,34.156,21.281,26.469,0.47054,2.0393,7.9926e+06,210.38,233.03,239.87,1
7.2781,6.8881,25.014,-0.00024123,25.014,-0.0063741,0.29577,-0.00019011,0.058069,1.0378,7.2782,100.34,10.017,7.0131,9.652,0.94611,2.7602,79947,6.0449,5.4996,3.877,1
39.485,49.104,177.34,-0.33114,177.67,0.00077453,1.6914,0.0010534,0.17826,1.5633,39.488,3966.1,62.977,25.26,40.285,1.4156,3.9348,2.6625e+09,4.9437,5.3605,7.4689,1
45.166,42.118,169.25,-0.13034,169.38,-0.0098219,2.0716,-0.001953,0.27729,1.7999,45.167,3810.9,61.732,25.094,34.297,1.1745,3.6585,1.0991e+09,0.27359,0.5268,0.16794,1
12.764,8.7806,42.853,0,42.853,0.029095,1.6315,-0.032102,0.7633,1.481,12.764,239.89,15.488,8.6187,10.458,0.97466,3.2661,3.4204e+05,33.985,31.161,12.125,1
10.02,7.5425,28.549,1.1152,27.433,-0.037148,0.54693,0.0009202,0.23636,1.1236,10.02,157.18,12.537,8.9176,11.158,0.75903,2.2642,80791,0.61473,0.68879,1.0107,1
8.9358,7.7645,32.418,-0.14183,32.56,0.0040149,0.55195,-0.00031808,0.18991,1.1206,8.9365,140.03,11.833,7.9745,10.56,1.246,4.1367,2.7622e+05,1.9459,4.9458,2.5742,1
21.549,12.259,60.513,-0.76545,61.279,-0.057509,3.6324,0.0083917,1.9904,3.4031,21.554,614.37,24.787,6.3336,7.2835,0.67708,3.4672,1.6805e+06,61.525,28.737,84.027,1
21.324,11.681,48.539,0.041866,48.497,0.020316,0.78506,0.0075795,0.26698,1.2125,21.324,590.93,24.309,17.587,20.049,0.64092,2.8269,7.7825e+05,38.364,36.761,33.217,1
8.4532,5.2276,26.311,0.14693,26.164,0.026327,1.2106,0.00085599,0.5721,1.5128,8.4532,98.737,9.9366,5.5876,6.5682,0.87279,3.2513,24192,32.068,57.195,46.114,1
7.6113,4.7581,25.466,-0.012965,25.479,-0.026304,1.1254,0.0037601,0.50393,1.4468,7.6113,80.532,8.974,5.261,6.2028,1.2267,4.5701,26928,3.7162,3.3813,1.4111,1
9.8366,6.8134,29.257,0.036107,29.22,0.0063311,1.4121,0.0091172,0.64209,1.6025,9.8366,143.1,11.962,6.1383,7.465,0.92958,3.2218,89187,48.127,67.468,51.223,1
1.9784,1.2591,6.7648,0.00033921,6.7645,0.0004171,0.26171,-0.0015399,0.11638,1.0304,1.9784,5.4967,2.3445,1.9201,2.2754,1.0461,3.9906,30.452,1.8561,3.1052,0.66961,1
21.473,13.891,55.657,1.1369e-13,55.657,0.006561,1.5356,-0.013447,0.46947,1.647,21.473,653.69,25.567,13.037,15.523,0.56876,2.5104,1.7593e+06,2.4856,19.439,43.854,1
24.802,11.336,64.065,0,64.065,0.094784,3.5286,-0.036616,1.8781,2.9488,24.802,743.44,27.266,8.4109,9.2464,0.99259,4.5602,1.8001e+06,82.828,117.43,8.6675,1
7.1148,9.5441,35.46,-0.43057,35.89,-0.013549,0.41527,0.0024495,0.12197,1.0672,7.1221,141.55,11.898,6.6738,11.149,1.8355,5.1561,1.0695e+06,0.47049,0.86722,0.27014,1
44.425,44.3,200.03,0.38415,199.65,0.0058542,3.7804,-0.02682,1.4592,2.9824,44.425,3932.7,62.711,14.896,21.027,1.7956,5.3557,2.5076e+09,147.26,54.253,150.72,1
33.446,30.407,126.32,-1.1786,127.5,-0.0073144,2.6221,-0.00090302,1.0715,2.3673,33.458,2041.6,45.184,14.134,19.087,1.1455,3.2853,1.8473e+08,12.041,18.095,18.439,1
21.061,14.035,70.018,1.5063,68.511,-0.026232,1.907,-0.0019443,0.84057,1.8446,21.061,640.21,25.302,11.417,13.717,1.5651,5.3796,8.0172e+06,66.299,116.06,81.713,1
14.833,10.019,37.469,0.58164,36.888,-0.0057678,0.76456,0.00063732,0.2947,1.2185,14.833,320.22,17.895,12.173,14.686,0.38822,1.875,1.8243e+05,1.1359,2.09,1.3404,1
2.5777,1.3835,5.9878,0.0014012,5.9864,0.0051946,0.16439,-5.1843e-05,0.090207,1.0115,2.5777,8.5551,2.9249,2.5483,2.8915,0.4509,2.5704,13.024,2.6122,3.5221,3.8379,1
2.8429,0.63871,4.6929,1.4485,3.2444,-0.0028495,0.19062,0.0001924,0.111,1.016,2.8429,8.4892,2.9136,2.798,2.8676,0.16932,2.812,0.15488,0.91373,1.1314,1.261,1
2.8359,0.98374,5.602,0.162,5.44,0.0013278,0.19127,-0.00042117,0.11051,1.0162,2.8359,9.0083,3.0014,2.7907,2.9536,-0.16994,3.5271,-1.0055,1.3083,1.4474,1.2287,1
1.3569,0.87433,3.6088,-1.4211e-13,3.6088,0.0013091,0.064328,0.0006814,0.02762,1.0003,1.3569,2.6043,1.6138,1.3565,1.6133,0.98897,3.0942,2.7168,0.50688,0.31561,0.23983,1
1.5058,0.90954,4.5268,0.01401,4.5128,-0.0011053,0.075853,-8.152e-05,0.033706,1.0011,1.5058,3.0934,1.7588,1.5041,1.7568,1.2521,4.4405,6.3315,0.15947,0.19557,0.21716,1
0.94862,0.25119,1.6745,0.39789,1.2766,1.5549e-05,0.053083,0.00023422,0.024921,0.99968,0.94862,0.96286,0.98126,0.94892,0.98157,0.39856,2.8797,0.002765,0.10731,0.14577,0.12269,1
1.3775,0.72121,3.5526,0.0047027,3.5479,0.00019561,0.068498,-0.00025526,0.032804,1.0006,1.3775,2.4167,1.5546,1.3767,1.5536,1.1706,4.1443,1.5605,0.19955,0.23151,0.37623,1
26.49,32.305,116.93,0.061033,116.87,-0.013053,1.0682,-0.00046505,0.25945,1.3494,26.49,1743.5,41.756,19.631,30.944,1.5801,4.0794,3.3363e+08,31.271,15.526,20.144,1
63.336,33.426,142.28,0.4492,141.83,-0.097276,14.793,-0.012934,6.8933,13.26,63.336,5126.9,71.602,4.7764,5.3998,0.012857,1.8855,9.8582e+06,946.69,697.1,1228.4,1
76.83,37.017,193.88,4.8655,189.01,0.11565,16.2,0.030807,7.9487,14.503,76.83,7270.8,85.269,5.2976,5.8794,0.23477,2.3954,1.6065e+08,237.35,1704.4,468.97,1
79.74,39.027,188.97,5.5329,183.44,0.036183,15.289,0.015731,7.2143,13.649,79.74,7879,88.764,5.8423,6.5034,0.37826,2.648,2.8522e+08,593.94,1951.8,517.83,1
83.564,41.514,193.46,1.9489,191.51,-0.18715,16.697,0.019478,7.7649,14.941,83.564,8703.4,93.292,5.5928,6.2438,0.19742,2.2704,1.834e+08,1931.1,435.92,1871.9,1
24.429,12.633,62.311,0.11597,62.195,0.064857,4.3454,-0.038937,2.4408,3.5458,24.429,756.11,27.497,6.8895,7.7549,0.35817,2.5095,8.3439e+05,214.78,264.56,174.07,1
19.661,11.457,49.775,-0.0054891,49.781,0.01833,4.2195,0.0024622,2.5376,3.5114,19.661,517.58,22.75,5.5992,6.4791,0.4786,2.3938,5.6267e+05,126.13,154.08,206.81,1
28.509,14.828,65.014,1.3818,63.633,-0.022497,4.0586,-0.00033516,2.3036,3.2244,28.509,1032.3,32.129,8.8418,9.9644,0.28909,2.2134,1.2494e+06,143.83,148.7,205.98,1
13.083,11.468,56.982,1.1369e-13,56.982,0.0024697,1.888,-0.017056,0.81613,1.8126,13.083,302.43,17.391,7.2176,9.5943,1.8005,6.1341,3.731e+06,19.032,9.3782,0.63006,1
11.236,6.8837,42.821,0.33143,42.489,-0.066362,0.8003,0.012524,0.3549,1.1947,11.236,173.55,13.174,9.4051,11.027,1.0492,4.0048,1.4856e+05,5.7983,6.7153,10.1,1
3.3934,3.2579,16.465,5.6843e-14,16.465,0.010801,0.29938,-0.0018171,0.16453,1.0405,3.3934,22.111,4.7022,3.2614,4.5193,2.4619,8.5492,10571,9.4212,9.5386,14.091,1
2.5022,1.1411,6.2536,0.10688,6.1467,-0.0057338,0.33867,4.9889e-05,0.20865,1.0519,2.5022,7.561,2.7497,2.3788,2.6141,0.50721,3.2348,9.5884,1.3847,0.91381,1.4552,1
13.945,9.4672,41.373,-0.59723,41.97,-0.030442,1.7084,0.017392,0.89698,1.717,13.949,283.94,16.85,8.1243,9.8141,0.79002,2.8969,3.8054e+05,19.172,53.596,30.241,1
15.227,11.212,48.074,0.032088,48.042,0.050124,2.1748,0.0075085,1.1723,1.9917,15.227,357.35,18.904,7.6449,9.491,0.96857,3.1157,1.0567e+06,197.66,217.01,234,1
13.101,9.4503,45.026,-0.23956,45.266,-0.055034,1.1872,0.0024889,0.64561,1.4471,13.103,260.79,16.149,9.0544,11.159,1.2916,4.4304,8.0551e+05,14.676,26.558,25.039,1
23.727,8.763,52.746,0.3261,52.42,0.066771,4.3706,-0.0095947,2.5854,3.6635,23.727,639.62,25.291,6.4765,6.9034,-0.10936,3.0564,-8822.7,165.12,67.981,108.97,1
31.051,10.008,55.451,0.34542,55.105,-0.016739,3.3632,-0.00093739,1.8708,2.9417,31.051,1064.2,32.622,10.555,11.089,-0.44301,3.1789,-3.7706e+05,96.771,122.79,242.02,1
15.766,10.287,42.852,1.1369e-13,42.852,0.0080575,1.1154,-0.015519,0.37573,1.3515,15.766,354.2,18.82,11.665,13.925,0.77572,2.9452,5.6609e+05,8.4883,27.988,41.524,1
14.949,11.635,56.374,1.564e-05,56.374,-0.0024815,1.0935,-0.00092927,0.31867,1.3803,14.949,358.61,18.937,10.83,13.719,1.0523,3.7908,1.9528e+06,18.542,63.319,116.61,1
7.4709,5.3091,23.759,-0.17917,23.939,-0.0028917,0.53082,8.6593e-05,0.1917,1.1161,7.4718,83.952,9.1625,6.6945,8.2092,0.82904,3.091,24280,1.516,5.879,20.96,1
18.607,11.557,42.661,0.56464,42.096,0.035149,0.92128,-0.0040113,0.22891,1.3033,18.607,479.54,21.898,14.277,16.803,0.1623,1.8745,1.7156e+05,140.75,171.54,149.81,1
6.9899,4.7492,23.696,0.38485,23.311,-0.033583,0.65293,0.0041772,0.29657,1.1742,6.9899,71.375,8.4484,5.9531,7.1952,1.0894,3.9268,22469,3.5988,3.3233,5.8045,1
32.149,27.165,114.18,-2.2737e-13,114.18,-0.026184,2.4859,-0.005315,0.5612,2.1809,32.149,1770.2,42.074,14.741,19.292,1.1186,3.6051,1.1978e+08,6.7773,6.0649,4.4766,1
4.759,3.8594,14.755,0.029459,14.726,0.0028583,0.15684,0.00055213,0.040708,1.0103,4.759,37.517,6.1251,4.7104,6.0627,1.2844,3.7223,6775.7,4.7689,4.8216,3.4958,1
4.807,2.8808,10.625,-0.0023767,10.627,-0.0017199,0.14161,-0.0005017,0.053449,1.0081,4.807,31.392,5.6028,4.7683,5.5578,0.27683,2.106,274.52,4.0456,6.1021,5.5672,1
3.1221,1.7338,6.8417,-0.020937,6.8626,0.0022913,0.11636,0.00041132,0.043294,1.005,3.1222,12.749,3.5705,3.1068,3.5529,-0.058208,1.955,-2.7783,4.6976,4.0607,3.9423,1
3.6599,2.7913,10.554,0.059379,10.495,-0.0080143,0.14621,-0.00062476,0.047839,1.0088,3.6599,21.173,4.6014,3.628,4.5612,0.73176,2.2548,561.03,0.6538,0.80025,0.20613,1
12.802,11.503,56.351,0.57776,55.774,-0.00078891,0.71081,0.0013742,0.13864,1.1669,12.802,295.98,17.204,10.971,14.743,1.7357,6.27,4.0353e+06,10.797,8.9804,8.1084,1
7.5575,8.1968,30.505,-1.5063,32.012,-0.010101,0.31382,5.1835e-05,0.057155,1.0397,7.6742,124.19,11.144,7.3808,10.718,1.2406,3.5965,2.8869e+05,3.1857,3.1229,2.5844,1
3.9943,3.2344,16.939,0.0034191,16.935,-0.0043821,0.20264,-0.00016468,0.041641,1.0172,3.9943,26.398,5.1379,3.9267,5.0509,1.7387,6.5579,7584,0.49782,0.64997,0.69071,1
1.5131,0.92431,4.7182,-0.023759,4.7419,0.00025286,0.09578,0.00024508,0.035251,1.0028,1.5133,3.1425,1.7727,1.509,1.7678,0.79605,3.6987,5.0176,0.21404,0.22103,0.41859,1
9.0902,10.223,38.529,-0.059063,38.588,-0.013097,0.39801,-0.00024846,0.10627,1.0673,9.0904,186.96,13.673,8.5169,12.81,1.6349,4.4085,1.1937e+06,0.48732,1.657,1.0356,1
6.9873,6.3962,26.733,0.089496,26.643,0.013663,0.81013,-0.0066467,0.45778,1.2185,6.9873,89.664,9.4691,5.7345,7.7713,1.5185,4.4983,1.1968e+05,35.275,31.359,16.315,1
10.366,5.4523,30.295,0.0023443,30.293,-0.008253,2.0431,-0.0007384,1.1982,1.9273,10.366,137.14,11.711,5.3788,6.0763,0.63803,3.4807,31120,5.6708,9.0957,9.6536,1
11.469,6.5695,30.592,-0.51062,31.103,-0.0025724,1.2912,-0.00097776,0.73706,1.5139,11.471,174.62,13.214,7.5772,8.7287,0.58502,2.7733,47716,5.1548,3.0404,2.1213,1
33.436,12.365,68.272,0.18241,68.089,-0.019989,5.3384,0.024441,3.0895,4.4022,33.436,1270.6,35.645,7.5954,8.0973,-0.10091,2.7484,-1.0214e+05,342.78,300.1,213.76,1
12.781,6.2636,30.089,0.67165,29.418,0.01794,2.4161,0.0019596,1.3299,2.2981,12.781,202.52,14.231,5.5616,6.1925,0.1613,2.2586,12027,46.038,28.12,78.295,1
3.5232,2.7395,11.604,0,11.604,0.0018767,0.18282,-0.0010804,0.058346,1.0143,3.5232,19.905,4.4615,3.4736,4.3987,1.2767,3.9205,1354.3,0.17881,0.10502,0.14514,1
33.213,25.557,98.97,-0.028529,98.998,-0.04826,1.459,0.0064908,0.2359,1.5766,33.213,1755.1,41.894,21.066,26.572,0.71993,2.4891,4.242e+07,0.16669,0.28434,2.5016,1
40.161,32.022,122.66,1.1525,121.51,-0.025525,1.9908,-0.0082889,0.35473,1.8517,40.161,2636.6,51.348,21.689,27.731,0.77052,2.5675,1.4497e+08,4.32,23.468,45.327,1
33.519,29.494,142.19,0.012029,142.18,0.042464,2.2653,-0.0020708,0.39999,1.9082,33.519,1992,44.631,17.566,23.39,1.389,5.1364,3.3738e+08,211.62,318.34,420.3,1
25.369,21.983,84.527,0.18184,84.345,0.0024495,2.2254,0.0064321,0.57683,1.9504,25.369,1126,33.556,13.007,17.205,1.0899,3.0604,3.1417e+07,19.034,30.575,23.645,1
26.038,27.654,121.54,1.5673,119.98,0.18207,2.011,-0.0002239,0.4711,1.8477,26.038,1441.4,37.966,14.092,20.548,1.9029,5.7564,2.5965e+08,1533.8,1026.3,407.21,1
40.355,25.989,121.53,1.5545,119.98,-0.18255,2.1686,0.0025913,0.58227,2.1135,40.355,2302.8,47.987,19.094,22.705,0.67189,3.2364,7.3653e+07,38.996,128.06,83.125,1
13.515,16.705,53.438,-0.39007,53.828,-0.011961,0.47243,0.0008146,0.080918,1.0918,13.529,461.25,21.477,12.391,19.672,1.3038,3.2138,8.4848e+06,0.12368,0.2027,0.35803,1
11.815,13.479,53.571,0.034128,53.537,0.043283,0.51271,-0.00031209,0.066739,1.0929,11.815,320.98,17.916,10.811,16.394,1.7589,5.1958,6.0281e+06,157.13,203.33,236.15,1
2.2168,3.9215,28.684,0.016353,28.668,-0.04357,0.19967,0.0016494,0.048751,1.0172,2.2168,20.266,4.5018,2.1794,4.4257,4.4702,24.3,1.2747e+05,0.80838,0.81129,0.44969,1
5.2307,5.4078,21.565,-0.0066636,21.572,0.0016679,0.21824,0.00031918,0.045813,1.0204,5.2307,56.554,7.5202,5.126,7.3697,1.591,4.6753,55630,0.94473,0.14266,0.040926,1
2.7616,2.0251,8.3093,-0.077059,8.3864,0.00199,0.12091,0.00010551,0.045761,1.0055,2.762,11.72,3.4235,2.747,3.4049,0.92647,2.9939,195.89,0.14989,0.083373,0.098161,1
62.164,43.098,185.46,0.55375,184.9,-0.013566,2.606,-0.0032377,0.60635,2.443,62.164,5718.6,75.621,25.446,30.955,1.0911,3.61,1.1138e+09,214.2,135.83,179.92,1
25.87,26.705,108.24,1.1369e-13,108.24,0.014804,1.7172,-0.0040155,0.35602,1.7165,25.87,1381.2,37.165,15.071,21.651,1.497,4.2256,1.4066e+08,20.215,16.686,4.8386,1
15.938,18.854,78.965,0.0006928,78.965,-0.0027098,0.93887,0.00057013,0.13957,1.2385,15.938,608.89,24.676,12.869,19.924,2.2146,7.1221,5.1384e+07,1.539,0.30453,0.034664,1
18.292,18.126,69.417,0.082507,69.334,-0.00063463,1.199,0.00069531,0.25038,1.3786,18.292,662.59,25.741,13.269,18.672,1.4962,4.141,1.906e+07,1.7081,1.5188,4.487,1
22.533,17.246,75.981,-0.037924,76.019,0.0088566,1.5968,0.00078546,0.34506,1.6208,22.533,804.64,28.366,13.903,17.502,0.96297,3.2714,1.0307e+07,6.5319,5.0253,4.8891,1
8.4859,5.3153,24.174,0.021777,24.152,-0.0033217,0.36271,-0.0005742,0.071239,1.0569,8.4859,100.21,10.011,8.0288,9.4714,0.57568,2.7566,18575,20.619,24.676,25.49,1
4.9864,4.5482,19.277,5.6843e-14,19.277,0.0051735,0.29442,-0.0010778,0.066585,1.0382,4.9864,45.515,6.7465,4.8027,6.4979,1.5962,4.958,25377,2.845,3.5052,4.128,1
19.942,16.934,79.496,0.026887,79.469,0.025343,1.3648,-0.00092036,0.26498,1.4736,19.942,683.94,26.152,13.533,17.747,1.3102,4.7061,1.8182e+07,90.915,134.91,117.27,1
10.059,8.5895,41.258,-0.0014238,41.259,-0.030054,0.49813,0.0010025,0.098987,1.0915,10.059,174.83,13.222,9.2157,12.114,1.6568,5.9694,8.432e+05,0.4152,0.34485,0.41083,1
11.785,11.716,48.5,-0.0051988,48.505,0.081357,0.7503,0.0036133,0.14446,1.1829,11.785,275.92,16.611,9.9625,14.042,1.4472,4.5234,2.4939e+06,208.13,202.98,95.864,1
11.722,13.423,67.4,0.020618,67.38,-0.05551,0.56319,-0.0036311,0.093956,1.1209,11.722,317.26,17.812,10.457,15.891,2.5501,9.6439,1.5314e+07,39.13,45.701,47.891,1
4.5451,5.4091,20.254,0.060391,20.194,0.0084515,0.18159,2.5983e-05,0.041257,1.0138,4.5451,49.866,7.0616,4.4831,6.9652,1.5947,4.412,49752,7.7394,6.2516,5.8724,1
1.973,1.4607,6.9691,0.024991,6.9441,-0.0053918,0.091519,0.00073258,0.035664,1.0024,1.973,6.0227,2.4541,1.9682,2.4482,1.0316,2.9656,39.343,1.331,0.5496,0.25905,1
8.9462,9.4435,33.628,0.032,33.596,0.020903,0.34957,-0.00023393,0.06673,1.0488,8.9462,169.06,13.002,8.5297,12.397,1.0133,2.8705,4.3838e+05,41.515,53.312,63.324,1
10.156,6.3575,25.783,0.076271,25.707,0.016823,0.3747,0.00072058,0.086183,1.0623,10.156,143.49,11.979,9.5605,11.276,0.5423,2.6896,35842,5.062,1.0266,0.054813,1
18.876,14.025,49.583,-0.8305,50.413,0.022536,0.85294,-0.0021904,0.13986,1.2282,18.89,552.66,23.509,15.381,19.142,0.55815,2.2401,1.4855e+06,173.55,179.62,124.53,1
18.994,23.963,111.18,-0.13903,111.32,0.0099942,1.3087,-0.0026031,0.3081,1.4781,18.995,934.02,30.562,12.85,20.676,2.4063,8.4215,2.2445e+08,4.3575,5.7784,2.087,1
12.666,8.2183,39.348,-0.89123,40.239,0.02218,0.92098,0.0018157,0.24393,1.2934,12.674,227.86,15.095,9.7996,11.671,1.0103,3.7973,3.1121e+05,28.689,6.6041,1.7754,1
20.061,19.885,77.401,0.019824,77.382,0.027599,1.1446,0.0024362,0.25913,1.3909,20.061,797.2,28.235,14.423,20.299,1.1883,3.3088,2.1723e+07,60.11,3.0693,1.1053,1
18.322,19.296,82.505,0.018855,82.486,-0.019209,0.91072,0.002011,0.13637,1.2472,18.322,707.4,26.597,14.69,21.324,1.609,4.9876,3.571e+07,3.255,3.4999,4.2443,1
28.843,22.712,97.905,0.049701,97.855,-0.091108,1.1539,-0.015071,0.2186,1.377,28.843,1346.9,36.7,20.946,26.651,0.98706,3.3158,4.2219e+07,7.7131,10.812,20.61,1
36.568,32.467,139.1,0.136,138.96,0.1063,1.4936,-0.0041824,0.24615,1.5828,36.568,2389.5,48.882,23.103,30.884,1.2491,4.2234,3.8085e+08,987.17,1383.9,1903.4,1
23.86,17.45,69.372,-0.63263,70.005,-0.099195,1.3759,0.0035808,0.25366,1.4511,23.865,873.29,29.551,16.446,20.365,0.90339,2.9291,8.3871e+06,6.6181,7.9158,4.5118,1
31.137,41.817,171.91,-0.00044529,171.91,0.20207,1.2813,-0.013229,0.2583,1.4462,31.137,2715.2,52.107,21.529,36.029,2.2411,7.0045,2.6887e+09,2636.7,3162.9,3713.7,1
14.28,15.778,117,0.18722,116.81,-0.1693,1.0495,0.0066333,0.37405,1.3457,14.28,452.44,21.271,10.611,15.806,3.9497,21.096,1.1255e+08,28.729,10.055,0.4318,1
12.158,14.158,55.316,-2.7594,58.076,0.0049011,0.54296,0.00025838,0.19152,1.1173,12.24,347.92,18.653,10.956,16.695,1.7045,4.8833,7.1123e+06,43.916,29.19,31.395,1
17.956,10.065,41.973,0.062866,41.91,0.020664,0.6266,-0.00019933,0.13098,1.1615,17.956,423.56,20.581,15.459,17.718,0.21869,2.4003,1.5631e+05,13.778,2.9928,8.8911,1
7.5021,4.7774,20.633,0.24989,20.384,-0.0070794,0.32938,0.00038872,0.082042,1.0473,7.5021,79.065,8.8918,7.1633,8.4903,0.70234,2.806,11480,3.9682,5.182,6.9343,1
11.288,8.7576,32.096,0.0029066,32.093,0.0062268,0.42074,-0.00022877,0.095121,1.0715,11.288,203.98,14.282,10.535,13.329,0.94095,2.8826,2.6428e+05,12.118,15.156,18.802,1
13.608,8.6086,36.982,0.42452,36.558,0.0018113,0.43838,-0.00055042,0.099088,1.0798,13.608,259.14,16.098,12.602,14.908,0.67733,2.9859,2.1095e+05,16.911,24.862,32.358,1
6.4724,4.6091,22.447,0.0025695,22.444,-0.0057412,0.38751,0.00034076,0.10587,1.0657,6.4724,63.099,7.9435,6.0734,7.4538,1.1692,4.2695,22096,11.139,13.575,9.2315,1
1.8202,0.93574,4.0123,0.049671,3.9627,-0.001101,0.080877,2.3984e-05,0.034597,1.0015,1.8202,4.1872,2.0463,1.8174,2.0432,0.54289,2.3462,1.8486,0.052888,0.047131,0.12118,1
1.5945,0.53015,2.7028,0.28638,2.4164,0.0013448,0.076185,-0.00016131,0.033576,1.0012,1.5945,2.8231,1.6802,1.5927,1.6782,-0.22036,2.5221,-0.054557,0.29453,0.43884,0.3287,1
1.8071,0.98623,3.863,-0.019585,3.8826,-0.0014753,0.085399,1.3221e-06,0.034658,1.0019,1.8073,4.2367,2.0583,1.8038,2.0544,0.025765,2.1174,0.25617,0.072739,0.10705,0.34148,1
2.4483,2.3737,12.915,0.027012,12.888,-0.0069576,0.15901,-0.00019789,0.040805,1.0105,2.4483,11.619,3.4087,2.4229,3.3733,2.6214,10.426,3036.6,0.2175,0.26631,0.33416,1
1.2787,0.94506,4.4425,0.027581,4.4149,0.0046904,0.076755,-0.00077046,0.027712,1.0012,1.2787,2.5267,1.5896,1.2772,1.5876,1.7951,5.9548,12.774,2.5249,2.3199,2.2657,1
18.184,18.835,62.105,0.063696,62.041,-0.0042115,0.70567,7.601e-05,0.10019,1.1738,18.184,684.81,26.169,15.492,22.295,0.96515,2.5407,1.0549e+07,23.989,34.377,35.793,1
13.075,19.078,80.986,-3.7031e-06,80.986,0.0079952,0.76147,0.001032,0.10655,1.1772,13.075,534.3,23.115,11.107,19.636,2.4229,7.8447,6.2858e+07,15.606,4.3402,2.9953,1
6.9309,6.1106,24.81,0.29439,24.515,-0.018156,0.29952,-0.00073324,0.10334,1.0401,6.9309,85.312,9.2364,6.6634,8.88,1.3335,4.1058,83282,2.693,3.1706,3.7208,1
7.1859,4.8858,22.119,-0.054008,22.173,0.012256,0.40112,-0.00025758,0.086531,1.0679,7.1862,75.468,8.6872,6.7292,8.1348,0.79697,3.3042,17111,6.9061,8.16,7.9946,1
8.7859,7.2717,31.593,-0.13456,31.728,7.8828e-05,0.40498,0.0014627,0.080442,1.0673,8.7874,129.98,11.401,8.2332,10.682,1.2336,4.0911,2.0255e+05,5.3412,7.5079,10.27,1
16.103,11.329,44.334,0.21008,44.124,-0.0065742,0.64968,-0.0019886,0.097534,1.1595,16.103,387.42,19.683,13.888,16.976,0.50859,2.1926,5.0428e+05,2.2502,3.9065,5.6707,1
2.7414,3.3555,12.112,0.044096,12.067,-0.010918,0.1179,0.00028632,0.022733,1.0051,2.7414,18.755,4.3307,2.7274,4.3086,1.6009,4.3086,4409.6,0.44974,0.16243,0.045452,1
3.2952,3.3645,14.979,-0.018459,14.997,0.0021852,0.20446,-0.0011597,0.069534,1.0179,3.2953,22.159,4.7073,3.2373,4.6245,2.0939,6.736,8708.3,0.73665,0.81656,1.0398,1
8.8835,7.4604,36.117,-0.15289,36.27,-0.029155,0.35942,0.0019789,0.077537,1.0543,8.8855,134.48,11.596,8.428,10.999,1.7234,6.0398,4.2638e+05,2.1001,2.3672,2.124,1
6.7179,4.8464,21.275,-0.14874,21.424,0.00011807,0.27716,5.4927e-05,0.055369,1.0324,6.7189,68.578,8.2812,6.5077,8.021,0.99782,3.7323,22087,0.9288,0.59732,0.41215,1
2.9684,2.0772,9.5862,0.203,9.3832,-0.0033818,0.11169,-0.00029962,0.03638,1.0044,2.9684,13.119,3.622,2.9555,3.6062,1.4824,4.8271,461.79,0.17912,0.11076,0.19318,1
3.5929,2.807,10.504,0.0015832,10.503,0.0013383,0.10834,9.048e-06,0.031335,1.004,3.5929,20.775,4.5579,3.5784,4.5396,1.1678,3.2333,1063.5,0.4373,0.44369,0.27418,1
19.428,11.984,48.916,-0.00022852,48.916,0.0062035,0.91377,0.0036343,0.17197,1.2995,19.428,520.81,22.821,14.951,17.562,0.25126,2.4274,4.7621e+05,40.629,45.952,50.259,1
14.55,8.2942,36.431,-0.49463,36.926,0.015711,0.70795,-0.00082657,0.18031,1.1946,14.561,280.37,16.744,12.189,14.017,0.423,2.8349,1.304e+05,79.861,75.198,51.489,1
14.24,8.9286,45.955,3.4106e-13,45.955,-0.0046384,0.76222,0.0018036,0.15048,1.1853,14.24,282.36,16.803,12.014,14.177,1.289,5.1512,8.0066e+05,49.272,39.15,35.619,1
8.0719,4.9334,21.564,0.090654,21.474,0.0092929,0.46505,-0.0018208,0.22205,1.09,8.0719,89.453,9.458,7.4054,8.677,1.0349,3.5404,19631,22.001,8.8475,6.8792,1
2.7084,1.2706,5.5592,2.8422e-13,5.5592,-0.00022189,0.19652,-0.00098387,0.089522,1.017,2.7084,8.9471,2.9912,2.6632,2.9413,-0.1473,2.1921,-1.8909,1.0932,0.78697,1.2467,1
1.5426,0.70216,4.1188,-0.093067,4.2118,-0.0012854,0.15675,-0.00030484,0.071047,1.0103,1.543,2.8717,1.6946,1.5273,1.6774,0.71075,3.5527,1.0823,0.47737,0.1534,0.059947,1
1.8911,0.98232,6.3404,0.0016061,6.3388,0.0010265,0.18545,0.000401,0.087121,1.0149,1.8911,4.5396,2.1306,1.8633,2.0993,1.3187,5.8276,16.716,0.16615,0.21071,0.25002,1
2.4213,1.0667,5.5426,0.013096,5.5295,0.0010148,0.19628,-0.0011149,0.092164,1.017,2.4213,6.9984,2.6455,2.3809,2.6014,0.21057,2.8301,2.3064,1.3347,1.8729,2.4216,1
37.406,28.888,123.94,-0.43835,124.38,0.047651,1.9259,0.00048025,0.4785,1.8345,37.409,2232.3,47.247,20.391,25.754,1.0158,3.3856,1.4459e+08,767.83,792.45,568.46,1
51.425,42.613,168.32,1.8472,166.48,-0.10331,3.837,0.0055719,1.4796,2.6678,51.425,4457.4,66.763,19.276,25.025,0.946,2.9889,8.1961e+08,6.0129,5.2587,12.211,1
41.882,29.406,123.27,0.018082,123.26,0.14217,3.5201,-0.0062127,1.2826,2.77,41.882,2617.3,51.16,15.12,18.469,0.88097,2.7325,1.0122e+08,927.59,598.69,519.1,1
3.4813,2.4698,11.128,0.0091774,11.119,-0.012858,0.2041,0.00036634,0.094657,1.0184,3.4813,18.209,4.2672,3.4185,4.1902,0.87841,2.9912,530.5,0.82084,1.0681,1.4224,1
8.4191,11.267,43.233,-0.05122,43.284,0.0015795,0.38304,-0.00043845,0.049472,1.053,8.4194,197.6,14.057,7.9954,13.349,1.9253,5.4981,2.6866e+06,4.7414,5.8091,7.699,1
1.6033,0.86757,4.5193,0.015085,4.5042,-0.003181,0.092931,0.00026218,0.040694,1.0026,1.6033,3.3219,1.8226,1.5992,1.818,0.72566,3.3259,2.4712,0.88745,1.2078,1.1377,1
2.2169,1.6309,13.529,-0.038022,13.567,0.018715,0.13821,0.00090511,0.04494,1.0077,2.2171,7.5702,2.7514,2.2002,2.7304,3.3097,19.721,1324.7,11.858,5.2435,2.2242,1
18.304,12.243,58.267,-0.022493,58.289,0.003571,1.0248,-0.0073594,0.36516,1.3088,18.304,484.66,22.015,13.985,16.821,0.94065,3.6172,2.2368e+06,1.0961,1.9511,2.1155,1
9.3513,9.2986,35.414,-0.75402,36.168,0.037052,0.62747,-0.0017513,0.29292,1.1558,9.3566,173.76,13.182,8.0952,11.405,1.0818,2.7896,3.7328e+05,88.8,110.26,84.584,1
14.529,11.634,51.032,-0.26733,51.3,-0.035854,0.96826,0.0039361,0.45675,1.3027,14.531,346.22,18.607,11.155,14.284,1.4929,4.4566,2.3187e+06,2.0742,1.7876,2.9952,1
6.0171,3.2349,16.072,1.1369e-13,16.072,0.007326,0.38386,-0.0025395,0.13415,1.0641,6.0171,46.652,6.8302,5.6548,6.419,0.78637,3.3213,1965.5,1.2183,2.2295,2.3467,1
4.9959,5.2811,27.289,-0.0069543,27.296,-0.0029615,0.67125,0.00076512,0.30002,1.1067,4.996,52.801,7.2665,4.5144,6.566,2.3179,7.6575,1.0211e+05,1.2211,2.6672,3.4375,1
5.3721,4.2226,18.885,0.0021375,18.883,0.0082881,0.33378,-0.00046226,0.12241,1.0478,5.3721,46.659,6.8307,5.1269,6.5189,1.3585,4.267,14174,8.7396,10.63,12.131,1
17.176,20.012,81.021,-0.45706,81.478,-0.0043676,0.71013,0.00019185,0.070579,1.1602,17.196,694.82,26.359,14.822,22.72,1.6982,5.1447,4.413e+07,0.014707,0.019062,0.030388,1
3.1592,2.9882,16.322,0.086204,16.236,0.027366,0.20214,-0.00038935,0.04314,1.0165,3.1592,18.895,4.3469,3.1081,4.2765,1.7005,6.121,4951,20.951,4.2368,0.36569,1
11.586,15.936,60.011,2.1896e-06,60.011,-0.018217,0.76581,0.00052377,0.098649,1.1742,11.586,387.75,19.691,9.867,16.77,1.5856,4.3328,1.1136e+07,5.2254,5.6691,6.3384,1
17.006,20.481,80.619,-0.3428,80.961,-0.015363,0.6619,-0.0010245,0.097336,1.1577,17.01,707.96,26.608,14.693,22.983,1.9035,5.6511,5.5963e+07,2.7241,3.5455,3.7452,1
15.303,17.142,64.955,-0.64071,65.596,0.081902,0.73563,0.00074545,0.12808,1.1894,15.321,527.52,22.968,12.881,19.31,1.2376,3.5526,1.1891e+07,230.86,120.09,43.617,1
15.132,15.658,54.668,0.50046,54.168,-0.031079,0.60917,0.00017753,0.11619,1.1446,15.132,473.72,21.765,13.22,19.015,1.2203,3.1417,5.9003e+06,111.97,87.33,60.305,1
68.344,40.709,167.8,1.7079,166.09,0.11576,4.9747,-0.0060522,2.0559,3.5355,68.344,6325.3,79.531,19.331,22.495,0.11852,1.9981,1.2637e+08,841.47,1156.8,974.94,1
37.411,52.038,301.65,-0.010112,301.66,0.039952,4.8844,-0.0038257,1.7868,2.7089,37.411,4102.9,64.054,13.81,23.646,3.2636,13.593,2.1899e+10,69.641,81.382,65.947,1
37.722,18.296,99.677,-0.053195,99.73,0.035952,6.5797,0.010308,3.6107,5.4922,37.722,1757.1,41.918,6.8683,7.6323,0.48172,3.0537,9.0616e+06,147.1,150.14,124.17,1
22.647,8.6849,47.348,0.46753,46.88,-0.041731,2.7965,0.00094154,1.6158,2.5179,22.647,588.19,24.253,8.9946,9.6322,-0.21737,2.7801,-38920,38.279,42.642,36.117,1
6.8834,6.3639,27.559,0.22922,27.33,-0.034053,0.25174,-0.0022815,0.068919,1.0276,6.8834,87.811,9.3708,6.6983,9.1188,1.1924,3.7003,94402,0.56968,0.60858,0.43481,1
2.0575,1.126,4.9904,0.00097525,4.9894,0.0017131,0.11479,6.5977e-05,0.047454,1.0048,2.0575,5.4991,2.345,2.0477,2.3339,0.31481,2.3798,4.0793,1.2607,1.6561,1.878,1
1.852,0.86387,4.5878,0.0063408,4.5815,-0.0043294,0.080098,-0.00015781,0.03228,1.0015,1.852,4.1748,2.0432,1.8493,2.0402,0.77271,3.7924,3.2532,0.2158,0.14246,0.21818,1
20.172,19.545,70.063,-0.067106,70.13,0.00094968,0.82146,0.00042767,0.10522,1.2157,20.172,788.25,28.076,16.593,23.094,1.035,2.79,1.4662e+07,3.9789,2.3012,0.89294,1
21.264,19.619,74.623,0.00054059,74.623,0.10655,0.83611,-0.001657,0.14002,1.2116,21.264,836.38,28.92,17.55,23.87,1.0385,2.9472,1.7102e+07,700.58,711.93,562.16,1
11.49,9.3129,33.775,-0.00063954,33.776,0.029885,0.67298,-0.005706,0.17737,1.1645,11.49,218.61,14.785,9.8672,12.697,0.87228,2.5408,2.9894e+05,54.259,73.244,87.414,1
7.2597,5.5965,26.094,-0.17485,26.269,-0.022963,0.41055,0.00038744,0.10962,1.0675,7.2614,83.97,9.1635,6.802,8.5837,1.0094,3.5586,45304,4.5628,7.2811,9.8173,1
9.9379,8.1282,31.908,0.091804,31.816,-0.002041,0.50987,-0.00021941,0.18738,1.1075,9.9379,164.72,12.834,8.9733,11.588,0.99886,2.8055,1.8365e+05,0.56771,0.85536,0.7024,1
59.971,45.509,187.59,4.5475e-13,187.59,0.14506,4.0864,-0.024312,0.93097,3.2977,59.971,5664.1,75.26,18.185,22.822,0.82009,2.9579,1.082e+09,1857,3388.6,4523.6,1
8.5961,8.3298,45.037,0.0019261,45.035,-0.0075854,0.8497,-0.0045307,0.29778,1.2085,8.5961,143.16,11.965,7.1133,9.9009,2.3709,9.4239,1.4237e+06,2.3489,0.18461,0.10731,1
2.8107,1.4747,7.036,0.053966,6.9821,0.007291,0.28685,0.0014626,0.13224,1.036,2.8107,10.071,3.1735,2.7131,3.0633,0.57684,2.754,25.8,4.7793,4.7552,4.2218,1
5.1198,4.124,15.208,0.029866,15.178,0.0014073,0.33021,0.00026907,0.10444,1.0476,5.1198,43.19,6.5719,4.8874,6.2736,0.9378,2.9462,6367.2,2.2768,5.1685,3.3719,1
2.8906,1.8745,8.4566,-0.00016172,8.4567,-0.0087728,0.30671,0.00027943,0.13297,1.0417,2.8906,11.863,3.4443,2.7748,3.3063,0.91358,3.2601,141.14,0.46899,0.2375,0.29365,1
8.3818,7.1578,33.459,0.030688,33.428,-0.019077,0.55984,0.0070328,0.23559,1.1188,8.3818,121.4,11.018,7.4921,9.8486,1.3216,4.2689,2.0398e+05,0.49375,3.0236,0.99753,1
4.021,4.8525,20.365,0.0014261,20.364,0.0016283,0.3666,0.00048315,0.16183,1.0578,4.021,39.675,6.2988,3.8011,5.9544,2.0542,6.315,49418,0.35508,0.32344,0.39517,1
6.3412,4.8879,23.738,-0.023338,23.761,0.023787,0.38138,-0.0014477,0.14446,1.063,6.3414,64.062,8.0039,5.9653,7.5292,1.2163,4.5276,32123,40.954,48.509,56.561,1
6.6529,3.4482,15.508,0.062569,15.445,-0.020037,0.49605,-0.0016939,0.19107,1.1029,6.6529,56.13,7.492,6.0324,6.7932,0.12828,2.5094,642.46,5.3245,3.8706,5.942,1
16.198,12.064,51.897,0.35909,51.538,0.013455,0.84845,0.00024251,0.17231,1.2473,16.198,407.67,20.191,12.986,16.187,1.195,3.7108,2.0708e+06,282.41,243.65,119.61,1
14.376,12.313,50.396,0.47162,49.924,-0.068823,0.72365,0.00025008,0.13687,1.1657,14.376,358.02,18.921,12.333,16.232,1.2048,3.4746,2.1384e+06,6.7888,8.6421,3.1884,1
29.241,31.831,149.75,-0.16229,149.91,0.22799,1.1323,-0.00053054,0.17471,1.3518,29.243,1866.5,43.203,21.632,31.96,2.2336,8.1359,8.9643e+08,2663.2,2864.1,2704.5,1
1.7193,2.1184,8.4204,0.013751,8.4066,-0.0014089,0.076283,0.00026913,0.023294,1.0012,1.7193,7.4362,2.7269,1.7173,2.7238,1.9125,5.4962,638.99,0.066653,0.046721,0.070535,1
20.411,25.548,105.67,5.6843e-14,105.67,0.010884,1.2454,-0.0029937,0.22271,1.3262,20.411,1068.2,32.683,15.391,24.645,1.8391,5.656,1.7646e+08,10.996,13.059,19.184,1
9.6037,8.346,33.19,-0.17618,33.367,-0.0036701,0.337,0.00057052,0.068141,1.0483,9.6063,161.77,12.719,9.1634,12.132,1.0047,3.0521,2.5145e+05,2.4172,2.9093,3.8999,1
5.0116,4.9849,21.94,0.20774,21.733,-0.00013367,0.32029,0.00094063,0.068097,1.0378,5.0116,49.923,7.0656,4.829,6.8081,1.5525,4.5916,37322,0.56107,0.37759,0.1378,1
2.2129,1.5268,5.5063,0.12623,5.3801,-0.0036046,0.083571,-0.00045351,0.029986,1.0017,2.2129,7.224,2.6878,2.209,2.6831,0.62973,2.02,20.082,0.43941,0.31198,0.20282,1
17.079,15.017,63.964,-0.20744,64.171,-0.0049864,0.98298,0.00062908,0.22935,1.3089,17.081,516.83,22.734,13.05,17.369,1.2034,3.8366,6.7454e+06,6.8126,10.014,12.256,1
16.824,12.212,52.828,-0.41804,53.246,-0.010354,1.1091,-0.00064626,0.34489,1.3638,16.827,431.95,20.783,12.338,15.239,0.90513,3.1562,1.6916e+06,9.4987,1.4435,8.0085,1
20.782,25.707,97.397,0.17025,97.227,0.010478,1.022,-0.0046069,0.32459,1.3138,20.782,1091.6,33.04,15.818,25.148,1.8565,5.2704,1.55e+08,145.72,207.13,302.09,1
10.538,14.418,59.239,-5.6843e-14,59.239,-0.031259,0.56588,0.00092084,0.071296,1.1188,10.538,318.55,17.848,9.4187,15.953,2.1892,6.7718,1.2526e+07,13.929,14.188,17.057,1
19.553,11.051,55.321,0.17211,55.149,-0.024274,1.2103,0.00051274,0.52285,1.4615,19.553,504.25,22.456,13.379,15.364,0.94424,4.2859,1.4593e+06,2.3816,0.333,2.7184,1
5.0789,2.8416,15.745,0.077966,15.667,-0.0033789,0.62304,0.00097647,0.31524,1.1607,5.0789,33.856,5.8186,4.3757,5.013,0.79952,3.6274,1492.5,8.2945,6.3816,2.4203,1
20.55,21.612,81.742,-0.016154,81.758,0.0019161,1.2073,-0.0032328,0.30192,1.4312,20.55,888.54,29.808,14.359,20.828,1.2267,3.4799,3.631e+07,13.977,28.747,34.456,1
19.747,11.65,48.732,-0.2626,48.994,0.049107,1.6729,0.00037939,0.61777,1.6296,19.749,525.44,22.922,12.119,14.066,0.40399,2.0813,4.2625e+05,135.11,97.439,56.01,1
13.147,12.578,58.157,-0.96525,59.122,-0.041483,0.90004,0.0002226,0.33401,1.2789,13.154,330.76,18.187,10.285,14.22,1.4667,4.4364,3.714e+06,24.49,61.56,48.829,1
7.2336,12.31,54.537,0.025995,54.511,-0.00060292,0.61303,-0.00062605,0.10584,1.0977,7.2336,203.6,14.269,6.5899,12.999,2.5006,8.3024,7.8181e+06,0.84002,1.2471,1.2941,1
1.5509,0.7875,3.45,0.048443,3.4015,-0.0040637,0.099756,9.879e-05,0.047279,1.0032,1.5509,3.0243,1.739,1.5459,1.7335,0.29731,2.1723,0.43653,0.14286,0.25074,0.28695,1
1.9327,1.3123,5.7266,-0.020078,5.7467,0.002586,0.085556,0.0001184,0.031336,1.0019,1.9328,5.4546,2.3355,1.9292,2.3311,0.80319,3.3288,24.488,1.0106,1.3633,1.317,1
9.0046,7.2039,33.265,-0.096543,33.361,-0.00030524,0.72534,-0.0022196,0.26369,1.1956,9.0049,132.89,11.528,7.5317,9.6418,1.4052,4.953,2.5669e+05,9.9027,14.01,21.474,1
14.568,13.799,59.983,0.049871,59.933,0.030429,1.5066,0.001106,0.52163,1.5346,14.568,402.3,20.057,9.4929,13.07,1.6225,4.6098,5.9117e+06,168.89,277.5,435.68,1
19.669,16.154,81.173,0.214,80.959,-0.01161,2.1208,-0.0014022,0.84207,1.8186,19.669,647.36,25.443,10.816,13.991,1.3583,4.4887,1.3417e+07,53.98,42.126,57.637,1
18.982,15.945,57.421,-0.0093319,57.431,0.022982,1.4646,-0.0038727,0.55224,1.5535,18.982,614.12,24.781,12.218,15.952,1.0706,2.8483,5.3707e+06,36.545,28.978,41.87,1
13.45,10.68,51.836,-0.052972,51.889,-0.012254,1.3026,0.0046724,0.47233,1.5043,13.45,294.77,17.169,8.9408,11.413,1.3982,4.9065,1.9219e+06,0.46101,3.7505,5.4324,1
30.221,23.707,98.674,0.093175,98.581,0.012358,1.6998,-0.004657,0.61406,1.6829,30.221,1474.4,38.397,17.957,22.816,0.97036,3.2779,4.7293e+07,32.253,58.253,112.33,1
22.146,14.891,57.51,0.0087716,57.501,0.031422,0.88373,0.00098689,0.15487,1.251,22.146,711.8,26.68,17.702,21.326,0.40948,2.406,1.8464e+06,37.439,31.775,24.338,1
22.623,28.125,132.41,0.0010372,132.41,0.01283,1.5287,-0.00025034,0.26354,1.584,22.623,1301.5,36.076,14.282,22.775,2.0359,6.8633,3.9205e+08,35.887,73.407,100.88,1
14.146,11.195,53.43,-0.018497,53.448,-0.014952,1.0516,0.001092,0.2183,1.341,14.146,325.22,18.034,10.549,13.448,1.3649,4.7058,2.2043e+06,1.0964,1.5601,3.9978,1
14.499,10.054,57.942,0.002437,57.94,0.099399,1.1213,0.0031754,0.23021,1.3816,14.499,311.12,17.638,10.494,12.767,1.0564,4.0572,1.0854e+06,140.88,41.553,35.31,1
25.88,24.332,122.38,-0.40114,122.78,0.027535,1.4324,0.0044695,0.31875,1.5141,25.884,1260.8,35.508,17.095,23.452,1.9156,7.0634,1.9841e+08,113.85,72.938,11.655,1
34.884,18.389,70.727,0,70.727,-0.0087763,9.5388,0.0094711,5.4044,8.4118,34.884,1554.5,39.427,4.1471,4.6871,0.19678,1.9127,1.4959e+06,528.45,424.03,424.77,1
35.55,20.016,73.718,1.1297,72.588,0.0051452,10.942,0.0091005,6.1071,9.911,35.55,1663.7,40.789,3.5869,4.1155,0.033625,1.6095,5.2181e+05,413.58,179.89,405.27,1
36.447,18.103,69.413,3.9754,65.437,0.011555,10.009,-0.045519,5.5879,8.9868,36.447,1655.5,40.688,4.0556,4.5276,-0.017744,1.6958,-94817,162.76,354.72,123.4,1
32.537,15.807,59.934,5.5229,54.411,-0.0019101,8.8223,-0.0036218,4.9941,8.026,32.537,1308.1,36.167,4.0539,4.5063,0.022768,1.5976,1.0195e+05,102.16,256.54,79.851,1
4.2167,5.043,16.98,0.046305,16.933,-0.003186,0.20035,0.00075582,0.062588,1.0166,4.2167,43.169,6.5703,4.1479,6.4631,1.441,3.5267,24199,0.90354,0.80436,0.63342,1
0.61828,0.40628,2.9582,0.0032882,2.9549,-0.0040848,0.08649,-6.3416e-05,0.043793,1.002,0.61828,0.54705,0.73963,0.61705,0.73816,2.4556,12.542,0.67236,0.086929,0.1053,0.077367,1
1.4362,2.0016,7.9571,-0.002992,7.9601,0.0026272,0.11769,0.0017582,0.048657,1.0049,1.4362,6.0623,2.4622,1.4292,2.4501,2.1278,6.0951,544.2,0.65015,1.8595,4.4218,1
13.001,8.0489,38.068,1.7053e-13,38.068,0.03184,1.1454,-0.01655,0.52404,1.3441,13.001,233.71,15.288,9.673,11.374,1.1595,4.0099,3.0604e+05,12.819,0.22107,2.1586,1
11.551,7.9199,29.059,-0.47436,29.534,-0.0092938,0.65182,-0.0010692,0.24293,1.1654,11.556,196.04,14.002,9.9152,12.014,0.53493,2.0538,71152,17.215,16.118,24.103,1
7.4675,4.6921,24.735,-0.0005855,24.735,-0.020372,0.64244,0.00066248,0.26902,1.1614,7.4675,77.742,8.8172,6.43,7.5921,0.69324,3.3887,15740,2.3727,4.2991,10.473,1
15.075,7.2244,36.246,5.6843e-14,36.246,0.02129,1.7352,-0.0012096,0.88385,1.8138,15.075,279.36,16.714,8.3112,9.2148,0.53659,3.0877,77321,20.539,15.994,14.018,1
10.884,4.4962,27.211,0.0014629,27.21,0.0012991,1.421,0.0026234,0.75536,1.6499,10.884,138.64,11.775,6.5968,7.1366,0.60097,3.789,11192,15.431,11.654,19.005,1
9.7979,6.4568,27.22,-1.1369e-13,27.22,-0.013363,0.75194,0.0054761,0.38433,1.2124,9.7979,137.62,11.731,8.0815,9.676,0.51626,2.4999,37331,1.145,0.85455,0.66373,1
11.046,10.084,45.157,0.0024343,45.154,0.0040303,0.68535,0.00099127,0.25187,1.1713,11.046,223.51,14.95,9.4302,12.764,1.5589,5.26,1.5689e+06,4.7768,4.8002,5.8922,1
