11.69,15.196,69.05,0.0096855,69.04,-0.014076,0.74959,0.00047361,0.16072,1.1785,11.69,367.19,19.162,9.9189,16.259,2.0047,6.1797,1.5368e+07,1.4928,0.79351,0.49707,1
17.169,15.72,44.475,0.61347,43.862,0.011763,0.75519,0.0009755,0.13362,1.1894,17.169,541.48,23.27,14.435,19.565,0.57731,1.6236,1.7149e+06,3.0041,2.0627,12.872,1
24.693,24.964,100.1,1.7279e-05,100.1,-0.0014376,1.0705,-0.0015256,0.15704,1.3083,24.693,1231.9,35.099,18.875,26.828,1.2655,3.8658,9.0967e+07,22.506,36.174,71.479,1
52.644,48.231,215.9,-2.2737e-13,215.9,-0.11567,4.3109,0.011414,1.3009,3.3127,52.644,5093.7,71.37,15.892,21.544,1.5136,4.6466,3.1373e+09,4.8547,12.202,10.398,1
35.802,46.347,261.11,0.0023585,261.1,-0.0038582,3.1871,0.0013438,0.93673,2.4902,35.802,3426.2,58.534,14.377,23.506,3.1144,12.648,1.105e+10,108.82,176.59,159.55,1
110.22,111.8,475.35,-0.65421,476,0.024949,5.5352,-0.0090338,1.3142,4.2745,110.23,24629,156.94,25.787,36.714,1.8509,5.6889,2.7117e+11,2359.3,5050.3,10746,1
49.964,34.036,162.07,0.55227,161.51,-0.071932,3.9289,-0.0054164,1.2729,3.0772,49.964,3653,60.44,16.237,19.641,0.85768,3.606,3.5686e+08,166.26,167.5,235.15,1
29.41,31.536,161.85,0.10253,161.75,0.24244,2.0811,0.006256,0.65864,1.8871,29.41,1857.8,43.102,15.585,22.84,2.5105,9.3793,1.0871e+09,3246.2,2814.6,1951.1,1
45.083,32.897,109.04,-3.7776e-07,109.04,0.051278,1.6681,-0.0086353,0.43675,1.7254,45.083,3112.9,55.793,26.129,32.337,0.35501,1.7576,5.1629e+07,196.66,221.38,294.78,1
20.614,15.641,68.507,-1.4663,69.973,-0.040153,1.0305,0.0003043,0.37796,1.3615,20.644,669.16,25.868,15.162,19,1.33,4.3046,9.4689e+06,18.546,10.067,16.361,1
17.234,13.751,72.068,0.043469,72.025,0.032039,1.078,-0.003023,0.40741,1.3864,17.234,485.78,22.04,12.431,15.898,1.6569,5.7099,8.5435e+06,162.56,156.74,254.42,1
24.418,17.657,65.146,0.018938,65.127,-0.024607,1.1926,0.003887,0.47524,1.4543,24.418,907.49,30.125,16.791,20.714,0.51989,1.9293,3.4792e+06,9.3473,9.522,10.501,1
54.361,34.326,157.54,-0.5497,158.09,-0.045347,2.0235,-0.003129,0.2997,1.8831,54.364,4131.4,64.276,28.87,34.134,0.98887,3.6248,3.5343e+08,163.71,244.68,329.48,1
7.9143,6.4484,26.097,0.074711,26.023,-0.042198,0.36229,0.0024369,0.079893,1.0554,7.9143,104.15,10.205,7.499,9.6698,0.82166,2.5945,45862,0.04771,0.092343,0.082665,1
3.1165,2.6511,9.2155,-0.54065,9.7562,0.0041229,0.11363,-1.9584e-05,0.032735,1.0046,3.1535,16.729,4.0901,3.139,4.0712,0.63361,2.3094,399.55,1.3276,1.4392,1.78,1
21.075,23.643,81.848,-0.15272,82.001,0.02578,0.91846,-0.0021461,0.12923,1.258,21.076,1002.2,31.658,16.753,25.165,1.2792,3.2068,4.9e+07,79.366,111.83,146.92,1
6.0426,5.2768,21.598,-0.085638,21.684,-0.013847,0.28137,0.00074817,0.091938,1.0352,6.0432,64.312,8.0195,5.8376,7.7467,1.4701,4.1772,40335,25.414,29.365,35.188,1
5.8658,6.3007,25.262,-0.5693,25.831,-0.0069112,0.29216,0.0019608,0.078329,1.0361,5.8896,74.041,8.6047,5.6846,8.3051,1.7141,5.0525,1.3005e+05,1.6934,2.7341,5.6982,1
84.613,69.166,279.49,0.01229,279.48,0.031587,6.5824,0.037172,2.4194,5.0014,84.613,11935,109.25,16.918,21.844,0.96715,2.8392,8.3623e+09,469.87,268.89,224.18,1
73.659,68.563,356.07,0,356.07,-0.040729,6.2566,0.00068774,2.094,4.9078,73.659,10119,100.59,15.009,20.496,1.6122,5.9531,3.0184e+10,175.37,181.48,318.73,1
65.124,54.338,240.92,0.0066138,240.91,0.2842,5.7807,-0.015854,1.8617,4.5165,65.124,7188.9,84.787,14.419,18.773,1.3059,3.8719,4.2655e+09,7457.3,3776,1529.7,1
79.347,84.203,387.63,0,387.63,-0.26917,6.977,0.010357,2.377,5.6848,79.347,13374,115.65,13.958,20.343,2.1427,7.1053,9.3147e+10,74.905,217.87,201.17,1
1.6023,1.3278,5.5636,0.0021734,5.5614,0.00029158,0.082213,3.7273e-05,0.029002,1.0017,1.6023,4.3274,2.0802,1.5996,2.0768,1.1896,3.8337,36.41,0.0079658,0.0073462,0.0053691,1
32.984,29.068,135.31,-2.2737e-13,135.31,-0.017247,2.4709,0.00061856,0.83253,2.2105,32.984,1931.5,43.949,14.921,19.882,1.4925,4.8714,2.7954e+08,9.0956,8.9746,0.57376,1
12.665,8.6104,49.487,0.13031,49.357,0.017607,1.5234,-0.0021571,0.63876,1.6275,12.665,234.41,15.311,7.782,9.4077,1.3075,5.0073,7.0974e+05,71.596,73.526,104.91,1
19.16,14.126,71.635,-1.145e-05,71.635,-0.02066,2.2562,-0.0016893,0.97736,2.0236,19.16,566.32,23.798,9.4684,11.76,0.94118,3.4644,4.5048e+06,7.5172,11.265,13.003,1
0.60667,0.98858,4.5772,-1.9841e-05,4.5772,0.001469,0.061508,2.6639e-05,0.018476,1.0002,0.60667,1.3437,1.1592,0.60656,1.159,2.5082,8.9947,30.153,0.086235,0.079146,0.074375,1
17.771,14.297,57.145,2.2737e-13,57.145,-0.024402,1.3826,0.0047044,0.5322,1.5367,17.771,519.87,22.801,11.564,14.837,0.91228,2.6862,2.8628e+06,4.8429,6.5049,7.7405,1
8.2197,3.4517,16.122,0.45375,15.668,0.0080171,0.79441,-0.002382,0.34803,1.2419,8.2197,79.457,8.9139,6.6188,7.1778,0.1066,2.2732,195.28,4.1285,7.6679,6.4209,1
22.071,21.654,87.593,0.37067,87.222,-0.013519,1.0275,0.0028406,0.29774,1.3258,22.071,955.28,30.908,16.647,23.312,1.3743,4.0592,4.6742e+07,1.7857,0.061633,5.9616,1
12.134,11.077,48.175,0.00098899,48.174,-0.0038028,0.67114,-0.0035582,0.23856,1.17,12.134,269.72,16.423,10.371,14.037,1.8233,5.7328,2.6227e+06,19.804,10.912,14.043,1
15.285,11.337,48.854,-0.011837,48.866,0.047277,0.73874,0.00011515,0.25281,1.1996,15.285,361.94,19.025,12.742,15.859,0.98652,3.1388,1.16e+06,180.34,227.95,246.77,1
60.259,35.025,192.94,-0.6504,193.59,0.015724,5.2182,-0.017895,1.963,4.3309,60.262,4855.9,69.684,13.914,16.09,0.92025,3.9952,5.1038e+08,508.37,682.92,607.92,1
53.169,64.413,262.57,2.0189,260.55,-0.038736,3.2506,0.0028411,0.57919,2.3953,53.169,6969,83.481,22.197,34.852,1.7395,5.1178,1.5287e+10,112.54,102.75,242.49,1
31.506,39.003,163.06,-2.2737e-13,163.06,0.20389,1.7425,0.002834,0.24065,1.6126,31.506,2511.3,50.113,19.537,31.075,1.9164,5.7754,1.4692e+09,1787.3,1537.3,969.46,1
8.4658,10.382,39.47,-0.075871,39.545,0.00078805,0.29842,0.00076867,0.0551,1.0381,8.4662,179.28,13.389,8.1555,12.898,1.5877,4.4024,1.3284e+06,3.3035,3.9963,4.6033,1
12.997,19.248,85.295,0.08212,85.213,-0.11606,0.56982,-0.0029,0.13255,1.1198,12.997,538.78,23.212,11.606,20.728,2.381,7.7078,6.6013e+07,0.021631,0.10288,0.2893,1
28.568,27.682,100.18,0.52105,99.659,0.027078,1.5518,-0.0020568,0.27695,1.5423,28.568,1581.2,39.764,18.523,25.783,1.2551,3.331,1.1348e+08,84.224,150.38,256.58,1
20.672,20.856,91.689,-0.084666,91.774,-0.0090392,1.4667,0.00067719,0.27327,1.4516,20.672,861.58,29.353,14.241,20.221,1.7449,5.561,6.1782e+07,30.889,39.454,52.197,1
57.103,38.858,142.88,-0.058764,142.94,-0.038782,2.0639,-0.00062201,0.33017,1.9653,57.103,4768.2,69.052,29.056,35.136,0.45012,2.099,1.9995e+08,69.234,129.33,144.57,1
63.122,58.124,193.6,0.37411,193.23,0.030746,3.0662,-0.0014521,0.56136,2.4573,63.122,7357.2,85.774,25.688,34.906,0.97277,2.6958,3.0098e+09,182.41,280.51,399.03,1
28.066,36.403,143.02,-0.22587,143.24,-0.020749,1.5104,0.00043352,0.19498,1.5823,28.068,2110.7,45.942,17.738,29.034,1.6002,4.6532,7.8832e+08,2.3666,3.2535,2.6707,1
7.422,7.0316,29.246,0.22531,29.021,-0.0028695,0.33829,-0.00026234,0.048722,1.0441,7.422,104.45,10.22,7.1084,9.7881,1.5973,4.9933,2.283e+05,1.6023,2.7106,5.4551,1
1.1544,0.69451,3.3646,0.080216,3.2844,-0.0024937,0.075877,0.00039045,0.030954,1.0012,1.1544,1.8141,1.3469,1.153,1.3453,0.90677,3.5639,1.1304,0.0062012,0.018138,0.016878,1
10.937,11.26,42.351,0.0030567,42.347,0.0056265,0.4389,-0.00094359,0.060213,1.0762,10.937,246.18,15.69,10.162,14.58,1.5243,4.2365,1.7945e+06,8.5184,17.269,27.79,1
12.191,8.1438,31.995,0.0026422,31.992,0.036003,0.78532,-0.0013041,0.31217,1.2329,12.191,214.84,14.657,9.8883,11.889,0.67183,2.5285,1.2661e+05,59.581,57.067,108.45,1
15.66,13.237,65.126,0.033966,65.092,0.0074409,0.78531,-0.00022132,0.11295,1.2066,15.66,420.18,20.498,12.979,16.989,1.6505,6.034,7.5128e+06,9.0514,10.788,10.549,1
8.8372,17.3,79.436,-0.020721,79.457,-0.0081136,0.72942,0.00026801,0.088314,1.1496,8.8373,376.9,19.414,7.6872,16.887,2.8203,10.083,5.634e+07,0.94169,0.82373,0.91509,1
6.3876,7.7263,36.163,-0.048079,36.211,0.012008,0.38998,-6.9747e-05,0.056894,1.0511,6.3879,100.4,10.02,6.0772,9.5325,2.398,8.3612,7.742e+05,11.095,10.414,8.8232,1
12.432,8.5939,40.851,0.044698,40.806,-0.016743,0.98752,-0.0022345,0.43564,1.3342,12.432,228.29,15.109,9.3181,11.325,1.4648,4.8205,5.8758e+05,31.075,65.29,39.06,1
20.523,13.059,55.815,-0.0025015,55.817,-0.017257,1.112,0.0026868,0.39095,1.4065,20.523,591.43,24.319,14.592,17.291,0.77219,2.9426,1.9108e+06,0.5448,2.102,7.5047,1
17.052,10.492,50.716,0.10835,50.608,0.026378,1.0706,-0.0009151,0.37992,1.386,17.052,400.66,20.017,12.303,14.442,0.85977,3.6158,9.5118e+05,46.48,56.365,43.48,1
15.317,8.4348,42.413,0.08824,42.325,0.001704,1.0965,0.0012434,0.44848,1.4033,15.317,305.64,17.483,10.915,12.458,0.7694,3.7338,2.9564e+05,86.157,138.37,163.49,1
14.658,15.693,60.464,0.084165,60.38,0.018999,0.62565,0.0015897,0.083285,1.1482,14.658,460.71,21.464,12.766,18.694,1.3666,3.774,8.3355e+06,18.42,19.104,32.192,1
20.698,15.804,58.784,-0.53395,59.318,0.045631,0.87101,0.0017672,0.11579,1.2547,20.711,677.74,26.033,16.506,20.749,0.50925,2.255,2.9353e+06,114.06,45.899,31.866,1
15.961,12.754,48.317,0.35249,47.964,-0.062199,0.56286,-0.0025189,0.080103,1.129,15.961,417.13,20.424,14.137,18.09,0.91421,2.8112,1.6994e+06,6.5611,8.9116,8.5627,1
12.959,10.026,41.916,-1.0422,42.958,0.023088,0.56969,-0.001103,0.11058,1.1241,12.982,268.3,16.38,11.549,14.572,1.0671,3.4851,7.2224e+05,26.459,25.637,26.632,1
8.1014,8.4506,37.739,-0.098785,37.838,-0.018092,0.41065,0.0004012,0.08702,1.0711,8.1019,136.93,11.702,7.5639,10.924,1.7917,5.7781,7.3119e+05,2.7009,2.302,3.8269,1
17.197,14.786,57.224,0.022565,57.201,0.043355,0.80166,-0.0014947,0.12444,1.2212,17.197,514.01,22.672,14.082,18.564,1.0103,2.9178,3.8313e+06,205.97,264.28,273.25,1
8.8614,6.542,29.252,-0.63578,29.888,-0.0077273,0.45461,0.00097928,0.097599,1.0851,8.8764,121.25,11.011,8.1802,10.148,0.70145,2.6823,52811,48.354,11.039,1.3171,1
9.2355,6.1722,22.298,-0.01417,22.312,0.0066947,0.48024,0.0025569,0.13463,1.0961,9.2355,123.33,11.105,8.4258,10.132,0.38533,2.1338,16088,0.19546,1.3279,2.8767,1
13.162,8.3463,31.831,0.20956,31.621,0.0036883,0.58168,-0.0022648,0.15526,1.1331,13.162,242.79,15.582,11.616,13.752,0.42787,2.1192,81550,10.932,25.406,33.163,1
9.1758,5.8363,33.044,0.041781,33.002,-0.011847,0.38536,0.00088073,0.072665,1.0584,9.1758,118.2,10.872,8.6695,10.272,1.4894,6.7623,1.4878e+05,2.2533,2.3245,3.7038,1
5.1508,3.1126,12.757,-0.1404,12.898,0.0076395,0.19436,-3.5445e-05,0.037765,1.0161,5.1533,36.203,6.0169,5.0717,5.9217,0.20377,2.1344,419.87,9.0234,10.549,9.1777,1
4.5597,2.6241,11.017,-0.2913,11.308,-0.0075779,0.17343,0.00021559,0.041419,1.013,4.5637,27.666,5.2598,4.5053,5.1925,0.28746,2.5981,261.01,1.1443,1.5945,2.6239,1
5.5995,3.1393,14.12,-0.054559,14.174,0.0058021,0.22657,-0.00023719,0.046765,1.0225,5.6001,41.193,6.4182,5.4769,6.277,0.59137,3.0334,1312.7,6.8307,9.0437,9.5153,1
9.1553,7.6047,39.168,0.17544,38.992,-0.022539,0.72295,0.00043591,0.26407,1.1896,9.1553,141.55,11.898,7.696,10.001,1.8246,6.5546,5.2316e+05,0.40533,1.6444,6.5324,1
17.067,16.333,74.279,0.18789,74.092,0.024406,0.95797,-0.0031034,0.2098,1.2623,17.067,557.61,23.614,13.52,18.707,1.744,5.899,2.0005e+07,57.832,56.114,55.434,1
32.747,34.994,136.58,0.072922,136.51,-0.026062,1.6867,0.00092827,0.34327,1.723,32.747,2294.9,47.905,19.006,27.803,1.6573,4.9116,6.6343e+08,0.12877,0.83406,6.9981,1
7.9874,7.3616,30.703,0.037046,30.666,0.0034848,0.32749,-0.0003055,0.062463,1.0388,7.9874,117.9,10.858,7.6893,10.453,1.5843,4.7667,2.6098e+05,1.3746,1.6272,1.8206,1
10.459,9.1422,32.35,0.12291,32.227,0.00088623,0.46397,-0.00053071,0.13328,1.0915,10.459,192.84,13.887,9.5824,12.722,0.9504,2.6381,2.9367e+05,1.2192,0.56542,1.6829,1
7.9073,7.2672,28.184,-0.042761,28.227,0.033215,0.37995,0.0001267,0.1136,1.0617,7.9074,115.25,10.735,7.4479,10.112,1.2901,3.7054,1.6874e+05,91.869,96.479,102.17,1
1.06,0.76005,3.6539,0.0059092,3.648,-0.0004387,0.063727,0.00023037,0.023984,1.0003,1.06,1.7003,1.304,1.0596,1.3035,1.1747,3.9399,2.3128,0.11683,0.11509,0.11822,1
3.6008,4.8116,20.323,0.0016036,20.321,0.0017794,0.19014,-1.6755e-05,0.03396,1.0151,3.6008,36.078,6.0065,3.5472,5.917,2.0789,6.4007,49380,0.22869,0.1621,0.26854,1
2.8963,2.3813,11.366,-0.016636,11.382,0.0026356,0.15319,-0.00025941,0.033329,1.0094,2.8963,14.05,3.7483,2.8692,3.7132,1.6498,5.9016,1355.2,2.3009,2.7445,2.5967,1
20.358,33.501,130.97,-0.14753,131.12,-0.059461,1.2378,0.0017141,0.18833,1.3862,20.359,1534.9,39.178,14.686,28.262,2.2725,6.9925,8.8113e+08,1.3954,1.4487,1.0981,1
17.648,18.974,75.248,0.27447,74.974,0.0099673,0.74971,-0.0011905,0.11524,1.1645,17.648,670.86,25.901,15.155,22.242,1.3373,3.9551,2.349e+07,59.474,114.48,151.12,1
6.1934,3.934,20.381,0.061909,20.319,-0.02106,0.27403,0.0015167,0.073634,1.0332,6.1934,53.809,7.3355,5.9944,7.0998,1.59,5.7849,15284,1.2473,2.3464,3.9917,1
10.364,10.939,45.849,-0.03197,45.881,0.031603,0.46809,-0.00046529,0.065529,1.0876,10.364,226.88,15.062,9.5297,13.849,1.6548,5.3651,2.3893e+06,67.073,49.84,22.682,1
3.6509,3.1869,11.577,0.0084642,11.568,0.0022374,0.16146,-0.00025211,0.04298,1.011,3.6509,23.468,4.8444,3.6113,4.7918,0.8052,2.5368,1436.5,0.28219,0.15326,0.32192,1
24.031,23.964,113.88,0.17386,113.7,-0.027358,1.5718,-0.0061582,0.41988,1.5404,24.031,1150.8,33.924,15.601,22.023,1.6849,5.7819,1.3911e+08,214.91,210.61,161.54,1
9.5459,11.767,46.721,0.011849,46.709,-0.0034763,0.67801,0.00086125,0.25175,1.1798,9.5459,229.37,15.145,8.0913,12.837,1.8239,5.3536,3.3177e+06,5.133,5.477,1.6574,1
18.083,13.868,62.295,0.040527,62.255,0.017492,0.94166,0.00018424,0.28086,1.3057,18.083,519.01,22.782,13.849,17.447,1.0787,3.8364,4.5377e+06,81.496,103.9,120.06,1
8.0053,6.3063,29.793,0.0067507,29.786,-0.032538,0.62325,0.0012378,0.27807,1.1534,8.0053,103.79,10.188,6.9404,8.8324,1.4285,4.5256,1.1884e+05,1.569,3.2863,2.0836,1
2.5336,2.1584,7.4356,0.0070831,7.4285,-0.00097534,0.097176,0.00028952,0.035139,1.003,2.5336,11.07,3.3271,2.526,3.3172,0.87763,2.4267,176.73,0.64283,0.60218,0.41743,1
2.269,2.4358,9.5816,0.093357,9.4882,-0.0022495,0.098641,-8.5911e-05,0.032905,1.0031,2.269,11.071,3.3274,2.2619,3.317,1.7873,5.1087,1133.3,0.10754,0.16493,0.17484,1
0.94329,0.54636,2.7163,-0.00040987,2.7167,-0.00062678,0.060133,-6.1156e-05,0.027402,1.0001,0.9433,1.1878,1.0899,0.94317,1.0897,0.9333,4.0067,0.39541,0.0068978,0.021642,0.02071,1
13.881,12.716,50.727,-0.0011471,50.728,-0.081156,0.68036,0.0028941,0.17552,1.1687,13.881,354.12,18.818,11.878,16.102,1.178,3.1232,2.053e+06,1.1581,1.1336,0.98834,1
18.908,15.387,57.93,-0.00047451,57.93,0.029569,1.0641,-5.354e-05,0.26382,1.3219,18.908,593.87,24.369,14.304,18.436,0.85093,2.5729,3.8885e+06,52.559,105.34,141.64,1
8.5146,4.2636,20.374,1.1958,19.179,-0.0073319,0.5055,0.00071524,0.19263,1.1089,8.5146,90.647,9.5209,7.6783,8.5858,0.77297,2.9253,6821,45.094,42.839,23.342,1
20.131,15.313,57.429,0.25735,57.172,0.018084,0.90869,-0.00057083,0.18493,1.2589,20.131,639.35,25.285,15.991,20.085,0.84385,2.5648,3.4128e+06,12.43,7.2138,17.572,1
5.0037,2.9437,20.246,0.038579,20.207,-0.025285,0.37184,0.0004047,0.13344,1.06,5.0037,33.688,5.8042,4.7206,5.4757,1.3349,6.6364,5550.6,2.2882,3.0688,4.4926,1
15.063,12.315,49.328,0.24873,49.08,-0.0022858,0.76789,0.00055359,0.15191,1.2127,15.063,378.31,19.45,12.421,16.039,1.0415,3.2358,1.8102e+06,2.5531,5.8799,12.441,1
24.206,26.426,97.392,1.1369e-13,97.392,0.027928,1.2436,-0.0023875,0.23054,1.3635,24.206,1283.1,35.82,17.752,26.27,1.1959,3.5187,1.004e+08,89.036,179.59,237.41,1
10.291,9.5432,51.013,-0.0041901,51.017,-0.0034477,0.74201,0.0038199,0.18532,1.1716,10.291,196.83,14.03,8.7837,11.975,2.2389,8.8695,2.6362e+06,20.078,29.223,48.715,1
9.9677,10.044,42.84,0.027154,42.813,0.0044015,0.52356,-0.002134,0.11868,1.1048,9.9677,200.08,14.145,9.0221,12.803,1.8005,5.6752,1.6098e+06,116.27,158.74,149.37,1
38.876,28.053,106.98,0.090234,106.89,-0.045745,1.8599,-0.00030898,0.3417,1.8332,38.876,2297,47.927,21.206,26.143,0.60691,2.3173,5.1487e+07,7.7464,32.329,53.115,1
38.148,34.264,146.45,0,146.45,0.023064,1.7045,-0.0038334,0.26488,1.6801,38.148,2627.4,51.258,22.706,30.508,1.4594,4.7382,5.762e+08,47.456,95.898,140.4,1
11.779,9.5844,41.672,0.028226,41.643,-0.0087592,0.50559,0.0011069,0.089159,1.1017,11.779,230.44,15.18,10.691,13.779,1.3136,4.2285,8.35e+05,14.475,12.903,10.501,1
23.951,22.242,90.759,0.0069335,90.752,0.011043,1.3757,-0.00014827,0.24642,1.4365,23.951,1067.6,32.673,16.673,22.745,1.3115,4.1964,5.6498e+07,43.937,49.751,51.942,1
20.616,16.05,68.367,0.20074,68.166,0.019187,1.0289,-0.0033201,0.16972,1.2942,20.616,682.19,26.119,15.929,20.181,1.1556,3.9435,9.4229e+06,49.594,53.014,44.631,1
12.274,11.962,54.824,0.10949,54.714,-0.0065032,0.53737,0.0010132,0.10273,1.1045,12.274,293.49,17.132,11.112,15.51,1.7609,5.863,4.1733e+06,11.097,11.442,15.249,1
10.197,12.427,56.77,-0.06566,56.836,0.020365,0.64469,-0.0017141,0.12719,1.1389,10.197,258.15,16.067,8.9536,14.108,2.2064,7.1248,6.5228e+06,129.52,176.84,241.77,1
20.616,16.05,68.367,0.20074,68.166,0.019187,1.0289,-0.0033201,0.16972,1.2942,20.616,682.19,26.119,15.929,20.181,1.1556,3.9435,9.4229e+06,49.594,53.014,44.631,1
12.274,11.962,54.824,0.10949,54.714,-0.0065032,0.53737,0.0010132,0.10273,1.1045,12.274,293.49,17.132,11.112,15.51,1.7609,5.863,4.1733e+06,11.097,11.442,15.249,1
10.197,12.427,56.77,-0.06566,56.836,0.020365,0.64469,-0.0017141,0.12719,1.1389,10.197,258.15,16.067,8.9536,14.108,2.2064,7.1248,6.5228e+06,129.52,176.84,241.77,1
18.386,20.48,91.379,0.002462,91.376,-0.030576,1.0376,-0.0029471,0.17653,1.3037,18.386,756.77,27.509,14.103,21.1,1.9095,6.4709,7.1495e+07,5.3734,8.4468,11.904,1
25.001,33.951,135.01,0.014498,135,0.016118,1.6631,0.0017093,0.21138,1.5643,25.001,1775.8,42.14,15.983,26.939,1.7325,4.9078,5.8698e+08,77.12,175.32,341.79,1
41.812,29.822,179.73,5.8037e-06,179.73,0.014703,5.3218,0.021352,2.2986,3.77,41.812,2636.1,51.343,11.091,13.619,1.6045,6.2511,4.8784e+08,888.11,388.53,207.25,1
18.806,9.9441,44.237,0.74328,43.494,0.060933,0.67714,-0.00017808,0.11637,1.1741,18.806,452.38,21.269,16.017,18.115,0.37243,2.646,2.7687e+05,200.37,141.66,65.284,1
29.908,18.239,77.384,0.41308,76.971,-0.047569,1.0529,-0.002652,0.21431,1.373,29.908,1226.6,35.022,21.783,25.508,0.69877,2.9266,8.9585e+06,65.823,70.801,88.39,1
25.71,13.941,52.426,0.045453,52.38,-0.0030186,0.98575,0.0007775,0.20022,1.3211,25.71,855.03,29.241,19.461,22.134,-0.054131,2.0909,-75962,39.555,54.199,83.961,1
27.649,19.927,73.919,0.50127,73.418,0.044609,0.96296,0.00098155,0.17385,1.3021,27.649,1160.9,34.072,21.234,26.167,0.44083,2.0938,7.317e+06,248.04,284.4,246.19,1
7.2702,6.7727,25.014,-0.00024123,25.014,-0.0074056,0.29189,-0.00025547,0.058374,1.0369,7.2702,98.648,9.9322,7.0117,9.5791,0.96557,2.859,77521,6.5212,5.6291,5.5876,1
40.739,48.333,177.34,-0.33114,177.67,0.15522,1.7983,0.0062019,0.18544,1.6496,40.741,3991.9,63.181,24.698,38.302,1.3776,3.9123,2.4427e+09,506.06,213.16,139.63,1
41.244,42.94,169.25,-0.13034,169.38,-0.15516,1.9074,-0.005826,0.26743,1.6712,41.245,3541.9,59.514,24.68,35.611,1.2446,3.7643,1.2832e+09,4.131,2.5037,0.27989,1
12.892,8.6611,42.853,0,42.853,0.030109,1.6056,-0.030294,0.7516,1.4675,12.892,241.09,15.527,8.7852,10.581,0.9405,3.2793,3.1882e+05,32.997,28.449,32.147,1
9.7521,7.5591,28.549,-0.00074149,28.549,-0.036311,0.54783,-0.00059535,0.23652,1.1243,9.7521,152.15,12.335,8.6741,10.971,0.79127,2.3245,86520,1.6204,0.13924,0.29416,1
8.9563,7.5776,32.418,-0.14183,32.56,0.0065349,0.54065,-8.5549e-05,0.18534,1.1159,8.957,137.54,11.728,8.0267,10.51,1.3084,4.3691,2.6624e+05,7.9062,5.2408,5.7758,1
21.282,12.195,60.513,-0.76545,61.279,-0.041102,3.6359,-0.0011265,1.9896,3.4096,21.287,601.4,24.523,6.2433,7.1925,0.70155,3.518,1.7135e+06,13.151,49.442,8.0808,1
21.113,11.552,48.539,0.041866,48.497,0.0015689,0.79139,0.0068941,0.27478,1.2163,21.113,578.98,24.062,17.358,19.782,0.68738,2.9112,8.0548e+05,27.733,23.259,57.125,1
8.4894,5.2232,26.311,0.14693,26.164,-0.010048,1.2503,0.002544,0.58311,1.5321,8.4894,99.306,9.9652,5.5412,6.5045,0.88085,3.2789,24418,15.098,6.5595,75.973,1
7.6308,4.6086,22.665,-0.012965,22.678,0.011913,1.0762,-0.0035194,0.49288,1.4249,7.6309,79.433,8.9125,5.3555,6.255,1.1285,4.3682,20982,16.453,15.427,9.5276,1
10.532,7.0517,29.257,0.036107,29.22,0.0052066,1.4709,-5.9959e-05,0.67146,1.6439,10.532,160.58,12.672,6.4071,7.7085,0.68761,2.6469,69887,41.449,18.132,33.513,1
1.9819,1.2396,6.7648,0.00033921,6.7645,-0.0019163,0.25807,-0.0015341,0.11484,1.0295,1.9819,5.462,2.3371,1.925,2.27,1.0519,4.0942,29.27,0.56683,0.48224,0.93334,1
20.947,13.97,55.657,1.1369e-13,55.657,0.025476,1.5198,-0.010865,0.46337,1.6365,20.947,633.6,25.171,12.799,15.381,0.59564,2.5277,1.8969e+06,1.8693,0.48955,1.7996,1
25.281,11.533,64.065,0,64.065,0.080992,3.5067,-0.037971,1.8588,2.9388,25.281,771.93,27.784,8.6026,9.4541,0.91225,4.2015,1.6639e+06,129.88,114.08,343.95,1
6.9306,9.4363,35.46,-0.43057,35.89,-0.013325,0.41148,0.0031451,0.12263,1.0662,6.9376,136.93,11.702,6.5068,10.975,1.8874,5.3647,1.0722e+06,0.58445,0.33194,0.46813,1
43.801,43.687,200.03,0.38415,199.65,-0.0097564,3.7205,-0.032121,1.436,2.9267,43.801,3823.9,61.838,14.966,21.129,1.8496,5.5789,2.4865e+09,66.839,93.423,87.148,1
32.823,30.047,126.32,-1.1786,127.5,0.0044639,2.5775,0.001416,1.0553,2.3216,32.835,1978.7,44.482,14.143,19.16,1.2048,3.4303,1.8711e+08,62.965,51.099,47.576,1
19.58,14.567,70.018,0.38261,69.635,-0.024646,1.8942,0.00074914,0.83668,1.842,19.58,595.2,24.397,10.63,13.245,1.5306,5.1922,9.2628e+06,0.36931,5.8321,5.5506,1
14.547,9.9805,37.469,0.58164,36.888,-0.0028872,0.77068,0.0016697,0.29773,1.2224,14.547,311.07,17.637,11.9,14.428,0.43912,1.9128,2.0023e+05,7.0463,10.436,1.3546,1
2.6103,1.3755,5.9878,0.0014012,5.9864,0.002649,0.16686,0.00025175,0.091077,1.012,2.6103,8.7026,2.95,2.5794,2.9151,0.39731,2.5308,11.285,1.7002,1.8219,2.0734,1
2.8168,0.61316,4.6929,1.4485,3.2444,-0.00030452,0.18941,4.814e-05,0.11089,1.0159,2.8168,8.31,2.8827,2.7728,2.8376,0.15221,2.8638,0.12153,1.1529,1.8248,0.89469,1
2.8404,0.96874,5.602,0.162,5.44,-0.00066398,0.19254,-0.00044771,0.11184,1.0165,2.8404,9.0045,3.0008,2.7943,2.9521,-0.19337,3.6244,-1.0523,0.77799,1.2031,0.92235,1
1.3875,0.87816,3.6088,-1.4211e-13,3.6088,0.0016442,0.067477,0.00059779,0.028828,1.0006,1.3875,2.6949,1.6416,1.3866,1.6406,0.89896,2.8966,2.432,0.96953,0.4477,0.35273,1
1.4712,0.8818,4.5268,0.01401,4.5128,-0.0010619,0.072206,-0.00013292,0.03247,1.0009,1.4712,2.9407,1.7149,1.4698,1.7133,1.4043,5.0158,6.591,0.28553,0.28072,0.34096,1
0.94944,0.24116,1.6453,0.39789,1.2474,-0.00046031,0.053934,9.9374e-06,0.025639,0.99978,0.94944,0.95949,0.97954,0.94965,0.97975,0.23337,2.6778,0.0012314,0.24282,0.27022,0.14984,1
1.3753,0.71408,3.5526,0.0047027,3.5479,5.5314e-05,0.073991,4.4036e-05,0.035347,1.0011,1.3753,2.4005,1.5494,1.3739,1.5477,1.1677,4.1923,1.5189,0.37936,0.22562,0.35416,1
25.984,31.882,116.93,0.061033,116.87,-0.0284,1.054,2.4155e-05,0.25623,1.3417,25.984,1690,41.109,19.366,30.639,1.6325,4.2605,3.3343e+08,12.467,22.591,29.26,1
63.075,33.276,142.28,0.4492,141.83,-0.047919,14.747,0.050922,6.8734,13.222,63.075,5084,71.302,4.7704,5.3926,0.026403,1.8837,1.2008e+07,857.28,699.21,529.45,1
76.746,36.795,193.88,4.8655,189.01,-0.012495,16.112,0.0049115,7.8705,14.423,76.746,7241.6,85.098,5.321,5.9001,0.22927,2.3984,1.5587e+08,994.66,1145.9,370.29,1
79.935,39.07,188.97,5.5329,183.44,-0.096487,15.51,-0.044187,7.3353,13.864,79.935,7913.5,88.958,5.7658,6.4166,0.34347,2.6066,2.6575e+08,1471,193.48,1614.1,1
84.626,41.067,193.46,1.9489,191.51,0.03347,16.624,-0.015122,7.7304,14.872,84.626,8845.3,94.049,5.6902,6.3239,0.18529,2.2581,1.6143e+08,1714.1,492.29,1941.5,1
24.918,12.749,62.311,0.11597,62.195,0.04155,4.3156,-0.041545,2.425,3.5333,24.918,783.17,27.985,7.0523,7.9204,0.29964,2.4057,7.1646e+05,145.9,251.66,180.67,1
20.202,11.97,53.804,-0.0054891,53.809,-0.027009,4.1932,-0.0051752,2.5055,3.4806,20.202,551.17,23.477,5.8043,6.7452,0.5513,2.53,8.2706e+05,86.353,286.79,270.21,1
27.262,14.178,65.014,1.3818,63.633,0.015732,3.9355,-0.0022296,2.2431,3.1165,27.262,943.89,30.723,8.7476,9.8581,0.47884,2.5639,1.7263e+06,45.193,81.275,83.785,1
12.811,11.375,56.982,1.1369e-13,56.982,0.011516,1.858,-0.016455,0.80303,1.7884,12.811,293.29,17.126,7.1633,9.576,1.8403,6.3092,3.7456e+06,5.0422,1.6336,0.18603,1
10.976,6.9115,42.821,0.33143,42.489,-0.067381,0.78802,0.012479,0.34947,1.1892,10.976,168.17,12.968,9.2298,10.905,1.0664,4.0161,1.5424e+05,1.8641,1.3219,2.3503,1
3.4315,3.2197,16.465,5.6843e-14,16.465,0.0070282,0.30932,-0.0016884,0.17057,1.0431,3.4315,22.125,4.7037,3.2899,4.5095,2.4365,8.5521,10045,2.6906,3.5496,4.1817,1
2.4417,1.0271,5.6532,0.10688,5.5463,-0.0033296,0.32507,0.00092048,0.19943,1.0481,2.4417,7.0149,2.6486,2.3297,2.5271,0.2089,2.7154,2.407,1.5162,0.96328,0.95009,1
13.906,9.3197,41.373,-0.59723,41.97,-0.031774,1.7001,0.024455,0.89131,1.7148,13.91,280.07,16.735,8.1113,9.7592,0.81243,2.9956,3.7227e+05,24.188,21.698,37.477,1
16.721,12.244,48.074,0.032088,48.042,0.028729,2.1355,-0.0022406,1.1557,1.958,16.721,429.24,20.718,8.5395,10.581,0.73252,2.3896,9.6895e+05,130.29,176.71,167.34,1
11.252,7.0951,42.338,-0.23956,42.578,-0.0017832,1.241,0.0036802,0.6535,1.4778,11.253,176.85,13.299,7.6149,8.999,1.0045,4.7436,2.413e+05,22.893,28.968,23.788,1
24.06,8.8592,52.746,0.3261,52.42,0.06345,4.3354,-0.021002,2.5778,3.6424,24.06,657.23,25.636,6.6055,7.0384,-0.12212,3.0045,-22265,130,87.355,188.31,1
30.728,10.03,55.451,0.34542,55.105,-0.056527,3.3355,0.0011723,1.8323,2.914,30.728,1044.6,32.32,10.545,11.092,-0.39693,3.1109,-3.3812e+05,85.367,97.361,203.36,1
15.315,10.404,42.852,1.1369e-13,42.852,0.0037168,1.0988,-0.012767,0.37085,1.3419,15.315,342.63,18.51,11.413,13.794,0.77917,2.9454,6.0642e+05,0.14504,1.6258,2.5778,1
15.12,11.274,56.374,1.564e-05,56.374,0.019546,1.0801,-0.0025538,0.31538,1.3724,15.12,355.5,18.855,11.017,13.739,1.1109,4.0393,1.8424e+06,23.435,21.061,25.132,1
7.3486,5.2652,23.759,-0.17917,23.939,-0.0056666,0.5277,-0.0012751,0.19263,1.1151,7.3495,81.678,9.0376,6.5911,8.105,0.87646,3.1802,24889,2.7624,2.126,1.7169,1
18.448,11.399,42.661,0.56464,42.096,0.016073,0.93744,-0.0010612,0.23042,1.3142,18.448,470.07,21.681,14.038,16.497,0.20445,1.9214,1.9243e+05,11.311,2.5493,1.5699,1
6.5521,4.5037,23.219,0.38485,22.834,-0.0099154,0.61367,-0.00046299,0.29815,1.1568,6.5521,63.179,7.9485,5.6642,6.8714,1.2228,4.353,20724,4.3884,3.8367,0.85123,1
31.589,26.883,114.18,-2.2737e-13,114.18,-0.013047,2.4463,-0.0056127,0.55236,2.1464,31.589,1719.3,41.465,14.717,19.319,1.1693,3.734,1.211e+08,34.721,21.078,10.599,1
4.8945,3.8672,14.755,0.029459,14.726,0.0086794,0.16061,0.00011672,0.042698,1.011,4.8945,38.886,6.2359,4.8414,6.1682,1.1724,3.448,6068.1,8.559,8.7496,4.8388,1
4.5924,2.7665,10.625,-0.0023767,10.627,-0.013763,0.13539,-2.9652e-05,0.051963,1.0074,4.5924,28.731,5.3601,4.5585,5.3206,0.41053,2.34,363.39,0.91308,1.2379,1.412,1
3.4674,2.1145,9.303,-0.020937,9.3239,0.0016911,0.1254,-0.00010475,0.044063,1.0061,3.4675,16.486,4.0604,3.4466,4.0358,0.43043,2.8735,164.5,2.9558,3.5427,4.2109,1
3.1232,2.4827,10.554,0.059379,10.495,-0.0016082,0.13428,5.2823e-05,0.047397,1.0072,3.1232,15.908,3.9885,3.1008,3.9599,1.1874,3.3922,677.09,0.27844,0.43134,0.29629,1
12.697,11.323,56.351,0.57776,55.774,-0.0019408,0.69921,0.0013152,0.13678,1.1616,12.697,289.21,17.006,10.93,14.64,1.7859,6.5196,3.9568e+06,11.377,9.8478,11.315,1
7.1631,8.1416,30.505,-1.5063,32.012,-0.012741,0.30886,-0.00025324,0.056127,1.0385,7.2758,117.49,10.839,7.0058,10.437,1.3526,3.8304,3.1081e+05,0.24192,0.55279,1.0654,1
3.7549,3.3102,16.939,-0.023759,16.962,0.00046271,0.20081,0.0011053,0.040835,1.0169,3.755,25.038,5.0038,3.6924,4.9205,1.695,6.3362,8162.7,0.0017884,0.023546,0.021586,1
1.7112,0.90649,4.7182,0.026162,4.692,0.00054391,0.089993,-0.00073936,0.034243,1.0023,1.7112,3.7484,1.9361,1.7072,1.9316,0.464,3.1713,2.8786,0.70283,0.50288,0.71536,1
8.8287,10.149,38.529,-0.059063,38.588,-0.013985,0.39327,0.00053767,0.10591,1.0659,8.8289,180.78,13.446,8.2833,12.615,1.6766,4.5668,1.2148e+06,0.45577,0.17433,0.41996,1
7.185,6.4174,26.733,0.089496,26.643,0.0084143,0.89066,-0.0035086,0.52297,1.2526,7.185,92.739,9.6301,5.7359,7.6878,1.4212,4.2064,1.1026e+05,20.266,41.553,17.012,1
10.42,5.6357,30.295,0.0023443,30.293,0.025353,2.0062,-0.0071641,1.1682,1.901,10.42,140.29,11.844,5.4815,6.2306,0.69994,3.4244,36066,47.737,34.731,12.784,1
10.94,6.4084,30.592,-0.51062,31.103,-0.031903,1.2411,0.0035058,0.70634,1.4812,10.942,160.68,12.676,7.3873,8.558,0.6969,3.0062,53381,4.3645,3.7773,9.9745,1
33.254,12.22,68.272,0.18241,68.089,-0.027143,5.2678,0.027598,3.0524,4.3388,33.254,1254.9,35.425,7.6644,8.1647,-0.064284,2.7856,-43807,69.149,137.38,97.281,1
12.714,6.2271,30.089,0.67165,29.418,0.0055492,2.4155,0.001919,1.335,2.3027,12.714,200.35,14.154,5.5212,6.1469,0.17294,2.2695,12471,32.386,10.176,33.989,1
3.4236,2.7469,11.604,0,11.604,0.00078076,0.18143,-0.0011329,0.05811,1.0141,3.4236,19.254,4.388,3.3761,4.327,1.2885,3.9777,1410.1,0.053401,0.021199,0.14203,1
33.992,25.725,98.97,-0.028529,98.998,0.065073,1.5696,0.0023594,0.23638,1.641,33.992,1816.1,42.616,20.714,25.969,0.66418,2.3789,3.9219e+07,470.25,213.64,35.432,1
39.789,31.987,122.66,0.18805,122.48,0.0039158,1.9629,-0.0034397,0.36679,1.8388,39.789,2604.6,51.035,21.639,27.755,0.7811,2.5799,1.456e+08,660.86,291.34,141.94,1
30.985,28.876,142.19,0.012029,142.18,-0.10936,2.1483,0.002203,0.37789,1.8123,30.985,1792.5,42.338,17.097,23.361,1.5856,5.8346,3.7061e+08,48.643,37.96,26.874,1
25.017,21.7,84.527,0.18184,84.345,-0.010017,2.1932,0.0024872,0.56981,1.9268,25.017,1095.9,33.105,12.984,17.181,1.1398,3.1907,3.159e+07,25.143,30.494,29.4,1
31.014,32.416,121.54,1.5673,119.98,0.084644,2.0412,-0.0037248,0.47315,1.8764,31.014,2011,44.844,16.529,23.899,1.4527,3.8366,3.0864e+08,855.95,999.84,1156.8,1
33.678,21.577,79.326,1.1934,78.132,-0.096835,2.098,0.0046997,0.5729,2.0465,33.678,1599,39.987,16.456,19.539,0.2903,1.9289,6.7551e+06,4.9372,0.99917,8.7703,1
13.132,16.554,53.438,-0.39007,53.828,-0.01025,0.46502,0.00036242,0.080193,1.0889,13.145,446.02,21.119,12.071,19.394,1.3535,3.3518,8.6673e+06,0.59355,0.32132,0.23283,1
12.082,13.357,53.571,0.034128,53.537,0.015788,0.52675,-1.7752e-06,0.06735,1.0991,12.082,324.1,18.003,10.993,16.38,1.702,5.0841,5.6155e+06,35.324,63.869,93.425,1
1.7394,1.7008,13.081,0.016353,13.065,-0.015089,0.13687,0.001083,0.045729,1.0075,1.7394,5.9137,2.4318,1.7265,2.4137,3.1339,16.586,1267,3.0738,2.9473,2.2442,1
5.1331,5.3476,21.565,-0.0066636,21.572,-0.0023858,0.21608,0.00047022,0.045722,1.0201,5.1331,54.898,7.4093,5.0321,7.2635,1.638,4.848,55673,0.44894,0.61818,1.0822,1
2.7053,2.0147,8.3093,-0.077059,8.3864,0.00114,0.12002,-0.0001922,0.045576,1.0054,2.7057,11.371,3.372,2.6911,3.3539,0.97219,3.0775,202.76,0.077658,0.24207,0.1626,1
60.727,43.087,185.46,0.55375,184.9,-0.052423,2.5754,-0.0015534,0.59758,2.4162,60.727,5541.2,74.439,25.133,30.808,1.1204,3.6725,1.1598e+09,30.627,50.889,144.15,1
25.245,26.472,108.24,1.1369e-13,108.24,0.0088407,1.689,-0.0035718,0.35095,1.6939,25.245,1336.9,36.564,14.903,21.585,1.5445,4.3814,1.4249e+08,4.3927,8.6804,8.5193,1
15.68,18.59,78.965,0.0006928,78.965,0.0052889,0.92278,3.644e-05,0.13606,1.2304,15.68,590.87,24.308,12.744,19.757,2.2725,7.4103,5.0802e+07,11.717,9.396,6.7152,1
18.314,18.515,69.417,0.082507,69.334,0.073836,1.3408,-0.00089428,0.28179,1.4375,18.314,677.64,26.032,12.741,18.109,1.395,3.832,1.8812e+07,172.33,7.5551,0.062081,1
22.936,16.22,75.981,-0.037924,76.019,-0.062832,1.5992,-0.0016752,0.37396,1.6565,22.936,788.72,28.084,13.846,16.954,1.0817,3.702,9.4186e+06,70.22,81.271,11.661,1
8.5578,5.2413,24.174,0.021777,24.152,-0.0065284,0.35757,-0.00027566,0.070699,1.0554,8.5578,100.66,10.033,8.1086,9.5064,0.542,2.7885,17200,13.393,13.655,15.234,1
4.9,4.4959,19.277,5.6843e-14,19.277,0.0034869,0.28974,-0.0007393,0.065609,1.037,4.9,44.19,6.6476,4.725,6.4101,1.6484,5.1472,25421,0.67791,0.66685,1.0196,1
19.829,16.661,79.496,0.026887,79.469,0.01807,1.3441,0.00036297,0.26194,1.4605,19.829,670.31,25.89,13.577,17.727,1.3497,4.8908,1.7787e+07,35.503,29.278,39.564,1
9.2431,8.6271,41.258,-0.0014238,41.259,-0.022336,0.48482,-1.5022e-05,0.094347,1.086,9.2431,159.74,12.639,8.5108,11.637,1.7751,6.3512,9.4663e+05,0.37271,0.17167,0.10841,1
15.623,15.548,67.4,-0.0051988,67.405,0.020244,0.84751,-0.00095265,0.14772,1.2368,15.623,485.43,22.032,12.632,17.814,1.4838,4.6099,1.0929e+07,52.222,78.213,131.5,1
9.1707,8.2168,56.291,0.020618,56.271,0.071087,0.66392,0.0017439,0.12371,1.1254,9.1707,151.5,12.309,8.1491,10.938,2.5861,13.2,2.4537e+06,261.57,94.532,3.3139,1
4.5738,5.3208,20.254,0.060391,20.194,0.0044281,0.18173,0.00031162,0.041352,1.0139,4.5738,49.183,7.0131,4.511,6.9168,1.6036,4.5201,47574,3.292,3.1086,5.5846,1
1.9547,1.3377,5.6682,0.024991,5.6433,-0.0023767,0.086654,0.00048059,0.035532,1.0021,1.9547,5.6073,2.368,1.9507,2.3631,0.78241,2.3732,16.163,1.4505,1.6508,1.58,1
9.6301,9.2359,33.628,0.032,33.596,0.011523,0.34868,-0.00016769,0.066969,1.0487,9.6301,177.9,13.338,9.1825,12.718,0.84894,2.7464,3.529e+05,11.544,10.316,14.611,1
10.232,6.2643,25.783,0.076271,25.707,0.016381,0.36913,1.9411e-05,0.085552,1.0605,10.232,143.87,11.995,9.6486,11.311,0.51317,2.7327,33046,18.629,17.939,16.037,1
19.134,13.872,49.583,-0.8305,50.413,0.003259,0.84676,-0.0019221,0.13933,1.2263,19.148,558.23,23.627,15.615,19.267,0.5108,2.2298,1.332e+06,71.621,91.872,128.56,1
18.621,23.65,111.18,-0.13903,111.32,0.018107,1.2899,-0.0012831,0.30469,1.4661,18.622,905.13,30.085,12.702,20.521,2.4629,8.7364,2.2199e+08,9.6642,3.3932,4.1413,1
12.989,8.0893,39.348,-0.89123,40.239,-0.004305,0.90822,-0.00028706,0.24161,1.2856,12.997,234.04,15.298,10.11,11.9,0.93034,3.7493,2.7519e+05,15.375,23.65,34.2,1
20.28,19.655,77.401,0.019824,77.382,0.0029352,1.149,0.00028286,0.26786,1.3958,20.28,796.95,28.23,14.529,20.225,1.1635,3.3033,2.047e+07,24.31,22.285,20.363,1
17.813,19.169,82.505,0.018855,82.486,-0.021119,0.89554,0.0020978,0.13426,1.2392,17.813,684.13,26.156,14.374,21.107,1.6492,5.1346,3.6222e+07,0.99641,1.495,1.5922,1
28.901,22.553,97.905,0.049701,97.855,-0.013246,1.253,-0.014477,0.23901,1.4204,28.901,1343.1,36.648,20.348,25.802,0.96596,3.3028,4.0544e+07,196.62,33.257,1.5269,1
36.425,32.076,139.1,0.136,138.96,-0.069631,1.4314,-0.00010666,0.22283,1.5611,36.425,2354,48.518,23.333,31.078,1.2663,4.3105,3.7149e+08,25.401,62.046,111.36,1
22.15,16.748,69.372,-0.63263,70.005,0.0084546,1.2968,0.00044473,0.24724,1.3844,22.155,770.65,27.761,16.004,20.053,1.1204,3.4503,9.4324e+06,21.751,23.007,20.197,1
32.859,42.275,171.91,-0.00044529,171.91,0.097031,1.3901,-0.010313,0.26077,1.5021,32.859,2863.9,53.516,21.875,35.626,2.058,6.2698,2.4525e+09,623.99,1083.2,1557.9,1
12.952,9.0595,58.122,0.18722,57.934,-0.012346,0.93049,0.004735,0.37018,1.2941,12.952,249.68,15.801,10.009,12.211,1.8621,8.015,1.8288e+06,223.62,128.51,62.296,1
13.051,14.476,55.316,-2.7594,58.076,-0.024086,0.4672,0.00012119,0.18217,1.0927,13.13,379.54,19.482,12.017,17.829,1.416,3.8692,5.7304e+06,172.62,185.18,166.23,1
17.891,9.9059,41.973,0.062866,41.91,0.015527,0.6212,-0.0013954,0.13149,1.1591,17.891,418.04,20.446,15.436,17.64,0.24084,2.4792,1.5888e+05,31.46,34.934,27.642,1
7.4026,4.7286,20.633,0.24989,20.384,-0.0095672,0.32439,0.00015877,0.080955,1.0459,7.4026,77.12,8.7818,7.0776,8.3963,0.75398,2.8931,11796,2.0873,2.8541,3.1687,1
11.298,8.5683,32.096,0.0029066,32.093,0.0042797,0.42106,4.903e-06,0.097523,1.072,11.298,200.95,14.176,10.539,13.223,0.97894,3.0256,2.5507e+05,8.3096,12.442,12.374,1
13.228,8.6768,36.982,0.42452,36.558,-0.0040487,0.43042,0.00014638,0.10052,1.077,13.228,250.13,15.816,12.282,14.685,0.71542,2.9708,2.3198e+05,2.4237,2.042,3.5203,1
6.4486,4.5834,22.447,0.0025695,22.444,-0.00032046,0.38192,8.8653e-05,0.10065,1.0639,6.4486,62.558,7.9093,6.0616,7.4346,1.1679,4.2574,21590,1.7363,1.9966,2.5057,1
1.8021,0.9266,4.0123,0.049671,3.9627,0.00081886,0.082232,-1.1867e-05,0.035027,1.0017,1.8021,4.1047,2.026,1.7991,2.0226,0.58731,2.4121,1.9399,0.11052,0.23016,0.066166,1
1.5855,0.54363,2.7028,0.25146,2.4513,-0.0025752,0.076188,-0.00016933,0.032986,1.0012,1.5855,2.8089,1.676,1.5836,1.6739,-0.33298,2.6327,-0.091661,0.028552,0.31434,0.5246,1
1.7063,1.0376,3.863,-0.019585,3.8826,0.00041419,0.081423,0.00018225,0.033492,1.0016,1.7065,3.9865,1.9966,1.7037,1.9934,0.1229,1.9335,0.89333,0.081334,0.025406,0.0027398,1
2.3886,2.3568,12.915,0.027012,12.888,-0.0058134,0.15745,0.00025773,0.040287,1.0103,2.3886,11.251,3.3542,2.3642,3.32,2.6481,10.648,3031.2,0.040889,0.0054501,0.10314,1
1.3551,1.0164,4.4425,0.027581,4.4149,0.0043908,0.075984,-0.00047317,0.027636,1.0012,1.3551,2.8677,1.6934,1.3535,1.6914,1.5531,4.6711,12.482,1.4995,1.3952,1.5457,1
17.889,18.588,62.105,0.063696,62.041,-0.012116,0.69534,-0.00034329,0.098816,1.1691,17.889,664.94,25.786,15.301,22.057,1.0145,2.6541,1.0655e+07,9.6456,11.408,15.46,1
13.828,18.9,80.986,-3.7031e-06,80.986,0.023014,0.7558,0.00074662,0.10957,1.1762,13.828,547.81,23.405,11.756,19.899,2.2994,7.5025,5.7093e+07,74.774,78.055,75.773,1
5.5607,4.3393,20.876,0.29439,20.582,-0.031089,0.27734,-0.00012638,0.10122,1.0349,5.5607,49.719,7.0512,5.3732,6.8135,1.2443,4.213,16708,1.3427,1.0316,1.2958,1
7.2048,4.8071,22.119,-0.054008,22.173,0.014158,0.39566,-0.00020051,0.085749,1.0662,7.2051,74.979,8.6591,6.7579,8.1216,0.79742,3.3954,16370,7.7097,5.0802,5.7228,1
9.6282,7.8693,31.593,-0.13456,31.728,0.014312,0.45766,-0.00081231,0.086051,1.0843,9.6297,154.52,12.431,8.8814,11.465,0.97899,3.1123,1.8583e+05,63.07,79.836,87.885,1
14.709,11.627,44.334,0.21008,44.124,0.0093854,0.63098,0.0012637,0.094375,1.1509,14.709,351.32,18.744,12.78,16.285,0.65297,2.3112,7.121e+05,27.452,5.8593,0.58282,1
2.7532,3.2996,12.112,0.044096,12.067,-0.01003,0.11646,-0.00015539,0.022853,1.005,2.7532,18.45,4.2953,2.7395,4.2738,1.6167,4.4305,4231.6,1.0605,1.1025,0.87693,1
3.2694,3.3109,14.979,-0.018459,14.997,0.0016572,0.20146,-0.00088271,0.06867,1.0174,3.2695,21.633,4.6511,3.2136,4.5716,2.1468,7.0097,8525.9,0.79492,0.59147,0.92905,1
8.6343,7.4579,36.117,-0.15289,36.27,-0.03183,0.35447,0.0015209,0.077179,1.0529,8.6362,130.08,11.405,8.2019,10.832,1.7332,6.1063,4.3435e+05,0.083289,0.52989,0.71941,1
6.653,4.7578,21.275,-0.14874,21.424,0.0055374,0.2711,0.00052315,0.053508,1.031,6.654,66.862,8.1769,6.4538,7.931,1.0778,3.9106,22105,1.2438,1.3684,1.2726,1
2.8883,2.1016,9.5862,0.13556,9.4506,-0.00068407,0.11613,0.00012953,0.037394,1.0049,2.8883,12.752,3.571,2.8742,3.5535,1.4403,4.7352,479.07,1.5685,1.9584,2.1101,1
3.4624,2.7848,10.504,0.0015832,10.503,-0.0015373,0.10129,-4.8289e-05,0.03025,1.0034,3.4624,19.73,4.4419,3.4508,4.4269,1.2969,3.4395,1163.4,0.3994,0.56452,0.42138,1
19.082,11.943,48.916,-0.00022852,48.916,0.012237,0.91397,0.0057734,0.17323,1.3011,19.082,506.51,22.506,14.666,17.298,0.30451,2.4379,5.377e+05,5.0332,5.5434,15.434,1
14.904,8.1234,36.431,-0.49463,36.926,0.0062498,0.69171,-0.0015559,0.17702,1.1863,14.915,288.01,16.971,12.574,14.306,0.33206,2.8933,1.0443e+05,52.968,46.473,30.852,1
13.727,8.9945,45.955,3.4106e-13,45.955,-0.0093093,0.7832,0.0068097,0.15909,1.1913,13.727,269.2,16.407,11.523,13.773,1.3195,5.1992,8.5205e+05,0.45303,1.2739,4.9137,1
8.2678,4.9678,21.564,0.090654,21.474,0.017361,0.46577,-0.0025042,0.22294,1.0907,8.2678,92.995,9.6434,7.5803,8.8415,0.92187,3.2511,17305,24.451,21.781,12.446,1
2.6864,1.2556,5.5592,2.8422e-13,5.5592,-0.00021406,0.19381,-0.00058247,0.088286,1.0165,2.6864,8.791,2.965,2.6428,2.9168,-0.10195,2.2173,-1.2343,0.39933,0.6609,0.50083,1
1.4877,0.69864,4.1188,-0.093067,4.2118,-0.0019536,0.15542,-2.1819e-05,0.07082,1.0101,1.4881,2.7004,1.6433,1.4732,1.6268,0.85741,3.7729,1.268,0.12457,0.18943,0.11951,1
2.1696,1.1486,6.3404,0.0016061,6.3388,0.0045009,0.18909,-0.00020632,0.087924,1.0157,2.1696,6.024,2.4544,2.1361,2.4165,0.98094,3.7647,16.078,1.7226,2.1323,2.2362,1
2.3726,0.97774,5.7561,0.013096,5.743,0.0035766,0.21031,0.00033729,0.10005,1.0197,2.3726,6.5837,2.5659,2.3268,2.5163,0.025552,2.903,0.73476,1.9296,1.8731,1.6059,1
38.894,29.658,123.94,-0.43835,124.38,0.1082,1.9806,0.0066502,0.51025,1.8665,38.896,2390.8,48.896,20.839,26.197,0.91272,3.0436,1.3489e+08,1021.3,475.6,444.52,1
48.29,42.4,168.32,1.8472,166.48,-0.070629,3.7815,-3.3019e-05,1.4516,2.6441,48.29,4126.7,64.24,18.263,24.295,1.083,3.2635,9.4017e+08,124.32,17.361,15.017,1
43.984,28.716,123.27,0.018082,123.26,-0.025441,3.6028,0.005225,1.3008,2.8658,43.984,2757.8,52.515,15.348,18.325,0.78893,2.6108,8.0931e+07,382.43,644.16,625.74,1
3.4402,2.4411,11.128,0.0091774,11.119,-0.011627,0.20595,-0.00015818,0.095951,1.0188,3.4402,17.784,4.2171,3.3768,4.1394,0.92206,3.0957,534.67,0.26283,0.56234,0.62348,1
8.2477,11.117,43.233,-0.05122,43.284,-0.0028061,0.37799,1.9438e-05,0.049786,1.0518,8.248,191.4,13.835,7.8419,13.153,1.9802,5.73,2.6708e+06,1.452,1.6574,2.3229,1
1.6218,0.83492,3.4607,0.015085,3.4456,0.00037025,0.089532,-8.7826e-05,0.040648,1.0023,1.6218,3.3263,1.8238,1.6181,1.8196,0.43809,2.6444,0.85099,1.0264,1.0096,1.4862,1
3.3004,3.8071,15.87,-0.038022,15.908,0.011136,0.14683,-0.00039685,0.043746,1.0088,3.3005,25.363,5.0361,3.2716,4.992,2.2353,6.8358,15991,13.447,17.351,23.155,1
17.742,12.412,58.267,-0.022493,58.289,0.0023095,1.0086,-0.0055285,0.36025,1.2996,17.742,468.59,21.647,13.652,16.657,0.92432,3.579,2.3488e+06,0.11417,0.73327,0.65522,1
10.114,9.2456,35.414,-0.75402,36.168,0.017767,0.71879,-0.0045808,0.3654,1.195,10.119,187.63,13.698,8.4678,11.463,0.8947,2.4711,2.9429e+05,24.444,36.487,43.543,1
13.108,11.965,51.032,-0.26733,51.3,-0.016776,0.88191,0.00398,0.39151,1.2509,13.109,314.74,17.741,10.48,14.182,1.5662,4.6286,2.8321e+06,0.24773,0.56674,0.4563,1
5.9262,3.2184,16.072,1.1369e-13,16.072,0.0054346,0.37905,-0.0022895,0.13295,1.0625,5.9262,45.46,6.7424,5.5775,6.3457,0.83572,3.3848,2056.7,1.0626,1.0504,2.1744,1
4.8462,5.2433,27.289,-0.0069543,27.296,-0.0023686,0.66045,0.00046061,0.29518,1.1035,4.8462,50.932,7.1367,4.3918,6.4676,2.3616,7.8915,1.0306e+05,0.26342,0.61746,0.6692,1
5.4303,4.1404,18.885,0.0021375,18.883,-0.0022916,0.34301,2.0693e-05,0.13105,1.0508,5.4303,46.603,6.8266,5.1676,6.4963,1.3528,4.3893,13312,0.26173,0.44145,1.9653,1
16.624,19.9,81.021,-0.45706,81.478,-0.0025669,0.6983,0.00016631,0.069518,1.1549,16.643,671.68,25.917,14.41,22.44,1.7335,5.2904,4.4861e+07,0.026977,0.014785,0.017839,1
3.5162,3.3868,20.782,0.086204,20.696,0.03246,0.35959,0.0052891,0.059618,1.0437,3.5162,23.815,4.8801,3.3688,4.6755,1.7767,6.3797,9739.6,1.7848,0.17767,0.41471,1
11.067,15.777,60.011,2.1896e-06,60.011,-0.033056,0.6907,-0.0057889,0.08764,1.1411,11.067,370.97,19.261,9.6987,16.879,1.6699,4.5777,1.1479e+07,0.3163,0.50605,0.61902,1
16.531,20.299,80.619,-0.3428,80.961,-0.018245,0.65132,-0.0011557,0.096443,1.1529,16.535,684.62,26.165,14.342,22.696,1.9486,5.8485,5.6395e+07,0.72563,1.1141,1.5655,1
17.929,18.624,64.955,-0.64071,65.596,0.061535,0.73779,-0.0015525,0.12847,1.1914,17.946,667.72,25.84,15.063,21.689,0.91544,2.5679,1.0153e+07,261.26,286.44,310.69,1
13.541,12.967,50.334,0.50046,49.833,-0.045981,0.59955,0.0016036,0.11493,1.1409,13.541,351.22,18.741,11.869,16.427,1.2939,3.7669,3.1989e+06,19.268,22.788,31.648,1
68.758,40.121,167.8,1.7079,166.09,0.099587,4.9347,0.0052506,2.0449,3.5296,68.758,6334.6,79.59,19.48,22.549,0.091417,2.0441,1.1133e+08,761.93,932.01,839.38,1
36.793,51.273,301.65,-0.010112,301.66,0.029459,4.8099,-0.0043931,1.7647,2.6764,36.793,3978.2,63.073,13.747,23.567,3.3325,14.101,2.1468e+10,30.257,52.306,60.779,1
37.893,17.804,99.677,-0.053195,99.73,0.033409,6.52,0.0026274,3.5893,5.4528,37.893,1752.3,41.861,6.9492,7.6768,0.50606,3.2348,8.5617e+06,114.57,113.06,128.26,1
20.938,8.9013,47.348,0.46753,46.88,-0.045048,2.8163,0.0033122,1.6289,2.5449,20.938,517.5,22.749,8.2274,8.9388,-0.13867,2.5533,-8216,25.556,13.71,37.463,1
6.7382,6.3057,27.559,0.22922,27.33,-0.032572,0.24812,-0.0021742,0.068238,1.0268,6.7382,85.099,9.2249,6.5621,8.9838,1.2428,3.8297,95519,0.81671,0.5239,0.78169,1
2.0798,1.1327,4.9904,0.00097525,4.9894,-0.001427,0.11474,9.763e-05,0.04676,1.0048,2.0798,5.6063,2.3678,2.0698,2.3564,0.2936,2.2986,3.7096,0.32476,0.69026,0.9278,1
1.6675,0.88139,4.5878,-6.6102e-05,4.5879,-0.0032596,0.077453,-0.00025746,0.032009,1.0013,1.6675,3.5562,1.8858,1.6653,1.8833,0.76132,4.0039,4.2584,0.025497,0.018706,0.024582,1
19.669,19.407,70.063,-0.067106,70.13,0.0018857,0.80845,0.0010744,0.10467,1.2092,19.669,762.85,27.62,16.266,22.841,1.084,2.8952,1.5157e+07,3.0782,2.0682,3.5047,1
23.258,20.144,74.623,0.00054059,74.623,0.022683,0.88581,-0.0029617,0.1391,1.2415,23.258,946.02,30.757,18.734,24.775,0.84936,2.5327,1.4542e+07,101.41,163.9,259.26,1
11.636,9.1918,33.775,-0.00063954,33.776,0.024997,0.66339,-0.0052093,0.17555,1.16,11.636,219.75,14.824,10.031,12.779,0.83356,2.5357,2.7578e+05,24.926,33.398,33.863,1
6.6399,5.3849,26.094,-0.17485,26.269,-0.022521,0.40305,0.00036698,0.10669,1.0651,6.6415,73.036,8.5461,6.2357,8.0239,1.2386,4.3074,52125,0.43101,0.73826,0.71413,1
9.5508,8.2365,31.908,0.091804,31.816,0.00020263,0.50293,5.6349e-05,0.18533,1.1047,9.5508,158.94,12.607,8.6454,11.412,0.99425,2.8357,1.9794e+05,0.036736,0.23523,0.22238,1
59.788,44.821,187.59,4.5475e-13,187.59,0.060415,4.0502,-0.021023,0.92042,3.2774,59.788,5580.1,74.7,18.243,22.793,0.84143,3.0529,1.0572e+09,243.54,470.44,804.57,1
8.3411,8.3047,45.037,0.0019261,45.035,-0.0081323,0.83781,-0.0020921,0.29534,1.2034,8.3411,138.43,11.766,6.9312,9.7768,2.3781,9.5308,1.4321e+06,0.089833,0.44084,1.2292,1
3.1033,1.6537,8.0159,0.053966,7.962,0.0059573,0.28004,-0.00072305,0.12702,1.0343,3.1033,12.361,3.5158,3.0004,3.3992,0.62827,2.68,47.04,4.4351,5.4451,6.5008,1
5.1273,4.0759,15.208,0.029866,15.178,0.0036738,0.33473,0.00040882,0.1063,1.0491,5.1273,42.875,6.5479,4.8874,6.2414,0.93911,2.9825,6128.3,3.2379,1.7604,3.6485,1
2.4325,1.4991,7.3177,-0.00016172,7.3178,-0.0098867,0.29809,-6.2616e-05,0.13111,1.0394,2.4325,8.1608,2.8567,2.3404,2.7485,1.0648,4.0107,68.492,0.19488,0.25666,0.8551,1
8.1433,7.158,33.459,0.0014261,33.457,-0.013454,0.55307,0.007177,0.23207,1.1161,8.1433,117.47,10.838,7.2961,9.7106,1.3407,4.3379,2.0962e+05,0.16058,0.00094899,0.076109,1
4.1786,4.7433,20.365,0.079753,20.285,0.0018766,0.36471,-0.00087958,0.16131,1.0573,4.1786,39.922,6.3184,3.952,5.9757,2.0388,6.3998,45191,3.4398,3.7072,4.3033,1
6.546,4.9921,23.738,-0.023338,23.761,-0.0020722,0.38992,0.0015419,0.14597,1.0658,6.5462,67.73,8.2298,6.1418,7.7214,1.0444,3.9688,28957,0.30222,1.0951,2.924,1
6.895,3.5077,18.177,0.062569,18.115,0.002993,0.51493,-0.0021622,0.20221,1.11,6.895,59.824,7.7346,6.2117,6.9682,0.22944,2.8853,1437.2,7.3034,9.8296,14.655,1
16.876,12.425,51.897,0.35909,51.538,-0.0056554,0.84148,0.0011768,0.16973,1.2445,16.876,438.93,20.951,13.56,16.834,1.0516,3.2197,1.8821e+06,137.2,172.31,215.18,1
13.339,11.52,50.396,0.47162,49.924,-0.029524,0.73536,-0.00088346,0.13846,1.1716,13.339,310.4,17.618,11.385,15.038,1.3841,4.2938,2.1757e+06,47.301,40.064,13.917,1
36.507,37.215,149.75,-0.16229,149.91,0.024798,1.3144,-0.0007909,0.19498,1.4439,36.509,2715.4,52.11,25.284,36.089,1.6034,4.757,8.5141e+08,201.22,339.42,662.3,1
1.6864,2.091,8.4204,0.013751,8.4066,-0.001988,0.076186,0.0002556,0.023564,1.0012,1.6864,7.2087,2.6849,1.6843,2.6816,1.9654,5.7223,635.41,0.072489,0.12808,0.075808,1
19.869,25.287,105.67,5.6843e-14,105.67,0.007319,1.2252,-0.0018849,0.21931,1.3162,19.869,1033.2,32.143,15.096,24.421,1.8886,5.8608,1.7692e+08,1.2971,2.1429,4.7066,1
9.4238,8.3208,33.19,-0.17618,33.367,0.021561,0.39974,0.0027641,0.079533,1.0622,9.4263,157.93,12.567,8.8745,11.831,1.0234,3.0963,2.5543e+05,0.98207,0.39079,0.92178,1
4.9972,4.8354,21.94,0.20774,21.733,-0.02073,0.21991,-0.0018843,0.048866,1.0212,4.9972,48.314,6.9508,4.8935,6.8067,1.6259,4.9607,35931,2.54,1.4158,1.3176,1
2.6618,2.5035,12.26,0.12623,12.134,0.012295,0.088622,-5.1725e-05,0.02967,1.0023,2.6618,13.342,3.6527,2.6557,3.6443,1.953,7.0615,2319.1,18.778,16.141,12.987,1
16.829,14.828,63.964,-0.20744,64.171,-0.0032955,0.9713,6.3154e-05,0.22853,1.3028,16.831,502.73,22.422,12.919,17.211,1.2541,3.9868,6.7568e+06,11.58,14.963,5.7644,1
16.485,12.146,52.828,-0.41804,53.246,-0.0093382,1.0912,-0.0001274,0.34008,1.3525,16.488,419.03,20.47,12.19,15.135,0.95336,3.2369,1.7487e+06,6.6304,4.5946,3.8122,1
20.657,25.302,97.397,0.17025,97.227,-0.019319,1.0178,-0.0038964,0.31924,1.3147,20.657,1065.9,32.647,15.713,24.833,1.8962,5.4661,1.5123e+08,26.848,51.424,81.644,1
9.9936,14.119,59.239,-5.6843e-14,59.239,-0.00041763,0.53674,0.0015939,0.069986,1.1057,9.9936,298.87,17.288,9.0386,15.636,2.354,7.4616,1.2887e+07,4.1126,2.779,2.4986,1
19.106,11.145,55.321,0.17211,55.149,-0.016276,1.211,-0.0011508,0.52645,1.4633,19.106,489.04,22.114,13.057,15.113,0.9426,4.2399,1.5317e+06,14.645,1.4115,1.2283,1
5.0959,2.8062,15.745,0.077966,15.667,-0.0097785,0.61998,-0.00090724,0.31212,1.1593,5.0959,33.83,5.8164,4.3955,5.017,0.78301,3.6729,1422.8,3.9011,5.2667,3.7451,1
20.104,21.387,81.742,-0.016154,81.758,0.0047645,1.1923,-0.0025058,0.29901,1.4224,20.104,860.83,29.34,14.134,20.627,1.2771,3.6169,3.6736e+07,7.2358,1.79,7.2524,1
20.72,11.482,48.732,-0.2626,48.994,0.016576,1.6532,0.00090604,0.60957,1.6182,20.721,560.94,23.684,12.806,14.636,0.26692,2.0221,2.7179e+05,63.636,75.336,112.88,1
11.24,11.819,58.157,-0.96525,59.122,-0.028695,0.8757,-0.0023639,0.32667,1.2642,11.247,265.78,16.303,8.8961,12.895,1.9331,6.2698,4.4893e+06,1.1865,0.87759,2.6935,1
7.0888,12.128,54.537,0.025995,54.511,-0.0013704,0.60276,-0.00059309,0.10417,1.0945,7.0888,197.09,14.039,6.4769,12.827,2.5619,8.6398,7.6914e+06,0.89741,0.98452,1.1739,1
1.4402,0.76889,3.45,0.048443,3.4015,-0.0033734,0.098585,0.00016502,0.046575,1.0031,1.4402,2.6643,1.6323,1.4356,1.6271,0.40475,2.2884,0.60601,0.016343,0.016968,0.090357,1
1.9757,1.2592,5.7266,-0.020078,5.7467,0.00017923,0.085857,0.00010801,0.031988,1.002,1.9758,5.4863,2.3423,1.9719,2.3377,0.83982,3.5973,21.996,0.099717,0.14417,0.20503,1
9.0139,7.0862,33.265,-0.096543,33.361,-0.0055617,0.7236,-0.0025159,0.26934,1.1956,9.0142,131.38,11.462,7.5398,9.5873,1.4233,5.106,2.4754e+05,8.2369,13.872,13.008,1
14.947,13.626,59.983,0.049871,59.933,0.01663,1.5045,-0.00031295,0.52206,1.5399,14.947,408.76,20.218,9.7065,13.129,1.5568,4.5168,5.4186e+06,11.308,25.024,45.51,1
21.44,18.011,81.173,0.11927,81.054,0.015799,2.3305,0.0017154,0.88523,1.9319,21.44,783.51,27.991,11.098,14.489,1.1908,3.6456,1.5868e+07,192.31,420.52,648.06,1
18.79,15.713,57.421,-0.0093319,57.431,0.019691,1.4468,-0.0041425,0.54825,1.543,18.79,599.55,24.486,12.177,15.868,1.1161,2.9739,5.363e+06,19.514,18.638,20.594,1
12.826,10.776,51.836,-0.052972,51.889,-0.010754,1.2989,0.0023229,0.47935,1.5034,12.826,280.45,16.747,8.5317,11.139,1.4369,4.942,2.0504e+06,0.95168,1.8509,2.0517,1
29.751,23.406,98.674,0.63427,98.04,0.0017294,1.6753,-0.00048855,0.60143,1.6642,29.751,1432.1,37.843,17.877,22.74,1.0369,3.4025,4.8256e+07,1.5654,1.9469,2.7921,1
22.081,14.645,57.51,0.0087716,57.501,0.032233,0.86922,0.00013519,0.15259,1.243,22.081,701.66,26.489,17.764,21.31,0.42942,2.4936,1.8222e+06,45.847,46.121,41.246,1
22.195,27.754,132.41,0.0010372,132.41,0.019046,1.5085,0.00030101,0.26194,1.5717,22.195,1261.6,35.519,14.122,22.599,2.0903,7.1258,3.8791e+08,13.931,3.7576,9.2748,1
14.854,11.448,53.43,-0.018497,53.448,-0.0020845,1.1288,-0.00022446,0.23247,1.379,14.854,351.48,18.748,10.771,13.595,1.1702,4.0516,1.9397e+06,49.86,100.2,147.67,1
15.678,11.799,62.037,0.002437,62.035,-0.00058128,1.0637,0.0010259,0.2156,1.3568,15.678,384.79,19.616,11.555,14.458,1.4946,5.6743,4.0121e+06,31.845,56.701,69.432,1
25.932,23.927,122.38,-0.40114,122.78,0.020275,1.4132,0.0047211,0.31622,1.503,25.935,1244,35.27,17.256,23.467,1.941,7.2852,1.9119e+08,100.43,87.689,86.5,1
35.244,18.512,71.144,0,71.144,0.023065,9.6014,-0.0089791,5.4381,8.4722,35.244,1584.2,39.802,4.1599,4.698,0.19058,1.9046,1.4826e+06,134.62,569.37,96.746,1
35.581,19.919,73.718,1.1297,72.588,-0.0016713,10.945,-0.0029098,6.1113,9.9191,35.581,1662.1,40.769,3.5872,4.1102,0.022834,1.6044,3.6406e+05,178.4,509.84,177.14,1
35.608,17.817,69.191,3.9754,65.216,0.018933,9.8151,0.041738,5.4969,8.8157,35.608,1584.8,39.81,4.0392,4.5158,0.010893,1.7071,1.5571e+05,339.52,106.14,322.48,1
31.412,16.041,59.934,0.93797,58.996,-0.057418,8.7143,-0.001716,4.9418,7.9242,31.412,1243.6,35.265,3.9641,4.4503,0.034322,1.6876,1.1715e+05,199.94,125.58,180.6,1
4.1406,4.9767,16.98,0.046305,16.933,-0.0068806,0.19808,0.0004006,0.061642,1.0163,4.1406,41.871,6.4708,4.0743,6.3672,1.4911,3.6865,24236,0.39509,0.70074,0.98956,1
0.57247,0.28288,1.4337,0.0032882,1.4304,-0.00056278,0.086825,0.00026846,0.044965,1.0021,0.57247,0.40761,0.63845,0.57129,0.63713,0.6453,2.9378,0.0077708,0.095107,0.018437,0.046455,1
4.3128,9.7022,46.367,-0.002992,46.37,0.076706,0.29475,0.00031168,0.058027,1.0354,4.3128,112.58,10.61,4.1653,10.247,3.2359,12.716,4.3101e+06,247.12,250.09,230.12,1
13.196,7.9986,38.068,1.7053e-13,38.068,0.02343,1.134,-0.016948,0.51717,1.3401,13.196,238.01,15.427,9.847,11.512,1.0905,3.8869,2.8099e+05,42.998,55.858,38.986,1
10.916,7.8136,29.059,-0.47436,29.534,-0.021282,0.63354,-0.00030869,0.23559,1.1565,10.921,180.12,13.421,9.443,11.605,0.69328,2.2876,91057,1.0745,1.5402,4.1031,1
7.5822,4.634,24.735,-0.0005855,24.735,0.01077,0.66424,-0.00089021,0.28387,1.171,7.5822,78.928,8.8842,6.4752,7.5871,0.62186,3.3884,14277,12.152,14.644,16.588,1
14.926,7.1573,36.246,5.6843e-14,36.246,0.019817,1.7196,0.00025135,0.87817,1.8036,14.926,273.94,16.551,8.2759,9.1767,0.5828,3.1551,80639,21.816,7.8766,17.017,1
10.952,4.4998,27.211,0.0014629,27.21,-0.002687,1.4536,-0.0046953,0.77373,1.672,10.952,140.17,11.839,6.5506,7.081,0.56729,3.6817,10477,16.201,23.763,13.275,1
9.5912,6.451,27.22,-1.1369e-13,27.22,-0.0095695,0.7491,0.006004,0.38304,1.2115,9.5912,133.54,11.556,7.9167,9.5384,0.56185,2.5291,40062,3.2805,2.488,0.53324,1
10.878,9.9468,45.157,0.0024343,45.154,0.00022014,0.66543,-0.00036632,0.24154,1.161,10.878,217.1,14.734,9.3693,12.691,1.6196,5.4747,1.5615e+06,2.8527,3.7435,3.5528,1
