9.9826,13.945,69.05,0.0096855,69.04,-0.0015423,0.67423,0.00054533,0.14542,1.1462,9.9826,293.86,17.142,8.7094,14.956,2.3655,7.9765,1.4512e+07,17.073,6.9571,0.88468,1
16.824,14.832,44.475,1.7279e-05,44.475,0.0036191,0.76347,0.00117,0.14501,1.2011,16.824,502.73,22.422,14.006,18.667,0.67816,1.8211,1.6422e+06,8.9981,4.3974,3.1488,1
44.518,45.792,215.9,-2.2737e-13,215.9,-0.073166,3.9107,0.010764,1.202,2.9859,44.518,4075.9,63.843,14.909,21.382,1.7927,5.7252,3.3702e+09,172.29,29.149,23.743,1
100.17,102.6,475.35,-0.65421,476,0.0030671,5.4498,-0.0072075,1.4504,4.1929,100.17,20546,143.34,23.892,34.186,2.1395,7.147,2.5125e+11,744.62,669.81,621.46,1
34.26,28.522,122.43,0.10253,122.33,-0.037749,2.7652,0.0041474,0.82375,2.306,34.26,1986.2,44.567,14.857,19.326,1.1764,3.4564,1.4043e+08,18.955,24.101,17.215,1
43.141,30.876,109.04,-3.7776e-07,109.04,0.032509,1.5803,-0.008271,0.40955,1.6705,43.141,2813.2,53.04,25.826,31.751,0.44239,1.9907,5.4249e+07,168.35,212.05,277.44,1
15.729,9.515,45.883,-1.4663,47.349,-0.013718,0.98748,0.0030333,0.40354,1.3436,15.752,337.81,18.38,11.724,13.679,0.78059,3.2346,4.3358e+05,38.022,23.449,29.665,1
24.88,17.542,72.068,0.018938,72.049,-0.0013023,1.2387,0.0015631,0.4742,1.4802,24.88,926.34,30.436,16.808,20.561,0.67645,2.2107,5.1565e+06,26.991,34.842,57.111,1
44.462,36.12,157.54,-0.5497,158.09,-0.045264,1.8116,-0.0006096,0.27104,1.7187,44.465,3279.9,57.27,25.872,33.322,1.0278,3.6591,4.9696e+08,45.5,23.893,20.347,1
6.597,5.6378,22.948,-0.097173,23.045,-0.02499,0.24648,-0.00024434,0.053729,1.0262,6.5976,75.263,8.6754,6.4289,8.4535,1.2482,3.911,49041,0.066992,0.076995,0.21885,1
17.477,22.207,81.848,-0.15272,82.001,0.00045567,0.82842,-0.00036562,0.12427,1.213,17.478,797.94,28.248,14.409,23.289,1.5996,4.2213,5.4652e+07,2.4033,2.1996,1.5463,1
7.1645,6.6506,25.262,-0.5693,25.831,-0.0022376,0.30349,0.00023055,0.085366,1.04,7.1837,95.502,9.7725,6.9074,9.3966,1.1699,3.269,86275,0.88034,0.68754,0.76372,1
88.701,65.508,279.49,0.01229,279.48,0.00045303,6.5109,0.015425,2.3951,4.9981,88.701,12153,110.24,17.747,22.057,0.81078,2.7357,5.7931e+09,557.85,929.81,1185.2,1
57.887,61.982,356.07,0,356.07,0.071772,5.6734,0.022572,1.8263,4.4247,57.887,7187.6,84.78,13.083,19.16,2.3186,9.0641,3.3005e+10,62.738,23.982,5.7462,1
64.117,49.041,240.92,0,240.92,-0.094936,6.4074,-0.027567,2.3192,5.2408,64.117,6512.9,80.702,12.234,15.399,1.2895,4.3816,3.1463e+09,210.08,3.445,29.981,1
1.8649,1.5638,6.9957,0.0021734,6.9935,0.00085403,0.093278,-3.3065e-05,0.029218,1.003,1.8649,5.92,2.4331,1.8594,2.4259,1.1797,3.6657,76.906,0.073922,0.14549,0.3847,1
28.573,27.35,135.31,-2.2737e-13,135.31,0.011095,2.2804,-0.0042173,0.77908,2.0711,28.573,1563.4,39.54,13.796,19.091,1.7844,6.0062,2.8664e+08,30.52,30.441,8.4092,1
17.363,12.827,71.635,0.13031,71.505,0.032207,1.8253,0.0046225,0.77595,1.7983,17.363,465.78,21.582,9.655,12.001,1.2067,4.5172,4.4414e+06,635.56,471.26,410.63,1
0.59881,0.88948,4.5772,-1.9841e-05,4.5772,0.00043179,0.060381,-9.8051e-06,0.018317,1.0005,0.59881,1.1487,1.0718,0.59853,1.0713,2.7474,10.936,24.076,0.03805,0.042102,0.055433,1
15.263,13.649,57.145,2.2737e-13,57.145,-0.011313,1.2852,0.0030308,0.50368,1.4778,15.263,419.01,20.47,10.328,13.852,1.2263,3.4032,3.4988e+06,10.367,1.561,5.2511,1
21.887,20.732,87.593,0.09898,87.494,-0.020677,1.0126,0.00022863,0.29602,1.3249,21.887,908.31,30.138,16.519,22.747,1.2794,3.9855,3.7729e+07,2.8235,5.0296,2.1049,1
10.567,7.0588,33.482,0.00098899,33.481,0.012267,0.60012,0.0018144,0.23006,1.144,10.567,161.43,12.706,9.2376,11.107,1.2579,4.6224,1.9762e+05,21.184,14.152,9.9352,1
56.583,32.899,192.94,-0.6504,193.59,-0.029424,5.041,-0.015824,1.9672,4.1938,56.586,4282.5,65.441,13.493,15.604,1.099,4.6064,4.9069e+08,167.88,147.17,389.64,1
47.864,60.076,262.57,0,262.57,-0.039277,3.2141,0.0043316,0.59041,2.3747,47.864,5895.4,76.782,20.156,32.333,1.9253,6.0308,1.4032e+10,8.1416,25.138,79.792,1
42.088,45.539,163.06,-0.35149,163.41,0.066476,2.1234,-0.0051426,0.33437,1.8664,42.089,3842.5,61.987,22.551,33.212,1.2255,3.2526,1.3287e+09,684.27,724.16,1396.7,1
7.5719,9.4345,39.47,-0.075871,39.545,-0.0050884,0.27162,0.00064791,0.051141,1.0318,7.5722,146.23,12.092,7.3387,11.72,1.9214,5.7899,1.2398e+06,0.1313,0.39391,0.65322,1
12.348,17.283,85.295,0.08212,85.213,-0.082229,0.54867,0.0010217,0.13264,1.1102,12.348,450.79,21.232,11.122,19.125,2.6968,9.7568,5.4869e+07,0.45748,1.562,4.8301,1
28.687,26.955,100.18,-0.084666,100.26,0.0058977,1.7129,-0.004924,0.30597,1.6271,28.688,1548.6,39.352,17.631,24.185,1.1798,3.3052,9.6949e+07,63.109,88.997,170.4,1
54.158,38.459,142.88,-0.058764,142.94,-0.0031669,2.2799,8.4749e-05,0.36949,2.0993,54.159,4410.2,66.41,25.798,31.634,0.46863,2.1543,2.0611e+08,309.5,550.29,1115.3,1
23.6,33.643,143.02,-0.22587,143.24,-0.0016333,1.3537,-0.00022551,0.18016,1.4743,23.602,1687.3,41.077,16.009,27.862,1.9313,6.0047,7.7832e+08,56.524,66.132,74.018,1
6.0669,6.7798,29.246,0.080216,29.166,-0.0032615,0.30257,1.7543e-05,0.046191,1.0355,6.0669,82.712,9.0946,5.8591,8.7832,1.8304,5.9579,2.5354e+05,0.14219,0.24131,0.18594,1
3.7805,4.3529,18.954,0.0030567,18.951,-0.00094327,0.157,0.00010697,0.033112,1.0106,3.7805,33.215,5.7632,3.7407,5.7026,1.6182,4.8857,21207,0.0060554,0.08065,0.25991,1
11.859,7.9055,31.995,0.0026422,31.992,0.0089467,0.75497,-0.00061778,0.30503,1.2186,11.859,203.04,14.249,9.7312,11.693,0.65119,2.5377,1.1358e+05,2.9722,7.7815,5.6842,1
13.29,12.68,65.126,-0.020721,65.146,0.00061267,0.70679,3.311e-05,0.10324,1.1691,13.29,337.19,18.363,11.368,15.707,1.8796,7.0188,7.8262e+06,0.95111,1.4913,1.816,1
9.3178,16.562,79.436,-0.048079,79.484,-0.00073165,0.72082,0.00016885,0.087527,1.1502,9.3181,360.76,18.994,8.1013,16.514,2.5821,9.3835,4.3149e+07,0.84969,0.94089,1.2795,1
13.669,8.8011,40.851,0.044698,40.806,0.0027915,1.012,0.0028176,0.41868,1.3487,13.669,264.2,16.254,10.135,12.052,1.0672,3.5395,4.0059e+05,26.036,36.802,91.724,1
20.538,13.482,55.815,-0.0025015,55.817,-0.025453,1.1663,-0.0028298,0.40773,1.4427,20.538,603.34,24.563,14.236,17.026,0.7167,2.6582,1.853e+06,34.705,87.608,180.44,1
14.746,7.6403,42.413,0.08824,42.325,0.0084336,1.0129,-0.00042895,0.41653,1.3516,14.746,275.74,16.605,10.91,12.286,0.52288,3.8713,1.9471e+05,71.851,59.892,96.856,1
18.276,17.471,60.464,0.084165,60.38,0.041705,0.79454,0.00011412,0.10741,1.2106,18.276,638.86,25.276,15.097,20.879,0.92233,2.5706,7.3915e+06,330.14,360.9,489.75,1
16.65,14.07,48.317,-0.53395,48.851,-0.031242,0.67729,0.0020328,0.087962,1.1793,16.66,474.92,21.793,14.128,18.48,0.66507,2.0703,1.5365e+06,6.3072,4.5531,5.0703,1
13.824,10.219,41.916,-1.0422,42.958,0.014105,0.57535,-0.0012244,0.10797,1.1302,13.841,295.4,17.187,12.247,15.208,0.94231,3.0872,6.2198e+05,37.4,55.829,93.562,1
9.4734,10.227,47.881,-0.098785,47.979,-4.014e-06,0.45675,0.00034936,0.091465,1.0842,9.4739,194.21,13.936,8.738,12.853,1.9304,6.5395,2.273e+06,17.38,9.2098,10.178,1
12.292,12.573,57.224,-0.63578,57.859,-0.00256,0.66807,-0.00013687,0.1135,1.1542,12.304,308.95,17.577,10.66,15.229,1.7342,5.623,5.0725e+06,34.815,41.468,25.63,1
9.5458,6.6897,25.343,-0.01417,25.357,0.0062493,0.48471,0.00010369,0.13058,1.0981,9.5458,135.81,11.654,8.6928,10.613,0.53209,2.2896,35539,7.7539,8.3481,8.1631,1
8.0405,5.7439,33.044,-0.091035,33.135,0.0031122,0.36241,0.00099743,0.067909,1.0527,8.0409,97.598,9.8792,7.6385,9.3848,1.5734,7.0196,1.5477e+05,8.3693,1.1817,0.32957,1
5.2845,2.9966,12.757,-0.2913,13.049,-0.012371,0.16941,0.00012534,0.036967,1.0125,5.2892,36.894,6.074,5.224,5.9991,0.12342,2.2188,232.39,1.558,2.0343,2.8041,1
5.1882,3.0618,14.12,-0.005655,14.125,0.0023532,0.1955,-0.00026748,0.043317,1.0169,5.1882,36.28,6.0233,5.1018,5.9229,0.67011,3.2817,1455.4,3.1661,1.2361,2.2268,1
12.999,15.246,74.279,0.17544,74.104,0.0017665,0.95859,-0.00049573,0.26427,1.2777,12.999,401.12,20.028,10.174,15.675,2.3694,8.3728,2.3681e+07,44.892,5.8901,1.0282,1
25.76,32.02,136.58,0.072922,136.51,-0.0041822,1.2987,9.768e-05,0.26888,1.4425,25.76,1687.5,41.079,17.858,28.479,2.2621,7.2889,7.5576e+08,31.584,18.894,16.782,1
7.0342,6.799,30.703,0.037046,30.666,0.0026765,0.29386,-3.8283e-05,0.058294,1.0315,7.0342,95.645,9.7799,6.8195,9.4814,1.9462,6.1861,2.6329e+05,2.3015,1.7108,1.9098,1
10.34,8.8441,32.35,-0.00013191,32.35,0.007807,0.45996,-0.00066678,0.12974,1.0902,10.34,185.04,13.603,9.485,12.478,0.87582,2.5798,2.4333e+05,31.845,31.229,42.744,1
2.2241,4.0396,20.323,0.0016036,20.321,0.016493,0.15577,-0.00025505,0.027821,1.01,2.2241,21.243,4.609,2.2021,4.5635,3.4094,13.667,59014,45.58,53.676,64.612,1
2.7209,2.9972,13.207,-0.016636,13.223,-0.016931,0.1421,0.00043343,0.032545,1.0084,2.7209,16.374,4.0465,2.6983,4.0128,1.7636,5.1143,3297.1,0.21614,0.1848,0.03887,1
16.506,30.684,130.97,-0.14753,131.12,-0.049221,1.1006,0.0013058,0.16897,1.306,16.507,1212.7,34.824,12.639,26.664,2.6679,9.1117,8.3946e+08,0.47531,0.52446,0.6185,1
15.368,17.509,75.248,0.061909,75.186,0.0091478,0.69088,0.0015987,0.11514,1.1452,15.368,542.34,23.288,13.419,20.336,1.669,5.1224,2.3522e+07,30.486,25.812,14.745,1
6.05,4.6732,20.381,0.10314,20.278,-0.0066702,0.193,-0.0016177,0.048491,1.0165,6.05,58.413,7.6428,5.9515,7.5184,1.406,4.1531,21070,31.769,36.705,46.069,1
3.1799,2.9845,11.577,-0.025344,11.602,0.0031628,0.15277,-3.4001e-05,0.044083,1.01,3.18,19.007,4.3597,3.1484,4.3164,1.1478,3.266,1665.5,0.99973,0.38785,0.11257,1
21.341,22.182,113.88,0.17386,113.7,-0.04835,1.4381,-0.0022794,0.3996,1.4743,21.341,946.82,30.77,14.475,20.87,1.9664,7.145,1.3126e+08,16.971,4.9778,0.090513,1
9.9624,11.302,46.721,0.011849,46.709,0.016657,0.68451,0.001617,0.25183,1.1811,9.9624,226.82,15.06,8.4345,12.751,1.6561,4.9543,2.5064e+06,100.67,85.915,114.51,1
16.581,12.782,62.295,0.0067507,62.289,-0.028695,0.88314,0.00022375,0.28225,1.274,16.581,438.09,20.931,13.015,16.43,1.3702,4.82,4.4726e+06,4.3415,5.9814,1.8604,1
2.6797,2.3621,9.5816,0.0070831,9.5745,0.0082854,0.10863,0.00012542,0.036054,1.0045,2.6797,12.753,3.5711,2.6676,3.555,1.1162,3.2507,504.38,14.378,11.886,9.548,1
1.4558,1.7455,9.224,-0.00040987,9.2244,-0.0090956,0.06991,0.00011684,0.029411,1.0012,1.4558,5.1621,2.272,1.4542,2.2694,2.8907,11.248,705.98,0.26863,0.038639,0.027105,1
12.283,11.77,50.727,-0.0011471,50.728,-0.064423,0.62256,0.0028089,0.16683,1.1431,12.283,289.23,17.007,10.746,14.878,1.5059,4.1287,2.1823e+06,0.38846,2.3497,4.55,1
16.798,14.369,57.93,-0.00047451,57.93,0.010631,0.97552,0.00016644,0.2505,1.2789,16.798,488.35,22.099,13.135,17.28,1.1741,3.3073,4.382e+06,2.9624,10.504,12.982,1
17.099,14.944,57.429,0.038579,57.39,-0.002707,0.83935,-0.0012802,0.18081,1.2272,17.099,515.4,22.702,13.933,18.5,1.1006,3.1397,4.56e+06,18.578,14.322,19.23,1
8.3097,9.2237,44.793,0.14614,44.647,-0.0087594,0.57099,-0.00030855,0.1367,1.119,8.3097,154.02,12.41,7.4263,11.091,2.2891,7.7226,1.71e+06,0.5352,2.1887,1.6278,1
22.465,24.61,97.392,1.1369e-13,97.392,0.010726,1.2307,-0.00059869,0.23411,1.3652,22.465,1109.5,33.309,16.456,24.4,1.3533,4.1076,9.1678e+07,15.824,16.672,20.445,1
6.6463,5.286,23.592,-0.0041901,23.596,-0.0083193,0.40507,0.00082767,0.13306,1.0687,6.6463,72.079,8.4899,6.2188,7.9438,1.3198,4.0849,40212,0.346,0.72206,0.37547,1
36.051,26.389,106.98,0.090234,106.89,-0.024909,1.8553,-0.0023946,0.35816,1.8495,36.051,1995.1,44.667,19.492,24.151,0.788,2.73,5.6524e+07,24.545,42.406,130.92,1
31.718,32.967,146.45,0,146.45,0.0099344,1.5256,-0.0019649,0.23839,1.5521,31.718,2091.4,45.732,20.436,29.465,1.7054,5.6421,6.3928e+08,11.057,7.9031,10.769,1
19.483,20.11,90.759,0.0069335,90.752,0.025301,1.1115,-0.00012457,0.20506,1.2995,19.483,783.45,27.99,14.993,21.54,1.7962,6.1733,6.2816e+07,105.56,61.204,89.275,1
17.116,15.845,68.367,0.20074,68.166,-0.00076784,0.92055,-0.0015293,0.15668,1.2381,17.116,543.71,23.318,13.825,18.834,1.3578,4.4745,1.1479e+07,0.29101,0.18754,0.23413,1
11.035,11.075,54.824,-0.06566,54.89,0.002399,0.50466,0.0001963,0.098422,1.0937,11.035,244.25,15.628,10.089,14.289,2.0161,7.1925,3.9144e+06,3.1332,4.7389,7.8676,1
17.116,15.845,68.367,0.20074,68.166,-0.00076784,0.92055,-0.0015293,0.15668,1.2381,17.116,543.71,23.318,13.825,18.834,1.3578,4.4745,1.1479e+07,0.29101,0.18754,0.23413,1
11.035,11.075,54.824,-0.06566,54.89,0.002399,0.50466,0.0001963,0.098422,1.0937,11.035,244.25,15.628,10.089,14.289,2.0161,7.1925,3.9144e+06,3.1332,4.7389,7.8676,1
16.005,18.857,91.379,0.002462,91.376,-0.022964,0.94177,-0.0019434,0.16283,1.2556,16.005,611.3,24.724,12.747,19.692,2.2506,8.1879,6.785e+07,6.5463,9.0617,10.989,1
42.636,27.626,179.73,5.8037e-06,179.73,-0.014667,5.258,0.012479,2.2464,3.8742,42.636,2580.1,50.794,11.005,13.111,1.5205,6.584,3.696e+08,158.9,595.8,235.84,1
22.963,16.78,77.384,0.41308,76.971,-0.0029708,0.80102,-0.00029037,0.14048,1.232,22.963,808.49,28.434,18.639,23.08,1.3393,4.6821,1.5973e+07,4.3615,0.94644,1.4112,1
27.028,13.547,60.018,0.26835,59.75,0.017332,1.0148,0.0014638,0.22549,1.3444,27.028,913.83,30.23,20.105,22.486,0.19448,2.6131,6.9199e+05,14.547,6.2886,11.612,1
24.97,18.996,73.919,0.045453,73.874,0.019934,0.98544,-0.0012801,0.16321,1.3109,24.97,983.88,31.367,19.048,23.928,0.69914,2.5139,9.442e+06,132.71,33.283,2.3336,1
16.746,37.745,177.34,-0.00024123,177.34,0.17634,1.2527,-0.0034427,0.1273,1.2463,16.746,1703.3,41.271,13.437,33.115,3.4775,13.816,4.1901e+09,4586.3,4519.3,4923.7,1
45.852,43.099,169.25,-0.33114,169.58,-0.18705,1.8725,0.0027209,0.24113,1.7134,45.854,3957.6,62.909,26.761,36.715,1.0151,3.1116,9.5198e+08,6.0848,15.626,7.231,1
13.556,8.7238,42.853,0,42.853,0.013521,1.4847,-0.025787,0.69157,1.4329,13.556,259.77,16.117,9.4608,11.248,0.74306,2.8241,2.389e+05,55.138,57.019,133,1
9.1633,7.0836,28.549,-0.00074149,28.549,-0.025106,0.5392,1.2157e-05,0.23366,1.1207,9.1633,134.08,11.579,8.1766,10.332,0.90196,2.7683,84975,5.6942,6.0278,4.6575,1
19.414,11.907,60.513,-0.76545,61.279,-0.03719,3.6672,0.0076617,2.0014,3.4351,19.418,518.5,22.771,5.6527,6.6287,0.81505,3.7701,1.8998e+06,28.692,44.478,42.773,1
19.183,11.279,48.539,0.041866,48.497,0.0088323,0.77217,0.004163,0.27113,1.2114,19.183,495.06,22.25,15.835,18.367,0.81531,3.3548,9.904e+05,46.263,20.464,20.144,1
8.9989,5.529,26.311,0.14693,26.164,-0.0018013,1.2466,0.0037809,0.57596,1.5333,8.9989,111.51,10.56,5.869,6.887,0.78675,2.8549,24185,15.142,4.0362,10.337,1
7.9971,5.2339,28.313,-0.012965,28.326,-0.0011182,1.1119,-0.0039384,0.50864,1.437,7.9972,91.311,9.5557,5.5654,6.65,1.4734,5.9101,69333,10.098,11.54,9.7236,1
1.8542,1.1989,6.7648,0.00033921,6.7645,-0.0001206,0.25194,-0.00029493,0.11212,1.0285,1.8542,4.8737,2.2076,1.8028,2.1464,1.1311,4.3667,28.196,0.57094,0.26504,0.1909,1
20.438,13.12,55.657,1.1369e-13,55.657,0.045144,1.5012,-0.0075673,0.49104,1.6237,20.438,589.62,24.282,12.587,14.955,0.60042,2.7888,1.6416e+06,90.251,69.206,92.228,1
25.686,12.524,86.291,0,86.291,0.10643,3.3883,-0.036932,1.7763,2.8369,25.686,816.39,28.573,9.0542,10.072,1.047,5.4052,4.8502e+06,168.32,79.151,3.8187,1
5.7878,8.6745,35.46,-0.43057,35.89,-0.011553,0.37456,0.0018289,0.11686,1.0555,5.7933,108.65,10.423,5.4884,9.8748,2.2615,7.0493,1.0547e+06,0.80388,0.53619,0.5771,1
37.799,40.689,200.03,-0.80062,200.83,-0.028444,3.3984,-0.026428,1.3421,2.6942,37.803,3082.2,55.517,14.031,20.606,2.1624,7.0707,2.487e+09,8.3743,14.748,36.3,1
32.977,27.788,126.32,-1.1786,127.5,0.019117,2.6328,0.0040692,1.086,2.3674,32.982,1858.6,43.112,13.932,18.21,1.2398,3.7341,1.4745e+08,62.15,58.316,36.123,1
12.61,9.6868,37.469,0.58164,36.888,0.0017441,0.73965,0.00050645,0.29611,1.2089,12.61,252.72,15.897,10.431,13.15,0.77481,2.3094,3.1321e+05,5.3842,3.6837,6.5219,1
2.5443,1.2475,5.9878,0.0014012,5.9864,0.00062217,0.16154,0.00015613,0.08846,1.0115,2.5443,8.0275,2.8333,2.5154,2.8011,0.55388,3.0734,11.272,0.58286,0.42933,0.82266,1
2.9149,0.9153,5.602,0.162,5.44,0.00017865,0.19721,-0.00020182,0.11431,1.0177,2.9149,9.3331,3.055,2.8642,3.0019,-0.30056,3.8408,-1.6558,1.1902,0.90229,1.2806,1
1.514,1.0184,4.5268,-1.4211e-13,4.5268,0.0032103,0.072896,0.00032489,0.030484,1.0013,1.514,3.328,1.8243,1.512,1.8219,0.89764,2.9554,5.6835,2.596,2.7268,2.3802,1
1.1166,0.48611,3.4688,0.01401,3.4548,-0.0032919,0.058742,7.7918e-05,0.028195,1.0004,1.1166,1.4829,1.2177,1.1162,1.2172,1.6628,8.2061,0.86241,0.098002,0.11069,0.14446,1
1.2406,0.65128,3.5526,0.0047027,3.5479,0.0020639,0.065878,0.0001111,0.031448,1.0008,1.2406,1.9627,1.401,1.2395,1.3998,1.6714,5.9513,1.8183,1.3519,1.2228,1.6105,1
21.675,29.55,116.93,0.061033,116.87,-0.021363,0.96365,0.00031304,0.24959,1.2925,21.675,1341.8,36.631,16.769,28.34,1.9857,5.6383,3.4597e+08,12.267,11.37,3.6717,1
68.262,36.512,193.88,0.4492,193.43,-0.03471,15.194,-0.016054,7.1416,13.589,68.262,5991.1,77.402,5.0235,5.6961,0.28398,2.6138,2.0595e+08,1529.5,3617.4,3915.2,1
75.039,36.348,185.53,4.8655,180.67,0.063627,15.587,0.052128,7.5104,13.949,75.039,6950.3,83.369,5.3796,5.9768,0.24278,2.4048,1.5022e+08,2488.5,1275.7,4270.1,1
83.736,41.305,193.46,1.9489,191.51,-0.071109,16.526,0.0089523,7.789,14.797,83.736,8715.6,93.357,5.6592,6.3094,0.24264,2.3635,2.1953e+08,3379.8,2821.5,2967.6,1
24.642,12.511,62.311,0.11597,62.195,0.026111,4.8311,-0.018519,2.8045,3.9818,24.642,763.52,27.632,6.1885,6.9395,0.26973,2.411,6.1957e+05,168.12,143.8,115.31,1
21.816,13.896,65.014,-0.0054891,65.02,0.034178,3.2859,-0.0063025,1.8568,2.7709,21.816,668.8,25.861,7.8735,9.3333,0.82002,3.0172,2.8669e+06,526.07,483.27,360.55,1
11.946,10.447,56.982,1.1369e-13,56.982,0.0049093,1.7457,-0.011426,0.75845,1.722,11.946,251.7,15.865,6.9374,9.2133,2.0852,7.6861,3.3317e+06,9.1764,6.607,8.6292,1
11.71,11.853,64.87,-0.19485,65.065,0.029051,0.82545,0.011629,0.33262,1.2103,11.712,277.44,16.657,9.6768,13.763,2.4065,9.85,8.9697e+06,613.16,478.42,358.56,1
3.3105,2.9099,16.465,5.6843e-14,16.465,0.0050746,0.3264,-0.0016411,0.18774,1.0484,3.3105,19.415,4.4063,3.1575,4.2027,2.7127,10.569,8375.9,2.8913,2.7869,3.4995,1
14.258,9.1401,41.373,-0.59723,41.97,-0.018384,1.7238,0.019612,0.90146,1.7377,14.261,286.72,16.933,8.2067,9.7442,0.78409,3.1068,3.5142e+05,35.199,21.43,27.587,1
14.851,11.752,48.074,-0.23956,48.313,-0.011693,1.903,-0.0041458,1.0412,1.8021,14.852,358.47,18.933,8.2415,10.506,0.96589,2.8881,1.1853e+06,17.664,0.89979,1.9732,1
25.275,8.9788,52.746,0.3261,52.42,0.05155,4.1949,-0.011794,2.4855,3.5696,25.275,719.33,26.82,7.0806,7.5135,-0.21133,2.8505,-82844,235.68,165.15,195.01,1
14.067,10.055,42.852,1.1369e-13,42.852,0.02152,1.054,-0.0078759,0.35262,1.3265,14.067,298.84,17.287,10.605,13.032,0.87751,3.2478,6.4361e+05,3.0501,2.6548,13.056,1
8.4342,6.3094,25.211,-0.17917,25.39,-0.0038564,0.55956,0.00010559,0.19263,1.1288,8.4349,110.89,10.531,7.4727,9.3292,0.88381,2.9498,53377,0.77728,2.1527,3.3866,1
14.689,11.713,42.661,0.44408,42.217,0.026002,0.894,-0.0032027,0.27613,1.2919,14.689,352.76,18.782,11.37,14.538,0.68648,2.1918,6.769e+05,38.582,7.78,1.2587,1
27.051,25.586,114.18,-2.2737e-13,114.18,-0.019919,2.2065,-0.0027071,0.5063,1.9532,27.051,1385.6,37.223,13.85,19.058,1.4575,4.5802,1.3405e+08,9.7467,14.995,22.225,1
5.0229,3.9034,14.755,-0.0023767,14.758,-0.0053916,0.15363,-7.6477e-05,0.041707,1.0102,5.0229,40.446,6.3597,4.972,6.2953,0.89404,2.8315,4550.1,0.017762,0.023913,0.037632,1
3.9361,1.9095,7.9892,-0.020937,8.0101,-0.00076615,0.13375,0.00023301,0.052949,1.0075,3.9362,19.134,4.3743,3.9069,4.3418,0.069517,2.3095,7.4918,0.11228,0.27608,0.34984,1
3.4212,2.6341,10.554,-0.0036247,10.558,0.00022977,0.13539,-0.00011721,0.043606,1.0077,3.4212,18.634,4.3167,3.395,4.2837,0.8153,2.598,546.25,0.066413,0.25586,0.19693,1
13.352,11.117,56.351,0.39817,55.953,0.0091251,0.66006,0.00070409,0.12562,1.1475,13.352,301.72,17.37,11.636,15.137,1.436,5.4358,2.8874e+06,54.521,53.579,74.187,1
3.5297,3.5228,17.386,-1.5063,18.892,-0.022291,0.17941,0.00062757,0.045662,1.0141,3.6188,24.853,4.9853,3.5684,4.9159,1.4029,4.9226,7430.4,0.0091717,0.071582,0.16595,1
2.7786,3.0225,16.939,-0.023759,16.962,0.0025112,0.17389,-0.00045564,0.039053,1.0126,2.7787,16.844,4.1042,2.7441,4.053,2.4918,9.8763,9815.5,1.8016,1.1968,0.43103,1
7.4305,9.4565,38.529,-0.063691,38.593,-0.0031606,0.36057,0.00070738,0.10139,1.0558,7.4311,144.52,12.022,7.0385,11.386,1.9932,5.9009,1.2532e+06,7.2534,4.4631,2.1839,1
8.2671,6.4301,26.733,0.089496,26.643,0.012302,1.0586,-0.0022213,0.61145,1.3409,8.2671,109.64,10.471,6.1652,7.8086,0.95167,3.06,66276,34.473,40.69,31.691,1
10.332,5.9948,30.592,0.0023443,30.59,-0.0070912,1.773,-0.0053829,1.0263,1.7216,10.332,142.63,11.943,6.001,6.9369,0.97041,4.0121,68868,4.041,9.8236,13.668,1
32.407,11.415,68.272,0.18241,68.089,-0.0093386,4.8575,0.024664,2.8005,3.9623,32.407,1180.4,34.356,8.1788,8.6707,0.042671,3.0597,1.2298e+05,129.63,149.34,122.81,1
12.055,5.9935,30.089,0.67165,29.418,0.015939,2.3785,-0.0040032,1.329,2.2996,12.055,181.21,13.461,5.2424,5.8538,0.29193,2.431,16740,19.398,14.527,19.495,1
3.1198,2.5426,11.604,-0.00024835,11.604,0.0042451,0.17679,-1.1862e-05,0.057827,1.0137,3.1198,16.189,4.0236,3.0776,3.9692,1.5581,5.0183,1399.8,0.0048728,0.18411,0.30636,1
40.827,30.444,122.66,-0.028529,122.69,-0.0089439,1.9314,-0.0019123,0.32607,1.8255,40.827,2592.5,50.916,22.365,27.892,0.65056,2.5516,1.0575e+08,430.57,417.38,531.33,1
32.949,30.376,142.19,0.012029,142.18,-0.040494,2.0832,0.0036092,0.37316,1.8021,32.949,2007.1,44.801,18.284,24.861,1.2357,4.1763,2.9033e+08,0.018638,1.1226,3.4797,1
22.71,20.183,84.527,0.18184,84.345,-0.015445,2.0209,0.0045713,0.54251,1.8254,22.71,922.54,30.373,12.441,16.64,1.3722,3.9997,3.1741e+07,2.5866,5.3185,3.3955,1
37.48,30.186,121.54,1.5673,119.98,0.0121,2.2603,4.7315e-05,0.52002,2.0817,37.48,2314.8,48.112,18.004,23.112,0.98168,3.119,1.5465e+08,111.22,347.72,421.85,1
10.833,15.367,53.438,-0.39007,53.828,-0.0088179,0.41689,0.00080564,0.075265,1.0718,10.843,353.2,18.794,10.117,17.535,1.7113,4.5046,9.3902e+06,0.53885,0.36225,1.0081,1
10.004,12.583,53.571,0.022287,53.549,-0.0024178,0.477,0.0011023,0.063131,1.0822,10.004,258.21,16.069,9.2436,14.848,1.9893,6.3441,5.8978e+06,0.026311,0.10183,0.48054,1
4.067,5.1357,21.565,-0.0066636,21.572,-0.0021619,0.1978,4.3268e-05,0.049062,1.017,4.067,42.882,6.5484,3.9991,6.439,1.9264,5.9829,62999,0.025307,0.045924,0.15896,1
2.5575,1.9134,8.3093,-0.077059,8.3864,0.0032847,0.11744,-0.00028156,0.0451,1.0055,2.5579,10.197,3.1933,2.5439,3.1759,1.0142,3.4248,187.91,1.6466,2.2178,3.1965,1
55.023,40.485,185.46,-0.15771,185.61,-0.030275,2.547,-0.0011086,0.60067,2.4062,55.023,4664.4,68.296,22.868,28.384,1.3621,4.5106,1.2154e+09,273.41,426.98,376.49,1
20.986,24.94,108.24,1.1369e-13,108.24,0.0064584,1.5036,-0.0014581,0.31321,1.5527,20.986,1061.6,32.582,13.516,20.985,1.8589,5.5791,1.528e+08,0.10158,0.10074,0.64535,1
16.161,16.965,78.965,0.0006928,78.965,0.043743,1.0402,-0.00062342,0.18022,1.3008,16.161,548.62,23.423,12.424,18.006,2.3234,8.2258,3.8557e+07,30.349,1.2373,5.0674,1
25.529,19.381,75.981,-0.037924,76.019,-0.03255,1.6146,-0.00095449,0.34487,1.6353,25.529,1026.9,32.045,15.611,19.596,0.75813,2.5349,1.079e+07,50.795,52.096,85.934,1
9.0434,5.6356,24.174,0.021777,24.152,-0.0013984,0.38454,-0.00038369,0.070487,1.0624,9.0434,113.5,10.654,8.5121,10.028,0.53054,2.7014,21694,24.967,15.522,20.075,1
5.4605,5.0659,21.182,-0.0027036,21.185,0.011587,0.31284,-0.00055578,0.066117,1.0434,5.4605,55.446,7.4462,5.2334,7.1366,1.4306,4.1828,33400,10.374,3.5291,6.0425,1
17.416,15.742,79.496,0.026887,79.469,0.0018746,1.2224,0.00019714,0.23835,1.3886,17.416,550.81,23.469,12.542,16.902,1.5921,5.8123,1.7873e+07,8.3945,10.649,28.561,1
8.9787,8.2874,41.258,-0.0051988,41.263,0.001303,0.43528,-0.00034754,0.09079,1.0725,8.9788,149.21,12.215,8.372,11.39,1.6352,6.2071,7.8302e+05,12.286,14.448,20.743,1
13.415,14.404,67.4,0.020618,67.38,0.015697,0.77747,0.001111,0.13572,1.2028,13.415,387.17,19.677,11.153,16.359,1.8657,5.988,1.1205e+07,48.229,37.972,34.649,1
4.367,4.763,20.254,0.060391,20.194,-0.00011023,0.16889,0.00038922,0.040926,1.0122,4.367,41.727,6.4597,4.3144,6.3818,1.8873,5.8732,40586,0.66161,0.79952,1.1784,1
3.5812,5.2361,21.804,0.024991,21.779,-0.0019336,0.16593,0.00013135,0.040442,1.0112,3.5812,40.205,6.3407,3.5414,6.2704,2.2066,6.8263,81507,0.087785,0.054962,0.027764,1
10.033,5.7499,25.783,0.076271,25.707,0.014275,0.37954,-2.7661e-05,0.092861,1.0635,10.033,133.67,11.562,9.4338,10.872,0.59089,3.1595,29217,31.196,24.201,6.3517,1
17.11,13.208,49.583,-0.8305,50.413,-0.017063,0.76473,-0.0012731,0.1314,1.1879,17.121,466.98,21.61,14.413,18.192,0.76851,2.65,1.7256e+06,5.5407,1.3423,3.2137,1
18.268,21.401,111.18,-0.13903,111.32,0.032385,1.2469,-0.00069381,0.30254,1.4495,18.269,791.13,28.127,12.603,19.404,2.6708,10.471,1.791e+08,52.158,29.193,65.546,1
12.028,12.011,63.111,-0.89123,64.003,-0.031324,0.89374,0.00065741,0.21362,1.2608,12.034,288.74,16.992,9.5448,13.477,2.321,8.9543,8.2811e+06,2.815,3.7019,4.5778,1
14.751,18.114,82.505,-0.2219,82.727,-0.004682,0.80888,0.0017122,0.12223,1.1984,14.752,545.27,23.351,12.31,19.485,1.9262,6.3268,3.7815e+07,25.55,11.44,1.496,1
29.856,22.815,97.905,0.049701,97.855,-0.043892,1.3086,-0.010094,0.26165,1.468,29.856,1411.2,37.566,20.338,25.59,0.79953,2.9356,3.365e+07,32.709,0.64997,0.028324,1
32.429,29.396,139.1,-0.43315,139.53,-0.030942,1.3739,-0.0012022,0.21157,1.4764,32.43,1914.6,43.756,21.965,29.637,1.5908,5.5972,3.6726e+08,3.2786,9.4123,25.951,1
28.858,38.616,171.91,-0.00044529,171.91,0.0096394,1.371,-0.0060793,0.32596,1.4997,28.858,2322,48.187,19.243,32.132,2.4036,8.0626,2.2714e+09,11.025,2.0322,9.1396,1
13.036,12.415,55.316,-2.7594,58.076,-0.0064662,0.67468,-0.00016096,0.27073,1.1793,13.099,323.88,17.997,11.108,15.261,1.7485,5.7707,4.8087e+06,2.8101,9.3084,6.0097,1
16.929,9.5454,41.973,-0.040231,42.013,0.015316,0.62002,-0.00082423,0.13749,1.1586,16.929,377.57,19.431,14.612,16.772,0.3051,2.6531,1.8958e+05,59.896,31.457,7.4903,1
7.0236,4.4737,20.633,0.24989,20.384,-0.01048,0.30701,0.00057056,0.080569,1.0417,7.0236,69.319,8.3258,6.7423,7.9924,0.83572,3.2538,11315,0.31501,1.194,3.2369,1
12.964,8.4662,36.982,0.0029066,36.979,0.046704,0.45677,-0.00039946,0.10056,1.0859,12.964,239.64,15.48,11.938,14.255,0.69147,2.8929,1.9181e+05,150.71,108.83,100.99,1
9.3901,8.0015,36.901,0.0025695,36.899,-0.046373,0.403,0.00031005,0.10547,1.0712,9.3901,152.11,12.333,8.7662,11.514,1.3421,4.2653,3.4995e+05,3.2658,5.2678,6.6419,1
1.827,0.83906,4.0123,0.049671,3.9627,0.00080049,0.08399,-0.00016431,0.036239,1.0022,1.827,4.0411,2.0102,1.823,2.0059,0.5324,2.7865,1.3509,0.59618,0.73266,0.7718,1
1.5713,0.78336,3.863,-0.019585,3.8826,-0.0019621,0.073841,8.7934e-05,0.030063,1.0014,1.5714,3.0817,1.7555,1.5692,1.753,0.54915,3.3943,1.4384,0.16321,0.37198,0.72387,1
2.6515,2.4765,12.915,-0.044337,12.96,0.0027262,0.16605,0.00010694,0.038942,1.012,2.6518,13.156,3.6271,2.6203,3.5841,1.9125,6.8603,2173.8,8.0159,7.3089,8.1576,1
1.4138,0.97985,4.4425,0.027581,4.4149,-0.00056112,0.076264,-0.00040937,0.028335,1.0016,1.4138,2.9577,1.7198,1.4116,1.7171,1.3584,4.2639,9.1661,0.057394,0.076114,0.045803,1
18.831,21.71,80.986,-3.7031e-06,80.986,0.064135,0.82486,-0.0021408,0.10504,1.2146,18.831,825.33,28.728,15.504,23.652,1.2321,3.3347,3.5531e+07,943.88,945.38,988.28,1
8.8889,9.2959,62.825,0.23444,62.591,-0.07357,0.42188,0.0024044,0.093986,1.0744,8.8889,165.31,12.857,8.2735,11.967,2.6591,12.516,4.096e+06,3.3915,0.20076,0.25172,1
7.8121,5.1394,22.119,-0.054008,22.173,0.018652,0.40368,0.00022501,0.086093,1.0691,7.8124,87.408,9.3492,7.3074,8.745,0.71857,3.0066,17131,27.845,19.459,31.638,1
11.747,9.8513,37.204,-0.13456,37.338,0.0039748,0.53897,-0.00062172,0.089141,1.1111,11.748,234.91,15.327,10.573,13.794,0.7296,2.3088,3.3137e+05,67.8,59.048,76.326,1
2.3996,3.0236,12.112,0.019476,12.092,-0.01155,0.10903,9.2975e-05,0.024475,1.0046,2.3996,14.888,3.8585,2.3887,3.8409,1.9607,5.8281,4129.6,0.085003,0.03071,0.0097273,1
2.923,3.0349,14.979,-0.018459,14.997,-0.00031571,0.19376,-0.0010557,0.070736,1.0164,2.923,17.742,4.2122,2.8758,4.144,2.4927,8.9305,7953.1,0.35106,0.42388,0.21954,1
9.0406,7.162,36.117,-0.15289,36.27,-0.019391,0.36856,0.00135,0.075486,1.0573,9.0428,132.96,11.531,8.5525,10.905,1.5273,5.5883,3.1962e+05,7.2871,9.2811,13.209,1
4.4342,3.247,12.798,0.203,12.595,-0.0016944,0.16965,0.00048982,0.04153,1.0124,4.4342,30.191,5.4947,4.38,5.4276,0.80629,2.6243,1607.3,1.4908,0.93316,0.76288,1
3.3586,2.5197,10.504,0.0015832,10.503,-0.0019696,0.10539,-9.998e-05,0.034977,1.0042,3.3586,17.621,4.1977,3.3446,4.1803,1.4639,4.3337,1000.2,0.89086,0.96815,1.1091,1
19.116,11.625,48.916,-0.00022852,48.916,0.025602,0.89676,0.003021,0.18089,1.293,19.116,500.4,22.37,14.785,17.301,0.23823,2.4242,4.0142e+05,125.07,57.34,80.414,1
13.218,8.5028,45.955,-0.49463,46.45,-0.027144,0.73842,0.00039771,0.15979,1.1867,13.227,246.92,15.714,11.146,13.241,1.2902,5.4625,7.2401e+05,8.8419,6.8897,9.5025,1
8.6093,4.601,21.564,0.090654,21.474,0.0017896,0.62059,-0.0040788,0.32014,1.1478,8.6093,95.263,9.7603,7.5005,8.5031,0.77106,3.3239,11296,30.456,17.471,19.711,1
2.3744,1.3032,5.5592,-0.093067,5.6523,-0.00078355,0.18714,-0.0010697,0.084787,1.0157,2.3747,7.334,2.7081,2.3381,2.6663,0.1967,2.0418,4.252,0.73,0.20448,0.2003,1
1.6775,0.69689,4.1188,0.018359,4.1004,5.7536e-05,0.16301,0.00017841,0.076308,1.0117,1.6775,3.2989,1.8163,1.6582,1.7954,0.62221,3.3516,0.86616,0.73619,0.93906,0.59687,1
2.3073,1.1251,6.3404,0.0016061,6.3388,0.0021525,0.19779,0.00025631,0.09232,1.0176,2.3073,6.5877,2.5666,2.2673,2.5222,0.57142,3.3071,9.2723,0.64891,0.51165,1.2031,1
47.736,38.464,168.32,-0.43835,168.76,0.14365,3.382,-0.00046548,1.159,2.3489,47.738,3756.2,61.288,20.323,26.092,1.1292,3.7804,7.388e+08,4219.6,3961.3,3522.8,1
37.163,31.674,144.87,0.018082,144.85,-0.17484,3.0626,0.0083449,1.1633,2.4236,37.163,2383,48.816,15.334,20.142,1.2691,3.6826,2.6272e+08,58.777,116.53,151.13,1
3.2375,2.236,11.128,0.0091774,11.119,-0.011013,0.20261,-6.5467e-06,0.096617,1.0185,3.2375,15.474,3.9337,3.1785,3.8621,1.1662,3.8904,513.09,0.69519,0.30667,0.29435,1
6.7858,10.277,43.233,-0.05122,43.284,-0.0029396,0.33856,-1.8265e-05,0.048173,1.0418,6.7861,151.53,12.31,6.5137,11.815,2.3411,7.4453,2.6595e+06,0.48842,0.5308,0.6751,1
1.7264,0.83541,3.769,0.015085,3.7539,-0.00011161,0.094228,-0.00021777,0.041384,1.0031,1.7264,3.6774,1.9177,1.7211,1.9118,0.33899,2.5015,0.59491,0.36598,0.35474,0.72006,1
15.363,12.295,58.267,-0.072074,58.339,0.04155,0.94118,-0.004888,0.33686,1.2689,15.363,386.98,19.672,12.108,15.503,1.0932,3.8628,2.709e+06,51.546,8.6481,1.7771,1
14.404,12.207,51.032,-0.75402,51.786,-0.038845,0.93361,-0.00049218,0.44735,1.2926,14.408,356.29,18.876,11.147,14.603,0.97064,3.2106,1.8215e+06,2.0322,5.765,12.421,1
5.128,3.2815,16.072,1.1369e-13,16.072,0.0052579,0.35208,-0.0016061,0.13007,1.0545,5.128,37.05,6.0869,4.8631,5.7725,0.97921,3.5849,2840,1.8207,0.63752,0.47058,1
5.3701,4.8038,27.289,-0.0069543,27.296,-0.0022633,0.61421,-0.00045178,0.26944,1.0966,5.3701,51.884,7.2031,4.897,6.5685,2.2033,7.9167,70067,1.0916,1.2674,3.0814,1
13.356,18.778,81.021,-0.45706,81.478,-0.0025609,0.62087,-0.00017352,0.062925,1.1227,13.371,530.55,23.034,11.91,20.516,2.0363,6.5977,4.7279e+07,0.39772,0.30942,0.34001,1
10.384,14.143,60.011,2.1896e-06,60.011,0.00055213,0.68857,0.00030331,0.09104,1.1443,10.384,307.59,17.538,9.075,15.327,1.9711,5.9608,9.8536e+06,1.6798,4.5392,11.322,1
13.327,19.076,80.619,-0.64071,81.259,-0.015786,0.58279,-0.00066248,0.09093,1.1231,13.343,541.01,23.26,11.88,20.71,2.2535,7.348,5.8408e+07,0.051117,0.29121,0.26924,1
21.066,17.018,64.955,0.47209,64.483,0.012488,0.79558,-0.00033889,0.13297,1.2285,21.066,733.03,27.074,17.148,22.038,0.80965,2.4682,5.7309e+06,31.696,46.878,94.314,1
66.883,37.472,167.8,1.7079,166.09,0.030984,5.0645,0.0002948,2.0675,3.5647,66.883,5875.6,76.652,18.762,21.503,0.297,2.4265,1.6638e+08,455.25,551.28,436.99,1
37.808,46.766,301.65,-0.053195,301.71,0.085084,5.4602,0.0059218,2.3252,3.3301,37.808,3613.6,60.113,11.354,18.052,3.4243,15.809,1.6568e+10,551.24,304.66,430.4,1
31.78,13.853,84.309,0.46753,83.842,-0.061923,5.1472,0.0074649,2.9405,4.325,31.78,1201.6,34.664,7.3479,8.0148,0.8513,4.0062,4.2876e+06,87.831,86.52,290.53,1
5.7991,5.9028,27.559,0.22922,27.33,-0.026461,0.22752,-0.0017044,0.064621,1.0227,5.7991,68.427,8.2721,5.6704,8.0885,1.5762,4.8697,1.0002e+05,0.28981,0.19284,0.32939,1
1.8698,1.1278,4.9904,0.00097525,4.9894,-0.0019137,0.10247,-8.9784e-05,0.041675,1.0039,1.8698,4.7663,2.1832,1.8625,2.1747,0.73008,2.8274,7.976,0.048336,0.011003,0.047999,1
17.869,17.834,70.063,-0.067106,70.13,0.0012575,0.7362,0.00034513,0.10034,1.1773,17.87,636.95,25.238,15.178,21.437,1.3428,3.7398,1.504e+07,4.7535,1.4437,0.2495,1
11.007,8.5027,33.775,-0.00063954,33.776,0.013144,0.62507,-0.0046228,0.16502,1.1441,11.007,193.36,13.906,9.6211,12.154,0.98038,3.0669,2.6218e+05,27.169,14.785,15.128,1
9.2989,8.1436,31.908,-0.17485,32.083,0.0035936,0.4444,8.0536e-05,0.11848,1.0814,9.3003,152.7,12.357,8.6004,11.427,0.97314,2.7817,1.8458e+05,41.999,41.333,26.718,1
58.691,42.666,187.59,4.5475e-13,187.59,0.054835,3.8718,-0.017184,0.86852,3.1458,58.691,5262.6,72.544,18.657,23.06,0.84557,3.1587,8.973e+08,756.66,933.29,814.77,1
6.967,7.8585,45.037,0.0019261,45.035,-0.0068142,0.76276,-0.0018401,0.27359,1.1731,6.967,110.21,10.498,5.9392,8.9495,2.6152,11.138,1.3963e+06,0.11801,0.26182,0.23835,1
4.5367,3.53,15.208,0.029866,15.178,0.0040602,0.28562,0.00038676,0.10422,1.0358,4.5367,33.027,5.7469,4.3799,5.5483,1.4914,4.7473,6561.9,0.16804,0.067074,0.20892,1
3.2272,2.2612,13.229,-0.00016172,13.229,-0.003057,0.32204,-0.0016406,0.12915,1.0466,3.2272,15.521,3.9397,3.0836,3.7643,1.3161,5.2751,975.78,0.80671,0.73501,0.91245,1
8.3551,7.0584,33.459,0.0014261,33.457,-0.015186,0.54106,0.0051689,0.22579,1.1135,8.3551,119.56,10.934,7.5032,9.8196,1.1445,3.7992,1.6178e+05,0.27681,0.35727,0.27899,1
3.2924,2.7982,13.194,-0.023338,13.218,0.0017095,0.30839,-0.00069532,0.13741,1.0426,3.2925,18.66,4.3197,3.1579,4.143,1.3921,4.629,2119.1,0.079146,0.042266,0.11402,1
7.4677,4.3589,23.738,0.062569,23.675,-0.00038928,0.48927,0.00050332,0.18433,1.1007,7.4677,74.742,8.6454,6.7844,7.8542,0.88821,4.392,15762,3.0624,1.8692,1.8885,1
18.055,13.245,51.897,0.35909,51.538,0.0025059,0.91456,-5.2322e-05,0.17865,1.2661,18.055,501.19,22.387,14.261,17.682,0.88758,2.7136,1.8864e+06,282.69,193.81,222.98,1
13.223,11.528,52.84,-0.16229,53.002,-0.019127,0.61683,0.0020472,0.11796,1.1427,13.224,307.56,17.537,11.572,15.347,1.2574,4.2683,2.2889e+06,33.218,1.6126,0.053796,1
1.4389,1.9306,8.4204,0.0087966,8.4116,0.00058265,0.071439,0.0001649,0.022534,1.0012,1.4389,5.7928,2.4068,1.4372,2.4039,2.2919,7.3366,616.94,0.35798,0.28153,0.034675,1
16.306,23.526,105.67,-0.17618,105.84,0.0039267,1.0949,-0.0011239,0.19726,1.2563,16.308,818.66,28.612,12.981,22.775,2.2257,7.4447,1.7643e+08,0.60905,1.6542,2.7516,1
8.8684,8.0768,33.19,0.27074,32.92,0.00017368,0.36198,-0.00040704,0.074539,1.0514,8.8684,143.8,11.992,8.435,11.405,1.066,3.2011,2.3951e+05,2.4043,2.2181,2.5768,1
3.1566,3.1167,15.472,0.12623,15.346,-0.0017766,0.15119,6.1305e-05,0.032136,1.0094,3.1566,19.665,4.4345,3.1271,4.3931,2.1156,7.6747,7609.3,0.55644,0.5449,1.0235,1
14.119,14.2,63.964,-0.20744,64.171,-0.0098153,0.87138,0.00059074,0.20896,1.2463,14.12,400.72,20.018,11.329,16.062,1.5422,4.853,7.6327e+06,0.44576,1.372,0.9674,1
14.415,11.673,52.828,-0.41804,53.246,-0.0093427,1.0014,-0.00099417,0.31886,1.305,14.417,343.86,18.543,11.047,14.209,1.2017,3.8524,2.0034e+06,14.253,11.179,32.416,1
17.4,23.371,97.397,0.17025,97.227,-0.022714,0.90782,-0.0026776,0.28438,1.2518,17.4,848.27,29.125,13.9,23.266,2.2541,7.1105,1.5076e+08,3.3844,4.1485,5.8807,1
17.537,11.052,55.321,0.17211,55.149,-0.010331,1.2948,-0.00012563,0.57754,1.5035,17.537,429.51,20.725,11.664,13.784,1.0141,4.2585,1.6379e+06,19.583,19.523,24.565,1
4.7316,2.6794,15.745,0.077966,15.667,-0.0083424,0.56623,0.00027006,0.28578,1.1341,4.7316,29.557,5.4367,4.1722,4.7939,0.93596,4.1288,1443,0.51951,0.99046,1.6562,1
20.664,19.718,81.742,-0.016154,81.758,0.020688,1.4894,-0.0015268,0.4701,1.54,20.664,815.3,28.553,13.418,18.541,1.2296,3.8562,2.7443e+07,139.22,112.93,118.92,1
17.904,13.098,58.157,-0.96525,59.122,-0.025925,1.2246,-0.00056596,0.4449,1.4259,17.911,491.89,22.179,12.561,15.554,0.70062,2.6001,1.7052e+06,4.194,4.7297,2.4175,1
6.092,10.948,54.537,0.025995,54.511,-0.0015697,0.53783,4.8269e-05,0.094958,1.0759,6.092,156.82,12.523,5.6623,11.639,3.0043,11.317,6.8419e+06,1.3117,1.2041,1.8032,1
1.3256,0.80747,3.4674,-0.020078,3.4875,-0.0026692,0.085771,-0.00032638,0.041361,1.0023,1.3257,2.4084,1.5519,1.3226,1.5483,0.61153,2.7499,1.3301,0.020343,0.038239,0.066744,1
8.7792,6.5812,33.265,-0.096543,33.361,-0.0018564,0.76705,-0.0006414,0.28104,1.2162,8.7794,120.33,10.969,7.2186,9.0193,1.4944,5.7425,2.0801e+05,11.148,14.576,14.681,1
14.817,13.278,61.218,0.214,61.004,0.00076026,1.6982,-0.00083461,0.62522,1.603,14.817,395.63,19.89,9.2435,12.408,1.6292,4.9319,5.4863e+06,188.39,472.48,115.8,1
16.966,14.642,57.421,-0.0093319,57.431,0.014952,1.3739,0.0015188,0.52871,1.5056,16.966,501.94,22.404,11.269,14.881,1.3781,3.7851,5.6381e+06,3.1405,2.5124,3.026,1
20.645,17.33,76.139,-0.052972,76.192,0.084531,1.5408,0.0030735,0.54147,1.6041,20.645,726.12,26.947,12.87,16.799,1.0727,3.6583,1.3163e+07,633.1,565.28,870.05,1
25.39,22.038,115.07,0.0087716,115.06,0.079431,1.1529,0.0025923,0.19028,1.3581,25.39,1129.7,33.611,18.696,24.749,1.6794,6.5182,1.1152e+08,577.92,857.8,1429.8,1
21.603,25.563,132.41,0.0010372,132.41,0.015533,1.5164,0.00014226,0.26864,1.5877,21.603,1119.3,33.456,13.606,21.071,2.1893,8.0628,3.1656e+08,65.584,112.21,254.8,1
13.311,9.4974,41.417,-0.018497,41.436,-0.0071456,0.95984,-0.00056239,0.21171,1.2992,13.311,267.26,16.348,10.246,12.583,1.0563,3.4129,5.2689e+05,14.298,0.89038,8.7456,1
24.637,22.623,122.38,-0.40114,122.78,0.0012564,1.3675,0.0039134,0.2937,1.4761,24.64,1118.1,33.438,16.692,22.653,1.9572,7.7374,1.6363e+08,46.18,63.011,91.368,1
35.541,18.89,73.718,0,73.718,0.012943,9.9408,0.031963,5.6176,8.8132,35.541,1619.5,40.243,4.0327,4.5663,0.16829,1.8263,1.4493e+06,421.92,418.49,336.3,1
35.439,19.75,69.413,1.1297,68.283,0.038663,10.847,-0.0044383,6.0268,9.8421,35.439,1645.5,40.564,3.6007,4.1215,0.0030202,1.5865,67724,469.51,372.86,366.64,1
34.005,15.804,67.153,5.5229,61.63,-0.064349,8.7397,0.00097473,4.9604,7.9189,34.005,1405.8,37.494,4.2942,4.7348,-0.0037248,1.6502,58768,253.55,289.22,269.48,1
3.4221,4.6376,16.98,0.0032882,16.976,-0.0050961,0.18046,0.00042839,0.05826,1.0136,3.4221,33.19,5.7611,3.376,5.6835,1.8364,4.9163,26311,0.10327,0.095637,0.16771,1
0.54177,0.23828,1.4337,0.0047466,1.429,-1.6939e-05,0.085031,0.00018246,0.043166,1.0023,0.54177,0.35021,0.59179,0.54054,0.59045,0.54851,3.3404,0.0042767,0.039529,0.025749,0.040484,1
13.641,8.4835,38.068,1.7053e-13,38.068,0.0073727,1.0653,-0.012779,0.48076,1.3128,13.641,257.94,16.061,10.39,12.234,0.71929,2.8543,2.0788e+05,1.9176,3.3628,0.42384,1
8.1799,5.7832,26.484,-0.47436,26.958,-0.0021023,0.60185,0.00076769,0.22183,1.1452,8.1833,100.31,10.016,7.1458,8.7458,1.0565,3.6211,50129,7.0922,2.021,0.22187,1
13.8,6.8459,36.246,5.6843e-14,36.246,0.016998,1.6502,0.00015963,0.84798,1.7648,13.8,237.26,15.403,7.8199,8.728,0.83888,3.5866,1.0091e+05,21.634,16.572,13.646,1
8.2767,6.3244,27.22,-1.1369e-13,27.22,-0.0128,0.68349,0.0047832,0.35159,1.1784,8.2767,108.45,10.414,7.0236,8.8372,0.85301,2.9012,55684,0.58258,1.0998,0.94333,1
