9.717,13.475,69.05,0.0096855,69.04,-0.005331,0.65357,0.0015853,0.14095,1.1382,9.717,275.79,16.607,8.5368,14.59,2.4851,8.6725,1.3825e+07,1.4189,2.4003,5.3342,1
20.779,16.446,53.228,1.7279e-05,53.228,0.020315,0.77324,-0.0020594,0.14437,1.2116,20.779,701.91,26.494,17.151,21.867,0.36773,1.591,1.6482e+06,198.88,276.28,358.98,1
43.395,44.289,215.9,-2.2737e-13,215.9,-0.079131,3.8009,0.0086066,1.1778,2.9146,43.395,3842.3,61.986,14.889,21.268,1.908,6.2543,3.2561e+09,132.05,127.89,176.9,1
95.599,100.19,475.35,-0.65421,476,-0.03317,5.2914,-0.003992,1.4221,4.0589,95.603,19164,138.43,23.554,34.106,2.2452,7.6958,2.4997e+11,49.664,171.42,374.56,1
31.815,27.675,122.43,0.10253,122.33,-0.0086102,2.5968,-0.00061734,0.76176,2.158,31.815,1777.2,42.156,14.743,19.535,1.4183,4.0722,1.5714e+08,35.198,38.639,52.934,1
40.698,31.012,109.04,-0.44948,109.49,0.0048392,1.5505,-0.0042462,0.41582,1.6513,40.699,2616.8,51.155,24.647,30.979,0.54171,2.0625,6.8748e+07,5.4147,5.3735,17.072,1
15.377,9.161,45.883,-1.4663,47.349,0.0047954,0.94852,-0.00013498,0.39215,1.3212,15.397,320.27,17.896,11.653,13.545,0.94254,3.5719,4.5143e+05,11.872,6.7284,8.795,1
23.174,17.885,72.068,0.018938,72.049,-0.00094033,1.1948,0.0015397,0.45668,1.4503,23.174,856.54,29.267,15.979,20.18,0.73648,2.2947,6.2879e+06,14.74,10.5,19.691,1
42.518,35.481,157.54,-0.5497,158.09,-0.05949,1.7477,-0.0016738,0.26142,1.6729,42.521,3065.2,55.364,25.418,33.095,1.1351,3.9015,5.1732e+08,29.806,51.497,62.757,1
4.8156,4.5756,19.642,-0.54065,20.183,-0.0045795,0.20681,0.00090186,0.05066,1.018,4.8427,44.1,6.6408,4.7572,6.5236,1.3043,4.7379,25504,0.1248,0.047837,0.051815,1
16.506,21.656,81.848,-0.15272,82.001,-0.001917,0.79788,-0.00024783,0.11992,1.1977,16.507,740.88,27.219,13.782,22.726,1.716,4.6312,5.5395e+07,2.8732,3.6487,3.5106,1
6.7833,6.551,25.262,-0.5693,25.831,0.00060972,0.29782,1.0549e-05,0.08489,1.0387,6.8011,88.877,9.4274,6.5476,9.076,1.269,3.5273,91478,0.2071,0.27355,0.43083,1
86.627,64.325,279.49,0.01229,279.48,0.033182,6.4081,0.01425,2.3404,4.9529,86.627,11637,107.87,17.49,21.78,0.85508,2.8682,5.8263e+09,2022.7,2022.9,556.72,1
60.762,62.896,356.07,0,356.07,-0.079341,5.9061,0.0013444,1.8721,4.5925,60.762,7643.1,87.425,13.231,19.037,2.0736,7.839,2.9355e+10,60.375,104.61,170.56,1
75.624,78.737,387.63,0,387.63,0.022517,6.7044,-0.0026876,2.2916,5.3453,75.624,11911,109.14,14.148,20.418,2.152,7.4726,7.457e+10,91.959,48.481,33.293,1
1.7597,1.5526,6.9957,0.0021734,6.9935,0.00063614,0.090425,-5.8365e-05,0.028442,1.0028,1.7597,5.504,2.3461,1.7547,2.3395,1.258,3.8717,82.024,0.079944,0.049173,0.027945,1
27.365,26.711,135.31,-2.2737e-13,135.31,-0.012243,2.2332,0.00016854,0.7656,2.0382,27.365,1461.4,38.229,13.426,18.756,1.8896,6.4625,2.8482e+08,82.704,32.898,15.05,1
17.629,13.563,71.635,-1.145e-05,71.635,-0.0016016,1.8889,-9.6284e-05,0.80821,1.8251,17.629,494.5,22.237,9.6592,12.184,1.0188,3.7256,4.2357e+06,0.75353,3.1073,41.27,1
0.58761,0.86277,4.5772,-1.9841e-05,4.5772,0.0013482,0.060112,2.506e-05,0.018533,1.0006,0.58761,1.0887,1.0434,0.58728,1.0428,2.8292,11.599,22.672,0.12371,0.0063215,0.0075445,1
14.728,13.312,57.145,2.2737e-13,57.145,-0.011155,1.27,0.0036662,0.49984,1.4715,14.728,393.91,19.847,10.009,13.488,1.3248,3.706,3.5382e+06,8.079,13.788,28.783,1
20.873,20.293,87.593,0.09898,87.494,-0.0095705,0.98638,0.0006748,0.29172,1.311,20.873,846.98,29.103,15.921,22.198,1.389,4.3055,3.8497e+07,10.5,13.24,10.959,1
11.809,7.8451,33.482,0.00098899,33.481,-0.0052604,0.61481,-0.00054856,0.23365,1.1505,11.809,200.93,14.175,10.264,12.321,0.92004,3.2086,1.7182e+05,3.4999,5.452,15.405,1
48.811,58.327,262.57,0,262.57,0.051268,3.2116,7.0099e-05,0.61025,2.4077,48.811,5780.3,76.029,20.273,31.578,1.9089,6.171,1.2667e+10,990.19,536.96,1050.1,1
43.292,44.21,163.06,-0.35149,163.41,0.080711,2.1195,-0.00032484,0.37527,1.8827,43.293,3826.3,61.857,22.995,32.855,1.1709,3.2693,1.156e+09,867.82,640.57,239.12,1
7.0778,9.2541,39.47,-0.075871,39.545,-0.0024565,0.26268,0.0006448,0.04974,1.0298,7.0781,135.63,11.646,6.8733,11.309,2.0173,6.2325,1.2568e+06,0.52846,0.043421,0.0078843,1
14.126,18.037,85.295,0.08212,85.213,-0.057512,0.70834,-0.0030822,0.14017,1.1543,14.126,524.47,22.901,12.237,19.839,2.1856,7.2428,4.5682e+07,126.61,174.8,248.48,1
25.412,26.46,100.18,-0.084666,100.26,-0.025103,1.5855,0.00022097,0.29372,1.5362,25.412,1345,36.675,16.542,23.873,1.4651,3.9592,1.1844e+08,10.125,12.522,17.025,1
52.305,37.871,142.88,-0.058764,142.94,0.0087293,2.2556,0.0020822,0.3746,2.089,52.305,4168.2,64.562,25.038,30.905,0.55186,2.2737,2.2812e+08,414.42,384.92,132.56,1
22.58,32.601,143.02,-0.22587,143.24,-0.015605,1.3054,2.1434e-05,0.17643,1.4427,22.581,1571.4,39.641,15.653,27.477,2.0543,6.5651,7.5834e+08,7.2043,9.2274,14.51,1
5.7156,6.6458,29.246,0.080216,29.166,-0.0032018,0.29187,-0.00014478,0.045226,1.033,5.7156,76.78,8.7624,5.5327,8.4822,1.932,6.392,2.5597e+05,0.15128,0.3,0.22098,1
3.9217,4.1896,18.954,0.0030567,18.951,-0.00049252,0.1627,-0.00018711,0.034372,1.0116,3.9217,32.911,5.7368,3.8767,5.6709,1.5946,5.0545,18543,4.1085,7.3303,6.966,1
11.384,7.822,31.995,0.0026422,31.992,0.006734,0.7722,-0.0022155,0.32246,1.2281,11.384,190.7,13.809,9.269,11.244,0.74706,2.6771,1.261e+05,4.3025,2.7798,13.833,1
12.581,12.504,65.126,-0.020721,65.146,0.016805,0.69413,0.0027328,0.10479,1.164,12.581,314.44,17.733,10.808,15.234,1.9409,7.3415,7.8575e+06,7.1646,0.64606,0.013478,1
8.8875,16.02,79.436,-0.048079,79.484,-0.010523,0.68218,-0.0034301,0.075488,1.1334,8.8877,335.31,18.312,7.8417,16.156,2.7206,10.224,4.1419e+07,8.7601,8.0407,7.9779,1
15.74,11.702,55.815,0.044698,55.77,-0.011327,1.0452,-0.0017135,0.41753,1.3669,15.74,384.54,19.61,11.515,14.346,1.45,4.8561,2.9215e+06,141.16,269.23,435.51,1
18.664,11.323,50.716,-0.0025015,50.719,-0.0051836,1.1217,0.0024941,0.4013,1.4159,18.664,476.41,21.827,13.182,15.415,0.63781,2.7346,7.3324e+05,66.145,129.2,104.76,1
18.061,17.049,60.464,0.084165,60.38,0.00066415,0.78416,0.00060583,0.10569,1.2075,18.061,616.48,24.829,14.957,20.563,0.95331,2.6891,7.0917e+06,6.1872,9.3803,16.922,1
17.556,13.694,48.317,-0.53395,48.851,0.0072324,0.65926,-0.00010463,0.086464,1.17,17.566,495.53,22.26,15.013,19.026,0.52736,2.0107,1.1234e+06,32.928,40.134,41.748,1
13.178,10.115,41.916,-1.0422,42.958,0.0044566,0.55896,-0.0010774,0.10563,1.1233,13.194,275.83,16.608,11.746,14.785,1.0388,3.2729,6.7758e+05,2.6546,3.5431,3.227,1
10.597,12.156,57.224,-0.098785,57.322,0.060954,0.56204,-0.00099653,0.098272,1.1173,10.598,259.89,16.121,9.4855,14.429,1.9653,6.5231,5.3818e+06,465.3,253.67,76.955,1
11.918,10.42,53.898,-0.63578,54.533,-0.05252,0.651,0.00063158,0.11905,1.1558,11.929,250.48,15.826,10.321,13.693,1.5528,5.5503,2.013e+06,81.522,98.656,37.403,1
9.4298,6.4554,25.343,-0.01417,25.357,0.00353,0.4695,-0.00018556,0.12783,1.0923,9.4299,130.54,11.426,8.6333,10.46,0.60105,2.4886,35415,10.215,10.786,12.825,1
8.1558,5.5613,33.044,-0.091035,33.135,-0.003569,0.35005,0.00066081,0.065613,1.0492,8.1562,97.407,9.8695,7.7735,9.4064,1.552,7.2763,1.3943e+05,11.035,12.321,12.886,1
5.1564,2.7097,11.017,-0.2913,11.308,-0.0021,0.17531,8.7152e-05,0.039157,1.0135,5.1607,33.922,5.8243,5.092,5.7467,-0.061232,2.1662,-32.556,6.9215,8.7263,8.4036,1
5.022,3.0393,14.12,-0.054559,14.174,-0.0021091,0.20837,-0.00010051,0.04426,1.0193,5.0224,34.446,5.8691,4.9272,5.7579,0.68744,3.3937,1516.8,5.4495,5.3549,4.2979,1
12.555,14.803,74.279,0.17544,74.104,-0.016841,0.93314,0.00013327,0.25932,1.2658,12.555,376.48,19.403,9.9183,15.329,2.4783,9.0299,2.289e+07,3.5273,3.0152,4.4485,1
26.513,31.35,136.58,0.072922,136.51,0.035459,1.3705,-0.0013953,0.28688,1.4876,26.513,1684.6,41.044,17.823,27.591,2.1807,7.1621,6.7472e+08,286.62,337.91,537.41,1
6.7504,6.6241,30.703,0.037046,30.666,0.00051926,0.28357,-0.00023542,0.056688,1.0294,6.7504,89.394,9.4548,6.5578,9.1851,2.0634,6.7145,2.6177e+05,1.146,1.5968,2.0174,1
9.9911,8.6231,32.35,-0.00013191,32.35,-9.0625e-05,0.44574,-0.00029837,0.12643,1.0849,9.9911,174.09,13.194,9.2096,12.162,0.97799,2.8085,2.5132e+05,1.874,2.4829,3.9373,1
2.7362,4.3319,20.323,0.0016036,20.321,0.0059389,0.16112,-5.1401e-05,0.030561,1.0108,2.7362,26.229,5.1214,2.7068,5.0664,2.5967,9.0357,48387,8.955,9.9766,11.402,1
2.2146,2.1685,11.366,-0.016636,11.382,-0.0048579,0.13326,0.0001651,0.030272,1.0072,2.2147,9.6011,3.0986,2.1988,3.0764,2.3062,8.8188,1546.7,1.2379,3.1445,3.238,1
15.266,16.907,75.248,0.061909,75.186,-0.0034026,0.67315,0.00031166,0.11257,1.1395,15.266,518.53,22.771,13.397,19.983,1.7343,5.5035,2.2028e+07,14.209,23.742,28.093,1
7.1928,7.6322,45.849,0.10314,45.746,0.048596,0.32082,0.00015779,0.055845,1.0418,7.1928,109.92,10.484,6.9041,10.063,2.8748,12.934,1.5268e+06,295.23,179.04,70.61,1
20.675,22.062,113.88,0.17386,113.7,0.046866,1.782,-0.0017237,0.72825,1.5391,20.675,913.59,30.226,13.433,19.639,2.0084,7.2683,1.3094e+08,2.7381,4.4857,5.6907,1
10.65,11.25,46.721,0.011849,46.709,-0.0033989,0.66839,0.0020862,0.24541,1.1736,10.65,239.82,15.486,9.0747,13.196,1.4576,4.4103,2.0982e+06,30.849,44.131,57.351,1
14.483,12.992,62.295,0.0067507,62.289,-0.0090792,0.88618,-0.0014942,0.30222,1.2787,14.483,378.32,19.45,11.326,15.211,1.5398,5.1719,5.492e+06,4.0381,6.1352,2.0079,1
2.9745,2.5478,9.5816,0.0070831,9.5745,0.001336,0.10903,0.00013249,0.035388,1.0047,2.9745,15.331,3.9155,2.9607,3.8974,0.92253,2.6931,521.62,3.861,5.7074,6.3713,1
1.0774,0.67568,3.7378,-0.00040987,3.7382,-0.0035359,0.065014,-2.85e-05,0.029099,1.0009,1.0774,1.6167,1.2715,1.0764,1.2704,1.0359,4.2343,1.5206,0.069933,0.032268,0.034693,1
13.098,11.941,50.727,-0.0011471,50.728,-0.039879,0.66788,0.00075961,0.17353,1.1625,13.098,313.99,17.72,11.268,15.243,1.2783,3.4707,1.8129e+06,78.471,125.29,170.87,1
15.536,13.708,57.93,-0.00047451,57.93,-0.015649,0.92787,0.00062192,0.24673,1.2555,15.536,429.03,20.713,12.374,16.497,1.4671,4.16,4.8984e+06,6.383,10.906,13.706,1
16.252,14.704,57.429,0.038579,57.39,-0.0071411,0.81406,-0.00080289,0.17922,1.2149,16.252,480.1,21.911,13.378,18.035,1.206,3.3928,4.8519e+06,2.133,9.3522,4.4793,1
9.1142,9.0735,44.793,0.14614,44.647,0.01304,0.55955,0.00088737,0.13271,1.1154,9.1142,165.3,12.857,8.1712,11.527,1.9999,6.9156,1.3881e+06,22.446,30.344,37.384,1
21.236,24.101,97.392,1.1369e-13,97.392,0.00075134,1.1891,-0.00092093,0.22933,1.3431,21.236,1031.1,32.111,15.811,23.908,1.462,4.4403,9.3736e+07,1.5759,2.9501,6.3597,1
7.2936,5.3691,23.592,-0.0041901,23.596,0.0082805,0.41721,-0.00042508,0.12913,1.0734,7.2936,81.989,9.0548,6.7947,8.4355,0.99259,3.271,29970,16.339,9.5997,8.8148,1
36.401,26.133,106.98,0.090234,106.89,-0.00061605,1.915,-0.0046938,0.37116,1.8804,36.401,2007.2,44.801,19.358,23.825,0.71116,2.6496,5.0022e+07,495.4,585.53,588.1,1
29.881,32.406,146.45,0,146.45,0.0061088,1.469,-0.0014089,0.22984,1.5122,29.881,1941.7,44.065,19.759,29.139,1.8,6.016,6.5057e+08,4.4665,6.0828,7.6453,1
20.27,20.208,90.759,0.0069335,90.752,0.06392,1.197,-0.0018109,0.21414,1.341,20.27,818.74,28.614,15.116,21.338,1.6666,5.6359,5.6326e+07,525.96,174.96,3.5926,1
16.148,15.654,68.367,0.20074,68.166,0.0060566,0.88803,-0.0011673,0.15185,1.2223,16.148,505.54,22.484,13.211,18.395,1.4412,4.7322,1.1919e+07,6.7448,7.4235,3.9044,1
11.013,10.775,54.824,-0.06566,54.89,0.0014704,0.52797,-0.00065837,0.10486,1.1024,11.014,237.26,15.403,9.9904,13.972,2.0338,7.4615,3.6394e+06,19.469,29.772,53.145,1
16.148,15.654,68.367,0.20074,68.166,0.0060566,0.88803,-0.0011673,0.15185,1.2223,16.148,505.54,22.484,13.211,18.395,1.4412,4.7322,1.1919e+07,6.7448,7.4235,3.9044,1
11.013,10.775,54.824,-0.06566,54.89,0.0014704,0.52797,-0.00065837,0.10486,1.1024,11.014,237.26,15.403,9.9904,13.972,2.0338,7.4615,3.6394e+06,19.469,29.772,53.145,1
14.982,18.518,91.379,0.002462,91.376,-0.026473,0.908,-0.0014097,0.15783,1.2382,14.982,566.95,23.811,12.099,19.229,2.3364,8.6822,6.7904e+07,0.27518,0.36619,1.2592,1
42.533,27.3,179.73,-0.48429,180.21,-0.022658,5.2218,0.008802,2.2252,3.8487,42.534,2553.4,50.531,11.051,13.129,1.4465,6.4863,3.4364e+08,197.8,470.73,500.19,1
24.549,17.769,77.384,0.41308,76.971,0.04025,0.89387,-0.0016333,0.15256,1.2702,24.549,918.02,30.299,19.327,23.854,1.0919,3.627,1.3833e+07,512.12,539.75,571.06,1
24.665,11.964,49.946,0.045453,49.9,-0.0065204,0.91208,0.0019079,0.20981,1.2975,24.665,751.3,27.41,19.01,21.126,-0.089701,2.3873,-85983,153.41,110.26,96.326,1
26.84,18.691,73.919,0.50127,73.418,-0.036913,0.98116,-0.00015532,0.17669,1.3104,26.84,1069.3,32.7,20.483,24.955,0.48167,2.2529,6.3241e+06,16.619,25.907,25.298,1
22.961,43.098,177.34,-0.00024123,177.34,0.053834,1.2884,-0.0023779,0.12936,1.2884,22.961,2382.3,48.809,17.821,37.884,2.4381,7.6956,3.601e+09,923.38,1228.1,1580.9,1
41.188,38.627,169.25,-0.33114,169.58,-0.042859,1.8531,0.0016806,0.24384,1.6946,41.19,3186.7,56.451,24.307,33.313,1.2783,4.2657,9.4562e+08,86.944,118.89,185.56,1
13.269,8.4974,42.853,0,42.853,0.013799,1.4662,-0.023173,0.69109,1.4368,13.269,248.18,15.754,9.2352,10.965,0.82542,3.0326,2.427e+05,25.546,23.098,17.835,1
8.6171,7.0962,28.549,-0.00074149,28.549,-0.027148,0.52521,0.00052953,0.22794,1.115,8.6171,124.55,11.16,7.7286,10.009,0.97319,2.9104,95920,0.23516,0.42017,1.4301,1
18.888,11.71,60.513,-0.76545,61.279,-0.016735,3.6176,0.0063566,1.975,3.3915,18.892,493.72,22.22,5.5704,6.5517,0.88381,3.9326,1.9381e+06,67.708,31.484,31.859,1
18.303,11.351,48.539,0.041866,48.497,-0.0029753,0.75778,0.005081,0.2645,1.2052,18.303,463.69,21.533,15.186,17.867,0.86055,3.4118,1.1196e+06,10.285,2.1806,0.668,1
8.8977,5.4027,26.311,0.14693,26.164,-0.0041404,1.2295,-0.00064487,0.56667,1.5216,8.8977,108.32,10.408,5.8476,6.8401,0.81315,2.9938,23510,6.8878,2.9685,9.7864,1
7.5496,5.2161,28.313,-0.012965,28.326,0.0032676,1.1289,0.00119,0.52482,1.4476,7.5497,84.171,9.1745,5.2153,6.3377,1.5445,6.1386,73501,8.2004,4.9316,18.546,1
19.753,13.107,55.657,1.1369e-13,55.657,0.00023326,1.6353,-0.0090098,0.6683,1.665,19.753,561.76,23.702,11.864,14.235,0.64171,2.8129,1.7546e+06,55.987,2.9107,2.1612,1
33.11,32.012,318.17,0,318.17,0.38848,4.9453,-0.028056,3.2613,3.1724,33.11,2119.8,46.041,10.437,14.513,3.9254,24.882,6.0649e+09,4615.3,2956.5,2211,1
5.4619,8.4321,35.46,-0.43057,35.89,-0.010047,0.3628,0.0016392,0.11397,1.0523,5.467,100.84,10.042,5.1954,9.5433,2.3866,7.6828,1.039e+06,0.42889,0.64639,0.2663,1
35.864,39.817,200.03,-1.1786,201.21,-0.01924,3.3183,-0.016022,1.3284,2.6499,35.873,2869.6,53.569,13.537,20.215,2.2585,7.5911,2.4823e+09,31.644,43.159,63.415,1
32.598,26.865,126.32,0.10575,126.22,0.010086,2.5165,-0.0046804,1.0131,2.2564,32.598,1783.5,42.231,14.447,18.716,1.3198,4.02,1.4094e+08,20.022,13.381,15.076,1
12.329,9.3922,37.469,0.58164,36.888,0.00084496,0.74196,0.0010741,0.30591,1.2098,12.329,240.11,15.496,10.191,12.808,0.86958,2.5245,3.1708e+05,13.414,17.662,18.165,1
2.5349,1.2056,5.9878,0.0014012,5.9864,0.0012706,0.16047,7.4632e-05,0.088087,1.0114,2.5349,7.8774,2.8067,2.5063,2.775,0.58941,3.2852,10.768,1.0955,1.028,1.1228,1
2.9206,0.88801,5.602,0.162,5.44,0.0010741,0.19938,-0.00039805,0.11595,1.0182,2.9206,9.3175,3.0525,2.8683,2.9978,-0.31313,4.0287,-1.5944,1.6394,1.6764,1.591,1
1.5462,1.0091,4.5268,-1.4211e-13,4.5268,0.00014244,0.073107,0.00045362,0.030589,1.0014,1.5462,3.4078,1.846,1.544,1.8434,0.84131,2.8677,5.0352,0.24529,0.26101,0.5329,1
1.031,0.35054,2.191,0.01401,2.177,0.0001601,0.057294,1.264e-05,0.027448,1.0004,1.031,1.1857,1.0889,1.0306,1.0884,0.34811,3.0321,0.013473,0.097952,0.12086,0.10408,1
1.2956,0.6353,3.5526,0.0047027,3.5479,-0.0010176,0.069406,-9.9533e-05,0.033689,1.0012,1.2956,2.0817,1.4428,1.2941,1.4411,1.5185,5.6267,1.4472,0.13712,0.16224,0.20125,1
20.944,28.618,116.93,0.045283,116.88,-0.013765,0.96074,0.0011702,0.25521,1.2934,20.944,1256.6,35.449,16.192,27.406,2.0955,6.1541,3.354e+08,50.948,65.916,47.927,1
68.262,36.296,193.88,0.4492,193.43,-0.005722,15.305,-0.00027739,7.2531,13.688,68.262,5975.5,77.301,4.987,5.6474,0.26793,2.5623,1.9075e+08,1311.3,846.81,1488.3,1
75.011,36.009,185.53,4.8655,180.67,-0.044552,15.42,0.0043273,7.4009,13.818,75.011,6921.7,83.197,5.4286,6.021,0.22991,2.4003,1.3914e+08,573.88,1049.8,1339.9,1
85.95,40.974,193.46,1.9489,191.51,0.098455,16.496,0.03561,7.6847,14.777,85.95,9064.3,95.207,5.8165,6.4429,0.19745,2.3035,1.7252e+08,3774.9,1296.6,1463.3,1
23.828,12.483,62.311,0.11597,62.195,0.01555,4.7181,-0.027647,2.7445,3.8847,23.828,723.4,26.896,6.1338,6.9237,0.35932,2.4365,7.6343e+05,18.965,30.284,66.858,1
24.441,14.669,65.014,-0.0054891,65.02,0.0027715,3.7974,0.00078225,2.1678,3.0917,24.441,812.27,28.5,7.9053,9.2183,0.55792,2.526,2.328e+06,171.6,204.94,155.28,1
11.498,10.249,56.982,1.1369e-13,56.982,0.02219,1.7214,-0.012663,0.75154,1.7127,11.498,237.12,15.399,6.7134,8.9908,2.1451,8.0841,3.2792e+06,4.0031,3.3808,5.2783,1
14.477,15.793,75.246,-0.19485,75.44,-0.026488,0.85768,0.0082831,0.32582,1.2322,14.478,458.68,21.417,11.75,17.381,2.0591,6.9482,2.1593e+07,158.6,252.89,354.7,1
3.3135,2.8121,16.465,5.6843e-14,16.465,0.002404,0.3258,-0.0016682,0.18797,1.0484,3.3135,18.878,4.3449,3.1606,4.1444,2.782,11.218,7752.2,1.3448,1.4606,2.5401,1
14.143,8.9398,41.373,-0.59723,41.97,-0.031756,1.6831,0.014844,0.87956,1.7114,14.146,279.86,16.729,8.266,9.775,0.81375,3.2148,3.3779e+05,7.2278,11.528,16.954,1
13.911,11.604,48.074,-0.23956,48.313,0.0030145,1.8613,0.0030511,1.0164,1.7741,13.913,328.02,18.111,7.842,10.209,1.1112,3.1861,1.3431e+06,8.6948,5.319,4.3857,1
25.22,9.4143,52.746,0.3261,52.42,0.012829,4.1315,-0.010166,2.4374,3.5161,25.22,724.58,26.918,7.1727,7.6556,-0.17145,2.8169,-82128,28.1,147.65,122.36,1
14.736,10.097,42.852,1.1369e-13,42.852,0.019629,1.0748,-0.013111,0.35917,1.3368,14.736,318.97,17.86,11.023,13.36,0.7357,2.9616,5.3193e+05,47.186,47.672,65.934,1
9.9347,8.3506,36.779,-0.17917,36.958,0.023495,0.62708,-0.0023244,0.19636,1.1531,9.9354,168.35,12.975,8.616,11.252,1.245,3.9827,3.8503e+05,203.63,181.22,147.32,1
12.542,10.786,42.661,0.38485,42.276,-0.02323,0.82802,0.0021962,0.28294,1.258,12.542,273.49,16.538,9.9698,13.146,1.0404,3.0767,8.8813e+05,0.74394,0.66188,2.1186,1
4.8841,3.8006,14.755,-0.0023767,14.758,-0.00080597,0.15063,3.147e-05,0.041373,1.0099,4.8841,38.282,6.1872,4.8363,6.1267,0.98844,3.0725,4638.3,2.6081,2.5541,2.1687,1
3.6556,2.0503,7.9892,-0.020937,8.0101,-0.0020341,0.1294,7.7641e-05,0.051009,1.007,3.6557,17.562,4.1907,3.6301,4.1614,0.10977,2.1543,23.838,2.0063,2.1668,1.7494,1
3.2861,2.5588,10.554,0.0044602,10.55,-0.00070272,0.13549,5.8178e-05,0.046452,1.0078,3.2861,17.338,4.1639,3.2606,4.1316,0.98354,2.877,590.31,0.11443,0.012286,0.073775,1
13.062,10.824,56.351,0.39817,55.953,-0.011278,0.63978,0.00066364,0.12128,1.1395,13.062,287.63,16.96,11.463,14.883,1.5038,5.7803,2.7872e+06,3.5535,7.2856,13.458,1
3.7754,3.5639,16.939,-1.5063,18.445,0.005124,0.21338,-4.2037e-05,0.047727,1.0197,3.8579,26.939,5.1903,3.7833,5.0899,1.2409,4.5124,6947.8,6.7774,4.2283,2.9492,1
1.8406,1.0491,5.4244,-0.023759,5.4482,-0.0060142,0.091261,0.0001454,0.033717,1.0029,1.8406,4.487,2.1182,1.8353,2.1121,0.54659,3.2905,7.0043,0.17532,0.65377,1.1399,1
7.8028,9.2112,38.529,-0.063691,38.593,0.0044209,0.35471,-0.00020135,0.10046,1.0543,7.8033,145.63,12.068,7.4017,11.447,1.8932,5.7689,1.0828e+06,29.187,30.498,30.241,1
8.5739,6.3214,26.733,0.089496,26.643,0.0090208,1.0616,-0.0015775,0.61394,1.3469,8.5739,113.42,10.65,6.3659,7.9073,0.82829,2.9145,54774,21.211,22.105,28.05,1
11.009,6.5191,30.592,0.0023443,30.59,0.002418,1.7998,-0.0045717,1.0454,1.7539,11.009,163.64,12.792,6.2768,7.2937,0.74154,2.9871,59144,24.532,44.11,59.248,1
33.165,11.72,68.272,0.18241,68.089,-0.0044483,5.0117,0.0090663,2.8924,4.0811,33.165,1237.1,35.172,8.1264,8.6183,0.059447,2.9773,1.1896e+05,427.34,367.68,413.74,1
11.733,5.9769,30.089,0.063334,30.026,0.0054346,2.3706,0.0021429,1.3248,2.2998,11.733,173.35,13.166,5.1017,5.7248,0.33563,2.4856,18688,25.977,15.445,17.777,1
4.7769,6.76,31.731,-0.00024835,31.731,0.037431,0.27219,-0.00067237,0.062599,1.03,4.7769,68.46,8.2741,4.6377,8.0329,2.9597,11.234,5.9069e+05,144.84,140.02,150.7,1
39.201,29.971,122.66,-0.028529,122.69,-0.040311,1.8805,-0.0006734,0.32053,1.7952,39.201,2433.9,49.335,21.837,27.482,0.75137,2.7054,1.1417e+08,57.266,33.088,5.5774,1
32.618,29.508,142.19,0.012029,142.18,0.024558,2.0448,0.00023219,0.36457,1.7872,32.618,1933.6,43.973,18.25,24.604,1.2727,4.4128,2.7442e+08,148.84,127.14,47.184,1
22.233,19.61,84.527,0.18184,84.345,-0.00019988,1.9798,0.0080239,0.53617,1.8066,22.233,878.39,29.638,12.306,16.405,1.4438,4.3091,3.0873e+07,36.029,47.374,80.302,1
39.939,29.533,121.54,1.5545,119.99,0.067101,2.3007,-0.0046924,0.55448,2.1221,39.939,2466.3,49.662,18.82,23.402,0.78173,2.899,1.1646e+08,671.39,919.34,439.03,1
10.107,15.019,53.438,-0.39007,53.828,-0.0080369,0.40287,0.00035702,0.074342,1.0672,10.116,327.44,18.095,9.4793,16.956,1.8227,4.9282,9.5729e+06,0.11595,0.10872,0.027696,1
9.3987,12.304,53.571,0.022287,53.549,-0.0020989,0.46057,0.00065753,0.062949,1.0768,9.3987,239.55,15.477,8.728,14.373,2.0969,6.8434,5.9228e+06,1.0316,0.77988,0.3791,1
3.9076,4.9816,21.565,-0.0066636,21.572,0.0012963,0.18932,0.00026663,0.046046,1.0155,3.9076,40.055,6.3289,3.8478,6.232,2.0434,6.5246,61516,1.0173,0.79618,0.81186,1
53.044,39.71,185.46,-0.15771,185.61,-0.039873,2.4928,0.0013544,0.59257,2.3632,53.045,4388.6,66.247,22.446,28.033,1.4539,4.8209,1.2386e+09,88.606,118.02,63.283,1
20.645,24.075,108.24,1.1369e-13,108.24,0.031596,1.46,-0.00277,0.30392,1.5271,20.645,1005.1,31.704,13.519,20.761,1.9557,6.0645,1.4505e+08,58.535,24.085,39.45,1
18.047,18.671,78.965,0.0006928,78.965,0.046977,1.172,0.0023666,0.21737,1.351,18.047,673.85,25.959,13.358,19.215,1.8186,5.6021,3.5418e+07,656.46,620.86,307.38,1
25.594,20.439,79.639,-0.037924,79.677,-0.017256,1.6468,-0.0052261,0.36792,1.6808,25.594,1072.3,32.746,15.227,19.483,0.92462,2.7957,1.7639e+07,717.19,888.83,955.37,1
9.2592,5.531,24.174,0.021777,24.152,-0.0090804,0.3827,-0.00061577,0.070723,1.0623,9.2592,116.29,10.784,8.7164,10.151,0.44204,2.6639,17644,17.159,31.543,40.257,1
5.2673,4.9702,21.182,-0.0027036,21.185,0.00037633,0.30736,-0.0003453,0.06661,1.042,5.2673,52.417,7.24,5.0551,6.9484,1.4896,4.4351,33419,0.1504,0.33386,0.31556,1
16.692,15.377,79.496,0.026887,79.469,0.0041418,1.1782,7.9547e-05,0.23023,1.3619,16.692,514.79,22.689,12.256,16.66,1.7038,6.2382,1.7785e+07,10.299,10.58,10.071,1
10.881,10.837,47.459,-0.0051988,47.464,0.013802,0.55686,-0.00022578,0.10456,1.1134,10.881,235.68,15.352,9.7727,13.788,1.5078,4.8689,1.9513e+06,85.478,128.46,188.7,1
14.854,15.303,67.4,0.020618,67.38,0.0064343,0.8198,-8.3981e-05,0.14398,1.2025,14.854,454.53,21.32,12.352,17.729,1.6788,5.0497,1.1371e+07,143.99,199.96,254.59,1
4.1439,4.6565,20.254,0.060391,20.194,-0.0012453,0.1643,0.00052621,0.040889,1.0116,4.1439,38.828,6.2312,4.0964,6.1598,1.9927,6.3429,40811,0.14168,0.064742,0.12377,1
3.8256,5.4204,23.776,0.024991,23.751,0.027708,0.22279,0.00045078,0.044175,1.0203,3.8256,43.98,6.6317,3.7494,6.4996,2.1071,6.4103,88637,24.331,5.9115,2.167,1
11.217,7.5311,49.127,0.076271,49.05,0.057373,0.41264,0,0.10929,1.0751,11.217,182.47,13.508,10.433,12.564,1.5708,7.2871,6.621e+05,223.02,140.15,92.121,1
17.694,20.763,111.18,-0.13903,111.32,0.0014971,1.2128,-0.0011319,0.29464,1.4294,17.695,743.66,27.27,12.379,19.078,2.7838,11.261,1.7189e+08,4.9177,13.598,24.11,1
15.871,17.027,77.401,-0.89123,78.293,0.06562,1.0238,0.0014721,0.23514,1.3305,15.877,541.43,23.269,11.932,17.488,1.8391,5.6864,2.3231e+07,557.99,744.04,937.21,1
14.32,17.526,82.505,-0.2219,82.727,-0.014465,0.78065,0.0016337,0.11829,1.1855,14.322,511.86,22.624,12.081,19.084,2.0391,6.8896,3.642e+07,5.1696,8.1917,13.59,1
29.002,22.228,97.905,0.049701,97.855,-0.051024,1.2667,-0.0095391,0.25425,1.442,29.002,1334.6,36.533,20.113,25.335,0.89791,3.1623,3.4344e+07,19.765,20.636,48.825,1
32.188,29.134,139.1,-0.63263,139.73,-0.0023488,1.4884,0.00012623,0.2349,1.5352,32.191,1883.8,43.403,20.969,28.272,1.5353,5.4759,3.4523e+08,11.449,13.835,17.036,1
27.704,37.411,171.91,-0.00044529,171.91,0.014759,1.343,-0.0049913,0.33284,1.4867,27.704,2165.4,46.534,18.634,31.3,2.5362,8.792,2.2025e+09,42.531,48.731,21.987,1
11.764,12.331,55.316,-2.7594,58.076,-0.013319,0.6084,-0.00027819,0.24048,1.1475,11.823,290.28,17.038,10.303,14.848,1.9064,6.2631,5.3107e+06,0.9275,0.77332,1.7872,1
7.0947,5.0837,31.966,0.24989,31.716,0.027601,0.37509,0.00054019,0.08336,1.0578,7.0947,76.148,8.7263,6.7068,8.2492,1.3831,5.8351,69493,52.007,6.1206,0.37841,1
14.449,8.8391,36.982,0.0029066,36.979,-0.034495,0.40241,-9.2645e-05,0.096557,1.0704,14.449,286.81,16.936,13.498,15.821,0.61926,2.5536,1.7404e+05,8.4721,12.987,15.286,1
6.8103,5.0108,22.447,0.0025695,22.444,-0.0016628,0.3816,0.00034395,0.10207,1.063,6.8103,71.459,8.4533,6.4066,7.9521,1.0858,3.5045,23649,1.1938,1.5866,1.9341,1
1.753,0.85713,4.0123,0.049671,3.9627,-0.00016035,0.083263,-9.278e-06,0.0358,1.0022,1.753,3.8068,1.9511,1.7491,1.9468,0.54837,2.7781,1.6041,0.04296,0.031447,0.05394,1
1.7307,0.86121,3.863,-0.019585,3.8826,0.0020937,0.077915,-1.9505e-05,0.032182,1.0018,1.7308,3.7361,1.9329,1.7277,1.9294,0.25466,2.6578,0.72563,1.1057,1.1592,1.4408,1
3.0739,2.8588,12.915,-0.044337,12.96,0.0065143,0.16823,-0.00051955,0.039637,1.0125,3.0741,17.611,4.1966,3.0362,4.1449,1.4939,4.6239,2381.4,19.938,10.76,8.9815,1
1.3423,0.97829,4.4425,-0.012088,4.4546,-0.00094925,0.075614,-0.00027091,0.028675,1.0016,1.3423,2.7577,1.6606,1.3402,1.6579,1.4036,4.4441,9.7924,0.053611,0.027857,0.031263,1
19.468,21.461,80.986,-3.7031e-06,80.986,-0.0030953,0.84577,0.00012202,0.10323,1.2283,19.468,839.03,28.966,15.85,23.583,1.1686,3.214,3.1637e+07,29.605,35.831,53.763,1
6.8356,5.6966,24.81,0.23444,24.575,-0.013256,0.31494,0.00044044,0.099565,1.0444,6.8356,79.137,8.8959,6.5449,8.5175,1.2837,4.1493,62083,0.11776,0.25403,0.46098,1
7.8244,5.0164,22.119,-0.054008,22.173,0.0071708,0.39459,-7.1959e-05,0.084663,1.0662,7.8246,86.355,9.2928,7.3389,8.7159,0.72108,3.0862,15823,3.5034,3.9308,7.9228,1
12.465,10.604,44.334,-0.13456,44.469,0.042161,0.58538,-0.0013813,0.093762,1.1311,12.466,267.68,16.361,11.021,14.465,0.83929,2.7385,6.9614e+05,260.16,158.49,56.503,1
2.2688,2.9484,12.112,0.019476,12.092,-0.010198,0.10626,-1.2225e-05,0.024376,1.0044,2.2688,13.83,3.7188,2.2589,3.7026,2.0759,6.3409,4129.7,0.034621,0.12634,0.11916,1
2.7933,2.9604,14.979,-0.018459,14.997,-0.00089572,0.19082,-0.0006674,0.070313,1.016,2.7933,16.556,4.0689,2.7493,4.0047,2.6015,9.5982,7834.6,0.28556,0.1568,0.45769,1
8.523,7.1432,36.117,-0.15289,36.27,-0.017959,0.35958,0.0021547,0.074623,1.0548,8.5251,123.61,11.118,8.0823,10.54,1.568,5.7369,3.3172e+05,0.18272,0.069183,0.17448,1
4.4137,3.0887,12.798,0.203,12.595,-0.002583,0.15719,-0.00079977,0.040628,1.0105,4.4137,29.009,5.386,4.3677,5.3299,0.92996,2.9391,1536.4,1.0186,1.0897,1.3152,1
3.0167,2.5338,10.504,0.0015832,10.503,-0.001639,0.099107,0.00012865,0.031123,1.0036,3.0167,15.513,3.9386,3.0058,3.9244,1.664,4.7756,1228.9,0.33473,0.44135,0.31906,1
19.184,11.235,48.916,-0.00022852,48.916,0.008719,0.88321,0.0020391,0.18122,1.2854,19.184,494.08,22.228,14.924,17.293,0.22839,2.571,3.5845e+05,63.01,81.926,84.572,1
12.863,8.4904,45.955,-0.49463,46.45,0.0015474,0.75291,0.00098802,0.15995,1.1926,12.871,237.44,15.409,10.793,12.921,1.3556,5.5349,7.3342e+05,48.083,69.379,111.29,1
8.4355,4.5225,21.564,-2.2737e-13,21.564,0.0042527,0.6608,-0.0030101,0.34387,1.1643,8.4355,91.586,9.57,7.2454,8.2199,0.81392,3.4935,11490,10.505,7.8977,8.8982,1
2.2919,1.2905,5.5592,-0.093067,5.6523,-0.0016875,0.18183,-0.00050679,0.082622,1.0148,2.2923,6.9165,2.6299,2.2588,2.5915,0.32276,2.0831,6.0657,0.36617,0.35498,0.24278,1
1.7074,0.71799,4.1188,0.0016061,4.1172,0.0034979,0.17005,0.00034798,0.07904,1.0129,1.7074,3.4302,1.8521,1.6857,1.8285,0.4999,3.2026,0.76861,0.84244,0.14336,0.059389,1
2.6288,1.1337,6.3404,0.013096,6.3273,-0.00087042,0.21955,-0.00019564,0.10474,1.022,2.6288,8.1942,2.8626,2.5722,2.8009,0.2342,2.9754,4.4722,2.7753,1.4132,1.4084,1
51.842,40.042,168.32,-0.43835,168.76,0.046446,3.2933,0.0015876,1.1211,2.3114,51.844,4289,65.491,22.429,28.333,0.86851,2.9848,5.9332e+08,1288.8,1562.2,1777.9,1
34.845,26.785,123.27,0.018082,123.26,-0.024684,3.1784,-9.4015e-05,1.2272,2.5402,34.845,1930.8,43.94,13.718,17.298,1.2242,3.8721,1.2222e+08,400.18,154.79,143.88,1
3.0632,2.2445,11.128,-0.010803,11.139,-0.011289,0.20384,0.00028117,0.098541,1.0189,3.0632,14.415,3.7967,3.0064,3.7263,1.203,4.0045,552.13,0.086167,0.52426,0.4589,1
6.3876,9.9947,43.233,-0.05122,43.284,-0.0025187,0.32665,9.9254e-05,0.04778,1.039,6.3878,140.57,11.856,6.148,11.411,2.4664,8.1027,2.6213e+06,0.22122,0.38268,0.2498,1
1.7723,0.84191,3.769,0.015085,3.7539,-0.0015119,0.095347,-9.7289e-05,0.041682,1.0033,1.7723,3.8491,1.9619,1.7665,1.9555,0.11389,2.3897,0.19306,0.091855,0.17093,0.67706,1
16.089,12.18,58.267,-0.072074,58.339,0.027755,0.92912,-0.0045227,0.34079,1.2654,16.089,407.03,20.175,12.715,15.944,0.93215,3.5628,2.2509e+06,80.309,91.205,70.376,1
12.767,11.455,51.032,-0.75402,51.786,-0.017555,0.89643,0.0001247,0.42653,1.2708,12.772,294.06,17.148,10.05,13.495,1.3764,4.3851,2.2018e+06,9.537,7.4954,11.273,1
5.0413,3.1805,16.072,1.1369e-13,16.072,0.0040486,0.34667,-0.0011051,0.13073,1.053,5.0413,35.518,5.9597,4.7874,5.6596,1.0709,3.8812,2800.5,1.8784,2.7565,2.0438,1
5.1486,4.6992,27.289,-0.0069543,27.296,-0.0032593,0.59401,-0.0008555,0.26128,1.0911,5.1486,48.564,6.9688,4.7186,6.3867,2.2981,8.451,69352,0.64341,0.98438,2.5392,1
12.477,18.35,81.021,-0.45706,81.478,0.0019738,0.59894,-6.1817e-05,0.061299,1.1145,12.491,491.99,22.181,11.208,19.903,2.1448,7.1164,4.724e+07,0.99669,0.093255,0.03242,1
9.6701,13.849,60.011,2.1896e-06,60.011,-0.0037656,0.66264,0.00012249,0.088123,1.1336,9.6701,285.07,16.884,8.5304,14.894,2.0754,6.4379,9.9435e+06,0.12191,0.047148,0.07875,1
12.892,18.473,80.619,-0.64071,81.259,6.69e-05,0.56896,-0.00054162,0.091769,1.1181,12.908,507.06,22.518,11.544,20.139,2.3625,7.9656,5.6109e+07,22.779,22.78,17.293,1
19.515,17.2,64.955,0.50046,64.455,-0.01251,0.76871,0.00024157,0.13416,1.214,19.515,676.3,26.006,16.075,21.421,0.89055,2.578,6.7837e+06,0.80024,1.4593,0.6768,1
64.732,37.049,167.8,1.7079,166.09,0.0074128,4.9166,0.0075324,2.0114,3.462,64.732,5561.2,74.573,18.698,21.541,0.3973,2.5028,1.9667e+08,88.392,254.52,418.8,1
38.426,45.151,301.65,-0.053195,301.71,0.060843,5.4822,-0.002166,2.4359,3.4481,38.427,3512.7,59.268,11.144,17.189,3.4873,16.669,1.5141e+10,361.24,354.08,393.57,1
28.587,13.802,84.309,0.46753,83.842,-0.036392,4.7456,0.0034571,2.6909,3.901,28.587,1007.5,31.741,7.3283,8.1367,0.88078,4.5997,5.3741e+06,119.17,158.91,160.88,1
5.5679,5.7429,27.559,0.22922,27.33,-0.024758,0.22169,-0.0019483,0.064163,1.0216,5.5679,63.942,7.9964,5.4502,7.8273,1.6941,5.3071,99164,0.79352,1.1961,1.2534,1
1.8413,1.0845,4.9904,0.00097525,4.9894,0.00024111,0.096485,0.00030403,0.038417,1.0034,1.8413,4.5649,2.1366,1.835,2.1293,0.78867,3.1243,7.8849,1.2198,0.96775,0.95006,1
17.029,17.429,70.063,-0.067106,70.13,0.00092152,0.70954,0.00016407,0.097282,1.1649,17.029,593.37,24.359,14.618,20.91,1.4569,4.0809,1.545e+07,8.0875,8.9286,7.8597,1
10.492,8.4197,33.775,-0.17485,33.95,0.00023793,0.60439,-0.0035068,0.1593,1.135,10.494,180.89,13.45,9.2451,11.85,1.0585,3.2592,2.8029e+05,0.41708,1.1129,1.8209,1
9.233,7.8112,31.908,0.080356,31.828,0.00066788,0.47525,-0.0015303,0.1498,1.0927,9.233,146.19,12.091,8.4494,11.065,1.065,3.0577,1.7563e+05,3.4101,4.7653,5.6391,1
55.508,42.661,187.59,4.5475e-13,187.59,0.0094387,3.7376,-0.012913,0.83827,3.0151,55.508,4898.9,69.992,18.41,23.214,0.92374,3.2628,9.8228e+08,26.677,22.462,12.626,1
6.5767,7.6949,45.037,0.0019261,45.035,-0.0055348,0.73854,-0.0014508,0.266,1.1633,6.5767,102.39,10.119,5.6535,8.6985,2.7078,11.78,1.3723e+06,0.51848,0.50155,0.24493,1
4.7167,3.5363,15.208,0.029866,15.178,0.0068018,0.29575,-0.0010167,0.10082,1.0386,4.7167,34.737,5.8938,4.5415,5.675,1.3911,4.3763,5828,22.8,19.317,6.5217,1
2.7107,1.8376,8.4566,-0.00016172,8.4567,-0.00586,0.29915,0.00046654,0.12812,1.0404,2.7107,10.721,3.2742,2.6055,3.1472,0.98928,3.3479,140.85,0.27924,0.25943,0.24753,1
7.8626,7.0234,33.459,0.0014261,33.457,-0.010456,0.53027,0.0042847,0.22276,1.1096,7.8626,111.09,10.54,7.0856,9.4984,1.2184,3.9735,1.7151e+05,0.18084,0.26558,0.4026,1
4.0652,3.2251,13.294,-0.023338,13.318,0.0054678,0.31022,0.00053357,0.1365,1.0434,4.0653,26.914,5.1879,3.8963,4.9722,0.89032,2.8397,1837.2,15.11,20.145,21.845,1
7.382,4.377,23.738,0.062569,23.675,0.0019253,0.51198,7.8892e-05,0.19429,1.1098,7.382,73.628,8.5807,6.6514,7.7315,0.97185,4.3234,16086,5.1064,3.8926,5.7225,1
17.888,13.074,51.897,0.35909,51.538,-0.040247,0.89857,0.0018792,0.17451,1.2612,17.888,490.69,22.151,14.183,17.563,0.88645,2.75,1.8142e+06,5.2296,15.515,24.75,1
15.812,13.099,52.84,-0.16229,53.002,0.027236,0.59959,-0.0015555,0.11478,1.1349,15.813,421.38,20.528,13.932,18.087,0.87499,2.9078,2.1331e+06,189.36,262.84,313.64,1
1.4836,1.8662,8.4204,0.0087966,8.4116,-3.3052e-05,0.070203,-4.4055e-05,0.02264,1.0012,1.4836,5.6794,2.3832,1.4817,2.3802,2.2832,7.5662,551.08,0.56239,0.52638,0.66051,1
15.376,22.891,105.67,-0.17618,105.84,0.003723,1.0547,-0.0013728,0.19041,1.2384,15.377,759.75,27.564,12.418,22.258,2.3486,8.077,1.7355e+08,1.3497,1.2273,1.5482,1
8.59,8.0168,33.19,0.20774,32.983,0.014835,0.36273,-0.00023559,0.072074,1.0523,8.59,137.98,11.746,8.1634,11.163,1.0733,3.2527,2.3884e+05,31.976,12.739,2.1264,1
3.5248,3.2893,15.214,-0.001087,15.215,-0.0034226,0.21842,0.0033622,0.046193,1.0163,3.5248,23.231,4.8198,3.4684,4.7427,1.4948,4.5449,4461.2,0.045568,0.43053,2.1808,1
13.497,13.858,63.964,-0.20744,64.171,-0.010136,0.84453,0.0003423,0.20695,1.2328,13.498,373.98,19.339,10.949,15.687,1.653,5.2564,7.6537e+06,2.0926,3.9238,8.3662,1
13.608,11.607,52.828,-0.41804,53.246,-0.0071816,0.97244,0.00016738,0.3117,1.2901,13.61,319.74,17.881,10.55,13.86,1.2747,4.0447,2.1253e+06,0.65827,0.7638,3.0104,1
16.229,22.883,97.397,0.17025,97.227,-0.024334,0.87412,-0.0021984,0.27385,1.2337,16.229,786.4,28.043,13.155,22.731,2.3538,7.6534,1.5153e+08,0.058162,0.055488,0.13914,1
17.744,10.964,55.321,0.17211,55.149,-0.0086063,1.3086,-0.0024143,0.57259,1.5127,17.744,434.9,20.854,11.73,13.786,0.95838,4.0903,1.4747e+06,18.977,37.822,102.37,1
4.795,2.6621,15.745,0.077966,15.667,0.0046233,0.59758,0.0005379,0.32485,1.1449,4.795,30.07,5.4836,4.1882,4.7896,0.8884,4.0113,1316,10.382,9.42,6.7321,1
20.399,19.079,81.742,-0.016154,81.758,0.00501,1.4575,-0.00095029,0.46881,1.5257,20.399,779.67,27.923,13.37,18.301,1.295,4.1507,2.6153e+07,15.148,31.451,42.295,1
16.204,13.224,58.157,-0.96525,59.122,-0.0037918,1.1716,-0.00084079,0.42311,1.3905,16.21,437.23,20.91,11.658,15.038,0.90398,2.7922,2.2086e+06,19.01,8.3362,5.4024,1
5.7727,10.601,54.537,0.025995,54.511,-0.0027097,0.51912,-0.00036561,0.093638,1.071,5.7727,145.57,12.065,5.3899,11.265,3.1515,12.304,6.5848e+06,0.41692,0.40858,0.47582,1
1.3267,0.79582,3.4674,-0.020078,3.4875,-0.00025318,0.078789,0.00029366,0.036603,1.0019,1.3268,2.3927,1.5468,1.3243,1.544,0.57265,2.7217,1.2096,0.12376,0.23723,0.45076,1
8.991,7.0091,45.693,-0.096543,45.789,0.041822,0.96211,-0.0014994,0.34992,1.2661,8.9913,129.91,11.398,7.1017,9.0024,1.8083,7.5247,4.7171e+05,19.063,49.991,9.6794,1
17.042,14.284,61.218,0.214,61.004,0.016914,1.9282,0.0041884,0.74165,1.7233,17.042,494.22,22.231,9.889,12.9,1.246,3.6463,4.9407e+06,284.15,148.92,232.8,1
16.251,14.349,57.421,-0.0093319,57.431,0.0059576,1.3522,-0.00078192,0.52866,1.4958,16.251,469.74,21.674,10.865,14.49,1.4765,4.1066,5.8119e+06,26.685,10.956,2.9757,1
25.012,22.291,98.674,-0.052972,98.727,-0.001907,1.6371,8.4342e-05,0.57132,1.6632,25.012,1121.8,33.494,15.039,20.138,1.2701,4.1449,5.4941e+07,2.1321,6.929,59.042,1
25.459,22.155,115.07,0.0087716,115.06,5.8956e-05,1.1765,0.00011721,0.1905,1.3766,25.459,1138.4,33.74,18.494,24.51,1.5765,6.054,1.0386e+08,2.1054,8.1404,34.092,1
20.428,24.988,132.41,-0.018497,132.43,0.01172,1.4671,0.00093833,0.26089,1.5535,20.428,1040.9,32.263,13.15,20.769,2.29,8.6189,3.1248e+08,0.32247,0.044457,0.71635,1
14.183,9.4178,41.417,0.002437,41.415,0.0040668,0.9719,-0.00055679,0.21358,1.3107,14.183,289.75,17.022,10.821,12.987,0.89082,3.0538,4.0693e+05,93.532,68.589,28.936,1
35.651,18.903,73.718,0,73.718,0.024501,10.009,-0.0036263,5.6587,8.8883,35.651,1627.9,40.347,4.011,4.5394,0.14556,1.7991,1.2446e+06,436.46,369.25,429.96,1
35.551,19.29,69.413,1.1297,68.283,0.0099439,10.576,0.019629,5.886,9.5529,35.551,1635.5,40.442,3.7215,4.2334,-0.0050854,1.6271,-6572,314.55,317.19,276.34,1
31.362,15.92,67.153,0.93797,66.215,-0.01274,8.5807,-0.0031423,4.8674,7.8065,31.362,1236.7,35.167,4.0174,4.5048,0.025723,1.7632,1.0707e+05,217.9,188.49,177.9,1
3.2258,4.5197,16.98,0.0032882,16.976,-0.0052612,0.17737,0.00055826,0.059288,1.0133,3.2258,30.809,5.5505,3.1835,5.4778,1.953,5.388,26508,0.051485,0.09273,0.24104,1
0.55627,0.30823,2.469,-0.002992,2.472,0.0024086,0.079108,-1.5363e-05,0.039146,1.0019,0.55628,0.40433,0.63587,0.55523,0.63467,2.4003,13.789,0.19949,0.48451,0.19809,0.040077,1
13.914,8.3423,38.068,1.7053e-13,38.068,0.016469,1.0439,-0.012107,0.46702,1.3045,13.914,263.1,16.22,10.666,12.434,0.64005,2.7875,1.7602e+05,80.23,87.401,81.256,1
7.6505,5.1504,26.484,-0.47436,26.958,-0.010201,0.60371,0.0014448,0.23443,1.1475,7.6537,85.025,9.2209,6.6699,8.0356,0.96084,3.8136,32335,0.57664,0.42264,4.2133,1
13.563,6.702,36.246,5.6843e-14,36.246,0.017578,1.6431,-0.0004065,0.84482,1.7646,13.563,228.8,15.126,7.6861,8.5722,0.90512,3.7707,1.0198e+05,20.523,16.006,15.603,1
8.66,6.5407,27.22,-1.1369e-13,27.22,0.0094588,0.67527,0.0041934,0.34012,1.1753,8.66,117.72,10.85,7.3683,9.2317,0.76259,2.5994,52176,71.397,76.251,56.582,1
