9.7711,13.321,69.05,0.0096855,69.04,0.00099772,0.64934,0.00021074,0.13958,1.1371,9.7711,272.72,16.514,8.593,14.523,2.4992,8.8241,1.342e+07,24.742,10.025,1.3127,1
20.502,16.385,53.228,1.7279e-05,53.228,-0.0017933,0.77807,0.0017977,0.14391,1.2156,20.502,688.51,26.239,16.866,21.585,0.39698,1.6177,1.7496e+06,2.3893,13.195,30.758,1
42.754,43.974,215.9,-2.2737e-13,215.9,-0.075151,3.7968,0.016207,1.1868,2.924,42.754,3759.2,61.313,14.621,20.968,1.9392,6.4001,3.2536e+09,109.73,71.203,154.61,1
93.507,99.89,475.35,-0.65421,476,-0.029347,5.2349,0.0024495,1.4075,4.0055,93.511,18710,136.78,23.346,34.149,2.2577,7.8026,2.519e+11,5.7737,40.678,48.392,1
31.28,27.573,122.43,0.10253,122.33,-0.0024406,2.5677,-0.0086802,0.75981,2.1385,31.28,1737.8,41.687,14.627,19.493,1.4425,4.1587,1.5951e+08,19.937,2.5394,15.257,1
39.77,31.214,109.04,-1.4663,110.5,0.010224,1.5386,-0.0036258,0.41324,1.6437,39.792,2554.8,50.545,24.209,30.751,0.56063,2.0828,7.3861e+07,0.36212,2.1136,4.157,1
15.161,9.1386,45.883,-2.936e-05,45.883,-0.0066211,0.93542,0.00070639,0.39068,1.313,15.161,313.28,17.7,11.547,13.48,0.98994,3.592,4.7205e+05,3.1193,4.3632,3.2079,1
22.907,17.746,72.068,0.018938,72.049,-0.0015496,1.2174,-0.0038518,0.47199,1.4692,22.907,839.29,28.971,15.592,19.719,0.77723,2.3568,6.4513e+06,7.5975,6.9405,13.518,1
41.576,35.573,157.54,-0.5497,158.09,-0.053972,1.7295,0.00083647,0.25892,1.6608,41.579,2992.5,54.704,25.036,32.939,1.146,3.9237,5.3171e+08,0.32286,4.9773,21.191,1
4.6952,4.5679,19.642,-0.54065,20.183,-0.0075734,0.18087,-0.0016055,0.04695,1.0137,4.7217,42.886,6.5487,4.6579,6.4603,1.3412,4.8075,26114,0.37962,0.24276,0.1896,1
16.175,21.502,81.848,-0.15272,82.001,-0.0020676,0.78894,-0.00014499,0.11914,1.1935,16.176,723.41,26.896,13.553,22.536,1.7512,4.7627,5.5726e+07,1.7122,1.3471,2.3728,1
6.739,6.4743,25.262,-0.5693,25.831,0.0025318,0.29374,-0.00022517,0.083916,1.0377,6.7564,87.281,9.3424,6.5112,9.0033,1.3053,3.6428,90731,2.8965,2.0172,2.0015,1
86.795,63.722,279.49,0.01229,279.48,0.07555,6.4474,0.0046008,2.3617,4.9856,86.795,11589,107.65,17.409,21.593,0.85323,2.9005,5.6493e+09,1006.3,1018.3,1789.5,1
59.488,61.979,356.07,0,356.07,-0.057609,5.7521,0.019877,1.8035,4.4808,59.488,7375.6,85.881,13.276,19.166,2.1602,8.2799,2.9407e+10,704.05,879.4,305.89,1
75.302,78.714,387.63,0,387.63,0.1772,6.8137,0.0113,2.3175,5.4495,75.302,11859,108.9,13.818,19.983,2.1257,7.3622,7.3337e+10,983.53,211.45,305.18,1
1.724,1.5511,6.9957,-0.0015485,6.9973,0.00037212,0.090046,7.1419e-05,0.028381,1.0028,1.724,5.3752,2.3184,1.7191,2.3119,1.2783,3.9305,83.861,0.0066185,0.073829,0.081833,1
26.924,26.543,135.31,-2.2737e-13,135.31,-0.0051333,2.2098,-0.00044592,0.7591,2.0195,26.924,1428.6,37.797,13.332,18.715,1.9213,6.6016,2.8512e+08,13.04,6.4422,54.861,1
17.635,13.489,71.635,-1.145e-05,71.635,0.0052544,1.9858,0.0019524,0.85709,1.8809,17.635,492.71,22.197,9.3757,11.801,1.0076,3.732,4.1298e+06,42.17,133.96,44.5,1
0.59484,0.85621,4.5772,-1.9841e-05,4.5772,3.7299e-05,0.061217,1.3062e-06,0.019027,1.0007,0.59484,1.0861,1.0421,0.59445,1.0415,2.805,11.582,21.908,0.24435,0.24222,0.19791,1
14.62,13.175,57.145,2.2737e-13,57.145,-0.0061037,1.2636,0.0032241,0.49705,1.469,14.62,387.1,19.675,9.9521,13.393,1.3571,3.8156,3.5157e+06,23.102,14.379,9.5978,1
20.634,20.108,87.593,0.09898,87.494,-0.010649,0.97478,0.00020454,0.28834,1.3039,20.634,829.61,28.803,15.825,22.09,1.4263,4.4279,3.8434e+07,19.142,20.929,9.7523,1
11.771,7.7747,33.482,0.00098899,33.481,-0.00049792,0.62179,0.00089902,0.23644,1.1542,11.771,198.92,14.104,10.198,12.219,0.93424,3.2677,1.6999e+05,22.466,30.203,23.762,1
49.101,57.694,262.57,0,262.57,-0.0050618,3.195,1.6557e-05,0.60444,2.4106,49.101,5735.6,75.734,20.369,31.417,1.9113,6.2542,1.2265e+10,664.6,1343.3,1293,1
43.499,43.73,163.06,-0.35149,163.41,0.040107,2.1402,-0.0014289,0.39334,1.9013,43.5,3802.2,61.662,22.879,32.431,1.1682,3.3122,1.116e+09,378.48,1010.5,944.89,1
6.9779,9.1656,39.47,-0.075871,39.545,-0.0016213,0.25976,0.00056434,0.049324,1.0291,6.9782,132.6,11.515,6.7806,11.189,2.0572,6.4123,1.2492e+06,1.1419,1.3063,0.76635,1
14.303,17.857,85.295,0.08212,85.213,-0.056964,0.70227,-0.0015597,0.13954,1.1522,14.303,523.09,22.871,12.414,19.849,2.1704,7.2724,4.3936e+07,72.944,99.975,114.82,1
24.507,26.527,100.18,-0.084666,100.26,-0.0087436,1.5767,0.00099565,0.29343,1.5341,24.508,1303.5,36.103,15.975,23.534,1.4967,4.044,1.242e+08,0.68284,0.69928,4.7352,1
52.129,37.439,142.88,-0.058764,142.94,0.022453,2.2335,0.0034067,0.37836,2.0712,52.129,4117.4,64.167,25.169,30.981,0.57131,2.3344,2.267e+08,298.05,275.02,366.96,1
22.138,32.334,143.02,-0.22587,143.24,-0.016334,1.2901,0.00049992,0.17473,1.4325,22.139,1534.4,39.171,15.455,27.344,2.0918,6.7382,7.5633e+08,3.5524,3.8843,6.6393,1
5.6078,6.6023,29.246,0.080216,29.166,-0.0035766,0.28852,-7.1762e-06,0.044855,1.0323,5.6078,74.986,8.6595,5.4323,8.3885,1.9647,6.5374,2.5644e+05,0.26124,0.34691,0.22756,1
4.3493,5.0681,36.098,0.0030567,36.095,0.041768,0.28958,0.0018035,0.042573,1.0322,4.3493,44.571,6.6762,4.2134,6.4677,2.2777,10.017,1.5686e+05,54.586,8.0069,0.74014,1
11.264,7.7814,31.995,0.0026422,31.992,0.010083,0.77857,-0.00078118,0.32615,1.2312,11.264,187.36,13.688,9.1493,11.118,0.77169,2.7323,1.2838e+05,8.3951,8.5286,4.5944,1
13.506,13.988,77.199,-0.020721,77.219,0.089455,0.83631,0.0017244,0.11348,1.2133,13.506,377.84,19.438,11.131,16.021,1.9887,7.2867,1.3377e+07,367.74,66.567,10.516,1
7.7975,14.296,79.436,-0.048079,79.484,-0.083513,0.4613,-0.0010816,0.061073,1.078,7.7977,264.94,16.277,7.2332,15.098,3.1352,13.395,3.5473e+07,4.4311,3.1824,5.1943,1
15.596,11.621,55.815,0.044698,55.77,-0.028521,1.0467,0.0008842,0.41716,1.3686,15.596,378.1,19.445,11.395,14.207,1.4735,4.9571,2.9148e+06,24.618,63.947,97.426,1
18.372,11.344,50.716,-0.0025015,50.719,-0.00021306,1.1018,3.3159e-05,0.39528,1.4023,18.372,466.06,21.588,13.102,15.395,0.66531,2.7496,7.7386e+05,5.6952,10.084,19.197,1
17.68,17.021,60.464,0.084165,60.38,-0.0046213,0.77594,0.00079949,0.10549,1.2035,17.68,601.94,24.534,14.691,20.387,0.98212,2.7462,7.3277e+06,0.99482,3.3317,5.0809,1
17.27,13.662,48.317,-0.53395,48.851,0.005461,0.65725,0.0008477,0.087303,1.1695,17.279,484.7,22.016,14.775,18.826,0.56149,2.0462,1.1864e+06,0.18616,1.6915,5.622,1
12.99,10.066,41.916,-1.0422,42.958,0.0067415,0.55324,-0.00099685,0.10573,1.1209,13.006,269.95,16.43,11.603,14.658,1.0727,3.3441,6.9239e+05,4.1056,3.5539,3.2731,1
11.897,13.227,57.224,-0.098785,57.322,0.017223,0.58769,-0.00045383,0.096427,1.1287,11.897,316.27,17.784,10.54,15.756,1.6413,4.9632,5.4005e+06,133.87,217.57,286.06,1
10.59,8.6911,46.745,-0.63578,47.381,-0.0036049,0.65078,0.0011239,0.12963,1.152,10.601,187.6,13.697,9.2023,11.89,1.5269,6.2473,1.0388e+06,49.751,46.547,3.5707,1
9.2836,6.4513,25.343,-0.01417,25.357,-0.001491,0.46639,0.00013539,0.12691,1.0912,9.2836,127.75,11.303,8.508,10.358,0.6313,2.5166,37382,2.2,7.4034,10.191,1
8.112,5.5022,33.044,-0.091035,33.135,-0.0054011,0.34621,0.00061894,0.064979,1.0482,8.1124,96.044,9.8002,7.7394,9.3496,1.5871,7.4631,1.376e+05,6.3331,9.587,10.46,1
5.064,2.6911,11.017,-0.2913,11.308,-0.0038891,0.17445,-7.712e-05,0.039686,1.0134,5.0682,32.877,5.7339,5.0012,5.658,0.024586,2.1794,19.257,1.3926,2.7173,3.5277,1
4.9322,3.0495,14.12,-0.054559,14.174,-0.001556,0.20975,0.00043645,0.044597,1.0196,4.9326,33.615,5.7978,4.8376,5.6861,0.71778,3.3883,1597.8,0.71961,1.6139,2.836,1
12.302,14.715,74.279,0.17544,74.104,-0.016038,0.9234,-4.949e-05,0.25811,1.2608,12.302,367.61,19.173,9.7572,15.208,2.5052,9.2034,2.2882e+07,0.62445,0.85734,2.6198,1
26.515,30.905,136.58,0.072922,136.51,0.020439,1.38,-0.00072287,0.28693,1.5003,26.515,1657,40.706,17.672,27.131,2.2276,7.397,6.5875e+08,14.656,6.801,39.104,1
6.6336,6.5874,30.703,0.037046,30.666,-0.00016538,0.28039,-0.00026272,0.056146,1.0287,6.6336,87.347,9.346,6.4483,9.085,2.0914,6.8555,2.6291e+05,0.58484,0.73364,1.037,1
9.7792,8.6276,32.35,-0.00013191,32.35,-0.0018938,0.44241,0.00043454,0.12655,1.0837,9.7792,169.98,13.038,9.0238,12.031,1.0005,2.8581,2.6042e+05,0.23795,1.1579,2.1161,1
2.7702,4.2872,20.323,0.0016036,20.321,0.0031918,0.16095,0.00015433,0.031013,1.0109,2.7702,26.032,5.1022,2.7404,5.0474,2.5927,9.1114,46711,3.1893,5.7816,7.6362,1
2.1086,2.1312,11.366,-0.016636,11.382,-0.0010065,0.13204,0.00036781,0.029813,1.0071,2.1087,8.983,2.9972,2.0938,2.9761,2.4764,9.6709,1610,0.14781,0.049832,0.11978,1
15.008,16.786,75.248,0.061909,75.186,-0.0072083,0.66565,0.00024741,0.11144,1.1366,15.008,506.67,22.509,13.204,19.804,1.7693,5.6399,2.207e+07,3.7826,6.0071,10.284,1
8.4032,9.4029,45.849,0.10314,45.746,0.013938,0.36993,-0.00072832,0.056567,1.0549,8.4032,158.92,12.607,7.9659,11.95,2.3904,8.7474,2.3004e+06,86.165,182.18,276.13,1
10.938,11.33,46.721,0.011849,46.709,0.021578,0.69089,0.00093195,0.24728,1.1828,10.938,247.85,15.743,9.2474,13.31,1.3814,4.1556,1.9871e+06,61.989,24.694,25.554,1
13.758,12.964,62.295,0.0067507,62.289,-0.036132,0.85646,0.00047728,0.29934,1.263,13.758,357.14,18.898,10.893,14.963,1.6256,5.4446,5.8761e+06,1.5566,1.0279,1.6937,1
2.9772,2.5183,9.5816,0.0070831,9.5745,-0.00062337,0.10899,5.1382e-06,0.035367,1.0047,2.9772,15.198,3.8984,2.9634,3.8803,0.92942,2.7504,507.7,1.6744,2.5749,3.3046,1
1.0318,0.58058,2.7163,-0.00040987,2.7167,-0.001479,0.063953,2.3162e-05,0.029011,1.0008,1.0318,1.4012,1.1837,1.0309,1.1827,0.59411,2.8311,0.25084,0.22473,0.28177,0.21605,1
13.049,11.813,50.727,-0.0011471,50.728,-0.051947,0.6659,0.0012947,0.17219,1.1627,13.05,309.67,17.597,11.224,15.135,1.3006,3.5594,1.7866e+06,22.217,61.804,75.566,1
15.044,13.777,57.93,-0.00047451,57.93,-0.0020289,0.91589,0.00061633,0.24601,1.2488,15.044,415.89,20.393,12.046,16.33,1.4847,4.2152,5.131e+06,1.6521,0.99214,2.1623,1
15.937,14.669,57.429,0.038579,57.39,-0.0091421,0.80514,-0.0015266,0.17787,1.2105,15.937,468.89,21.654,13.166,17.889,1.2328,3.4639,4.9751e+06,1.4116,2.2942,1.6651,1
9.4364,9.0312,44.793,0.14614,44.647,0.0012736,0.57043,-0.00044736,0.1341,1.1212,9.4364,170.51,13.058,8.4163,11.646,1.9031,6.6218,1.2849e+06,14.463,35.602,63.522,1
20.812,23.968,97.392,-0.0041901,97.396,0.0057613,1.1769,-8.0271e-05,0.22858,1.3372,20.812,1006.9,31.732,15.564,23.73,1.494,4.5431,9.4586e+07,3.0835,0.61181,1.5468,1
7.3819,5.391,23.592,0.027154,23.565,0.01623,0.4371,-5.9018e-05,0.12899,1.0797,7.3819,83.52,9.139,6.8371,8.4645,0.9764,3.1829,29193,10.726,2.1679,1.3083,1
35.98,25.969,106.98,0.090234,106.89,-0.015727,1.9037,-0.0017694,0.36862,1.8737,35.98,1968.1,44.364,19.202,23.677,0.74747,2.7061,5.1334e+07,42.711,188.65,409.86,1
29.311,32.225,146.45,0,146.45,0.0070975,1.4515,-0.0015705,0.22712,1.5002,29.311,1896.3,43.547,19.538,29.027,1.8302,6.1404,6.5352e+08,6.128,4.7469,3.6507,1
21.509,20.276,90.759,0.0069335,90.752,0.033411,1.2045,-0.0012927,0.21482,1.351,21.509,873.26,29.551,15.921,21.874,1.4891,5.1051,4.98e+07,220.03,197.64,261.66,1
15.999,15.497,68.367,0.20074,68.166,0.010426,0.87798,-0.0013293,0.15012,1.2176,15.999,495.84,22.268,13.14,18.288,1.4772,4.8666,1.1844e+07,15.172,9.9581,6.7029,1
10.787,10.725,54.824,-0.06566,54.89,-0.012024,0.52547,0.00038376,0.10643,1.1019,10.787,231.25,15.207,9.7897,13.801,2.0645,7.602,3.6639e+06,1.8837,9.5908,11.599,1
15.999,15.497,68.367,0.20074,68.166,0.010426,0.87798,-0.0013293,0.15012,1.2176,15.999,495.84,22.268,13.14,18.288,1.4772,4.8666,1.1844e+07,15.172,9.9581,6.7029,1
10.787,10.725,54.824,-0.06566,54.89,-0.012024,0.52547,0.00038376,0.10643,1.1019,10.787,231.25,15.207,9.7897,13.801,2.0645,7.602,3.6639e+06,1.8837,9.5908,11.599,1
14.675,18.402,91.379,0.002462,91.376,-0.022742,0.89774,-0.00091066,0.15631,1.233,14.675,553.56,23.528,11.901,19.081,2.366,8.8536,6.782e+07,0.8372,0.12704,0.09984,1
24.711,17.596,77.384,0.41308,76.971,0.02865,0.89615,0.0013527,0.15309,1.2726,24.711,919.9,30.33,19.419,23.834,1.0727,3.6436,1.3222e+07,152.18,293.12,456.19,1
24.584,11.824,49.946,0.045453,49.9,-0.017655,0.89656,-0.0024397,0.20725,1.288,24.584,744.01,27.276,19.086,21.177,-0.07647,2.4345,-67211,85.911,131.4,145.53,1
26.754,18.623,73.919,0.50127,73.418,-0.0023796,1.0297,0.0035011,0.19292,1.3378,26.754,1062.2,32.591,19.999,24.362,0.48243,2.251,6.2735e+06,53.201,122.15,182.03,1
23.413,42.693,177.34,-0.00024123,177.34,0.023001,1.2893,-0.0027333,0.13184,1.296,23.413,2368.7,48.669,18.065,37.552,2.4194,7.6995,3.4572e+09,314.34,553.75,807.53,1
39.834,38.599,169.25,-0.33114,169.58,-0.026166,1.822,0.0024316,0.23964,1.6664,39.836,3074.9,55.451,23.905,33.276,1.338,4.3699,9.8641e+08,22.509,37.82,38.481,1
13.201,8.4086,42.853,0,42.853,0.012844,1.452,-0.022687,0.68546,1.4306,13.201,244.88,15.649,9.2271,10.938,0.85446,3.1152,2.4217e+05,19.018,19.842,20.255,1
8.4438,7.0995,28.549,-0.14183,28.69,-0.027181,0.5213,0.00083338,0.22733,1.1134,8.4443,121.64,11.029,7.5841,9.9055,0.99528,2.9576,99482,0.73766,0.78181,0.58314,1
18.758,11.637,60.513,-0.76545,61.279,-0.018307,3.6196,0.012575,1.9747,3.3954,18.762,487.13,22.071,5.5257,6.5002,0.90161,3.9873,1.9365e+06,61.138,56.62,61.243,1
18.078,11.308,48.539,0.041866,48.497,-0.0038564,0.75056,0.005245,0.26215,1.2017,18.078,454.55,21.32,15.044,17.742,0.89483,3.4625,1.1537e+06,16.467,12.044,11.304,1
8.806,5.3868,26.311,0.14693,26.164,-0.0041301,1.2349,0.0039939,0.56936,1.5257,8.806,106.53,10.321,5.7716,6.7648,0.83093,3.037,23966,11.712,12.901,11.062,1
7.7479,5.3009,28.313,-0.012965,28.326,0.010604,1.1363,-0.0037911,0.52416,1.4507,7.7479,88.095,9.3859,5.3409,6.4701,1.4206,5.5766,68632,30.074,32.939,6.3018,1
5.402,8.3405,35.46,-0.43057,35.89,-0.0069728,0.3611,0.0020364,0.11422,1.0519,5.407,98.664,9.933,5.1401,9.4426,2.428,7.9039,1.0256e+06,1.895,0.62731,0.40703,1
35.219,39.563,200.03,-1.1786,201.21,-0.025771,3.3004,-0.019289,1.3309,2.6455,35.227,2803.7,52.95,13.316,20.015,2.2879,7.7559,2.4833e+09,21.132,35.622,34.83,1
32.049,26.789,126.32,0.10575,126.22,-0.0013496,2.4722,-0.0027384,0.98398,2.2153,32.049,1743.9,41.76,14.467,18.851,1.3431,4.094,1.4304e+08,10.464,8.2385,36.768,1
12.254,9.2976,37.469,0.58164,36.888,-0.0041427,0.74268,-0.0011693,0.30422,1.2103,12.254,236.5,15.379,10.124,12.706,0.89667,2.5966,3.1663e+05,18.754,12.898,12.456,1
2.5442,1.1939,5.9878,0.0014012,5.9864,0.0014795,0.16154,-0.00015167,0.088684,1.0116,2.5442,7.8969,2.8101,2.515,2.7778,0.57201,3.3178,10.201,1.3579,1.3559,1.2335,1
2.9245,0.8782,5.602,0.162,5.44,0.0004735,0.19821,6.0941e-07,0.11574,1.018,2.9245,9.3228,3.0533,2.8727,2.9992,-0.3275,4.117,-1.6032,1.3859,1.5158,1.4867,1
1.5369,0.99918,4.5268,-1.4211e-13,4.5268,0.00018647,0.072914,0.00049719,0.030473,1.0014,1.5369,3.3594,1.8329,1.5347,1.8302,0.87132,2.9452,5.0493,0.26697,0.26777,0.20554,1
1.0227,0.34717,2.191,0.01401,2.177,-0.00018824,0.056865,6.5048e-05,0.027358,1.0004,1.0227,1.1663,1.08,1.0223,1.0795,0.40595,3.1108,0.014945,0.11483,0.15198,0.11399,1
1.2584,0.65373,3.5526,0.0047027,3.5479,-0.00049727,0.068307,-8.1893e-05,0.033329,1.0011,1.2584,2.0105,1.4179,1.257,1.4163,1.4243,5.3403,1.5677,0.034337,0.055908,0.042478,1
20.682,28.329,116.93,0.045283,116.88,-0.017221,0.96471,0.00051189,0.26514,1.2967,20.682,1229.3,35.061,15.949,27.038,2.1348,6.3354,3.327e+08,18.624,34.479,45.888,1
68.495,36.135,193.88,0.4492,193.43,0.019805,15.317,0.0265,7.2803,13.707,68.495,5995.8,77.432,4.9971,5.6491,0.25908,2.5592,1.8264e+08,1595.9,1560.7,875.11,1
75.982,36.908,185.53,4.8655,180.67,-0.025152,15.424,-0.024193,7.3544,13.808,75.982,7133.9,84.463,5.5029,6.1171,0.27131,2.478,1.7908e+08,1763.3,2227.3,1323.6,1
84.371,40.833,193.46,1.9489,191.51,-0.025119,16.513,0.0041159,7.6935,14.798,84.371,8783.8,93.722,5.7015,6.3334,0.17351,2.2957,1.5753e+08,492.83,1233.5,1616.1,1
23.727,12.361,62.311,0.11597,62.195,0.023487,4.6652,-0.027139,2.7138,3.8284,23.727,715.57,26.75,6.1977,6.9874,0.38276,2.4884,7.7392e+05,64.62,37.287,27.06,1
24.41,14.705,65.014,-0.0054891,65.02,-0.015444,3.8124,0.0046254,2.1726,3.1129,24.411,811.85,28.493,7.8416,9.1531,0.5446,2.4948,2.2934e+06,35.912,83.987,147.99,1
11.397,10.157,56.982,1.1369e-13,56.982,0.0067159,1.7125,-0.01203,0.74678,1.707,11.397,232.93,15.262,6.6768,8.9411,2.178,8.2686,3.2451e+06,4.6837,43.687,4.9869,1
14.561,15.615,75.246,-0.19485,75.44,-0.031051,0.85071,0.010419,0.32358,1.2293,14.562,455.55,21.344,11.845,17.362,2.0637,7.052,2.0903e+07,59.497,84.887,128.53,1
3.2817,2.786,16.465,5.6843e-14,16.465,0.0028929,0.32269,-0.00091044,0.18638,1.0475,3.2817,18.523,4.3038,3.133,4.1087,2.8242,11.496,7676.8,0.72856,1.0776,1.1635,1
13.941,8.9397,41.373,-0.59723,41.97,-0.033203,1.675,0.016089,0.87386,1.7084,13.944,274.17,16.558,8.1618,9.6922,0.8341,3.2458,3.4791e+05,10.011,9.5225,10.4,1
14.08,11.396,48.074,-0.23956,48.313,0.012016,1.8395,-8.6094e-05,1.0068,1.7579,14.081,327.97,18.11,8.0102,10.302,1.1132,3.2645,1.2666e+06,33.271,40.578,24.99,1
25.018,9.4182,52.746,0.3261,52.42,0.024198,4.0953,-0.011575,2.4136,3.4851,25.018,714.5,26.73,7.1786,7.6699,-0.13669,2.7807,-63768,57.855,30.818,27.258,1
14.562,10.048,42.852,1.1369e-13,42.852,0.0063533,1.0715,-0.009481,0.35771,1.336,14.562,312.88,17.689,10.899,13.24,0.76768,3.0122,5.444e+05,11.071,52.396,62.995,1
10.152,8.3779,36.779,-0.17917,36.958,0.011768,0.62659,-0.0017256,0.1972,1.1531,10.153,173.17,13.159,8.8045,11.412,1.1651,3.7658,3.5854e+05,62.353,116.29,184.09,1
12.184,10.631,42.661,0.38485,42.276,-0.0042591,0.81968,0.00093355,0.28215,1.2528,12.184,261.34,16.166,9.7257,12.904,1.1476,3.323,9.3959e+05,15.267,9.1421,9.8761,1
4.8556,3.7602,14.755,-0.0023767,14.758,-0.0022944,0.14964,0.0001291,0.041245,1.0098,4.8556,37.699,6.14,4.8087,6.0806,1.0179,3.1614,4616.9,2.644,3.06,2.6553,1
3.5684,2.0627,7.9892,-0.020937,8.0101,-0.0014253,0.12889,0.00023,0.050683,1.007,3.5685,16.983,4.1211,3.5437,4.0924,0.19349,2.1164,38.065,0.42757,0.81769,0.80844,1
3.3606,2.5106,10.554,0.0044602,10.55,0.0003087,0.13684,-0.00041617,0.047213,1.008,3.3606,17.589,4.1939,3.3338,4.1605,0.93884,2.905,533.29,1.8563,2.6646,2.4428,1
12.761,10.867,56.351,-0.89122,57.243,-0.013529,0.63242,0.00076898,0.12011,1.1364,12.768,280.8,16.757,11.236,14.746,1.4958,5.7589,2.8317e+06,0.17547,0.52278,2.3833,1
3.865,3.4866,16.939,-1.5063,18.445,0.0051368,0.21081,1.9796e-05,0.047217,1.0193,3.9403,27.08,5.2038,3.8659,5.1055,1.239,4.6546,6483.9,1.8491,2.7839,3.4317,1
2.5622,3.5705,23.115,-0.023759,23.138,0.023442,0.16837,0.0012249,0.039384,1.0116,2.5623,19.298,4.3929,2.533,4.3428,3.6241,15.83,40400,48.356,46.302,45.37,1
7.8796,9.1157,38.529,-0.063691,38.593,0.00052652,0.35226,7.9407e-05,0.10031,1.0536,7.8801,145.09,12.045,7.4795,11.433,1.8829,5.8076,1.0415e+06,21.711,31.005,31.801,1
8.5202,6.2715,26.733,0.089496,26.643,0.011836,1.082,0.002606,0.62121,1.357,8.5202,111.88,10.577,6.2786,7.7945,0.84512,2.9753,54579,10.969,13.771,19.137,1
11.045,6.4195,30.592,0.0023443,30.59,-0.0055508,1.7801,-0.0015693,1.0388,1.7424,11.045,163.15,12.773,6.339,7.3309,0.75937,3.0583,57266,14.425,17.734,21.748,1
33.453,11.868,68.272,0.18241,68.089,0.01412,5.0471,0.014216,2.9233,4.1224,33.453,1259.8,35.493,8.115,8.6099,0.076314,2.9451,1.2627e+05,410.1,481.86,395.9,1
11.714,5.945,30.089,0.063334,30.026,0.0024079,2.3717,-0.0017727,1.3261,2.303,11.714,172.52,13.135,5.0863,5.7031,0.33547,2.4973,18445,21.993,32.971,26.022,1
38.417,30.037,122.66,-0.028529,122.69,-0.048,1.8588,0.00027295,0.31697,1.7781,38.417,2377,48.754,21.605,27.419,0.77517,2.7301,1.1906e+08,7.6306,23.354,52.847,1
32.46,29.156,142.19,0.012029,142.18,0.019005,2.0362,0.0026383,0.36187,1.7905,32.46,1902.7,43.62,18.129,24.362,1.3061,4.545,2.7053e+08,3.9684,37.614,90.628,1
22.433,19.438,84.527,0.18184,84.345,0.011894,1.9799,0.0018622,0.5321,1.8136,22.433,880.59,29.675,12.369,16.363,1.4206,4.3016,2.9528e+07,196.47,53.201,22.99,1
39.606,29.54,121.54,1.5545,119.99,0.0054353,2.3217,0.0030495,0.56117,2.1433,39.606,2440.2,49.398,18.479,23.047,0.78072,2.8858,1.1689e+08,12.211,46.718,247.07,1
9.9165,14.889,53.438,-0.39007,53.828,-0.0063295,0.39841,0.0005038,0.07377,1.0657,9.9256,319.75,17.882,9.3137,16.779,1.8609,5.077,9.5786e+06,0.68872,0.44052,0.1824,1
9.2144,12.214,53.571,0.022287,53.549,-0.0025635,0.45533,0.0008356,0.062776,1.0751,9.2144,233.92,15.294,8.5704,14.225,2.1318,7.011,5.9232e+06,0.60017,0.74528,0.8123,1
3.9199,4.9135,21.565,-0.0066636,21.572,0.0014644,0.18663,1.2351e-05,0.044909,1.0151,3.9199,39.48,6.2833,3.8616,6.1898,2.0732,6.7074,59814,1.3687,1.9659,1.7327,1
52.662,39.341,185.46,-0.15771,185.61,-0.0089381,2.5054,-0.00093152,0.59746,2.3721,52.662,4319.2,65.72,22.201,27.705,1.4846,4.945,1.2313e+09,313.34,47.545,60.847,1
20.633,23.792,108.24,1.1369e-13,108.24,0.017474,1.4453,-0.0030729,0.30033,1.518,20.633,991.12,31.482,13.592,20.739,1.9795,6.2105,1.4172e+08,73.775,116.51,83.671,1
20.007,20.614,78.965,0.0006928,78.965,0.031269,1.2172,-0.0025266,0.23112,1.3831,20.007,824.71,28.718,14.465,20.763,1.4885,4.0721,3.5325e+07,720,599.72,611.82,1
23.964,19.067,79.639,-0.037924,79.677,-0.044781,1.6975,0.0051607,0.38302,1.7124,23.964,937.4,30.617,13.994,17.879,1.0394,3.3063,1.7067e+07,15.345,58.589,170.15,1
9.1309,5.5282,24.174,0.021777,24.152,-0.012764,0.37917,-0.00030001,0.070002,1.0612,9.1309,113.9,10.672,8.6041,10.057,0.47759,2.6723,18667,2.6318,6.9302,13.282,1
5.1468,4.9712,21.182,-0.22547,21.408,-0.00011704,0.30415,-0.00040084,0.066452,1.0411,5.1485,51.173,7.1535,4.9452,6.871,1.5005,4.4941,34164,0.038882,0.07267,0.15218,1
16.457,15.267,79.496,0.026887,79.469,0.0023077,1.1643,0.00041115,0.22769,1.3535,16.457,503.65,22.442,12.159,16.581,1.7389,6.3761,1.7762e+07,8.5842,11.188,11.674,1
10.964,10.724,47.459,-0.0051988,47.464,0.0030587,0.56114,0.0016698,0.10716,1.1159,10.964,235.06,15.332,9.8248,13.739,1.4971,4.9108,1.878e+06,9.0872,19.588,29.714,1
14.667,15.255,67.4,0.020618,67.38,-0.007808,0.81152,-0.0014121,0.14027,1.1992,14.667,447.55,21.155,12.231,17.641,1.6775,5.0869,1.1345e+07,0.44479,4.2164,10.332,1
4.0629,4.6299,20.254,0.060391,20.194,-0.0020759,0.16254,0.00042492,0.040584,1.0113,4.0629,37.918,6.1577,4.0173,6.0886,2.0217,6.4815,41019,0.11407,0.1507,0.14751,1
4.7934,6.7638,33.343,0.024991,33.318,0.039296,0.27499,1.5638e-05,0.057573,1.0303,4.7934,68.671,8.2868,4.6524,8.0429,1.9244,5.8785,2.573e+05,81.084,53.959,60.007,1
17.328,20.648,111.18,-0.13903,111.32,0.00019464,1.1994,-0.0019164,0.29179,1.4205,17.329,726.1,26.946,12.199,18.97,2.8064,11.444,1.7154e+08,1.4666,0.66149,2.7978,1
17.227,17.501,77.401,-0.89123,78.293,0.026773,1.0396,0.00053827,0.24083,1.3417,17.233,602.72,24.55,12.844,18.298,1.6073,4.7716,2.0619e+07,122.18,263.68,374.65,1
14.165,17.35,82.505,-0.2219,82.727,-0.0061069,0.77519,0.0010302,0.11804,1.1838,14.167,501.3,22.39,11.967,18.913,2.0767,7.0779,3.6046e+07,9.1245,2.0162,4.0513,1
28.593,22.121,97.905,0.049701,97.855,-0.057291,1.2532,-0.010119,0.25185,1.4338,28.593,1306.4,36.144,19.942,25.208,0.93282,3.2239,3.5041e+07,27.624,38.495,22.65,1
32.224,28.729,139.1,-0.63263,139.73,0.019871,1.4809,-0.00025015,0.23435,1.5342,32.228,1862.8,43.16,21.007,28.132,1.5631,5.6414,3.3638e+08,167.83,113.81,36.022,1
27.367,37.028,171.91,-0.00044529,171.91,0.014069,1.3354,-0.0027031,0.33601,1.4835,27.367,2118.4,46.026,18.447,31.024,2.5792,9.0371,2.1784e+09,44.785,29.084,33.722,1
11.301,12.322,55.316,-2.7594,58.076,-0.0057539,0.5879,-0.0019454,0.23003,1.1388,11.358,279.37,16.714,9.9742,14.678,1.9585,6.434,5.5159e+06,1.1426,1.462,1.1092,1
7.6773,6.2581,31.996,0.24989,31.746,0.025472,0.37107,0.00015677,0.083031,1.0566,7.6773,98.057,9.9024,7.2661,9.372,1.8702,7.3175,2.4295e+05,163.08,175.02,83.762,1
13.579,8.6142,36.982,0.0029066,36.979,-0.016548,0.42626,0.00074506,0.098795,1.0774,13.579,258.49,16.078,12.603,14.923,0.65676,2.7546,1.8581e+05,4.6542,0.18363,0.28661,1
1.7463,0.84917,4.0123,0.049671,3.9627,0.0004263,0.083542,3.9793e-05,0.036128,1.0023,1.7463,3.7697,1.9416,1.7423,1.9372,0.57013,2.8359,1.614,0.3846,0.20084,0.03788,1
1.7682,0.86158,3.863,-0.019585,3.8826,-0.00023458,0.077513,-0.00015996,0.031765,1.0018,1.7683,3.8679,1.9667,1.7651,1.9632,0.15028,2.5771,0.4547,0.96818,1.0528,1.0784,1
3.1113,2.8722,12.915,-0.044337,12.96,-0.0038993,0.18512,0.00059891,0.042296,1.0152,3.1116,17.92,4.2332,3.0649,4.1697,1.4515,4.4602,2308.8,5.6109,18.772,22.096,1
1.3368,0.97008,4.4425,-0.012088,4.4546,0.0014949,0.077382,-8.9323e-05,0.028781,1.0018,1.3368,2.7269,1.6513,1.3344,1.6484,1.42,4.5236,9.6676,0.1478,0.040647,0.046204,1
19.234,21.258,80.986,-3.7031e-06,80.986,-0.0095624,0.83808,-0.00027277,0.10424,1.2247,19.234,821.33,28.659,15.705,23.4,1.2043,3.3125,3.1663e+07,17.044,23.729,27.481,1
6.6585,5.657,24.81,0.23444,24.575,0.0033752,0.31214,0.00077847,0.098185,1.0437,6.6585,76.299,8.7349,6.3798,8.3693,1.3503,4.342,64343,8.2042,4.4407,0.53006,1
7.7412,4.9874,22.119,-0.054008,22.173,0.0027812,0.39103,-0.00027629,0.083798,1.065,7.7414,84.771,9.2071,7.2686,8.6448,0.75581,3.1411,16221,3.7581,5.9034,4.5335,1
13.643,11.332,44.334,-0.13456,44.469,0.024174,0.59396,-0.00078764,0.094624,1.1353,13.644,314.4,17.731,12.018,15.618,0.69954,2.3606,6.9284e+05,166.08,234.88,205.54,1
2.7533,2.9367,14.979,-0.018459,14.997,0.00040748,0.18933,-0.00069211,0.069787,1.0158,2.7534,16.194,4.0242,2.7105,3.9616,2.6373,9.8215,7792.3,0.12815,0.12397,0.13639,1
8.5686,7.0719,36.117,-0.15289,36.27,-0.0080019,0.36392,0.0014875,0.074708,1.0561,8.5706,123.37,11.107,8.115,10.517,1.5596,5.7898,3.2053e+05,18.45,5.1166,0.45234,1
4.161,2.9411,12.798,0.203,12.595,-0.012831,0.13577,0.00018349,0.039379,1.0078,4.161,25.954,5.0945,4.1287,5.0548,1.0285,3.2023,1436.7,0.76832,0.64833,0.54556,1
2.9348,2.5433,10.504,0.0015832,10.503,-0.0019465,0.097141,-0.00028571,0.030321,1.0035,2.9348,15.074,3.8825,2.9247,3.8691,1.6726,4.8301,1277.6,0.053411,0.16952,0.34547,1
18.912,11.25,48.916,-0.00022852,48.916,-0.0073074,0.87904,0.0021223,0.17955,1.2836,18.912,484.09,22.002,14.734,17.141,0.26182,2.5589,3.9551e+05,13.318,43.067,58.645,1
13.165,8.386,45.955,-0.49463,46.45,0.015304,0.7376,0.00022798,0.15784,1.184,13.173,243.55,15.606,11.125,13.181,1.2824,5.4771,6.7497e+05,49.806,57.114,46.124,1
8.4142,4.473,21.564,-2.2737e-13,21.564,0.0041887,0.65879,-0.0015526,0.34263,1.1638,8.4142,90.783,9.528,7.23,8.187,0.83464,3.58,11368,10.994,12.382,11.237,1
2.2544,1.2989,5.5592,-0.093067,5.6523,-0.0017757,0.18169,-0.00056803,0.08298,1.0148,2.2547,6.7674,2.6014,2.2217,2.5634,0.34534,2.0882,6.6331,0.081664,0.14022,0.20069,1
1.8523,0.89833,6.3404,0.0016061,6.3388,0.0027406,0.17809,-0.00050931,0.082757,1.0142,1.8523,4.2369,2.0584,1.8263,2.0295,1.3733,6.2939,12.569,2.3502,3.6192,5.1343,1
2.5044,1.0657,5.8739,0.013096,5.8608,-0.0012622,0.2133,0.00064784,0.10138,1.0208,2.5044,7.4066,2.7215,2.4534,2.6661,0.1726,2.9218,2.332,0.31174,1.0743,0.55658,1
52.095,39.618,168.32,-0.43835,168.76,0.018451,3.2617,0.0023928,1.1087,2.2954,52.097,4281.7,65.435,22.696,28.507,0.85746,3.0188,5.6979e+08,730.55,975.25,1141.3,1
33.671,26.273,123.27,0.018082,123.26,-0.049154,3.1545,-0.00042154,1.2199,2.5257,33.671,1823.1,42.698,13.331,16.906,1.3496,4.2718,1.2993e+08,43.064,88.968,150.55,1
6.2739,9.9017,43.233,-0.05122,43.284,-0.0025268,0.32326,-0.0001119,0.048053,1.0382,6.2742,137.29,11.717,6.043,11.285,2.5077,8.3263,2.6039e+06,0.42288,0.5477,0.26135,1
1.7829,0.88519,4.2852,-0.038022,4.3232,0.0033338,0.098565,0.00024805,0.041795,1.0036,1.783,3.9613,1.9903,1.7765,1.9831,0.13756,2.3903,0.41797,1.5915,0.58679,0.070204,1
16.251,12.081,58.267,-0.072074,58.339,0.031125,0.92041,-0.0039447,0.3375,1.2612,16.251,409.87,20.245,12.885,16.052,0.89726,3.5472,2.1365e+06,73.283,91.352,81.339,1
12.487,11.217,51.032,-0.75402,51.786,-0.021066,0.8865,-0.00087161,0.42141,1.2651,12.492,281.61,16.781,9.8742,13.265,1.4878,4.784,2.2506e+06,25.104,33.014,29.41,1
4.9978,3.1557,16.072,1.1369e-13,16.072,0.0038732,0.34363,-0.0011293,0.12969,1.0521,4.9978,34.925,5.9097,4.7501,5.6168,1.1058,3.9726,2817.8,1.821,2.371,1.6831,1
5.4837,5.0666,27.289,-0.0069543,27.296,0.016367,0.60629,-0.00039789,0.25977,1.0983,5.4837,55.712,7.464,4.993,6.7961,1.9715,6.5289,68269,55.832,37.127,4.7254,1
12.267,18.18,81.021,-0.45706,81.478,0.0002887,0.59189,-6.3027e-05,0.060695,1.1118,12.281,480.6,21.923,11.046,19.718,2.1849,7.3119,4.6942e+07,2.4178,3.4269,1.8266,1
9.4513,13.75,60.011,2.1896e-06,60.011,-0.0010984,0.65478,0.00020698,0.087171,1.1305,9.4513,278.17,16.678,8.3605,14.753,2.1116,6.6035,9.961e+06,0.87506,1.0282,0.77318,1
12.849,18.254,80.619,-0.64071,81.259,-0.0034061,0.56349,-0.00056631,0.092017,1.116,12.864,497.92,22.314,11.527,19.994,2.3972,8.1782,5.4968e+07,20.438,26.362,21.593,1
18.912,17.327,64.955,0.50046,64.455,-0.0082939,0.7595,-0.0002277,0.13341,1.2089,18.912,657.56,25.643,15.644,21.211,0.91371,2.6041,7.2483e+06,1.3804,1.4418,0.84194,1
63.768,37.126,167.8,1.7079,166.09,0.016401,4.8689,0.0053562,1.9974,3.4309,63.768,5443.1,73.778,18.586,21.504,0.43156,2.4991,2.1179e+08,76.58,101.74,70.902,1
38.66,44.719,301.65,-0.053195,301.71,0.095737,5.6007,0.010768,2.5038,3.5579,38.66,3492,59.093,10.866,16.609,3.4907,16.838,1.4702e+10,601.36,328.96,361.13,1
27.887,13.173,84.309,0.46753,83.842,-0.074809,4.4757,-0.0029333,2.5667,3.6925,27.887,950.99,30.838,7.5522,8.3515,0.93414,5.0203,5.0961e+06,83.085,127.12,94.21,1
5.4892,5.6966,27.559,0.22922,27.33,-0.024141,0.21987,-0.0017091,0.064057,1.0213,5.4892,62.544,7.9085,5.3749,7.7438,1.7311,5.4484,99025,1.0695,0.88521,0.70542,1
1.8548,1.0743,4.9904,0.00097525,4.9894,0.00016457,0.094005,0.00018064,0.037148,1.0032,1.8548,4.593,2.1431,1.8489,2.1363,0.75612,3.1285,7.4134,0.90408,1.1292,0.8265,1
16.757,17.308,70.063,-0.067106,70.13,0.0026004,0.7016,0.00079568,0.096346,1.1614,16.757,580,24.083,14.428,20.736,1.4923,4.1928,1.5583e+07,4.1292,5.7236,7.259,1
10.279,8.4322,33.775,-0.17485,33.95,0.0031939,0.59833,-0.003879,0.15787,1.1325,10.28,176.68,13.292,9.0774,11.737,1.0745,3.3011,2.8947e+05,0.20602,0.022126,0.18383,1
9.2597,7.6709,31.908,0.080356,31.828,0.0063508,0.48275,0.00036234,0.16062,1.0957,9.2597,144.52,12.021,8.451,10.972,1.1038,3.1741,1.7059e+05,9.9842,5.9069,4.6643,1
54.609,42.546,187.59,4.5475e-13,187.59,0.019823,3.6974,-0.014276,0.83129,2.9789,54.609,4790.2,69.211,18.332,23.234,0.95525,3.3136,1.0049e+09,57.989,20.222,29.041,1
6.4856,7.6263,45.037,0.0019261,45.035,-0.0048695,0.73202,-0.0017857,0.26391,1.161,6.4856,100.15,10.008,5.5862,8.6199,2.7475,12.05,1.358e+06,2.2131,1.4577,0.59951,1
4.7233,3.5002,15.208,0.029866,15.178,-0.0020599,0.29267,-0.00057015,0.099344,1.0378,4.7233,34.546,5.8776,4.5512,5.6635,1.3933,4.4437,5665.5,1.0488,2.9746,3.9422,1
2.7398,1.9001,15.372,-0.00016172,15.372,0.01782,0.36237,0.0045449,0.13533,1.0509,2.7398,11.113,3.3335,2.6071,3.1721,1.3278,5.8373,595.83,0.37296,1.755,2.679,1
7.7014,7.0161,33.459,0.0014261,33.457,-0.012631,0.52626,0.0049644,0.22119,1.1082,7.7014,108.48,10.415,6.9494,9.3983,1.2402,4.0271,1.7481e+05,0.26819,2.026,0.68325,1
4.1936,3.191,13.294,-0.023338,13.318,0.0012049,0.31299,-0.00026619,0.13778,1.0441,4.1937,27.757,5.2685,4.0165,5.0459,0.81507,2.7541,1620.3,5.3205,5.2685,6.6214,1
7.2879,4.4344,23.738,0.014382,23.723,0.0024292,0.51993,0.00059838,0.19935,1.1131,7.2879,72.754,8.5296,6.5476,7.6632,0.93752,4.1612,16317,0.65331,0.9637,1.5371,1
17.562,13.085,51.897,0.35909,51.538,-0.037669,0.8886,0.0010603,0.17295,1.2556,17.562,479.43,21.896,13.987,17.438,0.91063,2.7911,1.8903e+06,3.0433,2.0565,3.079,1
15.981,12.969,52.84,-0.16229,53.002,0.040866,0.71277,0.0058764,0.12177,1.1706,15.982,423.38,20.576,13.652,17.577,0.85943,2.9196,2.0246e+06,7.1717,4.821,28.228,1
1.4774,1.8443,8.4204,0.0087966,8.4116,-0.00032381,0.070227,0.0001704,0.022708,1.0013,1.4774,5.5802,2.3622,1.4755,2.3593,2.3189,7.7732,540.73,0.20414,0.48699,0.60228,1
15.118,22.677,105.67,-0.17618,105.84,0.0076125,1.0424,-0.0012098,0.18823,1.2331,15.12,742.19,27.243,12.262,22.093,2.3894,8.295,1.7221e+08,2.6353,1.8514,1.4861,1
8.8133,7.9223,33.19,0.20774,32.983,0.0017871,0.36017,-0.00039443,0.071365,1.0515,8.8133,140.36,11.847,8.3813,11.267,1.0101,3.2115,2.1893e+05,15.258,21.709,25.534,1
8.2375,19.565,90.883,-0.001087,90.884,0.098803,0.60751,0.00095224,0.077991,1.082,8.2375,450.19,21.218,7.6133,19.61,3.5503,14.143,1.6067e+08,1225.4,1314.1,1229.8,1
13.456,11.512,52.828,-0.41804,53.246,-0.0027599,0.96253,-8.8196e-05,0.30892,1.2848,13.458,313.44,17.704,10.475,13.78,1.3099,4.1511,2.1291e+06,6.6236,4.8729,0.71232,1
15.87,22.726,97.397,0.17025,97.227,-0.022512,0.86378,-0.0020975,0.27059,1.2282,15.87,767.71,27.708,12.921,22.56,2.3862,7.8339,1.5161e+08,0.11453,0.12795,0.077283,1
17.598,10.878,55.321,0.17211,55.149,-0.0024812,1.3045,0.0024325,0.57576,1.5106,17.598,427.87,20.685,11.65,13.693,0.99223,4.1768,1.4814e+06,32.794,26.764,23.227,1
20.201,18.896,81.742,-0.016154,81.758,0.012242,1.4443,-0.0016643,0.46584,1.5179,20.201,764.72,27.654,13.308,18.218,1.3301,4.267,2.6062e+07,17.52,19.191,11.382,1
15.85,13.212,58.157,-0.96525,59.122,-0.017532,1.1655,-0.0015889,0.42065,1.3875,15.856,425.59,20.63,11.428,14.868,0.94651,2.8474,2.3017e+06,6.3132,6.2097,8.5349,1
5.6604,10.499,54.537,0.025995,54.511,-0.003033,0.51301,-0.00037896,0.09275,1.0694,5.6604,142.14,11.922,5.293,11.148,3.1972,12.623,6.5134e+06,0.20711,0.28025,0.37555,1
1.4911,1.09,5.7266,-0.020078,5.7467,0.00448,0.087119,9.3911e-06,0.036054,1.0026,1.4912,3.4101,1.8466,1.4873,1.8419,1.5721,6.2714,30.672,4.6578,5.6498,3.6551,1
9.637,8.1085,45.693,-0.096543,45.789,0.029548,1.011,-0.003794,0.36745,1.2909,9.6372,158.54,12.591,7.4652,9.7535,1.8949,7.1296,8.4136e+05,151.39,306.21,52.317,1
18.38,16.28,81.173,0.214,80.959,0.010653,1.9487,0.0023136,0.74711,1.7334,18.38,602.56,24.547,10.604,14.162,1.3763,4.2237,1.2714e+07,256.48,566.64,944.92,1
15.956,14.303,57.421,-0.0093319,57.431,0.0064191,1.3382,-0.0013945,0.52431,1.4865,15.956,458.95,21.423,10.734,14.411,1.5012,4.1956,5.9203e+06,1.6456,4.4434,27.335,1
25.103,21.914,98.674,-0.052972,98.727,0.018186,1.6446,0.0003274,0.57829,1.6708,25.103,1109.8,33.314,15.025,19.94,1.3045,4.2959,5.3252e+07,67.887,92.477,15.066,1
25.023,22.103,115.07,1.0473e-05,115.07,0.026606,1.1872,0.0019072,0.193,1.3847,25.023,1114.1,33.378,18.071,24.104,1.5884,6.1111,1.044e+08,1.1045,0.28255,1.5319,1
20.338,24.708,132.41,-0.018497,132.43,0.024153,1.4568,0.00016515,0.26127,1.5483,20.338,1023.4,31.991,13.136,20.662,2.3225,8.8346,3.065e+08,36.247,18.76,2.9304,1
13.738,9.4727,41.417,0.002437,41.415,-0.024544,0.95213,0.0010118,0.20715,1.2986,13.738,278.37,16.684,10.579,12.848,0.93731,3.1353,4.4531e+05,1.3299,4.8856,12.192,1
35.66,18.927,73.718,0,73.718,0.049862,10.03,0.0099819,5.6728,8.9104,35.66,1629.4,40.366,4.002,4.5302,0.14452,1.7896,1.2362e+06,464.43,469.74,343.09,1
35.706,19.113,69.413,1.1297,68.283,-0.042182,10.446,0.019958,5.8046,9.4196,35.706,1639.8,40.494,3.7906,4.2989,-0.013127,1.6496,-95165,313.69,366.9,531.83,1
30.592,15.804,59.934,0.93797,58.996,-0.016227,8.573,-0.0072216,4.8623,7.8033,30.592,1185.4,34.429,3.9204,4.4121,0.045184,1.7323,1.6269e+05,189.12,258.5,243.56,1
3.1597,4.4855,16.98,0.0032882,16.976,-0.0052154,0.17534,0.0005689,0.058693,1.013,3.1597,30.08,5.4845,3.1192,5.4142,1.9888,5.5409,26605,0.041827,0.041563,0.03937,1
0.76435,1.0168,6.9198,-0.002992,6.9228,0.0076895,0.082696,-7.956e-05,0.039071,1.0022,0.76436,1.6169,1.2716,0.76266,1.2687,4.263,22.033,127.24,5.4083,4.2118,2.5416,1
13.827,8.2645,38.068,1.7053e-13,38.068,0.0093623,1.0325,-0.011553,0.46158,1.2982,13.827,259.4,16.106,10.65,12.406,0.67098,2.8545,1.7752e+05,18.699,29.845,56.726,1
7.6972,5.1147,26.484,-0.47436,26.958,0.0018459,0.61261,-0.00065858,0.23918,1.1514,7.7003,85.375,9.2399,6.6876,8.0247,0.94313,3.8111,31049,16.028,30.682,17.267,1
13.455,6.6703,36.246,5.6843e-14,36.246,0.01001,1.635,0.00013808,0.84273,1.7596,13.455,225.47,15.016,7.6465,8.5335,0.93015,3.8249,1.0337e+05,15.266,26.478,17.844,1
8.8055,6.5315,27.22,-1.1369e-13,27.22,0.0038806,0.66991,0.0042444,0.33703,1.1728,8.8055,120.15,10.961,7.508,9.3459,0.70227,2.5084,47860,34.899,51.359,63.762,1
