9.7809,13.243,69.05,0.0096855,69.04,-0.0024953,0.64636,0.00031056,0.13882,1.136,9.7809,270.84,16.457,8.6098,14.487,2.5115,8.9201,1.3249e+07,26.687,26.223,11.623,1
21.406,17.544,95.082,1.7279e-05,95.082,0.10071,1.019,0.0033617,0.15747,1.291,21.406,765.66,27.671,16.581,21.433,0.66081,2.852,1.1559e+07,355.89,21.131,3.9053,1
42.733,43.739,215.9,-2.2737e-13,215.9,-0.020337,3.8125,0.01705,1.1845,2.945,42.733,3737,61.131,14.51,20.758,1.9487,6.4651,3.2178e+09,54.289,104.62,62.773,1
92.982,99.427,475.35,-0.65421,476,0.020096,5.2348,-0.0044781,1.406,4.0132,92.986,18520,136.09,23.17,33.909,2.2769,7.9041,2.5095e+11,52.579,3.7456,31.389,1
30.817,27.441,122.43,0.10253,122.33,-0.01662,2.5237,0.0069969,0.74824,2.117,30.817,1701.8,41.252,14.557,19.486,1.4855,4.287,1.6305e+08,20.251,38.72,33.499,1
39.475,31.15,109.04,-1.4663,110.5,0.024114,1.5355,-0.0040382,0.41214,1.6429,39.496,2527.5,50.274,24.04,30.601,0.57925,2.1022,7.5748e+07,8.4698,0.34676,1.9968,1
15.041,9.1251,45.883,-2.936e-05,45.883,-0.006647,0.92811,0.001695,0.38811,1.3084,15.041,309.41,17.59,11.496,13.443,1.0138,3.6302,4.8103e+05,14.382,3.2655,2.9452,1
41.254,35.488,157.54,-0.5497,158.09,-0.041781,1.7232,-2.3369e-07,0.25758,1.6579,41.256,2959.8,54.404,24.885,32.815,1.1624,3.9611,5.3531e+08,8.4301,0.40116,2.6803,1
4.5311,4.4519,19.642,-0.54065,20.183,-0.01881,0.14149,-0.00077651,0.046273,1.0088,4.5572,40.327,6.3503,4.5177,6.2952,1.4258,5.2028,26274,0.66808,0.46569,0.47478,1
16.015,21.425,81.848,-0.15272,82.001,-0.00091773,0.78437,3.7184e-05,0.11852,1.1913,16.016,714.98,26.739,13.444,22.446,1.7686,4.8288,5.5872e+07,0.66535,1.5626,1.3134,1
6.7313,6.4307,25.262,-0.5693,25.831,0.00087452,0.2922,-0.00051332,0.083723,1.0373,6.7485,86.617,9.3068,6.5061,8.9724,1.322,3.703,89920,3.5878,3.3436,3.539,1
86.492,63.428,279.49,0.01229,279.48,-0.00087578,6.4548,0.014469,2.3546,5.0034,86.492,11499,107.23,17.287,21.432,0.86773,2.9374,5.6538e+09,2426.6,1257.2,728.76,1
58.739,61.78,356.07,0,356.07,-0.011072,5.7424,-0.00043722,1.8276,4.4752,58.739,7262.5,85.22,13.125,19.043,2.1868,8.3965,2.9513e+10,243.63,479,614.62,1
1.7113,1.5464,6.9957,-0.0015485,6.9973,0.00070862,0.089577,3.7237e-05,0.028232,1.0028,1.7113,5.3169,2.3058,1.7065,2.2994,1.2954,3.9769,84.293,0.028391,0.0077918,0.058452,1
26.717,26.455,135.31,-2.2737e-13,135.31,-0.0079596,2.197,0.00014637,0.75502,2.0082,26.717,1412.8,37.587,13.303,18.716,1.9377,6.674,2.8511e+08,18.352,12.796,7.6738,1
17.618,13.406,71.635,-1.145e-05,71.635,-0.00036738,1.9798,-0.002043,0.85498,1.879,17.618,489.9,22.134,9.3764,11.78,1.0188,3.7849,4.0916e+06,31.085,34.388,48.012,1
0.59029,0.85218,4.5772,-1.9841e-05,4.5772,0.00012134,0.060918,1.4401e-06,0.01902,1.0007,0.59029,1.0738,1.0362,0.5899,1.0356,2.8263,11.724,21.79,0.021126,0.23471,0.2176,1
14.592,13.1,57.145,2.2737e-13,57.145,-0.0051871,1.2565,0.0020065,0.4943,1.4639,14.592,384.32,19.604,9.9676,13.391,1.3706,3.8696,3.4901e+06,16.466,20.651,17.024,1
20.515,20.019,87.593,0.09898,87.494,-0.0075081,0.97067,0.00070092,0.28795,1.3017,20.515,821.17,28.656,15.76,22.014,1.4445,4.4886,3.8407e+07,17.144,19.335,19.418,1
11.693,7.7521,33.482,0.00098899,33.481,-0.0067031,0.61636,0.00052763,0.23348,1.1515,11.693,196.74,14.027,10.154,12.181,0.95782,3.3072,1.7257e+05,11.372,12.43,17.851,1
48.871,57.396,262.57,0,262.57,-0.028245,3.1842,0.0014583,0.60234,2.4087,48.871,5678.8,75.358,20.289,31.286,1.9298,6.341,1.22e+10,320.92,613.45,1133.9,1
43.463,43.473,163.06,-0.35149,163.41,0.031522,2.1307,-0.0013768,0.39454,1.8952,43.464,3776.7,61.455,22.934,32.427,1.1775,3.3551,1.1051e+09,345.46,341.38,855.96,1
6.9333,9.1206,39.47,-0.075871,39.545,-0.0016608,0.2584,0.00069519,0.049234,1.0288,6.9336,131.16,11.452,6.7393,11.131,2.077,6.5034,1.2445e+06,1.7481,1.138,1.2368,1
14.417,17.782,85.295,0.08212,85.213,-0.056755,0.69915,-0.0028431,0.13939,1.1511,14.417,523.67,22.884,12.524,19.879,2.1549,7.2548,4.3009e+07,80.538,71.956,86.203,1
24.514,26.375,100.18,-0.084666,100.26,0.00813,1.5719,0.0019519,0.29251,1.5334,24.514,1295.8,35.997,15.987,23.475,1.5039,4.0876,1.2268e+08,103.37,37.831,2.5028,1
52.469,37.39,142.88,-0.058764,142.94,0.082498,2.295,0.0036186,0.39621,2.1084,52.469,4149.4,64.416,24.886,30.552,0.54994,2.3106,2.1742e+08,419.78,313.51,252.16,1
21.918,32.207,143.02,-0.22587,143.24,-0.01714,1.2826,-0.00012865,0.17381,1.4277,21.919,1516.4,38.942,15.353,27.276,2.1101,6.8238,7.5542e+08,1.7439,3.3949,3.1484,1
5.5584,6.579,29.246,0.080216,29.166,-0.0028146,0.28694,-5.4106e-05,0.044698,1.032,5.5584,74.128,8.6098,5.3863,8.3432,1.9817,6.6137,2.5645e+05,0.18733,0.2757,0.2746,1
5.1948,7.2548,41.429,0.0030567,41.426,0.03934,0.30539,-0.000327,0.047972,1.0362,5.1948,79.556,8.9194,5.0133,8.6077,2.9713,13.166,1.1788e+06,296.55,200.7,86.115,1
11.183,7.7743,31.995,0.0026422,31.992,0.0011349,0.77843,-0.00099991,0.32459,1.2314,11.183,185.43,13.617,9.0816,11.058,0.78548,2.7533,1.3055e+05,12.128,9.2647,6.3588,1
14.272,15.582,79.436,-0.020721,79.457,0.087845,0.8341,-0.0012747,0.11656,1.2127,14.272,446.21,21.124,11.769,17.419,2.1363,7.8512,2.5243e+07,889.02,418.79,88.025,1
6.919,11.922,76.726,-0.048079,76.774,-0.085051,0.45431,0.0014991,0.054737,1.0757,6.9192,189.84,13.778,6.4325,12.809,3.0852,13.492,1.5114e+07,7.1749,8.2582,6.3975,1
15.445,11.635,55.815,0.044698,55.77,-0.032775,1.042,-0.00012722,0.41532,1.3658,15.445,373.77,19.333,11.308,14.155,1.4731,4.9681,2.9436e+06,2.7295,22.942,48.929,1
18.242,11.339,50.716,-0.0025015,50.719,0.009531,1.1031,0.00091372,0.39609,1.4042,18.242,461.21,21.476,12.991,15.294,0.68209,2.7619,7.9262e+05,7.512,3.4041,5.979,1
17.474,17.026,60.464,-0.20442,60.669,-0.0051446,0.7714,0.00066097,0.10491,1.2011,17.474,594.86,24.39,14.549,20.306,0.99325,2.7713,7.4593e+06,0.062556,0.90484,2.7907,1
17.329,13.495,48.317,-0.53395,48.851,0.017559,0.65839,0.00033823,0.087142,1.1706,17.337,482.18,21.959,14.811,18.758,0.58283,2.0869,1.1684e+06,19.916,3.8696,0.18141,1
12.905,10.037,41.916,-1.0422,42.958,0.0061485,0.55042,-0.0010943,0.10598,1.1197,12.921,267.17,16.345,11.539,14.598,1.0903,3.3829,6.9851e+05,6.1771,4.4463,2.8861,1
12.056,13.149,57.224,-0.098785,57.322,0.0077008,0.588,0.00044409,0.095403,1.1292,12.056,318.03,17.833,10.677,15.794,1.6171,4.943,5.2189e+06,49.828,69.375,127.92,1
9.2665,6.4341,25.343,-0.01417,25.357,0.014655,0.49194,0.0021982,0.12889,1.099,9.2666,127.22,11.279,8.432,10.263,0.63439,2.5258,37283,0.60665,1.6766,5.8957,1
8.0763,5.4797,33.044,-0.091035,33.135,-0.0067839,0.34442,0.00064604,0.064652,1.0477,8.0767,95.218,9.758,7.7088,9.3135,1.6053,7.5399,1.3718e+05,5.5945,6.1512,8.3466,1
4.9892,2.717,11.017,-0.2913,11.308,-0.0039803,0.17359,-0.00010446,0.0398,1.0133,4.9934,32.266,5.6803,4.928,5.6059,0.06856,2.1215,53.734,0.92042,1.0826,1.4284,1
12.199,14.659,74.279,0.17544,74.104,-0.014295,0.91864,-0.00040824,0.25709,1.2583,12.199,363.44,19.064,9.6948,15.151,2.523,9.308,2.2832e+07,1.0732,0.62668,0.86148,1
26.549,30.702,136.58,0.072922,136.51,0.043308,1.4403,0.0041736,0.29876,1.5362,26.549,1646.4,40.576,17.282,26.412,2.2441,7.493,6.4992e+08,14.362,57.516,30.361,1
6.5732,6.5719,30.703,0.037046,30.666,0.00029672,0.27882,-2.3449e-05,0.055869,1.0284,6.5732,86.346,9.2923,6.3916,9.0355,2.1034,6.9202,2.6364e+05,0.44178,0.60754,0.60003,1
9.6953,8.6113,32.35,-0.00013191,32.35,-0.00092418,0.44203,-0.00044393,0.12684,1.0836,9.6953,168.07,12.964,8.947,11.963,1.0167,2.8907,2.6373e+05,0.37989,0.26334,0.80673,1
2.7734,4.2621,20.323,0.0016036,20.321,0.0023152,0.16023,8.2803e-05,0.030867,1.0108,2.7734,25.836,5.0829,2.7439,5.0288,2.6054,9.2104,46112,1.8133,2.9141,4.8448,1
2.1228,2.1241,11.366,-0.016636,11.382,0.0015184,0.13288,2.2104e-05,0.031006,1.0072,2.1229,9.0129,3.0022,2.1077,2.9807,2.4563,9.6241,1577.2,1.4258,0.98958,0.22131,1
14.854,16.746,75.248,0.061909,75.186,-0.0088561,0.66189,0.00027321,0.11081,1.1351,14.854,500.76,22.378,13.086,19.714,1.7828,5.6957,2.2148e+07,1.5567,3.6319,5.214,1
8.4798,9.3301,45.849,0.10314,45.746,0.0052239,0.37558,-0.00015439,0.056825,1.0568,8.4798,158.85,12.604,8.0237,11.926,2.3975,8.8362,2.2479e+06,15.227,35.543,79.148,1
11.182,11.483,46.721,0.011849,46.709,0.020098,0.687,0.00097593,0.2459,1.1808,11.182,256.75,16.024,9.4702,13.57,1.3169,3.9025,1.9253e+06,168.88,74.29,25.085,1
13.351,12.797,62.295,0.0067507,62.289,-0.029883,0.85619,-0.00067975,0.30045,1.2633,13.351,341.82,18.488,10.568,14.634,1.7257,5.8391,6.095e+06,4.6144,1.9269,2.7722,1
2.9672,2.5051,9.5816,0.0070831,9.5745,-0.00083783,0.10862,3.8641e-05,0.03553,1.0047,2.9672,15.072,3.8823,2.9535,3.8644,0.94452,2.7908,507.19,1.0016,1.624,2.2005,1
1.0178,0.56451,2.7163,-0.00040987,2.7167,-0.0011621,0.063729,0.00014252,0.028952,1.0008,1.0178,1.3541,1.1637,1.0169,1.1627,0.62101,3.0035,0.24768,0.21855,0.18906,0.30219,1
13.028,11.76,50.727,-0.0011471,50.728,-0.033248,0.70403,0.0060971,0.17905,1.1742,13.028,307.87,17.546,11.095,14.943,1.3079,3.5914,1.773e+06,8.8615,19.486,47.858,1
14.872,13.761,57.93,-0.00047451,57.93,-0.020135,0.88029,-0.0039662,0.23983,1.2336,14.872,410.31,20.256,12.056,16.421,1.5023,4.2651,5.1984e+06,5.372,4.3128,1.7355,1
15.778,14.655,57.429,0.038579,57.39,-0.0064803,0.80113,-0.0008636,0.17724,1.2086,15.778,463.45,21.528,13.055,17.813,1.2449,3.4978,5.0381e+06,1.0032,1.3279,2.1778,1
9.5253,9.0285,44.793,0.14614,44.647,0.026418,0.61314,0.0023677,0.13677,1.1367,9.5253,172.15,13.121,8.3801,11.543,1.8725,6.5065,1.2535e+06,5.1162,1.8915,10.604,1
20.619,23.892,97.392,-0.0041901,97.396,0.0054689,1.1701,0.00022391,0.22743,1.3334,20.619,995.31,31.549,15.464,23.66,1.511,4.5979,9.4896e+07,3.4067,3.37,0.37301,1
7.6262,5.5233,23.592,0.027154,23.565,0.0087771,0.43837,-0.0014552,0.12798,1.0802,7.6262,88.63,9.4143,7.0598,8.7152,0.87763,2.8849,27332,54.072,54.211,24.674,1
35.788,25.876,106.98,0.090234,106.89,-0.012647,1.893,-0.0013552,0.36689,1.8644,35.788,1949.5,44.154,19.195,23.682,0.76594,2.7372,5.1886e+07,54.586,38.444,136.3,1
29.03,32.137,146.45,0,146.45,0.0056289,1.443,-0.0017427,0.22581,1.4944,29.03,1874.4,43.294,19.426,28.97,1.8448,6.2018,6.5494e+08,5.7496,6.0936,4.7424,1
21.756,20.099,90.759,0.0069335,90.752,0.013509,1.2062,-0.00051934,0.21453,1.355,21.756,876.82,29.611,16.055,21.853,1.4802,5.1467,4.8186e+07,123.03,189.04,244.27,1
15.962,15.41,68.367,0.20074,68.166,0.014396,0.87361,-0.0010395,0.14936,1.2158,15.962,491.97,22.18,13.129,18.244,1.4919,4.9335,1.1756e+07,19.865,15.98,9.8371,1
10.746,10.679,54.824,-0.06566,54.89,-0.0042421,0.539,-0.0011523,0.10928,1.1078,10.746,229.37,15.145,9.7001,13.671,2.0767,7.6775,3.6412e+06,18.266,0.74426,1.1575,1
15.962,15.41,68.367,0.20074,68.166,0.014396,0.87361,-0.0010395,0.14936,1.2158,15.962,491.97,22.18,13.129,18.244,1.4919,4.9335,1.1756e+07,19.865,15.98,9.8371,1
10.746,10.679,54.824,-0.06566,54.89,-0.0042421,0.539,-0.0011523,0.10928,1.1078,10.746,229.37,15.145,9.7001,13.671,2.0767,7.6775,3.6412e+06,18.266,0.74426,1.1575,1
14.556,18.325,91.379,0.002462,91.376,-0.021831,0.8931,-0.0018327,0.15574,1.2309,14.556,547.3,23.394,11.826,19.007,2.3849,8.9583,6.7618e+07,1.6415,0.88875,0.17099,1
24.896,17.579,77.384,0.41308,76.971,0.044198,0.90363,0.00017943,0.15375,1.2777,24.896,928.48,30.471,19.485,23.848,1.0415,3.5802,1.2768e+07,149.87,143.35,243.87,1
24.086,11.836,49.946,0.045453,49.9,-0.048227,0.88218,-0.0014181,0.2051,1.2808,24.086,720.04,26.834,18.805,20.951,-0.022115,2.4042,16052,26.349,46.732,82.67,1
23.385,42.443,177.34,-0.00024123,177.34,0.0068864,1.2919,-0.0012047,0.13323,1.301,23.385,2346.1,48.437,17.975,37.232,2.4353,7.7959,3.4202e+09,171.94,296.65,457.76,1
39.307,38.616,169.25,-0.33114,169.58,-0.01183,1.8057,0.0009278,0.23891,1.6526,39.308,3034.5,55.086,23.786,33.333,1.3502,4.3928,9.9964e+08,18.65,11.671,21.79,1
13.153,8.3708,42.853,0,42.853,0.012178,1.4445,-0.021376,0.6818,1.427,13.153,242.99,15.588,9.2169,10.923,0.87154,3.1549,2.4299e+05,17.38,18.596,19.983,1
8.4154,7.0697,28.549,-0.14183,28.69,-0.015219,0.53031,0.0013092,0.22712,1.117,8.4159,120.74,10.988,7.5345,9.8374,1.0053,2.991,99324,0.41868,0.62851,0.69926,1
18.728,11.6,60.513,-0.76545,61.279,-0.027148,3.62,0.010741,1.9784,3.3966,18.732,485.16,22.026,5.5149,6.4849,0.90411,4.0029,1.9239e+06,69.072,62.405,56.068,1
17.966,11.289,48.539,0.041866,48.497,-0.0042681,0.74758,0.0041415,0.26113,1.2003,17.966,450.06,21.215,14.967,17.674,0.91149,3.4872,1.1707e+06,9.6266,16.531,11.662,1
8.786,5.3613,26.311,0.14693,26.164,-0.0053091,1.2316,0.0023155,0.5692,1.5234,8.786,105.9,10.291,5.7673,6.7552,0.84264,3.0721,23934,7.5861,11.74,8.0747,1
8.0578,5.6635,28.313,-0.012965,28.326,0.021591,1.1604,0.0020801,0.53317,1.4648,8.0579,96.966,9.8471,5.501,6.7225,1.3748,5.0588,80070,101.69,44.039,35.344,1
5.3838,8.2931,35.46,-0.43057,35.89,-0.0060326,0.36013,0.0022656,0.11447,1.0517,5.3888,97.68,9.8833,5.1238,9.3973,2.4473,8.0125,1.017e+06,2.0277,1.9127,0.60626,1
34.926,39.423,200.03,-1.1786,201.21,-0.024685,3.2947,-0.022458,1.3306,2.6475,34.935,2772.2,52.652,13.195,19.887,2.3041,7.8439,2.4814e+09,13.6,18.427,34.757,1
31.752,26.766,126.32,0.10575,126.22,0.0066919,2.4423,-0.0012483,0.96826,2.1858,31.752,1723.8,41.519,14.527,18.995,1.3546,4.1272,1.4437e+08,12.124,3.8576,11.204,1
12.131,9.3124,37.469,0.32509,37.144,-0.002709,0.74326,0.0016118,0.30388,1.2109,12.131,233.78,15.29,10.018,12.626,0.90405,2.617,3.2318e+05,7.8952,18.688,13.362,1
2.5414,1.1873,5.9878,0.0014012,5.9864,0.00086539,0.16121,0.00011047,0.088749,1.0116,2.5414,7.8664,2.8047,2.5122,2.7726,0.58185,3.3583,10.177,1.5328,1.4114,1.1885,1
2.9396,0.87547,5.602,0.162,5.44,0.00088073,0.19992,-0.00026253,0.11654,1.0184,2.9396,9.407,3.0671,2.8866,3.0118,-0.36128,4.1579,-1.7551,2.3896,1.7029,1.764,1
1.531,0.99489,4.5268,-1.4211e-13,4.5268,-0.00021009,0.072616,0.00039881,0.030371,1.0014,1.531,3.3325,1.8255,1.5288,1.8229,0.88843,2.9833,5.0763,0.18903,0.2447,0.25686,1
1.0232,0.34595,2.191,0.01401,2.177,0.0001373,0.05757,3.9067e-06,0.027858,1.0005,1.0232,1.1666,1.0801,1.0228,1.0796,0.40364,3.1192,0.014665,0.21195,0.14925,0.12189,1
20.612,28.171,116.93,0.045283,116.88,-0.0060091,0.96609,0.0007647,0.26619,1.2982,20.612,1217.5,34.893,15.877,26.877,2.1525,6.4237,3.3019e+08,14.055,14.563,31.537,1
68.43,36.113,193.88,0.4492,193.43,-0.010924,15.384,0.049543,7.322,13.758,68.43,5985.3,77.365,4.9738,5.6232,0.25943,2.5521,1.817e+08,1736.1,1597.5,1448.4,1
77.167,37.573,188.97,4.8655,184.11,0.054917,15.423,-0.0076596,7.3559,13.814,77.167,7364.9,85.819,5.5863,6.2126,0.30988,2.5866,2.2148e+08,4595.8,3087.3,3322.1,1
23.696,12.292,62.311,0.11597,62.195,0.021466,4.6386,-0.024499,2.6991,3.7986,23.696,712.4,26.691,6.2381,7.0265,0.39202,2.5186,7.737e+05,80.104,67.741,38.919,1
24.188,14.726,65.014,-0.0054891,65.02,0.0037665,3.8046,0.00061425,2.1664,3.1149,24.188,801.67,28.314,7.7652,9.0897,0.56626,2.4998,2.3838e+06,34.221,24.085,29.978,1
11.36,10.104,56.982,1.1369e-13,56.982,0.0085204,1.7045,-0.013037,0.7434,1.7017,11.36,231.02,15.199,6.6759,8.932,2.197,8.377,3.223e+06,6.3911,4.9452,40.158,1
14.579,15.527,75.246,-0.19485,75.44,-0.037494,0.85491,0.0080997,0.3251,1.2326,14.58,453.34,21.292,11.829,17.274,2.0709,7.1188,2.0619e+07,44.918,58.076,68.987,1
3.2577,2.7801,16.465,5.6843e-14,16.465,0.0014465,0.32422,-0.00067567,0.18719,1.048,3.2577,18.332,4.2816,3.1086,4.0857,2.8276,11.563,7667.8,0.91862,0.72569,0.81516,1
13.835,8.9408,41.373,-0.59723,41.97,-0.033974,1.6667,0.016385,0.86982,1.7023,13.838,271.25,16.47,8.1287,9.6747,0.84677,3.2588,3.5391e+05,7.5074,11.895,7.0039,1
14.277,11.302,48.074,-0.23956,48.313,0.014109,1.8297,-0.0018139,1.0014,1.7507,14.279,331.43,18.205,8.1557,10.398,1.0832,3.2529,1.1998e+06,66.891,42.077,34.404,1
25.058,9.3757,52.746,0.3261,52.42,0.035104,4.0725,-0.011763,2.3994,3.4606,25.058,715.71,26.753,7.2409,7.7306,-0.14798,2.8017,-67286,66.884,53.633,40.631,1
14.467,10.026,42.852,1.1369e-13,42.852,0.0079343,1.0656,-0.0098855,0.35585,1.3325,14.467,309.7,17.598,10.857,13.207,0.78579,3.0365,5.5202e+05,3.9327,10.266,35.246,1
10.195,8.3385,36.779,-0.17917,36.958,0.008158,0.62467,-0.001729,0.19711,1.1523,10.196,173.4,13.168,8.8484,11.427,1.1533,3.7687,3.5038e+05,41.3,58.736,92.9,1
12.094,10.576,42.661,0.38485,42.276,-0.0049906,0.81551,0.00051491,0.28133,1.2504,12.094,257.99,16.062,9.6724,12.846,1.1766,3.3921,9.4756e+05,16.811,20.639,20.08,1
4.8292,3.7461,14.755,-0.0023767,14.758,-0.0034579,0.14953,-4.1528e-05,0.041303,1.0098,4.8292,37.338,6.1105,4.7824,6.0513,1.0357,3.2022,4644.6,1.4852,2.5947,2.7473,1
3.5673,2.0534,7.9892,-0.020937,8.0101,0.0029684,0.12932,0.00020558,0.050426,1.0071,3.5674,16.937,4.1155,3.5423,4.0866,0.19403,2.1312,37.797,1.2738,0.4638,0.3291,1
12.603,10.9,56.351,-0.9709,57.322,-0.013348,0.62882,0.00065787,0.11965,1.1349,12.626,277.5,16.658,11.126,14.678,1.4861,5.7349,2.8567e+06,0.099788,0.14599,0.2955,1
3.894,3.4342,16.939,-1.5063,18.445,0.0041602,0.20953,0.00040804,0.046563,1.019,3.9518,26.943,5.1907,3.8781,5.0938,1.283,4.8056,6334.3,1.5501,1.8225,1.8277,1
7.8884,9.0623,38.529,-0.063691,38.593,6.4942e-05,0.35166,0.00060572,0.10056,1.0534,7.8889,144.26,12.011,7.4887,11.401,1.8909,5.8682,1.0276e+06,14.792,20.748,26.155,1
8.4969,6.2603,26.733,0.089496,26.643,0.0070534,1.1111,0.0019033,0.64172,1.3714,8.4969,111.34,10.552,6.1959,7.6943,0.84513,2.9832,54382,22.385,10.023,10.459,1
10.996,6.3903,30.592,0.0023443,30.59,-0.0043787,1.7637,-0.005087,1.0253,1.7336,10.996,161.7,12.716,6.3429,7.3351,0.7837,3.0967,57987,11.425,12.391,15.955,1
33.728,12.144,73.239,0.18241,73.056,0.03447,5.053,0.015933,2.9271,4.133,33.728,1284.9,35.845,8.1606,8.673,0.16248,3.1092,4.0858e+05,454.78,406.79,394.92,1
11.718,5.9279,30.089,0.063334,30.026,-0.00090102,2.3719,-0.0036494,1.3252,2.305,11.718,172.41,13.13,5.0838,5.6966,0.33207,2.5007,18158,29.013,23.33,33.471,1
38.019,30.081,122.66,-0.028529,122.69,-0.045876,1.8479,0.0002201,0.31516,1.7691,38.019,2349.3,48.469,21.49,27.397,0.78558,2.7413,1.2156e+08,2.4764,6.7016,16.856,1
32.775,28.83,142.19,0.012029,142.18,0.038659,2.0313,0.00064641,0.36077,1.7912,32.775,1904.4,43.639,18.298,24.363,1.313,4.6298,2.625e+08,177.16,62.247,5.4554,1
22.404,19.325,84.527,0.18184,84.345,0.0031487,1.9704,0.002899,0.53002,1.8074,22.404,874.96,29.58,12.396,16.366,1.4329,4.3591,2.9267e+07,130.85,206.87,70.236,1
39.33,29.505,121.54,1.5545,119.99,-0.013724,2.3192,0.0011173,0.5614,2.1448,39.33,2416.4,49.156,18.338,22.919,0.79204,2.9055,1.1827e+08,104.08,138.11,32.322,1
9.8372,14.819,53.438,-0.39007,53.828,-0.0058165,0.3961,0.00032211,0.073426,1.0649,9.8461,316.11,17.779,9.2457,16.695,1.8801,5.1533,9.5637e+06,1.172,0.71288,0.43451,1
9.1238,12.17,53.571,0.022287,53.549,-0.0024857,0.45267,0.00070546,0.062533,1.0743,9.1238,231.19,15.205,8.493,14.154,2.1488,7.094,5.9233e+06,0.30172,0.56674,0.62736,1
3.914,4.8827,21.565,-0.0066636,21.572,0.00063594,0.18575,-4.5459e-05,0.044781,1.015,3.9141,39.133,6.2556,3.8564,6.1634,2.0922,6.8068,59225,1.1479,1.1785,1.341,1
52.415,39.175,185.46,-0.15771,185.61,-0.017158,2.4917,-0.00051142,0.59396,2.3586,52.415,4280.2,65.423,22.223,27.738,1.5029,5.0088,1.2312e+09,228.83,333.9,65.932,1
20.542,23.666,108.24,1.1369e-13,108.24,0.014102,1.4372,-0.0025917,0.29864,1.5124,20.542,981.42,31.328,13.582,20.713,1.9986,6.2995,1.4094e+08,39.459,69.85,102.4,1
20.152,20.515,78.965,0.0006928,78.965,0.0013765,1.2326,-0.00045688,0.23031,1.3958,20.152,826.46,28.748,14.437,20.596,1.4737,4.0618,3.4394e+07,111.21,299.2,718.02,1
9.0503,5.5452,24.174,0.021777,24.152,-0.014033,0.37713,-0.00044068,0.06961,1.0606,9.0503,112.62,10.612,8.5332,10.006,0.48887,2.6637,19272,1.3386,2.3385,5.4289,1
5.0911,4.9682,21.182,-0.22547,21.408,0.00026196,0.30273,-0.00055366,0.066441,1.0407,5.0929,50.573,7.1115,4.8935,6.8331,1.509,4.5287,34495,0.021178,0.022835,0.074538,1
16.337,15.217,79.496,0.026887,79.469,0.0026716,1.1574,0.00045206,0.22637,1.3494,16.337,498.18,22.32,12.107,16.541,1.7556,6.442,1.7758e+07,5.8788,8.2343,9.3989,1
11.077,10.659,47.459,-0.0051988,47.464,0.0031078,0.57292,-0.0013462,0.10985,1.1212,11.077,236.17,15.368,9.8791,13.706,1.4767,4.9085,1.8201e+06,43.018,13.918,7.3843,1
4.0209,4.6187,20.254,0.060391,20.194,-0.001812,0.16165,0.00040658,0.040427,1.0112,4.0209,37.474,6.1216,3.9762,6.0537,2.0344,6.5455,41150,0.033395,0.11339,0.147,1
5.5041,7.9415,33.628,0.024991,33.603,0.034227,0.27905,-0.00084038,0.058084,1.0312,5.5041,93.289,9.6586,5.3374,9.3661,1.9533,6.0255,5.8093e+05,200.19,179.9,121.59,1
17.152,20.592,111.18,-0.89123,112.07,0.0085057,1.1975,8.6278e-07,0.2924,1.4203,17.158,717.73,26.79,12.081,18.863,2.8166,11.533,1.7132e+08,0.89934,1.5002,0.61486,1
17.496,17.322,77.401,0.019824,77.382,0.015636,1.0319,-0.001441,0.23869,1.3367,17.496,605.81,24.613,13.088,18.413,1.6012,4.8041,1.9804e+07,68.322,81.34,105.6,1
14.077,17.267,82.505,-0.2219,82.727,-0.012996,0.77322,0.00081659,0.1174,1.1836,14.078,495.96,22.27,11.895,18.816,2.096,7.1723,3.5902e+07,17.102,10.796,2.0727,1
28.345,22.109,97.905,0.049701,97.855,-0.056568,1.2463,-0.0092393,0.2507,1.4293,28.345,1291.6,35.94,19.831,25.145,0.94688,3.2449,3.5534e+07,11.949,24.743,36.529,1
32.155,28.538,139.1,-0.63263,139.73,0.0033086,1.4761,-0.00062606,0.23277,1.5327,32.158,1847.4,42.981,20.982,28.043,1.5865,5.7377,3.3381e+08,62.059,102.89,174.15,1
27.209,36.838,171.91,-0.00044529,171.91,0.015182,1.3324,-0.0036481,0.34019,1.4827,27.209,2095.8,45.779,18.351,30.875,2.6007,9.1608,2.166e+09,23.807,44.508,26.594,1
11.237,12.249,55.316,-2.7594,58.076,-0.0017917,0.57583,-0.0012069,0.219,1.1337,11.293,276.12,16.617,9.9616,14.657,1.9857,6.5531,5.4982e+06,17.946,7.4864,2.1418,1
7.9456,6.6901,31.996,0.24989,31.746,0.024855,0.36907,0.0004582,0.082861,1.056,7.9456,107.84,10.384,7.5244,9.8339,1.8594,6.822,2.9404e+05,154.12,163.22,163.87,1
13.51,8.4091,36.982,0.0029066,36.979,-0.015475,0.42854,-0.00042389,0.098969,1.0784,13.51,253.15,15.911,12.528,14.754,0.63378,2.8299,1.7226e+05,73.824,45.274,13.563,1
1.7469,0.84419,4.0123,0.049671,3.9627,0.00046339,0.083142,-4.2719e-05,0.035988,1.0023,1.7469,3.7635,1.94,1.743,1.9356,0.57117,2.8674,1.5903,0.45851,0.42563,0.20442,1
1.7665,0.85676,3.863,-0.019585,3.8826,-0.00037435,0.077335,-0.0001153,0.031715,1.0018,1.7666,3.8536,1.9631,1.7634,1.9596,0.15688,2.6057,0.46137,0.59402,0.46039,0.99962,1
3.1512,2.8936,12.915,-0.044337,12.96,0.0067007,0.20843,0.0010079,0.043381,1.0191,3.1514,18.293,4.277,3.0923,4.1968,1.4164,4.3207,2276.9,0.527,4.5872,14.918,1
1.3568,0.98219,4.4425,-0.012088,4.4546,0.0027433,0.078221,-0.0003373,0.028751,1.0019,1.3568,2.8045,1.6747,1.3543,1.6715,1.3574,4.2646,9.3657,0.65678,0.15296,0.059413,1
19.073,21.185,80.986,-3.7031e-06,80.986,-0.012249,0.83405,-0.00049452,0.10492,1.2228,19.073,812.03,28.496,15.597,23.303,1.2222,3.3582,3.1827e+07,9.3694,17.049,20.49,1
6.7152,5.6333,24.81,0.23444,24.575,0.0029203,0.3125,0.00067867,0.10005,1.0438,6.7152,76.791,8.763,6.4334,8.3952,1.3232,4.3105,62353,15.971,13.245,10.377,1
7.6766,4.9933,22.119,-0.054008,22.173,0.0026005,0.38879,-0.00013638,0.083466,1.0643,7.6768,83.833,9.1561,7.2129,8.6029,0.76742,3.1456,16597,1.2768,3.5495,5.1669,1
13.865,11.216,44.334,-0.13456,44.469,0.013664,0.59521,-0.00041286,0.094887,1.1362,13.866,317.89,17.829,12.204,15.692,0.66805,2.3642,6.4526e+05,59.361,86.461,160.39,1
2.731,2.9274,14.979,-0.018459,14.997,-0.0018689,0.18961,-0.00077839,0.069756,1.0159,2.7311,16.018,4.0022,2.6884,3.9397,2.6497,9.9137,7780.5,0.494,0.11934,0.14337,1
8.6067,7.0391,36.117,-0.15289,36.27,-0.009839,0.36221,0.0012527,0.074449,1.0557,8.6087,123.57,11.116,8.1549,10.53,1.5479,5.7958,3.1405e+05,25.098,19.689,6.4275,1
4.0201,2.8124,12.798,0.203,12.595,-0.010851,0.13406,0.00014434,0.038987,1.0076,4.0201,24.061,4.9052,3.9897,4.8682,1.047,3.265,1199.5,0.86697,0.5734,0.70592,1
18.689,11.37,48.916,-0.49463,49.411,-0.01009,0.87468,0.0029919,0.17882,1.2809,18.695,478.4,21.872,14.595,17.075,0.25451,2.5337,4.0854e+05,1.9795,11.316,33.393,1
13.382,8.2251,45.955,-0.49463,46.45,0.019773,0.73392,-0.00014517,0.15841,1.1824,13.385,246.65,15.705,11.32,13.282,1.3121,5.6309,6.433e+05,45.943,37.108,54.277,1
8.4145,4.4466,21.564,-2.2737e-13,21.564,0.0043248,0.65507,-0.0020378,0.34093,1.162,8.4145,90.553,9.5159,7.2415,8.1893,0.83937,3.6222,11232,9.6486,11.248,10.115,1
2.2499,1.2929,5.5592,-0.093067,5.6523,0.00024462,0.18198,-0.00039671,0.083067,1.0149,2.2502,6.7315,2.5945,2.2171,2.5564,0.35438,2.1092,6.681,0.21157,0.10862,0.1242,1
1.8642,0.89523,6.3404,0.0016061,6.3388,-1.2895e-05,0.17772,9.3524e-05,0.082596,1.0142,1.8642,4.2756,2.0677,1.8381,2.0389,1.3429,6.2354,12.188,1.1387,1.5775,2.3456,1
52.028,39.391,168.32,-0.43835,168.76,0.0085671,3.2447,0.002597,1.1032,2.2853,52.029,4256.7,65.243,22.767,28.55,0.86721,3.0586,5.6557e+08,427.74,692.05,868.9,1
33.591,26.22,123.27,0.018082,123.26,0.022839,3.1765,0.0058888,1.2238,2.5508,33.591,1815,42.603,13.169,16.702,1.3513,4.278,1.2922e+08,214.63,21.945,38.369,1
6.2145,9.8583,43.233,-0.05122,43.284,-0.0032161,0.32143,-0.00011456,0.047834,1.0378,6.2148,135.69,11.649,5.9883,11.224,2.5275,8.4355,2.5967e+06,0.4116,0.37476,0.53756,1
1.8436,0.94727,4.5146,-0.038022,4.5527,0.0035327,0.09943,3.0792e-05,0.042721,1.0037,1.8437,4.2952,2.0725,1.8369,2.0648,0.28582,2.6333,1.586,2.9535,2.7133,1.9905,1
16.356,12.05,58.267,-0.072074,58.339,0.026621,0.91754,-0.0048604,0.33658,1.2601,16.356,412.55,20.311,12.98,16.119,0.87272,3.5152,2.0732e+06,107.05,73.884,82.669,1
12.238,11.075,51.032,-0.75402,51.786,-0.019006,0.88106,-0.0007919,0.41947,1.2619,12.243,272.29,16.501,9.7021,13.077,1.5739,5.09,2.313e+06,13.832,11.229,24.187,1
4.972,3.1464,16.072,1.1369e-13,16.072,0.0030045,0.34214,-0.0011171,0.1294,1.0517,4.972,34.608,5.8829,4.7275,5.5937,1.1228,4.0127,2834.3,1.5583,1.5882,2.2407,1
5.7358,5.2279,27.289,-0.0069543,27.296,0.013558,0.60327,-0.0001438,0.25819,1.0974,5.7358,60.198,7.7588,5.2267,7.07,1.7719,5.5983,63963,41.049,47.191,59.412,1
12.155,18.102,81.021,-0.45706,81.478,0.00041761,0.58866,0.00034658,0.060699,1.1107,12.168,475.03,21.795,10.956,19.624,2.2041,7.4064,4.6834e+07,1.543,2.3172,3.0516,1
9.3682,13.69,60.011,2.1896e-06,60.011,-0.0013443,0.65078,-0.00046323,0.086449,1.1289,9.3682,274.96,16.582,8.2988,14.689,2.1309,6.693,9.9409e+06,1.3105,0.76583,0.9359,1
12.806,18.151,80.619,-0.64071,81.259,-0.0049841,0.56045,-0.00075862,0.091578,1.1148,12.821,493.06,22.205,11.5,19.917,2.4167,8.2905,5.4513e+07,16.573,20.644,23.465,1
18.661,17.356,64.955,0.50046,64.455,-0.0063146,0.7553,-3.9933e-05,0.13293,1.2067,18.661,649.09,25.477,15.465,21.114,0.92723,2.6232,7.4386e+06,2.1841,1.3737,1.4927,1
63.526,36.976,167.8,1.7079,166.09,0.026727,4.8471,-0.0010602,1.9873,3.4179,63.526,5401.1,73.492,18.586,21.502,0.44923,2.523,2.1494e+08,153.51,74.982,105.53,1
38.928,44.566,301.65,-0.053195,301.71,0.033752,5.6116,-0.012686,2.5078,3.5875,38.928,3499.2,59.154,10.851,16.489,3.4714,16.789,1.4441e+10,751.08,590.03,343.95,1
27.106,12.464,84.279,0.46753,83.811,-0.013423,4.4024,0.014132,2.5447,3.6201,27.106,889.89,29.831,7.4877,8.2405,0.73619,4.3785,2.9217e+06,43.844,49.616,82.652,1
5.4459,5.6768,27.559,0.22922,27.33,-0.024081,0.2187,-0.0016221,0.063806,1.021,5.4459,61.847,7.8643,5.3337,7.7022,1.7483,5.5145,99083,0.70633,1.1003,0.71348,1
1.852,1.0687,4.9904,0.00097525,4.9894,-0.00057803,0.093992,0.00012255,0.037239,1.0032,1.852,4.5706,2.1379,1.8461,2.1311,0.76658,3.1646,7.3847,0.5492,0.74618,0.91699,1
16.664,17.227,70.063,-0.067106,70.13,0.0046947,0.69828,8.5967e-05,0.096256,1.1601,16.665,574.12,23.961,14.365,20.654,1.5107,4.2548,1.5571e+07,7.6309,4.287,4.8364,1
10.186,8.4262,33.775,-0.17485,33.95,0.0027498,0.59497,-0.0037304,0.15717,1.1311,10.187,174.66,13.216,9.0063,11.685,1.0875,3.3284,2.9346e+05,1.4071,0.35172,0.017125,1
9.251,7.621,31.908,0.080356,31.828,0.0043127,0.49305,0.00078669,0.16586,1.0997,9.251,143.59,11.983,8.4119,10.896,1.1176,3.2231,1.691e+05,8.3942,10.176,11.961,1
54.184,42.475,187.59,4.5475e-13,187.59,0.026234,3.6777,-0.01227,0.82908,2.9614,54.184,4737.9,68.833,18.297,23.243,0.97132,3.3411,1.0153e+09,58.989,62.848,20.48,1
6.4375,7.5941,45.037,0.0019261,45.035,-0.0040164,0.72775,-0.0016374,0.26236,1.1591,6.4375,99.045,9.9521,5.5537,8.5858,2.7669,12.182,1.3517e+06,0.69623,1.8715,1.7575,1
4.6658,3.5159,15.208,0.029866,15.178,-0.00087144,0.29227,-0.00022391,0.10028,1.0377,4.6658,34.116,5.8409,4.4961,5.6285,1.3822,4.4336,5771.2,0.09018,0.52901,1.171,1
7.6228,7.0117,33.459,0.0014261,33.457,-0.012413,0.52324,0.0050013,0.21995,1.107,7.6228,107.21,10.354,6.8861,9.3537,1.2513,4.0546,1.7641e+05,0.16931,0.2676,1.5445,1
4.2648,3.2522,14.607,-0.023338,14.63,0.015686,0.34065,0.00079653,0.13908,1.0513,4.2648,28.752,5.3621,4.0568,5.1006,0.82598,2.8038,1852.9,1.6791,0.71939,4.0231,1
17.384,13.11,51.897,0.35909,51.538,-0.040467,0.88395,0.0013269,0.17237,1.2532,17.384,473.87,21.769,13.871,17.37,0.91708,2.8072,1.9314e+06,2.9529,2.8797,2.3551,1
17.45,15.468,83.298,-0.16229,83.461,0.096049,0.82767,0.00036806,0.13269,1.2074,17.451,543.47,23.312,14.453,19.307,1.4946,5.9264,1.7944e+07,898.12,243.63,21.66,1
1.4777,1.8335,8.4204,0.0087966,8.4116,-0.00028894,0.070067,1.8852e-05,0.022757,1.0013,1.4777,5.5413,2.354,1.4759,2.351,2.332,7.8635,534.21,0.29068,0.21571,0.35659,1
15.028,22.558,105.67,-0.17618,105.84,0.010181,1.0366,-0.00086874,0.18716,1.2307,15.029,734.11,27.094,12.212,22.016,2.4103,8.4096,1.7117e+08,6.172,2.8491,1.7674,1
8.7713,7.8852,33.19,0.20774,32.983,-0.0052951,0.35829,-0.00081251,0.070875,1.051,8.7713,139.04,11.791,8.3453,11.219,1.0272,3.2562,2.1897e+05,8.2296,10.616,16.059,1
13.426,11.448,52.828,-0.41804,53.246,0.0002101,0.95739,-0.00036511,0.30735,1.2819,13.428,311.16,17.64,10.475,13.76,1.3241,4.209,2.115e+06,14.072,7.6249,4.8981,1
15.71,22.64,97.397,0.17025,97.227,-0.02152,0.85873,-0.0020516,0.26901,1.2255,15.71,758.74,27.545,12.819,22.476,2.4039,7.93,1.5148e+08,0.5292,0.12885,0.12447,1
17.681,10.847,55.321,0.17211,55.149,0.012942,1.3167,-0.0011367,0.57643,1.517,17.681,430.15,20.74,11.655,13.671,0.97098,4.1482,1.4406e+06,30.639,32.385,22.076,1
20.12,18.8,81.742,-0.016154,81.758,0.009269,1.4397,-0.00067384,0.46588,1.5162,20.12,757.85,27.529,13.27,18.156,1.3469,4.327,2.5972e+07,39.33,16.823,19.601,1
15.563,13.289,58.157,-0.96525,59.122,-0.0094754,1.1593,0.0010694,0.41956,1.3838,15.569,418.58,20.459,11.25,14.784,0.95951,2.8561,2.3891e+06,1.3073,8.4992,12.258,1
5.6086,10.448,54.537,0.025995,54.511,-0.0023397,0.51008,-0.00036186,0.092345,1.0686,5.6086,140.48,11.853,5.2484,11.091,3.2202,12.785,6.476e+06,0.14974,0.19497,0.26974,1
1.5571,1.1567,5.7266,-0.020078,5.7467,0.0024484,0.086666,1.461e-05,0.035509,1.0025,1.5572,3.761,1.9393,1.5532,1.9344,1.4323,5.2757,30.846,3.2486,3.7083,4.8632,1
10.033,8.9092,59.449,-0.096543,59.545,0.057638,1.0719,0.0022804,0.38832,1.3147,10.033,179.94,13.414,7.6313,10.203,2.0935,8.2881,1.7796e+06,247.09,167.02,275.88,1
18.626,16.336,81.173,0.214,80.959,-0.043803,1.9372,-0.007177,0.73737,1.7238,18.626,613.48,24.768,10.805,14.368,1.3197,4.0421,1.2157e+07,306.05,320.59,290.21,1
15.823,14.272,57.421,-0.0093319,57.431,0.0058035,1.331,-0.0019627,0.52232,1.4818,15.823,453.8,21.303,10.678,14.376,1.5156,4.2441,5.9649e+06,3.6142,1.472,3.3678,1
25.564,21.769,98.674,-0.052972,98.727,0.047954,1.6544,-0.00074761,0.57781,1.6825,25.564,1126.9,33.569,15.194,19.951,1.2698,4.2481,5.0488e+07,154.97,69.412,80.226,1
24.995,21.974,115.07,1.0473e-05,115.07,0.022924,1.1818,-8.8798e-05,0.19444,1.3819,24.995,1107.1,33.273,18.087,24.077,1.6011,6.1896,1.0337e+08,70.797,2.6516,0.11625,1
20.284,24.569,132.41,-0.018497,132.43,0.013637,1.4533,0.0016587,0.26302,1.5473,20.284,1014.4,31.849,13.109,20.584,2.3406,8.9499,3.0378e+08,80.35,43.301,17.972,1
13.696,9.4667,41.417,0.002437,41.415,0.0066834,0.95899,-0.0026884,0.2045,1.3024,13.696,277.09,16.646,10.516,12.781,0.93332,3.1345,4.4446e+05,29.359,0.32146,0.97631,1
35.648,18.927,73.718,0,73.718,0.051296,10.05,0.01862,5.6785,8.9318,35.648,1628.6,40.356,3.9911,4.5182,0.14436,1.7873,1.2374e+06,489.82,467.21,400.24,1
35.695,19.002,69.413,1.1297,68.283,-0.057159,10.372,0.0063908,5.769,9.3439,35.695,1634.8,40.433,3.8202,4.3272,-0.013548,1.6609,-89606,348.07,299.48,389.76,1
3.1278,4.4687,16.98,0.0032882,16.976,-0.0053441,0.17438,0.00044453,0.058383,1.0128,3.1278,29.729,5.4524,3.0882,5.3833,2.0065,5.6175,26645,0.029325,0.039346,0.040137,1
0.9201,1.41,7.9571,-0.002992,7.9601,0.0088142,0.083611,-0.00011446,0.039314,1.0023,0.92011,2.8324,1.683,0.91796,1.6791,3.563,15.046,358.71,8.3791,7.7646,6.8551,1
13.769,8.2332,38.068,1.7053e-13,38.068,0.0087591,1.0279,-0.012194,0.45949,1.2961,13.769,257.29,16.04,10.623,12.376,0.68901,2.8847,1.7919e+05,11.305,18.031,26.72,1
7.6948,5.0834,26.484,-0.47436,26.958,-2.6008e-05,0.60744,-4.6149e-05,0.23716,1.1488,7.6979,85.02,9.2206,6.7007,8.0262,0.95049,3.8614,30715,12.245,15.25,19.553,1
13.41,6.6483,36.246,5.6843e-14,36.246,0.0082552,1.631,-0.0014217,0.841,1.7571,13.41,223.98,14.966,7.6318,8.5172,0.94382,3.8596,1.0378e+05,13.496,15.346,26.434,1
8.8449,6.5038,27.22,-1.1369e-13,27.22,0.0011656,0.66696,0.0041175,0.33543,1.1714,8.8449,120.48,10.976,7.5505,9.3701,0.68674,2.5056,46423,30.375,34.994,45.254,1
