9.3652,12.825,69.05,0.0096855,69.04,-0.0059281,0.62489,0.0011128,0.13464,1.1279,9.3652,252,15.875,8.3035,14.075,2.6433,9.71,1.2775e+07,2.2704,0.30938,0.98748,1
25.709,22.022,100.1,1.7279e-05,100.1,-0.0063649,1.0481,-0.0011563,0.16261,1.3165,25.709,1145.4,33.844,19.529,25.708,1.0603,4.0677,5.4265e+07,0.17192,1.614,6.7948,1
43.614,43.842,215.9,-2.2737e-13,215.9,0.1094,3.9342,0.011723,1.1826,3.0126,43.614,3822.2,61.824,14.477,20.522,1.9151,6.3082,3.1273e+09,638.98,96.848,50.334,1
89.815,96.345,475.35,-0.65421,476,-0.0053342,5.1039,-0.00092643,1.3711,3.9261,89.819,17339,131.68,22.878,33.539,2.4006,8.5968,2.4332e+11,591.59,1137.9,1014.8,1
41.142,43.231,190.62,0.10253,190.52,0.10085,2.6855,-0.00084891,0.78763,2.2182,41.142,3559.5,59.661,18.547,26.896,1.6901,5.1778,2.2016e+09,5066.9,5702.2,6220.8,1
38.079,30.376,109.04,-1.4663,110.5,0.016065,1.4975,-0.0039175,0.40952,1.6156,38.098,2371.7,48.7,23.582,30.144,0.69352,2.2787,8.2831e+07,44.551,56.795,57.555,1
17.979,13.625,72.068,-2.936e-05,72.068,0.046644,1.0584,-0.00052368,0.40679,1.3754,17.979,508.68,22.554,13.072,16.399,1.5601,5.2253,7.0023e+06,514.02,440.68,185.12,1
39.256,34.832,157.54,-0.5497,158.09,-0.049734,1.6575,-0.00084756,0.24836,1.6104,39.259,2753,52.469,24.379,32.582,1.2728,4.2433,5.5357e+08,17.487,29.51,38.477,1
3.5473,2.787,10.137,-0.54065,10.677,-0.0030349,0.11959,0.00026292,0.041273,1.0059,3.5715,20.342,4.5102,3.5504,4.4836,0.49344,2.0825,382.26,2.7775,2.5912,2.1305,1
15.44,20.695,81.848,-0.15272,82.001,0.0033588,0.75826,-0.00044496,0.11798,1.1799,15.441,666.2,25.811,13.086,21.876,1.8922,5.3319,5.4371e+07,12.219,16.746,15.35,1
6.7965,6.669,25.262,-0.5693,25.831,0.0096999,0.31051,-0.00042506,0.082638,1.0422,6.8124,90.619,9.5194,6.5364,9.1338,1.2638,3.3516,91707,72.338,73.447,35.992,1
94.921,71.239,356.07,0.01229,356.06,0.088122,6.9619,0.0032012,2.3786,5.353,94.921,14079,118.66,17.732,22.166,0.98989,3.6034,1.5962e+10,11052,21542,10857,1
54.666,49.623,240.92,0,240.92,-0.07092,5.371,0.012797,1.8454,4.3086,54.666,5448.2,73.812,12.688,17.131,1.6509,5.165,4.3044e+09,531.35,1333.1,2999.2,1
1.6399,1.5082,6.9957,-0.0015485,6.9973,0.0004384,0.088296,8.8707e-05,0.028866,1.0028,1.6399,4.9615,2.2274,1.6354,2.2213,1.4107,4.3291,85.527,0.12034,0.19348,0.13451,1
25.349,25.923,135.31,-2.2737e-13,135.31,-0.0023609,2.1599,0.00045376,0.75306,1.9894,25.349,1313.9,36.247,12.742,18.22,2.0278,7.1254,2.8445e+08,36.526,6.084,4.2588,1
17.327,13.184,71.635,-1.145e-05,71.635,0.0021412,2.0944,0.00040118,0.90631,1.9312,17.327,473.83,21.768,8.972,11.272,1.0672,3.8768,3.9693e+06,3.9483,9.8302,72.633,1
0.5642,0.82413,4.5772,-1.9841e-05,4.5772,0.00018949,0.058563,-1.2872e-06,0.018316,1.0006,0.5642,0.99678,0.99839,0.56386,0.99778,2.9763,12.755,20.886,0.01223,0.012096,0.01163,1
14.329,12.639,57.145,2.2737e-13,57.145,-0.0036688,1.2339,0.0019465,0.48988,1.4534,14.329,364.89,19.102,9.8591,13.143,1.4687,4.2464,3.3641e+06,23.617,20.358,25.909,1
19.515,19.563,87.593,0.09898,87.494,-0.013831,0.94433,0.0014953,0.28451,1.288,19.515,763.13,27.625,15.151,21.447,1.559,4.868,3.8893e+07,7.0242,8.5879,8.948,1
13.901,10.604,48.854,-0.011837,48.866,0.0056476,0.69607,-0.00084061,0.24307,1.1805,13.901,305.56,17.48,11.776,14.808,1.1176,3.6653,1.0853e+06,74.764,162.82,230.69,1
47.273,55.586,262.57,0,262.57,-0.032338,3.1134,0.00063974,0.59852,2.3695,47.273,5321.1,72.946,19.951,30.786,2.0403,6.8935,1.1786e+10,139.8,291.59,548.18,1
43.199,42.259,163.06,-0.35149,163.41,0.034362,2.1774,-0.0015038,0.42785,1.945,43.2,3650,60.415,22.211,31.062,1.1971,3.511,1.035e+09,822.01,693.11,644.65,1
6.7372,8.7943,39.47,-0.075871,39.545,-0.0018146,0.24968,0.00041932,0.048445,1.027,6.7374,122.65,11.075,6.5605,10.784,2.2051,7.1445,1.191e+06,3.2829,4.062,4.3283,1
14.071,17.216,85.295,0.08212,85.213,-0.068684,0.68118,-0.0013057,0.13626,1.1462,14.071,494.06,22.228,12.277,19.393,2.2467,7.8105,4.0901e+07,1.8751,2.9776,7.8746,1
26.745,27.169,100.18,-0.084666,100.26,-0.0076628,1.652,-0.00083058,0.30268,1.5841,26.745,1452.6,38.114,16.883,24.06,1.2908,3.4546,1.0924e+08,2.0941,3.9545,9.7457,1
52.433,37.328,142.88,-0.058764,142.94,0.10158,2.4908,0.012252,0.41285,2.2179,52.433,4141.1,64.351,23.641,29.015,0.52702,2.2717,2.0537e+08,215.09,24.967,19.595,1
22.013,32.194,143.02,-0.22587,143.24,0.080075,1.377,0.00070672,0.18047,1.4681,22.014,1519.9,38.986,14.994,26.554,2.0368,6.4965,7.0792e+08,737.13,101.97,0.68543,1
5.2182,6.4343,29.246,0.080216,29.166,-0.0035288,0.27675,3.2158e-05,0.044096,1.0298,5.2182,68.585,8.2816,5.0672,8.042,2.0899,7.1215,2.5688e+05,0.1665,0.17876,0.23677,1
7.569,10.212,42.351,0.0030567,42.347,-0.00024564,0.35794,-9.0085e-05,0.051131,1.051,7.569,161.47,12.707,7.202,12.091,2.0526,6.4212,2.105e+06,0.1276,0.15924,0.76681,1
10.965,7.553,31.995,0.0026422,31.992,0.0071145,0.78027,0.00070703,0.32375,1.2328,10.965,177.22,13.313,8.8946,10.799,0.85874,2.9693,1.3038e+05,15.4,13.349,27.147,1
15.561,16.655,79.436,-0.020721,79.457,0.004583,0.86345,-0.00018637,0.11368,1.2318,15.561,519.24,22.787,12.633,18.498,1.9059,6.4484,2.5878e+07,18.583,43.216,92.971,1
4.9611,6.7206,36.163,-0.048079,36.211,-0.00045205,0.32155,8.6422e-05,0.050965,1.0354,4.9614,69.73,8.3505,4.7916,8.0648,2.8812,11.814,6.5892e+05,12.663,16.004,15.365,1
16.302,12.088,55.815,0.044698,55.77,-0.00031533,1.0787,0.00060321,0.42527,1.3827,16.302,411.74,20.291,11.79,14.675,1.2202,3.9911,2.5331e+06,162.61,222.75,259.57,1
17.154,10.362,50.716,-0.0025015,50.719,-0.010753,1.0361,0.0017345,0.38307,1.3715,17.154,401.5,20.037,12.507,14.61,0.8796,3.5495,8.3992e+05,44.521,70.105,107.06,1
17.549,16.866,60.464,-0.53395,60.998,0.034279,0.76798,0.00033596,0.1036,1.2023,17.557,592.11,24.333,14.603,20.239,0.9466,2.706,6.848e+06,248.7,178.82,72.568,1
16.783,12.777,48.317,0.35249,47.964,-0.0065686,0.6409,-0.00023885,0.086041,1.1608,16.783,444.74,21.089,14.458,18.167,0.70961,2.373,1.207e+06,160.85,68.151,8.4264,1
12.117,10.034,41.916,-1.0422,42.958,0.00028827,0.5325,-0.00071575,0.10474,1.1124,12.131,247.39,15.728,10.906,14.139,1.1589,3.5465,7.7025e+05,0.56758,1.5887,1.5088,1
13.726,13.529,57.224,-0.098785,57.322,0.019792,0.68313,0.00017429,0.11117,1.1644,13.726,371.24,19.268,11.788,16.547,1.3485,4.0328,4.3477e+06,54.312,75.229,99.382,1
9.6392,6.4969,25.343,-0.01417,25.357,0.003883,0.49859,-0.00061224,0.13605,1.1016,9.6393,135.08,11.622,8.7502,10.55,0.55889,2.3779,32100,17.435,14.082,18.893,1
7.6161,5.522,33.044,-0.1404,33.184,-0.010109,0.33228,0.0010688,0.062767,1.0445,7.6177,88.465,9.4056,7.293,9.0046,1.581,7.3906,1.4098e+05,0.02525,0.17191,0.43291,1
4.8943,2.6924,11.017,-0.2913,11.308,0.0032742,0.18016,-2.5629e-05,0.040963,1.0145,4.8969,31.195,5.5853,4.8269,5.5055,0.08407,2.1772,71.932,3.1231,5.8957,5.5608,1
11.677,14.212,74.279,0.17544,74.104,-0.0091649,0.89096,-0.0013224,0.25265,1.245,11.677,338.11,18.388,9.3795,14.77,2.6582,10.12,2.2147e+07,5.4212,4.501,6.7958,1
27.952,29.751,136.58,0.072922,136.51,0.061218,1.4857,0.0046711,0.308,1.571,27.952,1665.4,40.81,17.792,25.976,2.1585,7.4442,5.5883e+08,316.11,115.15,0.97813,1
6.3748,6.3579,30.703,0.037046,30.666,0.0016068,0.26986,-0.00033451,0.054472,1.0267,6.3748,81.017,9.0009,6.2087,8.7665,2.2329,7.5739,2.5559e+05,2.7468,3.1667,3.8063,1
9.3344,8.3821,32.35,-0.00013191,32.35,0.0050652,0.43282,0.00048126,0.12752,1.0805,9.3344,157.31,12.542,8.6386,11.608,1.1299,3.1707,2.7063e+05,7.9596,3.6606,4.3277,1
2.6925,4.1085,20.323,0.0016036,20.321,6.7988e-05,0.1551,0.00028751,0.030278,1.0101,2.6925,24.111,4.9103,2.6656,4.8612,2.7438,10.068,43748,0.40135,0.64752,0.63374,1
2.3859,2.1504,11.366,-0.016636,11.382,-0.00037299,0.14023,-0.00028419,0.031914,1.0083,2.386,10.312,3.2112,2.3663,3.1847,1.9537,7.5752,1239.4,2.9669,4.5265,2.2659,1
14.127,16.302,75.248,0.061909,75.186,-0.0044461,0.63843,0.00013201,0.10728,1.1262,14.127,465.02,21.564,12.544,19.148,1.9025,6.1984,2.2e+07,6.0459,6.503,7.5103,1
8.7308,9.3458,45.849,-0.03197,45.881,-0.00031491,0.40006,-0.00030994,0.060651,1.0651,8.7309,163.48,12.786,8.1975,12.005,2.1799,7.9784,2.0083e+06,21,36.019,51.194,1
12.264,12.346,57.903,0.011849,57.891,0.047766,0.78215,0.0034743,0.24512,1.2212,12.264,302.66,17.397,10.042,14.246,1.2294,3.6942,2.5703e+06,252.43,45.145,2.4884,1
11.12,11.542,62.295,0.0067507,62.289,-0.06255,0.72315,-0.0021647,0.29262,1.201,11.12,256.73,16.023,9.2592,13.341,2.2366,8.4567,6.3682e+06,2.3544,1.848,1.7541,1
2.8239,2.4625,9.5816,0.0070831,9.5745,-0.0021374,0.10579,0.00024932,0.035051,1.0044,2.8239,14.032,3.7459,2.8114,3.7294,1.0529,3.0218,542.01,0.060487,0.068388,0.22716,1
0.94848,0.55331,2.7163,-0.00040987,2.7167,-0.00025804,0.061071,-6.5915e-05,0.028071,1.0008,0.94848,1.2054,1.0979,0.94775,1.0971,0.83617,3.4104,0.32121,0.09381,0.05874,0.034117,1
14.54,12.761,50.727,-0.0011471,50.728,-0.034975,0.7365,0.0019905,0.17874,1.1882,14.54,374.09,19.341,12.237,16.278,1.0871,2.9438,1.9179e+06,93.733,110.46,180.29,1
13.018,11.955,57.93,-0.00047451,57.93,-0.0083507,0.81788,-0.00079942,0.24044,1.2048,13.018,312.25,17.671,10.805,14.667,2.0781,6.9154,5.3184e+06,32.246,35.903,42.988,1
15.069,14.324,57.429,0.038579,57.39,-0.0057839,0.77969,-0.0012581,0.17377,1.1993,15.069,432.01,20.785,12.564,17.33,1.3532,3.8159,5.1925e+06,6.4843,9.5879,12.015,1
11.487,11.292,49.328,0.015777,49.313,0.01883,0.66431,0.00033645,0.14501,1.1611,11.487,259.31,16.103,9.8928,13.869,1.5328,4.6658,2.2422e+06,35.574,0.53391,0.18314,1
20.211,23.035,97.392,-0.0041901,97.396,0.010136,1.1385,-9.9283e-05,0.22469,1.3213,20.211,938.52,30.635,15.296,23.186,1.6077,5.0291,9.0524e+07,36.511,55.552,52.466,1
9.2317,8.7948,42.84,0.027154,42.813,0.0044758,0.5294,-0.00064843,0.13494,1.1097,9.2317,162.49,12.747,8.3195,11.487,2.0042,7.071,1.2035e+06,15.441,7.3762,22.571,1
34.213,25.495,106.98,0.090234,106.89,-0.025402,1.8283,-0.002097,0.35564,1.8128,34.213,1819.8,42.659,18.873,23.532,0.87984,2.9183,5.6889e+07,22.562,25.175,69.91,1
27.598,31.305,146.45,0,146.45,0.0038163,1.3909,-0.0019488,0.21808,1.462,27.598,1740.6,41.72,18.877,28.537,1.9628,6.7216,6.498e+08,10.35,17.272,26.323,1
21.009,19.578,90.759,0.0069335,90.752,-7.779e-05,1.1681,-0.0002465,0.20756,1.3367,21.009,824.26,28.71,15.718,21.479,1.5726,5.5308,4.7445e+07,15.816,17.329,27.402,1
16.004,14.814,68.367,0.20074,68.166,0.013845,0.84206,-0.0016759,0.14615,1.2013,16.004,475.37,21.803,13.322,18.149,1.5426,5.3179,1.0807e+07,47.006,56.556,50.674,1
12.75,13.313,56.77,-0.06566,56.836,-0.0040748,0.67021,2.1407e-05,0.1238,1.1548,12.75,339.6,18.428,11.041,15.958,1.7015,5.062,5.5729e+06,35.269,29.65,55.11,1
16.004,14.814,68.367,0.20074,68.166,0.013845,0.84206,-0.0016759,0.14615,1.2013,16.004,475.37,21.803,13.322,18.149,1.5426,5.3179,1.0807e+07,47.006,56.556,50.674,1
12.75,13.313,56.77,-0.06566,56.836,-0.0040748,0.67021,2.1407e-05,0.1238,1.1548,12.75,339.6,18.428,11.041,15.958,1.7015,5.062,5.5729e+06,35.269,29.65,55.11,1
13.811,17.818,91.379,0.002462,91.376,-0.0039638,0.89458,0.0039506,0.16433,1.228,13.811,507.88,22.536,11.247,18.352,2.5078,9.6768,6.6011e+07,1.388,6.3354,6.0921,1
24.629,17.468,77.384,0.41308,76.971,0.0036806,0.90606,0.0014355,0.15411,1.2817,24.629,911.4,30.189,19.216,23.554,1.0027,3.5337,1.2166e+07,1.8597,11.978,39.712,1
24.238,12.5,52.426,0.045453,52.38,-0.0057657,0.91931,-0.0012447,0.20455,1.2893,24.238,743.55,27.268,18.799,21.15,0.11012,2.4037,2.5075e+05,7.1321,10.906,23.654,1
24.033,41.543,177.34,-0.00024123,177.34,0.068176,1.3157,0.001145,0.1376,1.3322,24.033,2301.5,47.974,18.039,36.01,2.3787,7.7277,3.0886e+09,773.33,567.47,203.59,1
34.732,38.482,169.25,-0.33114,169.58,-0.054501,1.688,-0.0010886,0.23054,1.5632,34.734,2685.6,51.822,22.22,33.152,1.5192,4.8353,1.1414e+09,58.273,12.392,3.8965,1
13.19,8.239,42.853,0,42.853,0.013833,1.5564,-0.020959,0.74692,1.4798,13.19,241.79,15.55,8.9135,10.508,0.90589,3.2975,2.4095e+05,156.86,34.004,40.677,1
9.5734,8.1729,32.418,-0.14183,32.56,-0.014995,0.58199,0.00020035,0.22957,1.136,9.5739,158.37,12.585,8.4276,11.078,0.98981,2.9561,2.0541e+05,50.022,153.32,130.4,1
18.831,11.318,60.513,-0.76545,61.279,-0.014896,3.6347,0.00757,1.9854,3.4144,18.834,482.55,21.967,5.5161,6.4337,0.88247,4.0693,1.7453e+06,107.58,118.87,97.053,1
17.41,11.209,48.539,-0.25338,48.793,0.009689,0.74596,0.0048799,0.25948,1.2015,17.411,428.62,20.703,14.492,17.232,0.92687,3.5944,1.2081e+06,75.099,52.634,17.21,1
8.676,5.2098,26.311,0.14693,26.164,-0.00068849,1.2089,0.0023468,0.5583,1.5078,8.676,102.39,10.119,5.7542,6.711,0.89684,3.2721,23361,20.18,16.252,9.4878,1
10.386,9.0035,56.001,-0.012965,56.014,0.040834,1.3835,-0.0017748,0.62645,1.5877,10.386,188.85,13.742,6.5416,8.6553,2.0671,8.6558,2.0516e+06,357.34,200.2,206.41,1
5.4316,7.976,35.46,-0.43057,35.89,-0.0037441,0.351,0.0015217,0.11448,1.0494,5.4362,93.05,9.6462,5.1802,9.1919,2.5235,8.5899,9.3131e+05,7.6439,8.7058,7.9352,1
36.565,39.289,200.03,-1.1786,201.21,-0.0063802,3.3557,-0.021432,1.3418,2.7129,36.573,2879,53.656,13.481,19.778,2.1123,7.1181,2.1694e+09,658.18,909.94,1403.1,1
26.382,24.502,126.32,0.10575,126.22,-0.017938,2.1085,0.0017037,0.85188,1.9648,26.382,1295.7,35.996,13.427,18.32,1.7069,5.7085,1.5593e+08,13.102,1.217,0.83355,1
11.84,9.0327,37.469,0.32509,37.144,0.00049683,0.73095,0.00076447,0.30029,1.2046,11.84,221.68,14.889,9.8287,12.36,1.0006,2.8611,3.2539e+05,17.599,17.817,29.274,1
2.5633,1.1488,5.9878,0.0014012,5.9864,0.0016407,0.16348,0.00011514,0.090906,1.012,2.5633,7.8891,2.8088,2.5328,2.7753,0.54396,3.5015,8.7392,1.6299,1.6099,1.9699,1
2.9385,0.86063,5.602,0.162,5.44,0.0007236,0.2031,-0.00031129,0.11864,1.0191,2.9385,9.3746,3.0618,2.8835,3.0045,-0.35823,4.1633,-1.6172,1.3252,0.89092,0.80408,1
1.4599,0.98984,4.5268,-1.4211e-13,4.5268,6.834e-05,0.071485,0.00057414,0.030051,1.0014,1.4599,3.11,1.7635,1.4578,1.761,0.97315,3.1465,5.6219,0.077941,0.079468,0.020295,1
1.0715,0.31014,2.191,0.39789,1.7931,0.00011061,0.056634,-0.00015098,0.027808,1.0005,1.0715,1.2441,1.1154,1.0709,1.1148,0.49627,3.1559,0.013319,0.21472,0.20852,0.27225,1
20.792,27.115,116.93,0.045283,116.88,0.011281,0.95302,0.0023234,0.26476,1.2937,20.792,1166.7,34.158,16.073,26.404,2.2109,6.8547,3.0172e+08,119.34,52.828,76.022,1
68.254,36.082,193.88,0.4492,193.43,-0.068174,15.441,-0.0090648,7.372,13.817,68.254,5959.1,77.195,4.9399,5.587,0.24478,2.5113,1.7114e+08,963.7,845.86,1240.4,1
77.966,37.605,188.97,5.5329,183.44,-0.032397,15.519,0.0041864,7.3632,13.908,77.966,7491.4,86.553,5.606,6.2234,0.28807,2.49,2.0087e+08,1091.8,1539.6,1973.7,1
23.24,12.196,62.311,0.11597,62.195,0.017204,4.5823,-0.019618,2.6722,3.7797,23.24,688.68,26.243,6.1486,6.943,0.41838,2.5596,8.0416e+05,111.6,49.331,34.13,1
25.299,14.223,65.014,-0.0054891,65.02,0.011723,3.588,-0.003614,2.0283,2.9175,25.299,842.1,29.019,8.6715,9.9467,0.45319,2.4945,1.7226e+06,340.29,247.04,75.484,1
11.393,9.7403,56.982,1.1369e-13,56.982,0.012624,1.662,-0.01139,0.7309,1.6754,11.393,224.56,14.985,6.7997,8.9441,2.2577,8.9322,2.9649e+06,20.038,24.556,28.15,1
13.981,15.099,75.246,-0.19485,75.44,-0.038101,0.83543,0.010216,0.31851,1.224,13.983,423.21,20.572,11.423,16.807,2.1821,7.703,2.021e+07,0.98966,4.1063,7.9413,1
3.1484,2.7072,16.465,5.6843e-14,16.465,0.00054844,0.32671,-0.0013484,0.19086,1.0488,3.1484,17.234,4.1513,3.0018,3.958,2.9296,12.358,7437.5,0.33959,0.81457,1.3475,1
13.428,8.8545,41.373,-0.59723,41.97,-0.029826,1.7182,0.010554,0.88512,1.7429,13.431,258.63,16.082,7.7058,9.227,0.88578,3.3584,3.63e+05,16.197,12.57,20.427,1
14.957,11.187,48.074,-0.23956,48.313,0.01628,1.7234,0.0017863,0.94379,1.6826,14.958,348.73,18.674,8.8897,11.098,0.96614,3.0567,9.9898e+05,54.454,140.39,221.4,1
25.665,9.5895,55.451,0.3261,55.125,0.050669,3.9772,-0.01317,2.3351,3.382,25.665,750.54,27.396,7.5887,8.1006,-0.048665,3.0385,10760,219.66,187.15,226.45,1
14.553,10.649,56.374,1.1369e-13,56.374,0.058591,1.1062,-0.011275,0.3537,1.3548,14.553,325.07,18.03,10.741,13.308,1.0258,3.8908,1.3065e+06,164.12,11.743,0.91307,1
9.9863,8.1604,36.779,-0.17917,36.958,0.016209,0.62508,-0.00057961,0.19711,1.1532,9.9869,166.25,12.894,8.6604,11.181,1.1979,3.944,3.4133e+05,9.5458,1.5079,1.0852,1
11.265,10.444,42.661,0.38485,42.276,-0.018245,0.78551,-0.00077371,0.2839,1.2342,11.265,235.86,15.358,9.1279,12.444,1.3161,3.7178,1.0441e+06,1.5067,1.1192,3.335,1
4.7328,3.6574,14.755,-0.0023767,14.758,0.0030742,0.14877,0.00018211,0.041458,1.0098,4.7328,35.761,5.9801,4.687,5.9223,1.0873,3.3864,4567.9,6.1748,4.0992,1.7177,1
3.7596,2.2376,9.303,-0.020937,9.3239,-0.0082771,0.13262,-7.1474e-05,0.050845,1.0076,3.7597,19.136,4.3745,3.7313,4.3415,0.22184,2.2575,87.715,0.093486,0.09646,0.52681,1
11.64,11.003,56.351,-1.5063,57.858,-0.010498,0.60521,0.00091725,0.11567,1.1251,11.713,256.43,16.013,10.411,14.233,1.4808,5.7103,2.9987e+06,0.10885,0.075836,0.014782,1
3.9127,3.2309,16.939,-0.023759,16.962,0.0019873,0.20475,-0.00019738,0.045305,1.0182,3.9127,25.737,5.0731,3.8427,4.9823,1.4917,5.4922,5873.6,1.8736,2.9694,3.235,1
8.0569,9.0081,38.529,-0.063691,38.593,0.01907,0.38058,0.00027988,0.10293,1.0625,8.0574,145.97,12.082,7.5835,11.371,1.8162,5.5987,9.3812e+05,68.711,22.475,1.3641,1
8.3718,6.0863,26.733,0.089496,26.643,0.012728,1.1096,0.00073128,0.64317,1.3753,8.3718,107.09,10.348,6.0872,7.5245,0.89656,3.1708,52821,19.677,9.1299,2.8236,1
10.62,6.3858,30.592,-0.51062,31.103,-9.9716e-05,1.7231,-0.00098391,1.0014,1.7113,10.622,153.53,12.391,6.207,7.2407,0.80017,3.1822,60967,29.693,15.303,5.3803,1
34.218,12.961,74.942,0.18241,74.76,0.036249,5.6303,0.02885,3.2613,4.52,34.218,1338.7,36.588,7.5705,8.0948,0.22552,3.0808,7.1213e+05,449.88,353.85,439.66,1
11.932,5.8661,30.089,0.063334,30.026,0.013262,2.3589,-0.00024946,1.3157,2.2996,11.932,176.76,13.295,5.1888,5.7813,0.28038,2.4849,15066,72.796,38.299,39.671,1
36.232,29.599,122.66,-0.028529,122.69,-0.036857,1.7805,-0.00044248,0.30426,1.7177,36.232,2187.9,46.775,21.094,27.232,0.9015,2.9336,1.3096e+08,40.984,65.008,61.966,1
33.3,28.198,142.19,0.012029,142.18,0.048801,2.0179,0.00063867,0.35822,1.8083,33.3,1903.1,43.625,18.415,24.124,1.2413,4.61,2.3466e+08,284.55,55.756,58.345,1
21.458,18.921,84.527,0.18184,84.345,0.002972,1.9191,0.0031835,0.51874,1.777,21.458,818.09,28.602,12.075,16.095,1.5272,4.7022,2.9726e+07,3.4342,3.0411,9.7499,1
37.553,29.133,121.54,0.33662,121.21,-0.0074936,2.2629,0.0011059,0.55768,2.1062,37.553,2258,47.519,17.829,22.561,0.88686,3.079,1.2686e+08,89.282,55.227,3.5335,1
9.3661,14.338,53.438,-0.39007,53.828,-0.0060202,0.3817,0.00045516,0.071692,1.0604,9.3744,293.09,17.12,8.8406,16.145,2.0097,5.6916,9.3878e+06,1.9439,2.7882,3.3132,1
8.4817,11.911,53.571,0.022287,53.549,-0.0037862,0.43597,0.00065917,0.061563,1.069,8.4817,213.65,14.617,7.9341,13.673,2.2526,7.6321,5.9461e+06,0.016705,0.060743,0.10854,1
4.1593,4.699,21.565,-0.0066636,21.572,0.007847,0.18911,-0.00016517,0.044452,1.0158,4.1593,39.356,6.2735,4.0948,6.1762,2.0479,6.8942,50540,12.954,10.024,4.2646,1
50.737,38.329,185.46,-0.15771,185.61,-0.025965,2.4756,-0.001704,0.59298,2.3422,50.738,4041.8,63.575,21.662,27.143,1.5774,5.3527,1.2282e+09,368.81,296.47,387.75,1
19.863,22.896,108.24,1.1369e-13,108.24,0.026719,1.3906,-0.00094352,0.28824,1.4843,19.863,918.19,30.302,13.382,20.415,2.1215,6.8928,1.3651e+08,21.793,8.4779,18.927,1
20.013,20.513,78.965,0.0006928,78.965,-0.0073051,1.3065,-0.0013471,0.24803,1.4236,20.013,820.84,28.65,14.058,20.126,1.3976,3.8948,3.253e+07,72.059,114.13,262.94,1
8.8435,5.6141,24.174,0.021777,24.152,-0.0022598,0.38102,-0.00046959,0.069915,1.0619,8.8435,109.69,10.473,8.3281,9.863,0.44504,2.5813,19148,36.946,32.277,7.6852,1
4.8025,4.8884,21.182,-0.22547,21.408,0.0034839,0.29381,-0.00065544,0.065674,1.0385,4.8042,46.935,6.8509,4.6262,6.5972,1.5981,4.8575,35620,1.1084,0.13922,0.10719,1
15.666,14.821,79.496,0.026887,79.469,-0.00072127,1.1138,0.00026734,0.21839,1.3243,15.666,464.85,21.56,11.829,16.28,1.8728,6.9521,1.7497e+07,5.4036,10.222,14.618,1
13.857,14.307,67.4,-0.0051988,67.405,0.0053198,0.75034,0.00031347,0.13154,1.1899,13.857,396.48,19.912,11.645,16.733,1.5807,5.2126,9.0158e+06,11.936,8.9571,15.677,1
3.7955,4.5088,20.254,0.060391,20.194,-0.00097183,0.15666,0.00027776,0.040005,1.0106,3.7955,34.713,5.8918,3.7558,5.8302,2.1481,7.087,41196,0.15887,0.22162,0.20936,1
7.0245,8.3541,33.628,0.024991,33.603,0.0035265,0.28725,4.5483e-05,0.057691,1.0334,7.0245,119.06,10.911,6.7976,10.559,1.4178,4.1482,4.3709e+05,5.0058,8.352,11.654,1
16.558,19.923,111.18,-0.89123,112.07,0.0084484,1.1632,-0.0013342,0.28702,1.4004,16.563,670.65,25.897,11.828,18.493,2.9554,12.509,1.6404e+08,30.251,37.968,11.296,1
17.757,16.816,77.401,0.019824,77.382,9.6831e-05,1.0695,0.000177,0.25473,1.3556,17.757,597.76,24.449,13.098,18.035,1.5838,4.9165,1.7798e+07,16.518,20.593,41.035,1
14.134,16.727,82.505,-0.2219,82.727,-0.0054509,0.78167,0.00077493,0.12183,1.189,14.136,479.25,21.892,11.889,18.413,2.119,7.5013,3.3e+07,33.569,55.423,77.342,1
26.598,22.109,97.905,0.049701,97.855,-0.052902,1.2005,-0.0081106,0.24273,1.3995,26.598,1195.7,34.579,19.005,24.708,1.026,3.3747,3.9045e+07,2.8839,3.3068,4.0492,1
30.741,27.845,139.1,-0.63263,139.73,-0.0051332,1.4205,-0.00078454,0.22549,1.4946,30.744,1719.5,41.467,20.57,27.745,1.7121,6.1882,3.3397e+08,5.7283,12.446,16.87,1
25.837,35.748,171.91,-0.00044529,171.91,0.0062804,1.2948,-0.003929,0.33818,1.4609,25.837,1944.1,44.092,17.686,30.182,2.7328,9.9596,2.1101e+09,4.8002,5.8298,14.038,1
13.783,13.404,55.316,-2.7594,58.076,0.015908,0.55287,-0.0010715,0.20317,1.1247,13.835,369.44,19.221,12.301,17.09,1.2783,3.8037,3.8775e+06,147.69,189.07,210.02,1
8.6105,7.2747,32.096,0.24989,31.846,-0.0064768,0.38114,9.8869e-05,0.083816,1.0604,8.6105,127.01,11.27,8.12,10.628,1.6641,5.5837,3.2147e+05,12.251,23.234,26.922,1
12.311,8.1509,36.982,0.0025695,36.98,-0.0017095,0.40325,0.00039741,0.10214,1.0693,12.311,217.93,14.762,11.513,13.806,0.75045,3.1415,2.0086e+05,0.94814,1.0415,1.3038,1
1.7387,0.82898,4.0123,0.049671,3.9627,0.0011547,0.082048,-8.5398e-05,0.035076,1.0023,1.7387,3.7097,1.9261,1.7348,1.9217,0.57824,2.9099,1.5225,0.99078,0.52537,0.1209,1
1.6311,0.89725,3.863,-0.019585,3.8826,-0.00029902,0.078037,9.9859e-05,0.03255,1.0019,1.6312,3.4647,1.8614,1.628,1.8578,0.29136,2.4533,1.0934,0.17669,0.11621,0.10014,1
4.9576,7.255,36.947,-0.044337,36.991,0.033823,0.23135,-0.0002545,0.044299,1.0244,4.9578,77.155,8.7838,4.8397,8.5745,2.9257,11.631,9.2681e+05,231.6,195.2,155.52,1
1.4553,1.0106,4.4425,-0.012088,4.4546,0.001348,0.077744,-0.00032412,0.028729,1.0019,1.4553,3.1379,1.7714,1.4525,1.768,1.065,3.3766,7.3999,1.1754,0.89547,1.3236,1
17.802,20.84,80.986,-3.7031e-06,80.986,-0.010778,0.8042,0.00013762,0.10296,1.2079,17.802,750.76,27.4,14.738,22.684,1.3295,3.6466,3.3477e+07,1.0509,0.49792,2.0998,1
6.5414,5.4729,24.81,-0.0068033,24.816,-0.0024146,0.30588,0.00053054,0.10269,1.0421,6.5414,72.709,8.527,6.2772,8.1826,1.408,4.665,61055,0.27492,0.26227,0.081464,1
7.2468,5.0455,22.119,-0.084325,22.203,0.0058736,0.37678,-6.386e-05,0.081235,1.0606,7.2473,77.945,8.8287,6.8334,8.3245,0.81468,3.1884,18870,1.8554,0.12978,0.072208,1
14.077,10.814,44.334,-0.13456,44.469,0.0055423,0.60246,-0.00033737,0.095083,1.1403,14.078,314.98,17.748,12.346,15.564,0.65784,2.4595,5.6571e+05,37.802,65.808,91.818,1
2.6106,2.8501,14.979,-0.018459,14.997,-0.00051273,0.19021,-0.00042084,0.070423,1.0161,2.6107,14.93,3.8639,2.5693,3.8026,2.7599,10.662,7599.8,0.22283,0.4521,0.77204,1
8.5452,6.812,36.117,-0.15289,36.27,-0.0075802,0.35619,0.0010948,0.072614,1.0541,8.5471,119.37,10.926,8.1084,10.365,1.6022,6.1659,2.9419e+05,18.074,6.1991,3.5739,1
3.4535,2.4635,12.421,0.13556,12.285,-0.010036,0.11135,0.00026686,0.0376,1.005,3.4535,17.989,4.2413,3.4362,4.22,1.2596,3.9567,836.03,1.2298,1.5705,1.7444,1
18.077,11.19,48.916,-0.49463,49.411,0.0014033,0.85599,0.0035207,0.17713,1.2701,18.085,451.88,21.257,14.238,16.736,0.35794,2.6201,4.8566e+05,14.663,23.222,39.781,1
14.8,9.8683,49.578,3.4106e-13,49.578,0.028407,0.80355,-0.0015604,0.16508,1.2053,14.8,316.33,17.786,12.28,14.756,1.3852,5.139,1.2868e+06,338.96,409.07,313.42,1
8.2746,4.3059,21.564,-2.2737e-13,21.564,0.00044386,0.63572,-0.0018619,0.33122,1.1533,8.2746,86.99,9.3268,7.1746,8.0869,0.94316,3.9261,11301,7.0587,6.3691,7.8833,1
2.266,1.2611,5.5592,-0.093067,5.6523,-0.00069886,0.1839,-0.00054777,0.083351,1.0153,2.2663,6.7234,2.593,2.232,2.5538,0.32681,2.1657,5.8009,1.3603,0.97604,0.84069,1
2.0015,1.0497,6.3404,0.0016061,6.3388,0.0014042,0.17855,0.00030289,0.083075,1.0144,2.0015,5.1065,2.2598,1.973,2.2276,1.1868,4.4665,14.595,1.3234,1.7551,1.9039,1
51.18,38.348,168.32,-0.43835,168.76,0.0068175,3.2839,-0.00099542,1.141,2.3558,51.181,4088.3,63.94,21.726,27.141,0.91411,3.2449,5.501e+08,512.73,769.48,634.92,1
37.283,27.878,123.27,0.018082,123.26,0.0034663,3.1682,-0.00054067,1.1838,2.5905,37.283,2166.4,46.545,14.392,17.968,0.98217,3.0492,9.9636e+07,1343.1,1072.3,660.82,1
5.8617,9.5555,43.233,-0.05122,43.284,-0.0024517,0.30943,5.3028e-06,0.04656,1.0351,5.8619,125.57,11.206,5.6632,10.826,2.666,9.2181,2.5314e+06,0.77101,0.68149,0.55266,1
2.9819,3.2668,15.87,-0.038022,15.908,0.0032982,0.13303,0.00011133,0.04304,1.0075,2.982,19.552,4.4218,2.9597,4.3887,2.5744,9.2731,12036,4.3574,6.5134,9.0467,1
16.007,11.721,58.267,-0.072074,58.339,0.0052789,0.89423,-0.0041986,0.33198,1.2496,16.007,393.44,19.835,12.809,15.873,0.94772,3.7508,2.0342e+06,8.4634,15.717,23.089,1
10.785,11.131,51.032,-0.75402,51.786,-0.004041,0.84177,0.00042567,0.40191,1.2386,10.789,240.07,15.494,8.7108,12.51,1.7194,5.4944,2.6872e+06,0.95149,0.44176,0.28464,1
4.7535,3.1242,16.072,1.1369e-13,16.072,0.0035956,0.33373,-0.0011344,0.12731,1.0493,4.7535,32.346,5.6873,4.53,5.4199,1.2,4.1947,3012.4,1.0636,0.88596,0.3631,1
6.2834,5.3289,27.289,-0.0069543,27.296,0.011586,0.60524,-0.00015807,0.25374,1.1022,6.2835,67.848,8.237,5.7006,7.4729,1.4625,4.5432,51861,54.206,31.884,1.9537,1
11.611,17.502,81.021,-0.45706,81.478,0.0015725,0.56679,-0.00015818,0.059118,1.1028,11.624,440.83,20.996,10.54,19.038,2.3405,8.1156,4.5297e+07,4.1196,5.0039,5.7833,1
8.7527,13.342,60.011,2.1896e-06,60.011,-0.0039017,0.6272,0.00014354,0.08426,1.1201,8.7527,254.41,15.95,7.8142,14.24,2.2469,7.2692,9.8696e+06,0.012711,0.0098316,0.18281,1
12.35,17.595,80.619,-0.64071,81.259,0.012256,0.56323,0.00086976,0.092102,1.1174,12.363,461.78,21.489,11.064,19.231,2.5207,8.935,5.2284e+07,21.676,1.8664,0.5947,1
19.345,16.685,64.955,0.50046,64.455,-0.01819,0.74478,-0.00094137,0.13253,1.2016,19.345,652.31,25.54,16.099,21.255,0.88023,2.6688,6.192e+06,13.342,14.645,21.008,1
62.285,36.332,167.8,1.7079,166.09,0.090748,4.7693,-0.0063907,1.9413,3.3601,62.285,5198,72.097,18.537,21.457,0.52596,2.6043,2.2623e+08,347.46,496.95,401.53,1
39.436,43.106,301.65,-0.053195,301.71,0.07023,5.8261,0.004777,2.7154,3.8558,39.436,3411.3,58.406,10.228,15.148,3.5134,17.559,1.3189e+10,450.88,490.93,440.92,1
23.682,10.982,64.542,0.46753,64.074,-0.056646,3.7772,-0.0013199,2.191,3.2127,23.682,681.31,26.102,7.3713,8.1245,0.36745,3.2278,6.6259e+05,65.045,62.172,25.97,1
5.0906,5.5964,27.559,0.00097525,27.558,-0.023595,0.21294,-0.001584,0.063055,1.02,5.0906,57.201,7.5631,4.9907,7.4146,1.8311,5.8729,1.0118e+05,0.013282,0.10672,0.084543,1
1.8289,1.0836,4.9904,-6.6102e-05,4.9904,0.0030262,0.090181,-1.6578e-05,0.034403,1.0029,1.8289,4.5179,2.1255,1.8235,2.1193,0.71446,3.0403,7.2013,1.8027,0.53948,0.018519,1
15.94,16.825,70.063,-0.067106,70.13,0.03007,0.73368,0.0047245,0.10621,1.1688,15.94,536.87,23.17,13.638,19.824,1.6058,4.6031,1.5664e+07,12.411,4.715,2.0305,1
9.7278,8.2714,33.775,-0.17485,33.95,0.0044002,0.57612,-0.0033124,0.15327,1.1234,9.7289,162.97,12.766,8.6602,11.364,1.1901,3.5917,3.0689e+05,6.0066,6.7564,7.198,1
8.502,7.7129,31.908,0.080356,31.828,-0.0038141,0.47822,-0.00048894,0.16354,1.094,8.502,131.71,11.476,7.7713,10.49,1.1747,3.3571,1.9447e+05,0.96485,0.89353,0.51893,1
52.098,41.493,187.59,4.5475e-13,187.59,0.024166,3.542,-0.01107,0.80031,2.8325,52.098,4434,66.588,18.393,23.509,1.0892,3.6108,1.0446e+09,116.58,122.73,148.78,1
6.1644,7.364,45.037,0.0019261,45.035,-0.0044455,0.70245,-0.0014374,0.25376,1.149,6.1644,92.169,9.6005,5.365,8.3555,2.9048,13.156,1.3007e+06,1.0234,1.7871,1.2739,1
4.8506,3.4217,15.208,0.029866,15.178,0.0051895,0.30401,-0.0004473,0.1044,1.0413,4.8506,35.224,5.935,4.6583,5.6996,1.2405,4.3121,4769.7,2.7415,1.8156,5.2167,1
7.1509,6.9427,33.459,0.0014261,33.457,-0.01037,0.5107,0.0036547,0.21491,1.1025,7.1509,99.284,9.9641,6.4861,9.0378,1.337,4.2877,1.8465e+05,0.33302,0.22208,0.15838,1
5.5918,4.5904,23.738,-0.023338,23.761,0.0056155,0.37658,0.00081146,0.14512,1.0621,5.5919,52.317,7.2331,5.2649,6.8102,1.3302,4.8166,27816,14.631,33.518,25.788,1
16.604,12.906,51.897,0.35909,51.538,-0.03425,0.85565,0.001058,0.16743,1.2386,16.604,442.07,21.025,13.406,16.976,1.0256,3.0272,2.0852e+06,5.1143,12.235,15.756,1
28.049,32.663,149.75,-0.16229,149.91,0.0039782,1.145,-0.00068859,0.17972,1.3573,28.049,1852.5,43.04,20.666,31.711,2.1432,7.222,8.4919e+08,153.22,273.18,137.36,1
1.4373,1.7693,8.4204,0.0087966,8.4116,-0.0012722,0.069393,0.00018633,0.022589,1.0013,1.4373,5.1929,2.2788,1.4354,2.2758,2.462,8.5995,510.35,0.2295,0.16643,0.094885,1
15.014,21.688,105.67,-0.17618,105.84,0.014826,0.99838,-0.0013827,0.18046,1.2152,15.016,695.28,26.368,12.357,21.698,2.5074,9.099,1.5828e+08,47.602,45.585,43.913,1
7.5506,7.5497,33.19,0.20774,32.983,-0.0094846,0.34284,0.00016301,0.068154,1.0467,7.5506,113.95,10.675,7.2136,10.198,1.4692,4.3706,2.7857e+05,4.6082,2.9656,3.4794,1
13.206,11.052,52.828,-0.41804,53.246,-0.009044,0.92982,-0.0011334,0.30059,1.2684,13.208,296.42,17.217,10.413,13.574,1.4143,4.5892,2.0278e+06,11.896,24.018,29.827,1
14.713,22.039,97.397,0.17025,97.227,-0.016312,0.82853,-0.0011172,0.25893,1.2107,14.713,701.64,26.488,12.152,21.879,2.5268,8.6126,1.4977e+08,0.036906,0.60071,1.6273,1
17.507,10.559,55.321,0.17211,55.149,-0.0044037,1.3263,0.00061831,0.59663,1.5213,17.507,417.87,20.442,11.508,13.437,1.0111,4.3502,1.376e+06,13.828,68.087,63.153,1
20.232,18.579,81.742,-0.016154,81.758,0.030931,1.5319,0.00073332,0.50947,1.5658,20.232,754.16,27.462,12.922,17.539,1.2958,4.2235,2.384e+07,200.77,377.02,200.95,1
14.314,12.398,58.157,-0.96525,59.122,-0.017557,0.95127,-0.0037942,0.33779,1.302,14.32,358.44,18.932,10.998,14.541,1.1036,3.4013,2.3068e+06,90.287,24.97,1.4122,1
5.2543,10.118,54.537,0.025995,54.511,-0.0036025,0.49089,-0.00040604,0.089534,1.0637,5.2543,129.87,11.396,4.9395,10.713,3.3729,13.896,6.2362e+06,0.10534,0.11617,0.22164,1
1.6124,1.1793,5.7266,-0.068753,5.7953,-0.00025935,0.083798,9.4429e-05,0.0342,1.0024,1.613,3.9891,1.9973,1.6091,1.9925,1.1872,4.4935,26.5,0.03112,0.051255,0.053406,1
10.554,9.8444,59.983,-0.096543,60.079,-0.0067312,1.0974,-0.00044588,0.39298,1.3305,10.554,208.18,14.429,7.9324,10.845,2.1326,8.1595,2.8176e+06,1.4531,9.6648,7.9016,1
20.709,17.284,81.173,0.11927,81.054,0.023836,2.1268,0.0019457,0.78671,1.8276,20.709,727.25,26.968,11.331,14.756,1.1865,3.5874,1.2772e+07,419.96,494.76,305.08,1
14.928,14.085,57.421,-0.052972,57.474,0.014813,1.3118,0.0025596,0.51725,1.4728,14.928,421.01,20.519,10.135,13.931,1.5974,4.5604,6.2546e+06,5.3782,4.3997,2.3378,1
25.584,20.959,98.674,0.093175,98.581,-0.0082513,1.6223,-0.0045355,0.57061,1.6632,25.584,1093.4,33.066,15.382,19.881,1.3439,4.5353,4.6777e+07,21.845,26.364,50.089,1
24.542,21.229,115.07,1.0473e-05,115.07,0.011841,1.1421,0.00020437,0.18883,1.3592,24.542,1052.5,32.442,18.056,23.869,1.699,6.709,9.8549e+07,27.533,42.841,62.437,1
19.87,23.753,132.41,-0.018497,132.43,0.0077564,1.4242,-5.6279e-05,0.26038,1.5323,19.87,958.42,30.958,12.968,20.204,2.4412,9.6347,2.8693e+08,23.359,8.9565,13.386,1
14.848,11.285,62.037,0.002437,62.035,-0.0046774,1.0135,0.0013496,0.20677,1.3242,14.848,347.68,18.646,11.213,14.081,1.4256,5.381,3.0836e+06,5.5119,12.168,23.024,1
35.297,18.966,73.718,0,73.718,-0.015127,10.109,0.00042006,5.7121,9,35.297,1605.2,40.065,3.9219,4.4517,0.13349,1.79,1.1941e+06,375.93,367.64,377.63,1
35.493,18.538,69.413,2.499,66.914,0.0024358,10.131,-0.0052966,5.6397,9.1284,35.493,1603,40.038,3.8882,4.3861,0.0089733,1.6782,1.6596e+05,349.5,351.79,357.31,1
2.9229,4.3543,16.98,0.0032882,16.976,-0.0049789,0.16863,0.00034901,0.056868,1.012,2.9229,27.483,5.2424,2.8882,5.1801,2.1266,6.1544,26796,0.025007,0.0511,0.057524,1
4.686,10.998,46.439,-0.002992,46.442,0.033285,0.26249,-0.00046812,0.05397,1.0277,4.686,142.79,11.949,4.5598,11.627,2.8545,9.7703,5.3668e+06,245.04,302.81,351.46,1
13.126,8.2483,38.068,1.7053e-13,38.068,0.0063599,0.997,-0.010603,0.44487,1.2812,13.126,240.24,15.5,10.245,12.098,0.76906,2.9659,2.0259e+05,10.739,1.5151,1.494,1
7.8467,4.9576,26.484,-0.47436,26.958,0.00075387,0.63724,-0.00055189,0.2598,1.1609,7.8496,86.122,9.2802,6.7616,7.994,0.87822,3.8851,26719,8.9642,4.3766,12.544,1
12.822,6.7582,36.246,5.6843e-14,36.246,0.012028,1.6063,0.001803,0.8283,1.741,12.822,210.03,14.492,7.3648,8.3242,0.92904,3.8671,1.1296e+05,6.3522,8.5167,5.3553,1
8.8985,6.5953,36.567,-1.1369e-13,36.567,0.029101,0.72444,0.0062019,0.33346,1.1922,8.8985,122.63,11.074,7.4637,9.2885,0.83894,3.1375,85174,8.8017,2.5431,4.8519,1
