11.424,14.666,69.05,0.0096855,69.04,0.031118,0.66764,0.00053178,0.13674,1.1424,11.424,345.37,18.584,9.9998,16.268,1.9093,5.641,1.13e+07,349.22,349.21,356.81,1
25.276,21.502,100.1,-1.1369e-13,100.1,-0.013836,1.1076,0.00050148,0.1777,1.3478,25.276,1100.7,33.177,18.753,24.615,1.1229,4.2956,5.2552e+07,160.73,186.18,59.898,1
49.265,51.326,261.11,-2.2737e-13,261.11,-0.050415,4.0972,0.0067912,1.2061,3.1387,49.265,5058.8,71.125,15.696,22.661,1.9057,6.2182,6.8189e+09,521.72,749.38,1539.1,1
86.559,93.983,475.35,-0.65421,476,-0.040816,5.0032,-0.0030871,1.3406,3.8472,86.562,16316,127.74,22.5,33.202,2.4886,9.1741,2.3744e+11,28.85,223.9,1169.9,1
53.388,54.659,206.09,0.10253,205.98,0.16021,2.9426,0.0069882,0.89163,2.4111,53.388,5834.9,76.386,22.143,31.682,1.2251,3.2648,3.3644e+09,2192.3,1003,622.18,1
36.229,30.047,109.04,-1.4663,110.5,0.014246,1.4696,-0.0036875,0.41528,1.599,36.247,2214.4,47.058,22.669,29.43,0.80283,2.4293,9.3621e+07,23.866,31.324,28.986,1
20.133,15.061,72.068,-2.936e-05,72.068,-0.009166,1.1244,0.0011755,0.44967,1.4151,20.133,631.96,25.139,14.228,17.765,1.2175,3.8199,6.8815e+06,26.44,36.371,44.116,1
36.997,34.563,157.54,-0.5497,158.09,-0.043603,1.5984,-0.00049735,0.23986,1.5681,36.999,2562.2,50.618,23.596,32.281,1.3507,4.4463,5.8087e+08,13.61,11.587,8.0804,1
3.5538,2.6992,10.137,-0.54065,10.677,-0.0083143,0.12682,0.00059382,0.040149,1.0069,3.5763,19.908,4.4618,3.5518,4.4312,0.40634,2.0251,282.46,0.32244,3.2986,9.8067,1
14.677,20.144,81.848,-0.15272,82.001,-0.00017198,0.733,-0.000351,0.11672,1.1687,14.678,620.78,24.916,12.559,21.32,2.0086,5.8211,5.4069e+07,2.0111,2.1654,3.9213,1
9.1516,9.6869,50.261,-0.5693,50.831,0.046997,0.50208,0.0017102,0.098995,1.0959,9.1663,177.49,13.323,8.3641,12.157,1.4722,4.6608,1.1314e+06,251.8,276.61,241.45,1
90.339,70.928,356.07,0,356.07,-0.021127,6.7918,0.021567,2.3232,5.2045,90.339,13187,114.83,17.358,22.064,1.0547,3.7333,1.6763e+10,154.69,87.83,38.466,1
56.113,48.749,240.92,0.0066138,240.91,0.047608,5.5916,0.0027948,1.9744,4.5175,56.113,5522.8,74.315,12.421,16.45,1.5879,5.0505,3.8324e+09,266.34,462.14,253.94,1
1.5824,1.4895,6.9957,-0.0015485,6.9973,0.001867,0.088301,-1.3036e-05,0.028764,1.0029,1.5824,4.7204,2.1726,1.5779,2.1665,1.4369,4.4846,85.374,0.95198,0.15831,0.0052147,1
24.243,25.36,135.31,-2.2737e-13,135.31,-0.01378,2.121,-0.00012724,0.74177,1.9623,24.243,1230.2,35.074,12.354,17.874,2.1208,7.605,2.8115e+08,5.3569,12.625,97.146,1
18.269,12.923,71.635,-1.145e-05,71.635,0.0061875,2.1669,-0.0014655,0.94288,1.9741,18.269,500.58,22.374,9.2541,11.334,0.96812,3.7737,3.346e+06,33.827,181.7,48.405,1
0.56916,0.81769,4.5772,-1.9841e-05,4.5772,0.0019255,0.058976,-3.2469e-06,0.018079,1.0007,0.56916,0.99188,0.99593,0.56876,0.99523,2.8887,12.304,19.366,0.47499,0.024308,0.0065649,1
13.949,12.296,57.145,2.2737e-13,57.145,-0.00079102,1.2076,0.0018376,0.47919,1.4385,13.949,345.63,18.591,9.6974,12.924,1.561,4.6023,3.3189e+06,12.462,10.697,11.482,1
18.409,19.285,87.593,0.09898,87.494,-0.01196,0.91992,0.0021401,0.28305,1.2752,18.409,710.44,26.654,14.437,20.903,1.6451,5.18,3.9883e+07,2.1149,1.2223,2.2925,1
13.626,10.333,48.854,-0.011837,48.866,0.0013502,0.69739,-0.0027676,0.23954,1.1808,13.626,292.35,17.098,11.54,14.48,1.179,3.9247,1.0652e+06,0.59693,0.9818,2.6395,1
44.477,54.547,262.57,-0.23419,262.8,-0.028261,3.0064,0.0028673,0.57912,2.2858,44.478,4950.6,70.36,19.458,30.781,2.1321,7.3497,1.1826e+10,12.478,4.1225,0.44324,1
43.03,41.055,163.06,-0.35149,163.41,-0.00063458,2.1685,0.0001455,0.4306,1.9551,43.031,3535.4,59.459,22.009,30.412,1.2215,3.6888,9.7038e+08,55.057,331.5,903.5,1
6.4086,8.5662,39.47,-0.075871,39.545,-0.0014139,0.24408,0.00030494,0.04916,1.0259,6.4088,114.38,10.695,6.2472,10.425,2.3188,7.7299,1.1732e+06,1.5986,0.3724,0.092099,1
13.819,16.641,85.295,0.08212,85.213,-0.056438,0.66176,-0.0018307,0.13417,1.1385,13.819,467.63,21.625,12.138,18.994,2.3548,8.4545,3.8816e+07,41.625,27.674,13.929,1
24.633,27.197,100.18,-0.66133,100.84,-0.013611,1.5967,-0.00048128,0.29338,1.5486,24.642,1345.7,36.684,15.913,23.689,1.3524,3.6551,1.204e+08,3.3333,5.7452,14.262,1
61.242,48.244,193.6,-0.058764,193.66,0.13603,2.4896,0.00043479,0.41121,2.2032,61.242,6075.8,77.947,27.797,35.38,0.93074,3.2211,1.6652e+09,5261.8,5943.3,6652.6,1
26.431,35.072,143.02,-0.22587,143.24,0.048996,1.3995,-0.0033167,0.19132,1.496,26.433,1927.4,43.903,17.669,29.347,1.5283,4.2932,5.9391e+08,1690.1,2058.2,1563.1,1
4.8807,6.3223,29.246,0.080216,29.166,-0.0034009,0.26721,-9.737e-06,0.042993,1.0278,4.8807,63.752,7.9845,4.7487,7.7685,2.1767,7.5695,2.583e+05,0.014291,0.012075,0.043322,1
9.9092,14.194,93.656,-0.00032093,93.657,0.093945,0.54354,0.0036657,0.068041,1.1019,9.9092,299.46,17.305,8.9927,15.704,2.3882,9.4985,2.3625e+07,661.24,383.21,328.24,1
10.668,7.3924,31.995,0.0026422,31.992,0.010844,0.77564,-0.00019102,0.32492,1.2308,10.668,168.39,12.976,8.6672,10.543,0.94351,3.1772,1.3429e+05,7.8349,2.8188,6.626,1
14.618,16.419,79.436,-0.020721,79.457,0.00020279,0.83328,7.1624e-05,0.11021,1.2163,14.618,483.01,21.977,12.019,18.07,1.9817,6.8113,2.627e+07,0.41078,0.28044,0.21814,1
8.7471,14.487,67.484,-0.048079,67.532,0.057641,0.50921,0.0008482,0.068829,1.0853,8.7473,286.17,16.917,8.0595,15.587,2.563,8.7214,1.8901e+07,434.84,499.34,611.56,1
16.379,11.738,55.815,0.044698,55.77,-0.018064,1.07,-0.0013127,0.42435,1.3789,16.379,405.92,20.147,11.878,14.611,1.226,4.1459,2.3249e+06,36.519,36.475,40.125,1
16.773,10.068,50.716,-0.0025015,50.719,0.0024464,1.0506,0.0019413,0.40072,1.3785,16.773,382.59,19.56,12.167,14.189,0.96768,3.8608,8.4969e+05,35.409,13.621,40.863,1
17.506,16.525,60.464,-0.53395,60.998,-0.0018135,0.7543,0.0011659,0.10152,1.1971,17.514,579.27,24.068,14.63,20.105,0.94285,2.7612,6.4096e+06,5.2493,18.216,47.927,1
16.426,12.441,48.317,0.34275,47.974,0.00025119,0.61522,-0.00066039,0.086996,1.1481,16.426,424.42,20.601,14.306,17.943,0.7287,2.5447,1.1907e+06,0.98265,0.043671,3.583,1
11.952,9.9221,41.916,-1.0422,42.958,0.011792,0.53812,-0.00091575,0.10412,1.1148,11.965,241.19,15.53,10.733,13.931,1.1267,3.5765,7.3869e+05,59.889,76.534,44.888,1
13.026,13.348,57.224,-0.63578,57.859,-0.0095874,0.6488,0.00085445,0.11005,1.1486,13.035,347.67,18.646,11.348,16.233,1.4216,4.2767,4.4833e+06,0.19585,0.023004,0.057157,1
10.761,7.6669,31.831,-0.01417,31.845,0.024017,0.53147,-0.00022362,0.14544,1.113,10.761,174.52,13.21,9.6679,11.869,0.74447,2.7664,1.1953e+05,190.84,158.83,114.35,1
7.6459,5.3438,33.044,-0.1404,33.184,-0.002328,0.3279,0.00051845,0.061482,1.0436,7.6474,86.988,9.3267,7.3277,8.9368,1.6004,7.7983,1.3005e+05,13.118,14.572,15.762,1
4.7349,2.487,11.017,-0.2913,11.308,-0.0052814,0.17053,-4.2203e-05,0.040626,1.013,4.7373,28.598,5.3477,4.6764,5.2789,0.13306,2.5143,102.31,2.9313,2.4877,1.9963,1
11.897,13.762,74.279,0.17544,74.104,-0.0017186,0.87504,6.2413e-05,0.2512,1.2391,11.897,330.74,18.186,9.6008,14.676,2.6753,10.523,2.0164e+07,47.768,49.912,60.409,1
29.861,30.094,136.58,0.072922,136.51,0.010435,1.55,-0.0017246,0.32089,1.6233,29.861,1796.4,42.384,18.395,26.109,1.8955,6.3909,4.8041e+08,296.19,246.69,74.257,1
6.0401,6.2536,30.703,0.037046,30.666,-0.0015151,0.26093,-0.0001527,0.053048,1.0251,6.0401,75.551,8.692,5.8924,8.4795,2.3063,8.0252,2.5715e+05,0.04796,0.24121,0.46305,1
9.4109,8.0959,32.35,-0.00013191,32.35,0.0064792,0.42434,-0.00033837,0.12687,1.0777,9.4109,154.04,12.411,8.7323,11.516,1.1381,3.3422,2.4599e+05,21.064,21.058,31.53,1
2.5793,3.9906,20.323,0.0016036,20.321,0.0024773,0.15265,4.5373e-05,0.030105,1.0099,2.5793,22.561,4.7499,2.5541,4.7035,2.859,10.835,42182,0.68721,0.0034412,0.043828,1
2.7482,2.2342,11.366,-0.016636,11.382,0.002295,0.15366,0.00045692,0.034795,1.0103,2.7483,12.539,3.5411,2.7203,3.505,1.442,5.3998,929.5,5.4364,8.4985,5.6459,1
13.452,15.904,75.248,0.061909,75.186,-0.0044402,0.61623,0.00046289,0.10427,1.1178,13.452,433.64,20.824,12.035,18.63,2.0158,6.6982,2.1844e+07,4.6331,4.2455,4.8268,1
10.435,10.468,49.089,-0.03197,49.121,0.045145,0.53389,0.0014994,0.092872,1.108,10.435,218.35,14.777,9.4179,13.337,1.6428,5.3507,1.9498e+06,213.44,84.398,31.178,1
14.025,14.309,62.295,0.011849,62.283,-0.0089961,0.80264,1.43e-05,0.24543,1.2332,14.025,401.23,20.031,11.372,16.242,1.2736,3.8775,5.7235e+06,74.521,134.53,278.4,1
9.1656,7.2365,36.038,0.0067507,36.031,-0.0027655,0.67695,0.00020314,0.28606,1.1772,9.1656,136.32,11.676,7.7862,9.9185,1.3241,4.4138,2.3038e+05,4.0514,5.3605,9.4986,1
2.65,2.4566,9.5816,0.0070831,9.5745,-0.0020394,0.10291,0.00019209,0.034455,1.0042,2.65,13.051,3.6127,2.6388,3.5974,1.1262,3.1971,593.35,0.010158,0.010768,0.029246,1
0.96307,0.51823,2.7163,-0.00040987,2.7167,0.00028547,0.062738,-2.195e-05,0.029075,1.0009,0.96307,1.1958,1.0935,0.96216,1.0925,0.95977,3.8575,0.28618,0.086879,0.12602,0.092763,1
14.179,12.411,50.727,-0.0011471,50.728,-0.043429,0.72656,0.00099695,0.18072,1.1845,14.179,354.94,18.84,11.971,15.905,1.1757,3.1951,1.9148e+06,7.2718,14.85,9.7255,1
15.282,14.459,62.242,-0.00047451,62.243,-0.00098614,0.89707,0.00070634,0.23741,1.2438,15.282,442.39,21.033,12.287,16.911,1.6459,4.7455,7.7005e+06,18.476,33.614,73.883,1
14.321,14.073,57.429,0.038579,57.39,-0.0053351,0.75385,-0.0011499,0.16983,1.1869,14.321,402.94,20.073,12.066,16.912,1.4549,4.1209,5.3966e+06,3.9778,4.3863,6.135,1
13.343,11.63,53.553,0.015777,53.538,0.049916,0.75203,0.002606,0.15552,1.1929,13.343,313.16,17.696,11.185,14.834,1.1663,3.7781,1.8851e+06,90.13,4.9079,29.466,1
19.153,22.539,97.392,-0.0041901,97.396,0.0071938,1.1002,-0.00030246,0.21806,1.3014,19.153,874.34,29.569,14.717,22.721,1.7142,5.4216,9.1233e+07,4.2689,2.9734,3.9766,1
12.146,12.591,82.032,0.027154,82.005,0.075675,0.78527,0.0029207,0.15699,1.1993,12.146,305.9,17.49,10.128,14.583,2.0116,7.6443,9.4294e+06,314.42,48.523,19.298,1
32.02,25.843,106.98,-1.1161,108.1,-0.024591,1.7649,-0.0016748,0.34401,1.7596,32.036,1692.5,41.14,18.206,23.38,0.91449,2.9904,6.4563e+07,4.0901,0.71091,0.11744,1
27.039,30.494,146.45,0,146.45,0.041637,1.364,-0.0015093,0.2143,1.4518,27.039,1660.1,40.744,18.624,28.064,2.0139,7.0957,6.205e+08,226,124.96,128.02,1
22.669,20.236,90.759,0.0069335,90.752,0.020904,1.2643,-6.5614e-05,0.21364,1.391,22.669,923,30.381,16.297,21.841,1.3533,4.5186,4.091e+07,333.07,76.344,25.727,1
15.649,14.504,68.367,0.20074,68.166,0.036224,0.86184,0.0006746,0.14482,1.2124,15.649,455.05,21.332,12.908,17.595,1.5945,5.5591,1.0477e+07,17.958,1.482,5.6036,1
12.773,12.993,56.77,-0.06566,56.836,-0.0070958,0.69521,0.00025681,0.13517,1.172,12.773,331.81,18.216,10.898,15.542,1.6937,5.1759,5.1549e+06,12.867,0.87811,5.6243,1
15.649,14.504,68.367,0.20074,68.166,0.036224,0.86184,0.0006746,0.14482,1.2124,15.649,455.05,21.332,12.908,17.595,1.5945,5.5591,1.0477e+07,17.958,1.482,5.6036,1
12.773,12.993,56.77,-0.06566,56.836,-0.0070958,0.69521,0.00025681,0.13517,1.172,12.773,331.81,18.216,10.898,15.542,1.6937,5.1759,5.1549e+06,12.867,0.87811,5.6243,1
19.345,27.62,135.01,0.002462,135.01,0.028931,1.2593,-0.0026516,0.18216,1.3603,19.345,1136.3,33.709,14.221,24.78,2.3338,8.1098,4.5236e+08,963.27,1700.7,2648.9,1
24.796,16.98,77.384,0.41308,76.971,0.025383,0.90366,-0.0020372,0.17053,1.2826,24.796,902.86,30.048,19.332,23.427,0.99291,3.6464,1.1059e+07,274.71,196.06,128.8,1
25.344,16.057,73.919,0.045453,73.874,0.0084947,0.97093,0.00088493,0.18914,1.3047,25.344,899.88,29.998,19.425,22.992,0.67572,3.209,6.0327e+06,551.83,712.08,833.88,1
26.071,41.15,177.34,-0.00024123,177.34,0.0032595,1.3046,-0.0011708,0.13672,1.3421,26.071,2371.3,48.696,19.425,36.282,2.1899,7.088,2.6684e+09,156.71,307.44,612.89,1
31.348,36.843,169.25,-0.33114,169.58,-0.012334,1.6138,0.00031639,0.224,1.5087,31.35,2338.7,48.361,20.78,32.054,1.814,5.9368,1.2309e+09,1.7077,3.9004,10.832,1
13.034,8.0474,42.853,0,42.853,0.0090635,1.5478,-0.01891,0.75148,1.488,13.034,234.57,15.316,8.7593,10.293,0.93122,3.4783,2.332e+05,11.806,17.729,32.494,1
9.9977,8.0722,32.418,-0.14183,32.56,-0.010302,0.57354,0.00063329,0.22486,1.1326,9.9982,165.05,12.847,8.8278,11.343,0.8517,2.7563,1.6811e+05,39.491,55.363,64.548,1
19.074,12.323,73.432,-0.76545,74.198,0.024611,3.5795,-0.00013383,1.9431,3.354,19.077,515.54,22.706,5.6879,6.7698,1.149,4.9232,3.9599e+06,375.57,62.451,1.5688,1
16.925,11.06,48.539,-0.25338,48.793,-0.00028293,0.74612,0.0035459,0.26767,1.2023,16.926,408.67,20.216,14.079,16.815,0.97374,3.749,1.2413e+06,3.5306,6.4119,23.509,1
8.4916,5.1287,26.311,0.14693,26.164,-0.0054718,1.2043,0.00039618,0.55641,1.5048,8.4916,98.384,9.9189,5.643,6.5915,0.93718,3.4195,23597,2.0832,9.7827,12.641,1
12.245,10.672,56.376,-0.012965,56.389,0.010612,1.5304,-0.0027307,0.67484,1.6736,12.245,263.73,16.24,7.3168,9.7034,1.8066,6.7491,3.1127e+06,81.923,53.494,15.41,1
5.73,8.2914,38.256,-0.43057,38.687,0.028687,0.4125,0.002718,0.11376,1.0658,5.7342,101.51,10.075,5.38,9.4529,2.4112,7.9274,1.0032e+06,74.804,5.586,0.70772,1
37.043,38.212,200.03,-1.1786,201.21,0.014335,3.3384,-0.012471,1.3418,2.7224,37.05,2830.8,53.206,13.61,19.544,2.1081,7.2977,1.9796e+09,363.13,877.56,894.11,1
22.412,23.585,126.32,0.10575,126.22,-0.034119,1.9047,-0.0032877,0.76524,1.8256,22.412,1058,32.526,12.276,17.817,2.0681,7.245,1.8155e+08,15.899,44.911,8.1515,1
11.561,8.861,37.469,0.32509,37.144,0.016564,0.74227,-3.647e-05,0.3034,1.2086,11.561,212.09,14.563,9.5656,12.05,1.0664,3.0265,3.2776e+05,8.9552,3.2119,3.7708,1
2.6186,1.1355,5.9878,0.0014012,5.9864,0.0021687,0.16991,-0.00010591,0.09466,1.0132,2.6186,8.1449,2.8539,2.5846,2.8169,0.44098,3.3972,6.7911,1.994,1.9537,1.6334,1
3.0152,0.86745,5.602,0.162,5.44,-3.5551e-05,0.20442,-0.00019688,0.12036,1.0194,3.0152,9.8432,3.1374,2.9578,3.0776,-0.46274,4.0587,-2.2072,2.3834,2.4579,2.315,1
1.4673,0.95548,4.5268,-1.4211e-13,4.5268,0.00051463,0.070719,0.00043427,0.030046,1.0015,1.4673,3.0649,1.7507,1.4651,1.7481,0.98304,3.3369,5.1213,0.45202,0.53091,0.52671,1
1.0575,0.27877,2.191,0.39789,1.7931,0.00017748,0.057815,-3.4515e-05,0.028198,1.0007,1.0575,1.1959,1.0936,1.0568,1.0929,0.38638,3.5476,0.0093408,0.31814,0.24806,0.34456,1
21.639,26.744,116.93,0.045283,116.88,0.031847,1.0608,-0.0010957,0.28562,1.3428,21.639,1182.8,34.392,16.115,25.612,2.0926,6.5191,2.6702e+08,573.92,203.82,9.0982,1
68.315,35.935,193.88,0.4492,193.43,0.019898,15.483,0.015135,7.4288,13.857,68.315,5957,77.182,4.9302,5.57,0.22646,2.4672,1.575e+08,1521.1,1744.9,1517.6,1
77.21,37.834,188.97,1.9489,187.02,-0.085702,15.568,-0.013324,7.3499,13.951,77.21,7391.3,85.973,5.5343,6.1625,0.26113,2.4756,1.8955e+08,1942.5,1791.3,2232.5,1
22.627,12.205,62.311,0.11597,62.195,0.0061806,4.4802,-0.022406,2.608,3.688,22.627,660.81,25.706,6.1354,6.9702,0.44883,2.5896,8.664e+05,5.0133,41.385,125.75,1
26.059,13.932,65.014,-0.0054891,65.02,0.043212,3.6123,-0.0027751,2.0424,2.9804,26.059,873,29.547,8.7436,9.9137,0.41424,2.5033,1.4305e+06,356.93,163.95,99.713,1
11.078,9.554,56.982,1.1369e-13,56.982,0.023337,1.6338,-0.0088581,0.71316,1.6605,11.078,213.9,14.625,6.6715,8.808,2.3014,9.2901,2.8736e+06,11.284,22.783,1.1958,1
13.66,14.646,75.246,-0.19485,75.44,-0.019366,0.83185,0.0099172,0.31435,1.2248,13.661,400.89,20.022,11.154,16.347,2.2813,8.2863,1.9383e+07,16.294,11.74,3.262,1
3.0951,2.6266,16.465,5.6843e-14,16.465,0.003724,0.32401,-0.0013549,0.18949,1.0481,3.0951,16.471,4.0585,2.9529,3.8721,3.0331,13.209,7076.8,1.7303,1.3864,1.0559,1
12.893,8.7869,41.373,-0.59723,41.97,-0.02703,1.687,0.012735,0.87346,1.7234,12.896,243.37,15.6,7.4829,9.0522,0.96008,3.5041,3.8658e+05,5.1046,17.111,7.9737,1
15.266,10.833,48.074,-0.23956,48.313,0.0067794,1.7482,0.0026217,0.95814,1.7071,15.267,350.29,18.716,8.9433,10.963,0.94795,3.1337,8.7308e+05,20.986,39.16,14.516,1
26.428,9.7946,55.451,0.3261,55.125,0.030958,3.8819,-0.014027,2.2721,3.3045,26.428,794.28,28.183,7.9975,8.5286,-0.073512,2.9817,-17861,203.01,236.48,228.4,1
15.32,11.139,56.374,1.1369e-13,56.374,0.0050111,1.1066,-0.0082796,0.35036,1.3593,15.32,358.65,18.938,11.271,13.933,0.95805,3.591,1.3841e+06,50.392,114.55,95.782,1
11.134,9.0864,39.436,-0.17917,39.615,0.011044,0.67126,-0.0018713,0.20285,1.1729,11.135,206.45,14.368,9.4934,12.25,1.0625,3.4154,4.5689e+05,135.91,112.67,66.075,1
9.3417,9.2079,42.661,0.38485,42.276,-0.013083,0.72042,0.00013828,0.27974,1.202,9.3417,171.97,13.114,7.7718,10.91,1.8446,5.7871,1.0993e+06,4.7802,7.2616,7.5578,1
4.8527,3.5673,14.755,-0.0023767,14.758,-0.0011665,0.14736,0.00017955,0.042131,1.0096,4.8527,36.262,6.0218,4.8064,5.9643,1.0054,3.3484,3920,6.2691,7.1351,7.439,1
3.3538,2.0902,9.303,-0.020937,9.3239,-0.00031997,0.1325,0.00025637,0.050102,1.0076,3.3538,15.612,3.9512,3.3284,3.9213,0.46072,2.6656,140.61,0.26091,0.44921,1.0727,1
10.92,10.924,56.351,-1.5063,57.858,-0.0098753,0.58388,0.00091241,0.112,1.1165,10.988,238.46,15.442,9.8413,13.83,1.5464,5.897,3.0705e+06,0.33057,0.75614,0.68681,1
3.7122,3.2093,16.939,-0.023759,16.962,0.0014243,0.19873,-0.00018161,0.044486,1.0172,3.7122,24.07,4.9061,3.6494,4.8231,1.5375,5.6717,6016.2,0.59826,0.031373,0.026742,1
9.1738,9.598,38.529,-0.063691,38.593,0.013307,0.37759,-0.00029495,0.10636,1.0618,9.1742,176.19,13.274,8.6406,12.501,1.3768,3.8899,7.5387e+05,102.42,97.633,87.697,1
8.459,5.9467,26.733,0.089496,26.643,0.004547,1.1391,-0.004063,0.66494,1.3972,8.459,106.88,10.338,6.0541,7.3991,0.87016,3.209,47567,12.49,14.287,29.719,1
10.72,6.3784,30.592,-0.51062,31.103,0.00058541,1.6572,0.001926,0.9574,1.6653,10.721,155.56,12.472,6.4377,7.4893,0.73313,3.0215,54961,7.8314,9.9998,7.8257,1
34.688,13.583,74.942,0.18241,74.76,0.03219,6.1907,0.018522,3.6842,4.8816,34.688,1387.5,37.25,7.1059,7.6307,0.25914,3.0167,9.416e+05,579.78,627.08,779.5,1
11.903,5.765,30.089,0.063334,30.026,0.0026945,2.3447,-0.0047728,1.3073,2.2939,11.903,174.88,13.224,5.1889,5.765,0.27933,2.5245,14260,22.69,24.442,43.606,1
34.704,29.234,122.66,-0.028529,122.69,-0.017022,1.7356,-0.0012086,0.29822,1.6887,34.704,2058.1,45.367,20.551,26.865,0.97516,3.1053,1.3726e+08,213.5,84.675,4.7219,1
36.054,27.915,142.19,0.012029,142.18,0.016839,2.0515,0.00025816,0.36022,1.8482,36.054,2078.3,45.588,19.507,24.666,1.0073,4.0937,1.849e+08,727.04,808.46,272.08,1
22.256,19.105,84.527,0.18184,84.345,0.00050803,1.9437,0.0047373,0.52064,1.7975,22.256,859.95,29.325,12.381,16.314,1.4235,4.3108,2.7189e+07,109.83,220.45,632.15,1
36.629,28.281,121.54,0.33662,121.21,-0.0047872,2.2467,-0.0015816,0.55252,2.1079,36.629,2140.7,46.268,17.377,21.95,0.9758,3.3478,1.2727e+08,350.28,597.71,135.98,1
9.2595,14.209,53.438,-0.39007,53.828,0.036083,0.47863,0.001866,0.075034,1.0837,9.2671,287.43,16.954,8.5516,15.645,2.0064,5.7003,9.0315e+06,51.992,0.39567,0.25,1
7.9511,11.642,53.571,0.016353,53.555,-0.0016799,0.42122,0.00080549,0.060671,1.0645,7.9511,198.62,14.093,7.469,13.239,2.3591,8.1991,5.9124e+06,0.28349,0.18714,0.27936,1
4.479,4.4866,21.565,-0.0066636,21.572,0.004117,0.20171,0.00056566,0.045658,1.0182,4.479,40.171,6.3381,4.3991,6.225,2.0056,7.0931,42225,4.8775,10.331,5.1496,1
48.391,38.048,185.46,-0.15771,185.61,-0.020856,2.4329,-0.0022024,0.58119,2.3102,48.391,3787.8,61.545,20.947,26.641,1.6204,5.5676,1.2673e+09,291.99,34.413,10.242,1
19.424,22.196,108.24,1.1369e-13,108.24,0.0036478,1.3503,-0.0026052,0.2797,1.4616,19.424,869.47,29.487,13.289,20.174,2.2175,7.4271,1.3076e+08,28.54,25.673,10.022,1
19.437,19.98,78.965,0.0006928,78.965,0.030129,1.3305,0.0062205,0.25027,1.4315,19.437,776.6,27.868,13.578,19.467,1.478,4.1985,3.2086e+07,0.4398,7.0341,36.313,1
8.6693,5.4883,24.174,0.021777,24.152,-0.012661,0.37127,-0.00046218,0.069712,1.059,8.6693,105.25,10.259,8.1861,9.6872,0.51004,2.7152,19741,2.9754,5.5973,9.079,1
4.6021,4.7764,21.182,-0.22547,21.408,0.001583,0.28676,-0.00063953,0.064654,1.0367,4.6036,43.971,6.631,4.4405,6.396,1.6969,5.2427,35725,2.4083,1.7835,0.16424,1
15.273,14.736,79.496,-0.0014238,79.498,0.037304,1.1014,0.0008096,0.21448,1.3227,15.273,450.19,21.218,11.547,16.041,1.8393,6.8855,1.6905e+07,81.5,33.624,2.5257,1
13.066,13.719,67.4,-0.0051988,67.405,-0.038981,0.69208,-0.00010192,0.12493,1.1634,13.066,358.74,18.94,11.231,16.28,1.7984,6.0551,9.1499e+06,4.2179,5.5913,8.0677,1
3.6025,4.4026,20.254,0.060391,20.194,-0.00066609,0.15214,0.000499,0.039855,1.01,3.6025,32.341,5.6869,3.5668,5.6307,2.2587,7.6394,40966,0.26512,0.23572,0.13703,1
6.8996,8.033,33.628,0.024991,33.603,6.3863e-05,0.27769,-0.00022073,0.055707,1.0312,6.8996,112.07,10.586,6.6906,10.266,1.5396,4.5914,4.1836e+05,0.63088,0.54762,1.2247,1
16.034,19.334,111.18,-0.89123,112.07,0.012181,1.1362,-0.00039177,0.28163,1.3859,16.04,630.51,25.11,11.574,18.118,3.0784,13.44,1.5728e+08,4.1508,12.431,34.102,1
17.546,16.374,77.401,0.019824,77.382,-0.001041,1.0673,-0.0012609,0.25626,1.356,17.546,575.71,23.994,12.94,17.695,1.6254,5.1766,1.6921e+07,25.98,25.229,51.427,1
13.874,16.192,82.505,-0.2219,82.727,-0.010561,0.76804,0.0010256,0.12157,1.1853,13.876,454.41,21.317,11.707,17.985,2.2153,8.0797,3.138e+07,25.713,57.119,47.845,1
27.166,21.899,97.905,0.049701,97.855,0.0058624,1.1786,-0.0078747,0.23514,1.3913,27.166,1217.1,34.887,19.526,25.076,0.95626,3.238,3.4688e+07,554.38,384.34,251.21,1
30.347,28.052,139.1,-0.63263,139.73,-0.045281,1.4439,-0.0017084,0.22839,1.5143,30.35,1707.1,41.317,20.042,27.283,1.5985,5.7756,3.1777e+08,227.8,482.62,585.74,1
24.3,34.91,171.91,-0.00044529,171.91,0.0047992,1.2545,-0.0040922,0.33224,1.4355,24.3,1808,42.52,16.929,29.621,2.8416,10.675,2.0793e+09,5.3588,2.9687,2.7297,1
18.184,18.782,84.365,-2.7594,87.124,0.018425,0.75251,4.326e-05,0.20715,1.2013,18.232,683.04,26.135,15.177,21.756,1.4944,4.7507,3.0281e+07,314.31,769.58,1197.2,1
8.4468,7.11,32.096,0.0029066,32.093,0.0016176,0.37779,0.00017961,0.086505,1.0597,8.4468,121.85,11.039,7.9706,10.416,1.7014,5.8641,3.1037e+05,19.523,18.714,9.4081,1
12.054,8.0627,36.982,0.0025695,36.98,0.01113,0.4323,0.00064975,0.10791,1.0794,12.054,210.25,14.5,11.168,13.434,0.78499,3.1822,2.0305e+05,36.477,3.8417,3.1338,1
1.7635,0.81059,4.0123,0.049671,3.9627,2.1265e-05,0.080699,-7.6024e-05,0.034766,1.0022,1.7635,3.7663,1.9407,1.7596,1.9364,0.5067,2.9128,1.2655,0.50573,0.83306,0.86283,1
1.6464,0.91844,3.863,-0.019585,3.8826,-0.0011337,0.079438,-4.2664e-06,0.033126,1.0021,1.6465,3.5535,1.8851,1.643,1.8811,0.30913,2.3138,1.1126,0.14273,0.23378,0.27876,1
6.0403,8.2549,36.947,-0.044337,36.991,0.0038621,0.25892,-0.0004793,0.044958,1.0302,6.0405,104.56,10.225,5.8634,9.9256,2.2452,7.4985,9.3539e+05,46.325,50.827,49.331,1
1.4502,0.9825,4.4425,-0.012088,4.4546,8.7566e-05,0.077641,-0.00022045,0.029345,1.002,1.4503,3.0675,1.7514,1.4474,1.748,1.0896,3.5411,6.9584,0.14645,0.21999,0.48184,1
16.906,20.352,80.986,-3.7031e-06,80.986,-0.0066294,0.77715,0.00033435,0.1022,1.1946,16.906,699.58,26.45,14.152,22.141,1.4413,3.9787,3.4045e+07,6.1733,3.6616,3.9784,1
6.3921,5.3773,24.81,-0.0068033,24.816,-0.0032709,0.29975,-6.625e-05,0.09965,1.0405,6.3921,69.745,8.3513,6.1432,8.0261,1.4307,4.8385,59561,4.422,4.8155,6.7626,1
6.988,4.9764,22.119,-0.084325,22.203,0.0072021,0.36833,-8.0432e-05,0.079197,1.0581,6.9885,73.573,8.5774,6.6049,8.1066,0.89646,3.3545,19933,1.2466,0.1854,1.2564,1
13.438,10.695,44.334,-0.13456,44.469,-0.0070282,0.58547,-0.00017182,0.095351,1.133,13.439,294.86,17.172,11.861,15.155,0.76051,2.5994,6.2327e+05,2.0151,4.8138,6.9659,1
2.6316,2.8577,14.979,-0.018459,14.997,0.0091658,0.19578,-0.00027693,0.070045,1.0173,2.6317,15.083,3.8837,2.5869,3.8178,2.6455,10.036,7132.3,6.187,1.5629,0.084642,1
8.561,6.5768,36.117,-0.15289,36.27,-0.012367,0.3449,0.0012654,0.070925,1.0509,8.5627,116.5,10.794,8.1482,10.271,1.6479,6.5782,2.7243e+05,11.426,12.345,13.405,1
2.9769,1.8701,9.5862,0.0015832,9.5846,-0.0017044,0.11183,0.00037558,0.03678,1.0051,2.9769,12.356,3.5151,2.9617,3.4972,1.2782,4.8644,280.15,1.6225,0.2401,0.028933,1
17.886,10.882,48.916,-0.49463,49.411,0.004646,0.84269,0.0019513,0.18039,1.2633,17.892,438.19,20.933,14.163,16.57,0.40052,2.7629,4.8607e+05,73.937,77.298,76.756,1
14.234,10.065,49.578,3.4106e-13,49.578,-0.0034528,0.77769,0.00040399,0.15294,1.1933,14.234,303.79,17.43,11.928,14.606,1.3446,4.8827,1.3328e+06,24.087,20.84,5.269,1
8.1521,4.1963,21.564,-2.2737e-13,21.564,0.0027126,0.63843,-0.00044534,0.33216,1.1542,8.1521,84.048,9.1678,7.063,7.943,1.0095,4.1917,11216,11.654,10.341,7.5472,1
2.2311,1.2306,5.5592,-0.093067,5.6523,-8.3055e-05,0.18122,-0.00043578,0.081957,1.0149,2.2314,6.4907,2.5477,2.1985,2.5102,0.39388,2.2782,6.2435,0.76288,0.80754,1.4344,1
2.0771,1.037,6.3404,0.0016061,6.3388,0.00046009,0.19142,0.00013773,0.09051,1.0168,2.0771,5.3887,2.3214,2.0429,2.2831,1.0336,4.1822,12.061,0.83573,1.2462,0.89136,1
49.881,37.418,168.32,-0.43835,168.76,-0.02436,3.21,0.0015329,1.1225,2.327,49.883,3886.8,62.344,21.436,26.791,0.99971,3.4729,5.5352e+08,103.87,174.68,153.67,1
37.816,29.763,123.27,0.018082,123.26,-0.0055458,3.2226,0.00071934,1.1987,2.6548,37.816,2315,48.114,14.244,18.123,0.92059,2.7708,1.1663e+08,8.5859,20.548,22.789,1
5.5586,9.2769,43.233,-0.05122,43.284,-0.002556,0.29943,1.7501e-05,0.046616,1.033,5.5588,116.87,10.811,5.3814,10.466,2.7981,10.004,2.4624e+06,0.65755,0.53978,0.69036,1
3.0716,3.1449,15.87,-0.038022,15.908,0.0002547,0.13104,-0.00017632,0.042635,1.0074,3.0717,19.315,4.3949,3.0492,4.3627,2.6014,9.7301,10754,0.58184,0.77248,0.84322,1
15.028,11.846,58.267,-0.75402,59.021,0.0032897,0.87575,-0.0031748,0.33533,1.2422,15.031,366.04,19.132,12.1,15.401,0.98657,3.7619,2.1995e+06,2.2445,1.6868,0.9101,1
12.264,12.757,51.032,-0.26733,51.3,0.023611,0.89113,0.0004905,0.39565,1.262,12.265,312.98,17.691,9.7186,14.018,1.4674,4.2444,3.4829e+06,254.3,379.95,475.54,1
4.6546,3.0399,16.072,1.1369e-13,16.072,0.0034779,0.32613,-0.0014305,0.12612,1.0473,4.6546,30.897,5.5585,4.4445,5.3076,1.2957,4.5191,2984.9,4.4236,2.1093,1.7737,1
6.5449,5.1925,27.289,-0.0069543,27.296,0.0051817,0.59299,0.00016735,0.24686,1.1001,6.5449,69.771,8.3529,5.9495,7.593,1.349,4.4248,43981,13.89,1.7022,1.4223,1
10.912,17.063,81.021,-0.45706,81.478,0.00023315,0.54725,7.4757e-05,0.057416,1.096,10.923,409.93,20.247,9.9663,18.473,2.456,8.7486,4.4617e+07,0.2581,0.064177,0.27085,1
8.2603,12.983,60.011,2.1896e-06,60.011,-0.0017303,0.60417,-0.00024007,0.08155,1.1114,8.2603,236.62,15.382,7.4326,13.841,2.3691,7.8888,9.7098e+06,0.54661,0.46837,0.511,1
13.664,17.649,80.619,-0.64071,81.259,0.0095314,0.55701,-0.00060631,0.092512,1.116,13.676,497.87,22.313,12.255,19.994,2.1902,7.624,4.3742e+07,152.47,197.3,221.74,1
16.17,16.66,64.955,0.1674,64.788,-0.018835,0.71168,0.00049738,0.12933,1.1836,16.17,538.76,23.211,13.662,19.61,1.2247,3.3298,9.1142e+06,2.9295,1.5981,1.6586,1
61.661,35.944,167.8,1.7079,166.09,0.02904,5.1604,-0.0040217,2.1068,3.6072,61.661,5092.8,71.364,17.094,19.784,0.57279,2.6695,2.3147e+08,462.64,162.76,318.1,1
39.26,41.727,301.65,-0.053195,301.71,0.04282,5.826,-0.0042511,2.7672,3.9458,39.26,3280.8,57.278,9.9498,14.516,3.6088,18.644,1.2305e+10,106.35,453.66,434.54,1
21.229,10.009,49.847,0.36492,49.482,-0.038904,3.4885,0.0072993,2.0449,3.0256,21.229,550.73,23.468,7.0163,7.7563,0.16731,2.5342,1.6434e+05,93.523,61.124,27.604,1
4.8197,5.4878,27.559,0.00097525,27.558,-0.020242,0.20656,-0.0015138,0.061475,1.0188,4.8197,53.316,7.3018,4.7307,7.1669,1.9254,6.2887,1.0143e+05,1.0074,0.58419,0.18192,1
1.9863,1.0703,4.9904,-6.6102e-05,4.9904,-0.00056168,0.086816,8.7475e-05,0.032918,1.0027,1.9863,5.0896,2.256,1.9809,2.2499,0.47289,2.6842,4.3024,0.43007,0.82299,1.0963,1
18.55,18.843,70.063,-0.067106,70.13,0.034498,0.76675,-0.00049285,0.11039,1.1809,18.551,698.83,26.435,15.709,22.387,1.2135,3.1138,1.472e+07,496.65,545.62,620.43,1
9.3531,8.092,33.775,-0.17485,33.95,0.003773,0.56202,-0.0035486,0.15222,1.1181,9.3541,152.89,12.365,8.3659,11.059,1.2984,3.8862,3.1503e+05,3.8522,4.9908,3.8786,1
8.1557,7.5764,31.908,0.080356,31.828,-0.0022169,0.46344,0.00012326,0.15651,1.0886,8.1557,123.86,11.129,7.492,10.224,1.2531,3.6006,1.9983e+05,6.2258,7.6773,3.398,1
50.185,40.94,187.59,4.5475e-13,187.59,0.054405,3.4654,-0.010396,0.78764,2.7704,50.185,4192.9,64.753,18.115,23.373,1.1429,3.7969,1.0626e+09,453.23,416.77,10.731,1
5.939,7.1485,45.037,0.0019261,45.035,-0.0038662,0.6809,-0.0014802,0.24662,1.1409,5.939,86.321,9.2909,5.2056,8.1435,3.038,14.147,1.2497e+06,3.3724,1.6623,1.8906,1
4.7881,3.3447,15.208,0.029866,15.178,0.00078532,0.31287,-0.00082134,0.11023,1.0437,4.7881,34.102,5.8397,4.5874,5.5949,1.2675,4.5113,4593.2,1.906,1.9913,1.9568,1
6.9288,6.7497,33.459,0.0014261,33.457,-0.0081164,0.49903,0.0041286,0.21104,1.0983,6.9288,93.52,9.6706,6.3084,8.8047,1.4401,4.6495,1.8201e+05,3.0591,7.6499,4.0299,1
5.9387,4.5415,23.738,-0.023338,23.761,-0.0022905,0.3887,-0.00021244,0.15132,1.066,5.9388,55.872,7.4748,5.5711,7.012,1.1085,4.3645,22648,5.5553,2.3523,4.7029,1
15.878,12.752,51.897,0.35909,51.538,-0.02562,0.8298,0.0008564,0.16317,1.2253,15.878,414.56,20.361,12.958,16.617,1.1083,3.237,2.2169e+06,18.683,16.695,12.086,1
33.029,33.89,149.75,-0.16229,149.91,0.031691,1.5467,0.0028735,0.25608,1.511,33.029,2238.3,47.31,21.86,31.311,1.6924,5.3486,6.6391e+08,55.767,127.96,195.35,1
1.3711,1.7237,8.4204,0.0087966,8.4116,-0.0004307,0.068373,0.00031538,0.022295,1.0013,1.3711,4.848,2.2018,1.3693,2.1989,2.5759,9.2671,500.59,0.076003,0.038631,0.012421,1
14.547,21.029,105.67,-0.17618,105.84,0.020619,0.97572,-0.00097297,0.1762,1.2105,14.549,653.38,25.561,12.019,21.116,2.6162,9.7985,1.5149e+08,28.974,0.90318,1.7708,1
6.8749,7.3022,33.19,0.20774,32.983,-0.019101,0.28949,-0.00021872,0.060474,1.0333,6.8749,100.53,10.027,6.653,9.703,1.7209,5.1958,3.0386e+05,0.12775,0.23653,0.62657,1
15.156,19.133,168.83,-0.41804,169.25,0.1588,1.3101,0.0027682,0.31266,1.3903,15.158,595.41,24.401,10.903,17.551,4.2426,27.722,4.8863e+08,1700,505.65,8.2451,1
14.231,21.324,97.397,0.17025,97.227,-0.013185,0.80272,-0.0017751,0.25018,1.1988,14.231,656.78,25.628,11.871,21.378,2.6566,9.3683,1.4377e+08,4.1001,8.7916,12.303,1
17.188,10.447,55.321,0.16252,55.159,-0.0099142,1.3265,0.0035145,0.61004,1.5237,17.188,404.45,20.111,11.28,13.199,1.0124,4.405,1.3509e+06,4.9814,11.801,22.092,1
20.281,18.106,81.742,-0.016154,81.758,0.00040537,1.5067,-0.0016528,0.50329,1.554,20.281,738.8,27.181,13.051,17.491,1.3026,4.355,2.2073e+07,33.223,37.141,68.873,1
13.443,12.014,58.157,-0.96525,59.122,-0.0031881,0.91651,-0.0010715,0.32826,1.2846,13.448,324.9,18.025,10.469,14.032,1.1879,3.743,2.3318e+06,1.1557,0.14719,0.66045,1
4.9176,9.8297,54.537,0.025995,54.511,-0.0027594,0.47362,-0.00017971,0.086875,1.0594,4.9176,120.71,10.987,4.6417,10.37,3.5127,14.972,6.0262e+06,0.081984,0.12294,0.043196,1
1.5652,1.1483,5.7266,-0.068753,5.7953,-0.0003136,0.082531,-6.159e-06,0.033923,1.0024,1.5658,3.7671,1.9409,1.5621,1.9363,1.3118,4.8459,26.604,0.19499,0.20258,0.17109,1
10.311,9.552,59.983,-0.096543,60.079,0.0027698,1.0632,0.0001807,0.38129,1.3123,10.311,197.47,14.052,7.8576,10.708,2.2379,8.7812,2.7055e+06,15.401,12.164,8.0457,1
21.267,16.604,81.173,0.11927,81.054,-0.0092005,2.0882,0.00082802,0.77638,1.8184,21.267,727.68,26.976,11.695,14.835,1.1678,3.7456,1.1083e+07,9.4696,19.281,24.674,1
15.161,13.792,57.421,-0.052972,57.474,0.025046,1.3295,-0.0025974,0.51404,1.4893,15.161,419.86,20.491,10.18,13.759,1.5512,4.5319,5.6332e+06,89.527,12.506,21.077,1
23.254,21.28,98.674,-0.15682,98.831,-0.017233,1.5438,0.0011142,0.55685,1.604,23.254,993.14,31.514,14.497,19.647,1.4089,4.6276,5.3306e+07,10.667,11.748,0.61861,1
24.249,21.531,115.07,1.0473e-05,115.07,0.069896,1.2494,-0.0010903,0.21009,1.3923,24.249,1051.2,32.422,17.417,23.287,1.638,6.2577,9.5781e+07,487.31,8.083,1.7094,1
19.941,23.178,132.41,-0.018497,132.43,0.022354,1.4079,-0.00019031,0.25716,1.5282,19.941,934.33,30.567,13.049,20.001,2.4332,9.8574,2.6565e+08,154,289.81,228.84,1
14.117,12.067,62.037,0.002437,62.035,0.019694,1.0058,-0.00056001,0.19889,1.3116,14.117,344.76,18.568,10.763,14.156,1.6541,5.8212,4.5814e+06,552.8,227.79,15.91,1
35.275,19.061,73.718,0,73.718,0.0010995,10.164,0.019028,5.7416,9.0583,35.275,1607.3,40.091,3.8942,4.4258,0.12768,1.7727,1.165e+06,603.93,594.28,569.18,1
35.455,18.097,69.413,2.499,66.914,0.028521,9.9329,-0.021148,5.5398,8.9546,35.455,1584.2,39.802,3.9594,4.4449,0.0051943,1.682,1.367e+05,402.33,415.96,423.07,1
2.7484,4.2452,16.98,0.0032882,16.976,-0.0047155,0.16374,0.00049674,0.055859,1.0114,2.7484,25.557,5.0554,2.7175,4.9985,2.2416,6.6966,26737,0.093212,0.097597,0.033672,1
6.5178,11.549,46.439,-0.002992,46.442,0.027122,0.36302,0.0006805,0.067472,1.0532,6.5178,175.73,13.256,6.1886,12.587,2.1148,6.4753,3.9988e+06,16.601,4.0246,0.8515,1
12.531,8.2601,38.068,-0.47436,38.543,0.0032321,0.97186,-0.009782,0.43218,1.2697,12.534,225.19,15.006,9.8714,11.819,0.83618,3.0638,2.2332e+05,6.0394,7.6456,10.251,1
7.7679,4.8013,26.484,-0.0005855,26.484,0.00018149,0.64288,9.9594e-05,0.27356,1.1646,7.7679,83.369,9.1307,6.6701,7.8403,0.95558,4.1372,25853,9.0298,18.369,7.0065,1
13.055,6.6764,36.246,5.6843e-14,36.246,0.015548,1.6042,-0.00039033,0.82767,1.7433,13.055,214.96,14.662,7.4887,8.4103,0.8423,3.7279,97723,74.276,88.688,76.04,1
10.397,8.8342,45.157,-1.1369e-13,45.157,0.0063035,0.72345,0.0030736,0.32473,1.1934,10.397,186.06,13.64,8.7119,11.43,1.5492,5.9653,1.0388e+06,64.509,89.25,154.93,1
